sector,technology,data_name,bld_emission-factor_CO2[g/kWh],bld_emission-factor_CH4[g/kWh],bld_emission-factor_N2O[g/kWh]
non-residential,solid-ff,bld_emission-factor-combustion_solid-ff[g/kWh],340.56,0.050399981,0.002520001
non-residential,solid-biomass,bld_emission-factor-combustion_solid-biomass[g/kWh],0.0,0.116381735,0.002997556
non-residential,liquid-ff,bld_emission-factor-combustion_liquid-ff[g/kWh],264.5082921,0.024537824,0.002408261
non-residential,gas-ff,bld_emission-factor-combustion_gas-ff[g/kWh],201.9636354,0.018969388,0.002404459
non-residential,all-elec,bld_emission-factor-combustion_all-elec[g/kWh],0.0,0.0,0.0
non-residential,elec,bld_emission-factor-combustion_elec[g/kWh],0.0,0.0,0.0
non-residential,ambiant,bld_emission-factor-combustion_ambiant[g/kWh],0.0,0.0,0.0
non-residential,hydrogen,bld_emission-factor-combustion_hydrogen[g/kWh],0.0,0.0,0.0
residential,solid-ff,bld_emission-factor-combustion_solid-ff[g/kWh],340.56,0.879628657,0.003426637
residential,solid-biomass,bld_emission-factor-combustion_solid-biomass[g/kWh],0.0,1.393430833,0.007825504
residential,liquid-ff,bld_emission-factor-combustion_liquid-ff[g/kWh],265.2354498,0.018727749,0.000983098
residential,gas-ff,bld_emission-factor-combustion_gas-ff[g/kWh],201.9636354,0.018969388,0.002404459
residential,all-elec,bld_emission-factor-combustion_all-elec[g/kWh],0.0,0.0,0.0
residential,elec,bld_emission-factor-combustion_elec[g/kWh],0.0,0.0,0.0
residential,ambiant,bld_emission-factor-combustion_ambiant[g/kWh],0.0,0.0,0.0
residential,hydrogen,bld_emission-factor-combustion_hydrogen[g/kWh],0.0,0.0,0.0
