Country,Years,cal_ref_energy-demand_fossil_oil[TWh],cal_ref_gross-production_fossil_oil[TWh],cal_ref_net-production_fossil_oil[TWh],cal_elc_energy-demand_electricity[TWh],cal_elc_calibration_energycarrier_fossil_gas[TWh],cal_elc_calibration_energycarrier_fossil_coal[TWh],cal_elc_calibration_energycarrier_fossil_oil[TWh],cal_elc_calibration_energycarrier_fossil_waste[TWh],cal_ref_calibration_emissions-CO2[Gt],cal_ref_calibration_emissions-CH4[Gt],cal_ref_calibration_emissions-N2O[Gt],cal_elc_calibration_emissions-CO2[Gt],cal_elc_calibration_emissions-CH4[Gt],cal_elc_calibration_emissions-N2O[Gt]
Austria,2000,130.11499999999944,102.95722222222189,95.93292992434368,51.541111111111036,23.013921045224336,13.886495756588495,3.233333333333327,0.9124999999999998,0.002199,6e-08,1e-08,0.009780559999999999,3e-07,1.4e-07
Austria,2001,137.8731154852,109.14289800000002,102.79640700000002,53.614091706700016,23.875274217799998,16.8897470492,3.758881128,0.9071444193999999,0.00221889,6e-08,1e-08,0.01129182,3.6e-07,1.7000000000000001e-07
Austria,2002,142.83587873809998,110.62850024399997,102.81430324399997,53.85376763129999,24.836109695199994,16.0718713697,2.4249353632999995,1.2549034001,0.00256508,7e-08,1e-08,0.01059062,3.7e-07,1.8e-07
Austria,2003,152.25707599260002,105.4697107825,98.6231297825,55.6167817772,28.273677299499997,20.142536980899997,3.6132830646,1.3239186112999999,0.00268715,8e-08,1e-08,0.01310728,4.3e-07,2.1e-07
Austria,2004,155.3599151008,104.22194727200001,96.13793427200001,56.7778651532,28.814339019699997,19.725524374,3.3668895356999995,1.6840093462,0.0028435500000000002,8e-08,1e-08,0.01280766,4.6999999999999995e-07,2.2e-07
Austria,2005,156.69305555555562,107.98507163684674,100.86979385906898,57.41611111111114,33.18467715697879,17.5266426284579,3.047495820286727,1.6219422199119722,0.00282692,7e-08,1e-08,0.012974280000000001,5e-07,2.2e-07
Austria,2006,153.50732204289994,105.57218957419998,97.66727857419998,60.2548189155,28.4444892029,17.32811245240002,2.9354228159,2.0839386461,0.00282998,7e-08,1e-08,0.011947389999999999,6e-07,2.6e-07
Austria,2007,148.9666313773,104.867120359,95.684072359,61.2530023934,27.13259229,15.441150883700024,2.0035722060000003,2.0373916645000003,0.00286763,7e-08,1e-08,0.01062577,6.5e-07,2.8e-07
Austria,2008,144.2485637896,107.46992436079996,98.63228736079996,60.6669472713,28.420373583799993,13.5118121536,1.8922119322000004,2.214364793,0.0028060700000000004,7e-08,1e-08,0.010539090000000001,7.2e-07,3e-07
Austria,2009,135.0461222994,102.73942046520001,95.81840746520001,57.7032904207,29.260492685000003,9.339996013,1.7467618024,3.2050813457,0.0028092300000000002,8e-08,1e-08,0.009452760000000001,7.8e-07,3e-07
Austria,2010,139.66083333333341,93.61406843021992,86.97434620799768,60.31694444444431,33.43304523502306,11.800186459907906,2.045936324640884,3.572776072738194,0.00272448,7e-08,1e-08,0.01088952,9.200000000000001e-07,3.6e-07
Austria,2011,131.99928231179786,102.85725109003091,96.08464339344191,60.193108385491506,30.26613907526794,12.963611111111124,1.0694472929692205,3.937222222222225,0.00276808,7e-08,1e-08,0.01057413,9.200000000000001e-07,3.7e-07
Austria,2012,131.5634955159914,102.33927168232681,95.71993131883401,61.08744623047819,25.984426244258945,10.602777777777765,0.4131244633308617,4.101386526522856,0.00283613,8e-08,1e-08,0.00914871,9.399999999999999e-07,3.7e-07
Austria,2013,133.73877447850094,104.19361111111094,97.82944444444428,61.01105881602246,21.10928403899519,10.235833333333371,0.3013934385658719,4.028063843982192,0.00282664,8e-08,1e-08,0.00814777,9.000000000000001e-07,3.6e-07
Austria,2014,132.06916666666632,103.73488990525554,97.78350101636667,60.67833333333331,18.58862021178182,7.211730941197783,0.14638949910583457,4.258891121382587,0.00271319,8e-08,1e-08,0.00653893,8.6e-07,3.3e-07
Austria,2015,133.0652777777777,106.54500000000006,101.17147445321987,60.81305555555556,23.396564910864228,7.264989644609832,0.579924932822376,4.490540145243934,0.00280405,8e-08,1e-08,0.00754518,9.100000000000001e-07,3.5e-07
Belgium,2000,323.64902979074714,446.5367785593319,428.1465007815541,77.54198621995312,44.08025615389188,30.167207553750917,1.876665754158675,3.63388712195143,0.00460675,0.0,5.3e-07,0.023377,1.13e-06,1.9e-07
Belgium,2001,321.69078833960003,466.30252423260004,447.80730929770004,78.1420707158,39.887315517699996,26.00468,4.0123921006,4.336208632899999,0.00464299,0.0,5.2e-07,0.0212983,1.16e-06,1.8e-07
Belgium,2002,326.9015228472,534.6169532680001,516.1591169205001,78.44657074850001,43.175212,26.237736710100002,2.2608768846,3.940244,0.00475965,0.0,5.1e-07,0.02266384,1.4499999999999999e-06,2.0000000000000002e-07
Belgium,2003,352.3930471237,529.4150451163,510.4303604648,79.731609572,51.266203000000004,25.1224176167,2.727235,4.6833483161,0.00519025,0.0,5.5e-07,0.02337053,1.6000000000000001e-06,2.1e-07
Belgium,2004,356.4141430000001,505.0111319233999,486.8515854211999,80.61334499999998,51.89189699999999,20.6215505134,4.4484851181,4.688616822399999,0.00480083,0.0,5.2e-07,0.02423358,1.38e-06,2.2e-07
Belgium,2005,356.37388888888887,433.6080555555551,416.953873011522,80.33527777777779,53.63441783520212,20.96092354923195,4.778608740121454,4.242775672650989,0.00435323,0.0,2.0000000000000002e-07,0.024473,1.35e-06,2.9e-07
Belgium,2006,346.2268424066,428.22823,410.9371987559,82.81587382569998,54.393623159899995,18.2847236812,3.740215792099999,5.309141171099999,0.0045216300000000004,0.0,1.6e-07,0.023186540000000002,1.26e-06,3.1e-07
Belgium,2007,349.6566872256999,448.86403342730006,431.37009310800005,82.91477627609999,56.7613831172,15.7830745119,2.1364256501999996,6.1987905815,0.00458192,0.0,1.4e-07,0.02244709,1.21e-06,3.4000000000000003e-07
Belgium,2008,381.41692408600005,442.050485,424.6268711744,82.81043773109998,55.775999849899996,13.464395364300001,0.852479,6.2708960000000005,0.00464291,0.0,1.5e-07,0.02041827,1.08e-06,3.2e-07
Belgium,2009,339.35006434420006,404.0369002977999,388.1886992977999,77.3338708474,60.6717385987,12.016116,0.6733789771,6.987303999999999,0.00476235,0.0,3e-07,0.02077081,1.0700000000000001e-06,3.3e-07
Belgium,2010,357.1451425444376,409.9829977572478,394.1151633220269,83.36143309559915,68.54531318445616,10.60715155325706,0.6527785563759854,6.9972258360213795,0.00470969,0.0,2.4e-07,0.02137137,1.0900000000000002e-06,3.4000000000000003e-07
Belgium,2011,327.8281904890676,382.1661111111109,368.459722222222,80.1116207690805,56.28444444444436,8.937500000000005,0.42166636063965157,6.948888888888889,0.00426728,0.0,2.3000000000000002e-07,0.018410939999999997,1.08e-06,3.3e-07
Belgium,2012,309.9601387427306,406.8022222222221,392.26055555555547,81.16439735929158,51.51419440351319,8.734726925589595,0.3052779421600546,6.58472576788362,0.00461471,0.0,2.2e-07,0.01796955,1.1100000000000002e-06,3.4000000000000003e-07
Belgium,2013,323.6433333333339,375.636832267445,362.06016560077836,82.73111111111118,45.88138889109747,7.580833333333382,0.15999999999999995,5.666944444444454,0.00439784,0.0,2.4e-07,0.01656241,1.02e-06,3.5e-07
Belgium,2014,319.18486745693986,412.9547222222217,398.3268339209753,80.78699016833984,42.2905789368761,5.63805867312487,0.1147223627833219,5.785558754685171,0.004753479999999999,0.0,2.6e-07,0.015442129999999998,9.300000000000001e-07,2.7e-07
Belgium,2015,336.0337430678097,412.46861111111133,397.9575000000002,82.49106628256683,47.34111111111101,5.523888888888885,0.10444444444444434,5.8555555555555525,0.0046818400000000005,0.0,2.3000000000000002e-07,0.016261770000000002,1.01e-06,3.2e-07
Bulgaria,2000,43.57861111111107,61.6900755655284,59.73729778775063,24.25111111111112,10.03649578770348,57.31580437246227,1.9735923349037536,0.03833333333333329,0.0006896000000000001,2e-08,0.0,0.0230675,2.5e-07,3e-07
Bulgaria,2001,44.715024,65.4117722326,63.3939629295,24.592798,9.234914659900001,67.88617580089999,2.2791615705999995,0.003489,0.0007042999999999999,2e-08,0.0,0.02696118,2.9e-07,3.6e-07
Bulgaria,2002,43.87301199999999,59.82588299999999,57.48100832409999,24.081077999999998,8.506145830700001,61.3263289619,2.2962002184,0.05815,0.00073397,2e-08,0.0,0.02426364,2.6e-07,3.2e-07
Bulgaria,2003,48.91908280369999,61.61922923259999,59.72216165909999,25.135820028699996,8.8756352338,67.957116126,2.5185479082,0.0267487674,0.0006410900000000001,2e-08,0.0,0.02622648,2.8e-07,3.5e-07
Bulgaria,2004,47.3498848175,68.5515392657,66.5724120404,24.950732184000003,8.086726976800001,66.55792129299999,2.2945725998999995,0.0302382326,0.0006812000000000001,2e-08,0.0,0.02598153,2.7e-07,3.5e-07
Bulgaria,2005,51.45416666666661,74.55361111111094,72.31410323772512,25.71888888888885,7.865179094616734,67.64667762064462,2.011131217880265,0.020555555555555556,0.00070969,2e-08,0.0,0.02617465,2.8e-07,3.5e-07
Bulgaria,2006,54.65019887009999,83.7727431242,80.96756037520001,26.9453784813,8.341052514599998,71.27559939199999,1.0711587041,0.0174451163,0.00083657,2e-08,0.0,0.02635774,2.8e-07,3.6e-07
Bulgaria,2007,50.551783962600005,83.0862306207,80.3077869862,27.51406826889999,9.2631852128,81.36703191830001,1.7185356761,0.0174459304,0.0008399299999999999,2e-08,0.0,0.029699419999999997,3.1e-07,4.1e-07
Bulgaria,2008,51.9669693478,84.4414790564,81.1978881058,28.694402318699996,8.954759241,81.7264704428,1.2584371756,0.0,0.00088003,2e-08,0.0,0.031222990000000003,3.3e-07,4.2e-07
Bulgaria,2009,45.890643713,75.24296583130001,71.36166743960001,26.9117127714,7.928141343500001,73.0456424773,2.2468629672000002,0.0,0.00105349,3e-08,0.0,0.02851014,3.1e-07,3.8e-07
Bulgaria,2010,39.88666666666667,70.21433176653363,66.50210954431141,27.186944444444453,7.970368570405441,76.87877409530498,2.5452810953774634,0.0,0.00101996,2e-08,0.0,0.030479810000000003,3.4000000000000003e-07,4.1e-07
Bulgaria,2011,38.64250000000001,70.5119444444442,67.00749999999977,28.445833333333315,8.878340492868343,88.89095109145465,1.254748996820325,0.0,0.00099883,2e-08,0.0,0.03526522,3.8e-07,4.8e-07
Bulgaria,2012,39.75794360745374,75.5659396361256,71.98695309412506,27.88075333943503,9.250888328570417,76.02716403824213,1.9252940010993256,0.0,0.0010095,2e-08,0.0,0.03048223,3.3e-07,4.1e-07
Bulgaria,2013,35.72249999999997,75.52222222222234,71.99277777777789,27.532777777777728,9.132155648548654,67.45103953977988,2.0413858332234853,0.0,0.00098825,2e-08,0.0,0.02622664,2.9e-07,3.5e-07
Bulgaria,2014,40.30555555555552,71.75861111111129,68.46083333333353,27.732499999999987,8.264089681566478,71.16009341140298,2.1749967984613305,0.0,0.00091929,2e-08,0.0,0.02799064,3.2e-07,3.8e-07
Bulgaria,2015,43.51472222222222,78.39833333333328,74.22794742763135,28.348333333333336,7.212789211604065,72.41761479753585,1.9788890331697697,0.0,0.00135198,3e-08,0.0,0.02883416,3.3e-07,3.9e-07
Cyprus,2000,18.651797906393192,13.69680581431058,13.257909255480989,2.9959876365134956,0.0,0.0,10.249166666666698,0.0,0.0001042,0.0,0.0,0.0028504,1.1e-07,2e-08
Cyprus,2001,19.284805524000003,13.448932000000001,13.187257,3.1098619999999997,0.0,0.0,10.014593,0.0,5.4170000000000005e-05,0.0,0.0,0.00278311,1.1e-07,2e-08
Cyprus,2002,18.324227999999998,12.669721999999998,12.203358999999999,3.3854930000000003,0.0,0.0,10.379775,0.0,0.00010702,0.0,0.0,0.00289145,1.1e-07,2e-08
Cyprus,2003,18.7499463597,11.356695,10.890332,3.6448419999999997,0.0,0.0,12.248715999999998,0.0,0.00010702,0.0,0.0,0.00311789,1.2e-07,2e-08
Cyprus,2004,16.769784296999998,3.275586708799999,3.152308708799999,3.7501558368000003,0.0,0.0,11.773048999999999,0.0,2.566e-05,0.0,0.0,0.00325778,1.3e-07,3e-08
Cyprus,2005,19.234864985102565,0.0,0.0,3.959570105190405,0.0,0.0,12.524444444444423,0.0,0.0,0.0,0.0,0.0034718400000000003,1.4e-07,3e-08
Cyprus,2006,20.13153,0.0,0.0,4.1693549999999995,0.0,0.0,12.795322627300001,0.0,0.0,0.0,0.0,0.00365338,1.4e-07,3e-08
Cyprus,2007,20.402509,0.0,0.0,4.38451,0.0,0.0,13.4466127454,0.0,0.0,0.0,0.0,0.00380167,1.5e-07,3e-08
Cyprus,2008,21.109613000000003,0.0,0.0,4.645022,0.0,0.0,13.986237999999998,0.0,0.0,0.0,0.0,0.00396729,1.5e-07,3e-08
Cyprus,2009,19.6820256154,0.0,0.0,4.7526509046,0.0,0.0,14.164177,0.0,0.0,0.0,0.0,0.00399247,1.5e-07,3e-08
Cyprus,2010,18.784444444444425,0.0,0.0,4.872500000000005,0.0,0.0,13.697499999999977,0.0,0.0,0.0,0.0,0.003868,1.5e-07,3e-08
Cyprus,2011,18.885555555555555,0.0,0.0,4.529999999999996,0.0,0.0,13.160000000000041,0.0,0.0,0.0,0.0,0.00371004,1.4e-07,3e-08
Cyprus,2012,17.45485689693194,0.0,0.0,4.3976323950022564,0.0,0.0,12.549166666666645,0.0,0.0,0.0,0.0,0.0035459299999999997,1.4e-07,3e-08
Cyprus,2013,16.522777777777815,0.0,0.0,3.9191666666666665,0.0,0.0,10.079166666666673,0.0,0.0,0.0,0.0,0.00282973,1.1e-07,2e-08
Cyprus,2014,16.55539719613763,0.0,0.0,3.9645916361999527,0.0,0.0,10.341944444444444,0.0,0.0,0.0,0.0,0.00294032,1.1e-07,2e-08
Cyprus,2015,16.690715239248863,0.0,0.0,4.09068586537542,0.0,0.0,10.618888888888888,0.0,0.0,0.0,0.0,0.003023,1.2e-07,2e-08
Czech Republic,2000,85.06277777777797,71.52939708396342,70.0005182491826,49.381111111111196,14.372887673675207,162.17852800911845,2.356378931140101,0.179444324311935,0.0006209,2e-08,0.0,0.05585811,7.8e-07,8.5e-07
Czech Republic,2001,89.86649317389998,73.47309614929998,71.10773929889997,50.8814313117,14.699118737300003,166.47186593850003,2.4666856676999998,0.19073199999999998,0.00079858,2e-08,0.0,0.05774181,8.2e-07,8.8e-07
Czech Republic,2002,91.49321,74.4376367121,72.0452410421,50.82309999999999,14.649507250700001,162.874216734,2.5050646676999997,0.2092138145,0.00079128,2e-08,0.0,0.05596062,8.000000000000001e-07,8.5e-07
Czech Republic,2003,94.85162556879999,78.5472810824,76.0517377794,52.40692457199999,14.969902702199999,161.6005989194,2.4329655294,0.206960502,0.0007773,2e-08,0.0,0.055863760000000005,9.399999999999999e-07,8.7e-07
Czech Republic,2004,105.21276709909999,81.5864176797,79.2326401225,53.831599920900004,16.0348598251,161.15829094619997,1.9224913350000001,0.21703417539999997,0.0007707300000000001,2e-08,0.0,0.05572916000000001,1.03e-06,8.7e-07
Czech Republic,2005,109.39694444444444,94.69666666666653,91.98687413602624,55.29138888888883,15.024444444444503,163.11222222222244,1.7956610589706141,0.20000000000000023,0.0008904500000000001,2e-08,0.0,0.05620956,8.2e-07,8.5e-07
Czech Republic,2006,110.42568700000001,96.01728023260002,92.95731174670001,57.016075,14.9919287592,162.5589198745,1.1787691169999999,0.193058,0.00095914,3e-08,0.0,0.05562493,8.3e-07,8.5e-07
Czech Republic,2007,111.5623130675,91.1736041092,88.1777161092,57.2337483602,13.318349545899999,174.4007314821,0.7448482345999999,0.2148542482,0.0009434199999999999,3e-08,0.0,0.05972185,9.200000000000001e-07,9.200000000000001e-07
Czech Republic,2008,112.385342,101.44172680610001,98.2678998061,58.032536999999984,12.752089032699999,162.48976068390002,0.9024778818999997,0.22733707609999995,0.00096084,2e-08,0.0,0.05418786,9.399999999999999e-07,8.5e-07
Czech Republic,2009,106.24857955830001,90.7235393912,87.9323700944,54.905430850100004,11.7444119858,150.8382344843,1.1118206731000002,0.19182266139999993,0.00086311,2e-08,0.0,0.05076534,9.7e-07,8.100000000000001e-07
Czech Republic,2010,103.90083333333327,96.85583333333349,93.94834147541643,56.176666666666655,13.520555555555525,158.05660501088164,0.83701480136743,0.33805555555555517,0.0008611000000000001,2e-08,0.0,0.05428586,1.1e-06,8.7e-07
Czech Republic,2011,101.1624115958925,88.01050256643468,85.31411367754579,55.46800708300938,14.049617216516621,153.77911114121449,1.0839231678888734,0.4902774646059364,0.00083234,2e-08,0.0,0.05392781,1.1399999999999999e-06,8.6e-07
Czech Republic,2012,100.2191666666668,90.19711405910654,87.46074961431181,55.959722222222304,13.834819603070859,145.56540122916275,0.7925004609023469,0.5263893621027378,0.00082636,2e-08,0.0,0.05123612,1.17e-06,8.3e-07
Czech Republic,2013,97.08047191301132,82.64727346575887,80.41312596637677,55.7085631137552,15.460204355936895,136.28673034093816,0.491426710034629,0.5127777777777777,0.0007252999999999999,2e-08,0.0,0.0482504,1.1399999999999999e-06,7.8e-07
Czech Republic,2014,103.05444444444451,92.89116747217018,90.21866747217018,55.771944444444486,14.77322383519533,132.45404194811778,0.5330821471609851,0.5283338189485526,0.00080572,2e-08,0.0,0.0466312,1.16e-06,7.7e-07
Czech Republic,2015,100.67435658584579,89.11811150347295,86.35309073280466,56.811894864654256,14.979508757218467,132.65151972188585,0.5136223009076625,0.5349975938224291,0.0005704099999999999,1e-08,0.0,0.04666959,1.22e-06,7.7e-07
Germany,2000,1442.9379186646427,1388.227404152123,1305.18401384308,483.45300886897206,149.923055555556,780.3822222222238,16.414163297635156,19.55305555555564,0.0208705,6.5e-07,2.3000000000000002e-07,0.31357471000000003,1.34e-05,7.17e-06
Germany,2001,1477.764787,1367.4926159999995,1287.2753508861995,495.26703899999995,175.01518299369997,796.3123543814002,17.4099488082,26.127958,0.02111737,6.4e-07,2.2e-07,0.32861586,1.249e-05,7.49e-06
Germany,2002,1420.894087,1366.5335225802999,1283.4831994683,508.5077940000001,174.946601,800.1337182659001,10.6510095111,24.083403999999994,0.02098882,6.2e-07,2.2e-07,0.32936934999999995,1.295e-05,7.56e-06
Germany,2003,1373.3936780000001,1376.885004,1293.1352646669,514.614707,184.94731882850004,806.7789334916998,14.3363797351,10.3890835357,0.02146757,5.9e-07,2.3000000000000002e-07,0.34281271999999996,3.031e-05,8.03e-06
Germany,2004,1352.0764215844,1420.5475592874,1334.3986617882,521.2672775030001,193.39278862319998,792.3826301816,15.954038186799998,10.022734,0.02189284,6e-07,2.3000000000000002e-07,0.33869402000000004,3.034e-05,8.26e-06
Germany,2005,1329.096236766218,1453.552132689668,1364.8686678035353,522.2642171328829,207.10433801741848,764.5548005506731,16.59525779771665,15.94417938774563,0.02239987,6.2e-07,2.4e-07,0.33286905,3.334e-05,8.08e-06
Germany,2006,1336.8714743725,1427.5095483827,1341.4389177597,527.9703911718999,220.53492925949996,773.4386077317002,14.5980983476,18.1974532079,0.02152756,5.9e-07,2.3000000000000002e-07,0.33550555,3.9590000000000006e-05,8.31e-06
Germany,2007,1211.395919,1401.5561447037999,1316.8956957747998,529.3557320000002,224.31519353809998,792.1969235046001,11.903275343499999,20.2466000112,0.02167486,5.9e-07,2.3000000000000002e-07,0.34281749,4.925e-05,8.68e-06
Germany,2008,1286.1407660000004,1371.5080877246,1287.7378815686,527.5740159999999,239.04871207090002,727.9328197918999,10.6606820658,22.19619227,0.02184031,5.8e-07,2.3000000000000002e-07,0.32596079,5.523e-05,8.51e-06
Germany,2009,1211.7901760000002,1271.9028916671,1195.6508442338,497.259258,212.07518817549996,676.7112372639999,12.158177496699999,25.4078599173,0.02200008,6.3e-07,2.3000000000000002e-07,0.30453174,6.0509999999999995e-05,8.220000000000001e-06
Germany,2010,1231.5790485809405,1198.1405555555555,1125.26666743936,532.423558697973,232.06975828888906,694.156641458021,9.94699076637128,28.310833333333406,0.02072969,5.9e-07,2.1e-07,0.31499282,7.218e-05,8.47e-06
Germany,2011,1191.6319444444425,1178.2516666666638,1109.3905651227549,525.5455555555552,217.0813409219344,687.3485230833192,6.98550848912805,27.574998363109373,0.02001817,5.8e-07,2.1e-07,0.31227522999999996,7.937999999999999e-05,8.64e-06
Germany,2012,1192.95900865381,1189.9778625399854,1123.7295284208274,525.8328318977445,197.87148470000818,741.5667476201539,9.8394364173586,28.865800677623845,0.01932473,5.6e-07,2.0000000000000002e-07,0.32873636,8.868999999999999e-05,8.740000000000001e-06
Germany,2013,1220.6877384166212,1156.8201670226342,1091.672764234027,523.2006600122193,180.89638888888905,762.3236223798975,8.802696181117076,29.976111111111134,0.01914169,5.6e-07,2.0000000000000002e-07,0.33213191,9.616e-05,8.560000000000001e-06
Germany,2014,1210.029877042274,1150.2640820775355,1089.2119014220698,512.8355022693332,164.24178000971258,724.221669295391,6.70857763735224,32.57413744187579,0.01875233,5.8e-07,1.9e-07,0.31439522,0.00010009,8.25e-06
Germany,2015,1202.723333333333,1163.2986960986823,1101.9011955622466,514.7313888888909,165.78001308029823,708.3859636129274,6.305605472178582,30.96805907222935,0.018780810000000002,5.4e-07,1.9e-07,0.30280119,0.00010494,8.050000000000001e-06
Denmark,2000,100.21264213444677,98.08305555555543,93.95416666666655,32.45717060868868,24.562257428156915,42.667778456042406,15.749691290359486,2.6136461591173403,0.00100003,2e-08,1e-08,0.02310922,1.463e-05,3.2e-07
Denmark,2001,98.79684999999998,96.000998,91.82931699999999,32.56981499999999,25.4520650821,45.684964837,15.131587846799999,2.8108480708999997,0.00102093,2e-08,1e-08,0.02440641,1.552e-05,3.4000000000000003e-07
Denmark,2002,94.7152809149,94.05878799999999,90.0344820111,32.5200219691,26.3744899259,46.2336304395,13.620853521699999,3.0160446508,0.00098245,2e-08,1e-08,0.02456205,1.508e-05,3.5e-07
Denmark,2003,96.34873499999999,97.31984000000001,93.09698700000001,32.374430999999994,25.909361566699996,63.928947000000015,6.5116369999999995,3.241281,0.0010250699999999999,2e-08,1e-08,0.02926283,1.434e-05,3.9e-07
Denmark,2004,96.53654089199998,94.87288799999999,90.71316089549998,32.970098433400004,25.978793364500003,47.93624569230002,4.5355942833,3.3967261844,0.00100023,2e-08,1e-08,0.02335572,1.402e-05,3.4000000000000003e-07
Denmark,2005,94.06124262349186,89.48888888888868,85.472222222222,33.469218341894646,23.216738801382956,40.055402324804106,4.018622302242718,3.886123185347555,0.0009384500000000001,2e-08,0.0,0.020194959999999998,1.2369999999999998e-05,3.1e-07
Denmark,2006,99.13588996969997,93.26911100000001,89.116038,33.8012171939,24.000105636899995,61.584692900899974,4.6021077651999995,4.0996700171,0.0009810700000000001,2e-08,0.0,0.02800033,1.146e-05,3.8e-07
Denmark,2007,99.8057248206,91.01986900000001,86.88307800000001,33.479492666,18.7590740489,51.12748989659998,3.5948517242999998,4.1668701342,0.00099326,2e-08,0.0,0.02337816,9.539999999999998e-06,3.3e-07
Denmark,2008,93.5011696235,87.41108,83.680176,33.119697798299995,19.0916841405,45.10666145879999,3.1492952595,4.2565524369,0.00088452,2e-08,0.0,0.02135614,1.005e-05,3.2e-07
Denmark,2009,82.044998,89.913856,86.035251,31.445194,17.6918693122,45.32211476830002,3.6539794584000003,4.2345405685,0.00090739,2e-08,0.0,0.02137688,8.779999999999999e-06,3.2e-07
Denmark,2010,88.96861111111124,83.37777777777748,79.90437613897053,32.1119444444445,21.07410079442547,43.84305462492902,2.566099304181489,4.081656194743057,0.00085381,2e-08,0.0,0.02128327,1.0949999999999998e-05,3.4000000000000003e-07
Denmark,2011,84.7433333333333,78.40666666666688,74.4488888888891,31.67083333333328,15.65603925568146,36.135832617315,1.4374902610580131,4.090819401778499,0.00083493,2e-08,0.0,0.01741258,9.16e-06,3e-07
Denmark,2012,80.62098917686231,88.70427681790511,84.52427681790512,31.180782385674533,11.818121219735469,28.136111111111088,1.3001184075780836,4.0352777777777735,0.0009264299999999999,2e-08,0.0,0.01421461,6.33e-06,2.8e-07
Denmark,2013,78.81861111111097,83.5027777777777,79.43944444444436,31.105555555555476,9.879125773328544,34.32144743076754,1.3192739566908434,4.03749876771872,0.00091066,2e-08,0.0,0.01649993,5.57e-06,3e-07
Denmark,2014,78.2605555555557,79.83766765574926,75.86988987797146,30.53055555555563,5.7913900333940225,26.945782057044433,1.004721720744581,4.184438221062168,0.0009202899999999999,2e-08,0.0,0.01308018,3.99e-06,2.7e-07
Denmark,2015,78.75293726205145,106.11194444444473,101.78527777777806,30.700225784298446,5.223007549989894,18.833364494082282,0.9633319681651756,4.285830890982721,0.0009781,2e-08,0.0,0.01031707,3.38e-06,2.5e-07
Estonia,2000,10.182123712662618,0.0,0.0,5.014944859813076,2.6231948684849176,25.576016813491986,0.13417309004192834,0.0,0.0,0.0,0.0,0.01194288,2.5e-07,4e-08
Estonia,2001,12.282443,0.0,0.0,5.168371999999999,2.7044761367,24.636577041600003,0.13360916160000003,0.0,0.0,0.0,0.0,0.011758059999999999,2.9e-07,4e-08
Estonia,2002,12.5020547323,0.0,0.0,5.3345873785,2.6902566009000006,23.835950164000003,0.10003649170000002,0.0,0.0,0.0,0.0,0.01145777,2.9e-07,4e-08
Estonia,2003,12.949558059100001,0.0,0.0,5.5961411939,2.638840719799999,28.0132634567,0.122115,0.0,0.0,0.0,0.0,0.01326179,2.8e-07,4e-08
Estonia,2004,13.568720999999998,0.0,0.0,5.912692,2.4776712494,29.4615402624,0.12211534889999995,0.0,0.0,0.0,0.0,0.013164,3.1e-07,6e-08
Estonia,2005,13.841388888888886,0.0,0.0,6.040000000000016,2.643333333333342,27.364810403469694,0.11111111111111113,0.0,0.0,0.0,0.0,0.012929399999999999,3.5e-07,7e-08
Estonia,2006,15.131793000000002,0.0,0.0,6.48954,2.7674629374000004,25.183913916600005,0.08840753840000001,0.0,0.0,0.0,0.0,0.01215059,2.7e-07,6e-08
Estonia,2007,16.253807717,0.0,0.0,6.795266997700001,2.2511265251999992,31.449507450699997,0.1223193391,0.0,0.0,0.0,0.0,0.01500031,2.4e-07,6e-08
Estonia,2008,15.5718837137,0.0,0.0,7.0038490705999985,2.1380795525,28.749091114399995,0.13371859989999996,0.0,0.0,0.0,0.0,0.012900950000000001,2.9e-07,7e-08
Estonia,2009,13.957163,0.0,0.0,6.650033999999999,2.3036883101999996,22.6559875764,0.13372092589999995,0.0,0.0,0.0,0.0,0.01072236,3.5e-07,7e-08
Estonia,2010,14.45294118399062,0.0,0.0,6.90798932109477,2.4285559263384857,31.580388827724914,0.1333266821172659,0.0,0.0,0.0,0.0,0.01484888,4.9e-07,9e-08
Estonia,2011,14.111789496371653,0.0,0.0,6.62701254931513,2.110277777777783,32.9056178821682,0.09999999999999995,0.0,0.0,0.0,0.0,0.0146011,5.4e-07,1.0000000000000001e-07
Estonia,2012,16.73277777777777,0.0,0.0,6.978055555555565,1.5693435571656063,29.204948833314575,0.18888423225822373,0.0,0.0,0.0,0.0,0.01310505,5.3e-07,9e-08
Estonia,2013,16.743055555555593,0.0,0.0,6.819999999999999,1.1694444444444443,35.42036465507274,0.25555555555555526,0.3711111111111116,0.0,0.0,0.0,0.01482732,5.4e-07,1.0000000000000001e-07
Estonia,2014,16.021111111111097,0.0,0.0,6.90611111111113,1.4480555555555548,35.30861111111107,0.13333333333333303,0.4041666666666671,0.0,0.0,0.0,0.014036950000000001,5.699999999999999e-07,1.0000000000000001e-07
Estonia,2015,15.755391722506683,0.0,0.0,6.852007425927101,1.3911100164999566,28.059738032193298,0.18888165879417462,0.48888888888888904,0.0,0.0,0.0,0.01098999,5.9e-07,1.1e-07
Greece,2000,193.3102777777782,261.7480995681014,249.12161745595574,43.151111111111064,14.888333333333314,95.01666666666672,23.00775533576315,0.7394444444444442,0.00310345,8e-08,1e-08,0.05153153,6.5e-07,5.699999999999999e-07
Greece,2001,198.468276,252.93272900000002,240.01179900000002,44.541737,14.71195,98.32001139379999,21.7922017741,0.447755,0.00314803,8e-08,1e-08,0.05200809,6.4e-07,5.8e-07
Greece,2002,199.76967299999995,251.06262500000003,237.74511200000003,46.599084,15.6749609852,96.54790468130004,22.6087878029,0.4314742793,0.0032549299999999996,8e-08,1e-08,0.05131943,6.3e-07,5.699999999999999e-07
Greece,2003,207.36789659689998,260.2257044063,247.4005432695,48.624796353300006,17.2543181253,98.23774089010008,22.8576684073,0.38844316300000004,0.0031063899999999997,8e-08,1e-08,0.05272485,6.7e-07,5.8e-07
Greece,2004,208.915505,247.013059,233.631581,49.738020999999996,18.597533,101.17982769599999,20.9968930629,0.401235,0.00325796,8e-08,1e-08,0.053871419999999996,6.6e-07,6e-07
Greece,2005,206.75824991615778,250.42916666666707,236.30833333333374,50.90394585761101,18.669722222222212,101.11333333333349,22.901111111111106,0.28888888888888914,0.0036564899999999997,9e-08,1e-08,0.054310519999999994,6.800000000000001e-07,6e-07
Greece,2006,207.9463582594,262.5949329999999,246.08151716659992,52.44456413659999,21.96907,93.14699600000004,23.3415050171,0.06512799999999999,0.00433058,1.1e-07,2e-08,0.05146798,6.7e-07,5.6e-07
Greece,2007,194.76719748389996,272.0698939999999,255.30869043329992,55.1881019543,28.526064,96.91744199999997,25.430158,0.06512799999999999,0.00438048,1.1e-07,2e-08,0.054897440000000006,7.1e-07,5.9e-07
Greece,2008,202.21702193189995,257.9326775496999,242.5369305348999,56.645980488,29.0192593871,92.39712732699994,25.0092238734,0.0465201163,0.00404694,1.0000000000000001e-07,2e-08,0.05388325,7.2e-07,5.699999999999999e-07
Greece,2009,191.97331421029995,249.8100739999999,235.1993049999999,54.7130746043,21.128221,95.62534899999999,18.9779161078,0.04652,0.00371385,9e-08,1e-08,0.05068066,6.2e-07,5.5e-07
Greece,2010,175.89361111111103,261.1411111111113,246.13693382818138,53.11972222222215,23.964149538907833,87.99882599399395,14.594448715590454,0.37249973376540674,0.00366895,9e-08,1e-08,0.04831874,5.6e-07,5.2e-07
Greece,2011,162.14066794137065,226.49611111111142,214.20750000000027,51.79437861570857,27.799444444444394,89.33083333333317,14.245833333333353,0.32638888888888923,0.00333258,8e-08,1e-08,0.050459800000000006,5.9e-07,5.3e-07
Greece,2012,149.37555555555545,279.69912394715743,263.37162394715745,52.016944444444626,25.77722222222226,92.01611111111102,13.536653845425263,0.17361111111111113,0.0035597100000000002,9e-08,1e-08,0.05090215,5.8e-07,5.4e-07
Greece,2013,124.11651368888222,282.1002777777781,263.77778024799903,48.79103606148752,22.90416666666673,78.79138888888907,12.303333333333343,0.24527777777777784,0.005063229999999999,1.2e-07,2e-08,0.04410022,5.1e-07,4.6999999999999995e-07
Greece,2014,128.55206448058584,322.8097222222218,303.7938248857708,49.49992693273965,14.898333333333312,75.39555555555563,13.08667748843469,0.24111111111111053,0.00530525,1.1e-07,2e-08,0.04044613,4.6999999999999995e-07,4.5000000000000003e-07
Greece,2015,133.38237955791774,333.43249999999983,313.8933333333332,50.78673760222361,15.314176660725872,62.83059655891565,12.8536091893829,0.2861112978278579,0.0052528900000000005,1.1e-07,2e-08,0.03549338,4.4e-07,3.9e-07
Spain,2000,712.053055555556,705.4718371221463,656.9135037888129,188.4588888888891,35.766111111111236,212.18250000000123,51.80750006409547,2.2044444444444493,0.01300341,3.7e-07,5.0000000000000004e-08,0.09109378,1.24e-06,1.68e-06
Spain,2001,741.4171520000002,681.9843629999999,635.4538959999999,200.95244399999999,36.7485163332,188.04103443429997,59.208353725200006,1.6200608608,0.01302577,3.8e-07,6e-08,0.08555446000000001,1.23e-06,1.6499999999999999e-06
Spain,2002,739.2318750000002,683.2902701139999,640.2045324722999,205.510241,56.45091829009999,217.74856571130002,68.24026219940001,1.1327632793,0.01276003,3.7e-07,5.0000000000000004e-08,0.09992317999999999,1.47e-06,1.8999999999999998e-06
Spain,2003,768.1242840000001,680.6543284043,633.5807793648,217.89851700000006,65.615297,200.643086,56.5486080804,1.322331,0.012677049999999999,3.6e-07,5.0000000000000004e-08,0.09273917999999999,1.38e-06,1.95e-06
Spain,2004,787.0165399243001,702.6206351163,654.1570734777,230.66919740179995,92.8156382268,205.85917751819997,56.451002607599996,1.4211875119,0.013356100000000001,3.7e-07,5.0000000000000004e-08,0.10185948,1.53e-06,2.1899999999999998e-06
Spain,2005,796.1826589121938,712.8802777777777,663.068611111111,242.22227682659667,129.56138888888916,204.95357053521153,61.044422559263765,2.2011111111111132,0.013054350000000001,3.5e-07,5.0000000000000004e-08,0.11181353999999999,1.76e-06,2.57e-06
Spain,2006,801.976888,725.5088990298,673.686324273,246.12569,163.816691,180.976756,52.390824,2.931923,0.01297017,3.5e-07,5.0000000000000004e-08,0.10313689,1.68e-06,2.6e-06
Spain,2007,817.5792131223999,707.1800162386,657.3606947932001,250.7849049031,163.56432,194.8305941258,48.51105600000001,3.595996,0.012915020000000001,3.5e-07,5.0000000000000004e-08,0.10924046000000001,1.66e-06,2.8e-06
Spain,2008,792.0246042368999,714.770496,664.0869370431,255.09731948639998,212.85109700000007,125.87987720709975,44.33356,3.8158030000000003,0.012508209999999999,3.4000000000000003e-07,5.0000000000000004e-08,0.09209527,1.54e-06,2.8599999999999997e-06
Spain,2009,737.7606799999999,675.8047856436999,626.9104935805999,239.77919899999998,192.075265,93.64382273830016,43.873012,3.712296,0.011710370000000001,3e-07,4e-08,0.07649149000000001,1.29e-06,2.52e-06
Spain,2010,711.6580555555557,679.83968604228,630.6169138101992,245.39277777777824,172.57722222222228,64.6758333333336,39.43472222222242,2.0258333333333334,0.01135663,2.8e-07,4e-08,0.05968516,1.1399999999999999e-06,2.0299999999999996e-06
Spain,2011,682.4577777777781,668.4445148677987,618.0332397156576,242.61861111111133,155.283888888888,115.63583333333322,37.433055555555434,2.2683333333333184,0.011691149999999999,2.7e-07,3e-08,0.07358083,1.3e-06,2.1099999999999997e-06
Spain,2012,619.2533333333334,721.4300000000003,666.5551465968385,239.4197222222227,131.7997222222227,146.43000000000004,38.60890298574897,2.0430555555555525,0.0121128,2.5e-07,3e-08,0.07848642,1.47e-06,1.96e-06
Spain,2013,582.4533333333329,711.4398910218429,655.6079394302999,230.95055555555555,101.82472222222164,106.12166666666647,32.087499999999764,2.322777777777762,0.01174844,2.3000000000000002e-07,3e-08,0.05874956,2.1499999999999997e-06,1.59e-06
Spain,2014,571.3548633734476,708.689225006803,650.1225583401364,226.97062212050122,84.98333333333291,118.68578967613611,34.13277777777757,2.3747222222222084,0.011443690000000001,2.2e-07,2e-08,0.06282218,2.1800000000000003e-06,1.59e-06
Spain,2015,592.8750000000007,766.4,706.0320778782743,232.08194444444374,99.5994444444446,137.84003983659693,39.05388888888891,2.9027777777777724,0.01154733,2.2e-07,2e-08,0.07345858999999999,2.92e-06,1.74e-06
Finland,2000,103.59722222222224,149.73027777777767,143.23374394826453,75.64861111111117,24.63638888888896,37.004075366588985,1.4158333333333324,0.4486111111111111,0.00249248,4e-08,6e-08,0.01907503,7e-07,6e-07
Finland,2001,98.03275900000001,139.2010223724,132.8033593724,77.344152,27.795922598199997,49.71876869800001,1.7088148569000003,0.5710361400999999,0.00247807,4e-08,6e-08,0.02450277,8.8e-07,7.6e-07
Finland,2002,109.57412142019997,154.1727264453,147.11736682539998,79.63390454639999,28.062081893600006,55.769335510999994,2.3954823883000005,0.6455708330000001,0.0026441399999999997,4e-08,7e-08,0.02707482,1.1100000000000002e-06,8.8e-07
Finland,2003,114.321737,154.0064311687,147.1812999592,80.81338099999999,33.5304241576,74.62038681049998,2.1538338994000004,0.738498022,0.0027184899999999996,4e-08,7e-08,0.0340005,1.28e-06,1e-06
Finland,2004,118.37896635589999,157.62100481439998,151.1070418144,83.0715742621,31.26968520480001,65.5306378106,1.3675690251,0.8082855815,0.00274529,4e-08,7e-08,0.02990573,1.17e-06,9.399999999999999e-07
Finland,2005,113.93694444444459,149.66602782705132,142.90019449371798,80.88972222222233,27.735816044818293,34.891179340404996,1.1336144750277524,0.7827771955085765,0.00263333,4e-08,7e-08,0.018850529999999997,9.6e-07,7.6e-07
Finland,2006,117.06641699999999,162.15592700000002,155.22909900000002,85.98989399999999,30.387958848199997,65.4568681391,1.2839387418000001,0.6964463843,0.0027310700000000004,4e-08,7e-08,0.02955756,1.18e-06,1e-06
Finland,2007,112.89984459379998,171.47585812289998,163.1511041229,86.04375694939999,27.1884485051,60.6271915119,1.5254420883,0.7546502312000001,0.0027923600000000002,5.0000000000000004e-08,8e-08,0.02755039,1.0700000000000001e-06,9.8e-07
Finland,2008,113.07849,176.58452647119998,168.7005494712,82.41250599999998,29.207395687400005,41.9355541343,1.4490255451,0.6673196307999999,0.00277839,5.0000000000000004e-08,8e-08,0.0210759,1.0500000000000001e-06,9.000000000000001e-07
Finland,2009,102.32306599999997,177.1532367276,168.1847508302,77.026653,25.9313707602,46.0723538568,1.4266714058,0.9711019761999998,0.0028212600000000003,5.0000000000000004e-08,9e-08,0.02229846,9.9e-07,8.6e-07
Finland,2010,105.96749999999987,165.8194444444446,157.44861111111123,83.41972222222215,29.25891422966698,59.29425311593663,1.1491011482930038,0.9327785844884618,0.00266354,5.0000000000000004e-08,8e-08,0.027668889999999998,1.15e-06,1.0900000000000002e-06
Finland,2011,105.46166666666686,176.31075607502729,167.47436718613838,80.05416666666686,25.040833333333246,45.23332384311213,0.9366666666666614,1.0827777777777774,0.0027688,5.0000000000000004e-08,8e-08,0.02148437,1.04e-06,9.9e-07
Finland,2012,99.50055555555554,170.32211972661395,162.18198334393824,80.64472222222213,20.158795827233828,34.32483740807555,0.9363117924932919,1.2849975709917774,0.0025688,5.0000000000000004e-08,8e-08,0.01774624,1e-06,9.000000000000001e-07
Finland,2013,89.90166666666674,176.44434294731798,168.4687873917624,79.85444444444448,19.771388925570143,40.91358265249179,0.7458151534105999,1.7294444444444426,0.00251323,5.0000000000000004e-08,8e-08,0.01908909,1e-06,9.100000000000001e-07
Finland,2014,102.45416666666657,168.94212018035626,161.44684240257848,79.05166666666666,16.121913713335772,34.50918913539462,0.751580378384905,1.8999950044331813,0.00254576,5.0000000000000004e-08,8e-08,0.017799290000000002,1.01e-06,8.4e-07
Finland,2015,94.6412880017232,151.6763132429736,144.02575768741806,78.39241330449842,15.440163422013748,26.707302171189088,0.6877952122481508,2.0074978631591622,0.0022164,4e-08,7e-08,0.0149431,9.399999999999999e-07,7.7e-07
France,2000,985.7312507979669,1056.004719467088,991.8576381058897,384.12422295719074,46.53972222222227,76.545277777778,14.444440734264301,7.216111111111128,0.01358509,3.2e-07,6e-08,0.04436198,6.4e-07,1.03e-06
France,2001,1070.6734738673001,1078.6549629512003,1016.4582932864004,395.45233349340003,58.868734,57.4417214863,11.556731000000001,7.3994752705,0.013621399999999999,3.3e-07,6e-08,0.03833636,6.1e-07,9.300000000000001e-07
France,2002,1049.2098016829998,1002.6257889999998,945.6271589999998,393.4491808978001,65.887439,64.6075851794,9.9506166026,7.784644006999999,0.01297526,3.2e-07,6e-08,0.041986800000000005,6.4e-07,9.200000000000001e-07
France,2003,1037.3459910000001,1041.3284858595996,984.9683428595996,408.150198,65.2478480804,70.3010877324,13.857242459399997,7.962589984999999,0.012929959999999999,3.1e-07,6e-08,0.04525559,6.800000000000001e-07,1.0500000000000001e-06
France,2004,1053.746032011,1050.5929587459998,993.2634764125997,419.79740249159994,66.623618,65.9676879771,13.648561298899999,8.7241589032,0.01326697,3.2e-07,6e-08,0.04407558,7.2e-07,1.06e-06
France,2005,1033.894027656816,1025.8955555555553,975.2798766509181,422.49644727622666,73.2455555555554,74.48263193500713,25.117745636699883,9.85999999999998,0.013288290000000001,3.5e-07,6e-08,0.04973355,8.2e-07,1.1e-06
France,2006,1034.2588020338999,1033.7965150000002,984.2434110000003,427.0405571876,74.9017848949,62.23323915310001,23.4476891268,9.5098339039,0.01342278,3.4000000000000003e-07,5.0000000000000004e-08,0.04556561,8.000000000000001e-07,1.1e-06
France,2007,1020.8203373828002,1022.8736189999998,970.2101025520999,425.46120074529995,76.739392,67.2022123608,19.4877860074,9.7796596731,0.013233690000000001,3.4000000000000003e-07,5.0000000000000004e-08,0.04541491,7.4e-07,1.02e-06
France,2008,990.471276,1049.259763,993.847465,432.0649669999999,75.0054255236,60.1608803817,18.050938119,10.1518360714,0.013036520000000001,3.4000000000000003e-07,5.0000000000000004e-08,0.044601589999999997,7.5e-07,1.03e-06
France,2009,958.9516499999997,929.2920632816999,878.2386892817,414.70951799999995,72.7688375451,58.54303596630001,17.775276881000003,10.5622219043,0.01236269,3.1e-07,5.0000000000000004e-08,0.04357157,8.8e-07,1.03e-06
France,2010,924.7784825243194,849.1452777777765,807.2627777777765,443.68993647369587,95.11219855449973,54.859986348639076,18.932773487279064,10.775552874166644,0.01091544,2.7e-07,4e-08,0.045620440000000005,1.04e-06,1.0700000000000001e-06
France,2011,929.1775000000022,852.0706609916992,812.1213255144509,415.25777777777876,97.3069444444441,39.17333333333325,10.516666666666652,10.72472222222213,0.010582139999999999,2.4e-07,3e-08,0.03764254,9.9e-07,9.6e-07
France,2012,917.4219444444429,724.329166666668,695.3700942316195,432.66833333333227,60.37761912942922,52.64280847278339,11.401446296251656,11.43973920118317,0.00861846,1.9e-07,2e-08,0.04112242,8.7e-07,1.02e-06
France,2013,900.0417938185128,689.4480555555548,666.0122222222215,438.0631191861503,49.234166666667136,58.10277777777825,7.459724605906761,11.474722222222308,0.00805256,1.8e-07,2e-08,0.04121707,8.5e-07,9.7e-07
France,2014,888.6308333333336,686.7305555555571,664.3897222222238,414.1652777777777,37.892223676340976,26.065086236771382,6.1572016717018485,11.30888796816272,0.00792615,1.7000000000000001e-07,2e-08,0.0285798,6.800000000000001e-07,7.8e-07
France,2015,899.6099999999985,709.0457175151254,687.1876619595698,421.6325,50.61668181653181,26.368341429396004,6.209695429317537,12.649726106159164,0.007611229999999999,1.7000000000000001e-07,2e-08,0.03114708,9.100000000000001e-07,8.5e-07
Croatia,2000,33.839444444444446,61.6136111111111,54.85472222222221,11.833055555555545,5.7702747146648585,4.153611111111127,4.5897222222222185,0.0,0.00170026,4e-08,1e-08,0.0038219,1.1e-07,5.0000000000000004e-08
Croatia,2001,34.3149641866,58.212801999999996,52.162876,12.000815572,6.4709319999999995,4.599665,5.9847980000000005,0.0,0.00152605,4e-08,1e-08,0.00456615,1.3e-07,6e-08
Croatia,2002,35.94505510829999,59.84449297710001,53.06882729770001,12.7023622928,8.1470453903,5.729020456700005,5.7558472614,0.0,0.00171831,5.0000000000000004e-08,1e-08,0.00522711,1.4e-07,7e-08
Croatia,2003,38.1065459671,63.3636046753,56.250631779900004,12.9719951203,6.689670203,6.182591735999994,8.3747655586,0.0,0.00179181,5.0000000000000004e-08,1e-08,0.005836109999999999,1.8e-07,8e-08
Croatia,2004,38.811636,62.77356197510001,55.50863091820001,13.702466,7.572401158999999,5.803452573000008,4.2442468502,0.0,0.0018253800000000001,5.0000000000000004e-08,1e-08,0.0047252399999999995,1.4e-07,7e-08
Croatia,2005,39.74015466143411,60.57737377516376,53.76209599738598,14.416899458409821,5.701676092153796,6.248333333333337,5.203867139956139,0.0,0.00172954,5.0000000000000004e-08,1e-08,0.00477174,1.3e-07,7e-08
Croatia,2006,41.0339143102,56.61420046629999,50.33786651089999,15.0793786834,6.227732650599999,5.832354867500003,5.355785961,0.0,0.00160077,4e-08,1e-08,0.00476375,1.4e-07,7e-08
Croatia,2007,41.610345258399995,62.5130616051,55.6560136051,15.38436171,9.5354563058,6.249962,5.9011791141000005,0.0,0.0018592699999999999,5.0000000000000004e-08,1e-08,0.005646180000000001,1.7000000000000001e-07,8e-08
Croatia,2008,41.35912737289999,52.879284,48.147037,16.136829688,7.4234290000000005,6.406967,5.145111999999999,0.0,0.0014248499999999999,4e-08,1e-08,0.00514948,1.5e-07,7e-08
Croatia,2009,38.844199999999994,57.18524265400001,51.05545030390001,15.510931,6.4001090216000005,4.3775319999999995,5.378875,0.0,0.0016426400000000001,4e-08,1e-08,0.0043804099999999995,1.4e-07,6e-08
Croatia,2010,36.00194444444449,50.04999999999993,44.659827154951195,15.862222222222204,7.106358684922596,6.185833333333353,1.3896757457846929,0.0,0.0014488699999999999,4e-08,1e-08,0.0040151300000000004,1.3e-07,6e-08
Croatia,2011,35.11261367714318,42.88388888888886,36.62463195963104,15.735051333328952,7.809051913785924,6.492222222222217,1.667523321703074,0.0,0.0018056300000000001,4e-08,1e-08,0.00419338,1.5e-07,7e-08
Croatia,2012,32.424555741291776,44.27111111111111,38.301666666666655,15.350330467578766,9.01949532654875,5.823081717185337,1.257056214694873,0.0,0.00184922,4e-08,1e-08,0.00382823,1.5e-07,6e-08
Croatia,2013,32.83500000000002,40.02984702462767,36.203458135738785,15.072222222222186,6.9255421863414375,6.5030555555555605,0.5230507701974253,0.0,0.0013947200000000001,3e-08,1e-08,0.0036506999999999998,1.3e-07,6e-08
Croatia,2014,31.887777777777707,35.23888888888893,30.635277777777816,14.833055555555584,4.7747222222222225,6.32833333333333,0.33416666666666633,0.0,0.00151622,3e-08,1e-08,0.0030756399999999997,9e-08,5.0000000000000004e-08
Croatia,2015,33.32944444444446,39.73164093563542,35.51441871341319,15.343333333333398,5.126374205321508,6.098023875534595,0.5458355737174311,0.0,0.00138739,3e-08,1e-08,0.00314882,1.3e-07,6e-08
Hungary,2000,63.87222222222231,88.82240653881902,84.9913710483048,29.441111111111116,24.892452982038098,32.04194444444442,12.233299078479076,0.33833333333333326,0.00144651,3e-08,1e-08,0.02171089,4.2e-07,2.2e-07
Hungary,2001,61.221646285200016,88.74776102439998,85.35993458119998,30.545113526300003,28.272737711799998,30.625283768299997,12.0962204162,0.36053,0.00131849,3e-08,0.0,0.02218515,4.4e-07,2.2e-07
Hungary,2002,65.389675,86.31008394940001,82.2965709494,31.484735999999998,31.3182815087,29.397151,6.793112540199999,0.276794,0.00138529,3e-08,0.0,0.02073673,3.7e-07,2.0000000000000002e-07
Hungary,2003,65.43482952170001,86.77644229739998,83.49561115639997,31.396250889499996,36.445859074000005,30.255395921399995,5.3253400166,0.20933860440000002,0.0011886,3e-08,0.0,0.02217577,4.1e-07,2.1e-07
Hungary,2004,67.53440167899998,82.8544461163,79.6015811711,31.818589920100003,34.2190387836,27.679426051199982,2.3877408788,0.1907332793,0.0012417,3e-08,0.0,0.020270840000000002,5.6e-07,2.1e-07
Hungary,2005,78.07749999999976,94.2114856334936,91.27308812529886,32.33805555555548,35.720814607868306,22.37916140490222,1.340000458191553,0.42666666666666625,0.00126962,3e-08,0.0,0.01834096,9.200000000000001e-07,2.3000000000000002e-07
Hungary,2006,81.4870066494,97.5179517002,93.3416956908,33.2398044136,37.1010400086,21.371727613999997,1.5270923853,0.657095,0.00138768,3e-08,0.0,0.018424279999999998,8.2e-07,2.2e-07
Hungary,2007,80.94764213939999,98.3099423724,94.9885233455,33.7441753003,41.2051089569,22.3684250105,1.4560760000000001,0.6443019999999999,0.0012587100000000001,3e-08,0.0,0.01969431,9.300000000000001e-07,2.3000000000000002e-07
Hungary,2008,78.669972,97.40822823259998,93.84699441889998,34.327107999999996,40.3531999432,21.5570188674,1.0665133332,0.5535913727,0.00140286,3e-08,1e-08,0.01867863,1.0900000000000002e-06,2.5e-07
Hungary,2009,75.5933959904,87.50644599999998,83.67317055319998,33.1499585931,28.7746996766,19.4133948287,2.0656519829999995,0.5489399542,0.0013150599999999998,3e-08,0.0,0.01563589,1.1399999999999999e-06,2.5e-07
Hungary,2010,72.35018343840818,97.5294444444444,94.00036426943008,34.20689984113852,31.34947166897518,19.14552187527086,1.2911133402095016,0.6511121133370463,0.0013438800000000002,3e-08,0.0,0.01609674,1.16e-06,2.5e-07
Hungary,2011,69.41574189311851,94.57231076227393,90.8041587910831,34.57439890015762,27.942759239125092,19.34190711255349,0.4183311055770466,0.7202766186288145,0.0014300699999999999,3e-08,0.0,0.015412110000000001,9.300000000000001e-07,2.2e-07
Hungary,2012,65.28777777777769,90.02814448502265,86.54897781835598,35.23777777777773,24.439722222222123,19.053888888888867,0.5888906923147835,0.6283333333333337,0.00138151,3e-08,0.0,0.01486207,8.2e-07,2.0000000000000002e-07
Hungary,2013,63.00935517494984,88.0307357228631,84.14750832879993,34.87661725467086,15.141132527037927,18.760032452237365,0.2127775026079773,0.5780566261457778,0.00131215,3e-08,0.0,0.01229525,8.5e-07,2.0000000000000002e-07
Hungary,2014,70.46712207338967,91.33202320709252,87.07035654042586,35.72800477842918,12.20892573512165,17.907222222222227,0.21333333333333312,0.6291666666666663,0.00138734,3e-08,0.0,0.01153682,9.499999999999999e-07,2.1e-07
Hungary,2015,76.66611111111094,85.81194444444417,82.385559044391,36.97472222222218,13.419166666666646,16.991266817159474,0.19111111111111076,0.7338888888888886,0.00143566,3e-08,0.0,0.01199716,1e-06,2.2e-07
Ireland,2000,83.59482321398853,38.8548285735715,37.53816190690484,20.201067459176976,21.22000000000002,22.446657983224394,11.592500000000006,0.0,0.00027431,1e-08,0.0,0.01566731,4.3e-07,2.6e-07
Ireland,2001,86.09033707649998,39.888574,38.465061999999996,20.929164594899998,21.532944999999998,24.139286266299997,13.779224000000001,0.0,0.00032094,1e-08,0.0,0.01679971,4.5000000000000003e-07,2.8e-07
Ireland,2002,89.01061612049998,37.4574378696,35.9367505905,21.758379524400002,24.011298,23.642907282999996,10.1957722343,0.0,0.00033970999999999996,1e-08,0.0,0.015830459999999998,4.2e-07,3.1e-07
Ireland,2003,89.44477285930002,37.203678363899996,35.673832459799996,22.4530753611,27.345618999999996,21.451573030099997,6.980325999999999,0.0,0.00033738999999999997,1e-08,0.0,0.01510859,4.0000000000000003e-07,3.5e-07
Ireland,2004,92.665117417,34.351530999999994,32.83730499999999,23.2090237329,26.130284000000003,19.842231075100003,8.8681135313,0.0,0.00033645999999999996,1e-08,0.0,0.01473682,3.5e-07,3e-07
Ireland,2005,90.36343393398789,37.19888888888888,35.43444444444443,24.093007664548935,23.721944444444414,22.32413860325392,8.938387086427914,0.0,0.00041122,1e-08,0.0,0.015136450000000001,3.6e-07,3.3e-07
Ireland,2006,92.93575193639998,38.3855083806,36.697376199400004,25.067098940200005,27.985268999999995,19.519792,7.759535999999999,0.0,0.00037653,1e-08,0.0,0.01441077,3.4000000000000003e-07,3.6e-07
Ireland,2007,96.038214,38.513908,36.945385716800004,25.362704,31.765794837299996,18.94133801330001,4.467028571599999,0.0,0.0003602,1e-08,0.0,0.01393281,3.5e-07,3.8e-07
Ireland,2008,92.13357989700002,38.095228,36.482147,26.4759041074,32.620987,18.2439733242,4.010024,0.0,0.00036689,1e-08,0.0,0.014005,2.8e-07,4.8e-07
Ireland,2009,88.93112099999999,32.483753,31.093968,25.048693999999998,32.019275455599995,15.589606205499996,2.3747341194,0.0,0.00031491,1e-08,0.0,0.01246632,2.7e-07,4.6000000000000004e-07
Ireland,2010,89.21194444444433,34.14416666666665,32.72291565487518,25.311388888888906,35.34666666666668,15.792500000000032,1.489722222222219,0.0,0.00031011,1e-08,0.0,0.012745139999999999,2.7e-07,4.8e-07
Ireland,2011,80.15583333333298,34.46333333333331,33.17194444444442,24.611666666666583,29.58232140854718,16.19641480129849,0.5627796647171405,0.0,0.00028517,0.0,0.0,0.01142006,2.3000000000000002e-07,4.4e-07
Ireland,2012,75.08654989176289,35.838055555555535,34.313055555555536,24.318664054655372,27.022499999999926,19.97252586082074,0.5397222222222219,0.21333333333333346,0.0003133,0.0,0.0,0.01221591,2.7e-07,4.5000000000000003e-07
Ireland,2013,78.19444444444466,33.058721392707106,31.606776948262663,24.552777777777894,24.999722222222214,17.170243060496976,0.4369444444444441,0.26583333333333375,0.00029425999999999996,1e-08,0.0,0.01082282,2.6e-07,4.1e-07
Ireland,2014,76.48472222222202,32.11694444444443,30.69305555555554,24.754166666666578,23.53111111111107,17.340557534661183,0.6286164411696257,0.28527777777777735,0.00027918,1e-08,0.0,0.01064158,2.7e-07,4.2e-07
Ireland,2015,81.20666666666672,39.852402541676284,38.18418725658366,25.548611111111082,22.54694444444444,19.542499999999954,0.8963888888888888,0.28861111111111076,0.00035838,1e-08,0.0,0.011200219999999999,2.6e-07,4.1e-07
Italy,2000,781.0354194907652,1114.8794444444397,1059.316482502229,272.97495125030304,228.73777777777659,70.30388888888888,220.43825059895204,1.3399999999999996,0.02226945,5.9e-07,6e-07,0.11590117,3.79e-06,9.200000000000001e-07
Italy,2001,797.3126890603999,1131.3803559999997,1070.9404089999996,277.7241965913,220.63389299999997,82.8045980755,192.0715481683,1.87243,0.02412944,6.7e-07,6.3e-07,0.11724744000000001,3.7999999999999996e-06,9.7e-07
Italy,2002,795.1989239999999,1135.1696329471,1071.3810312046999,282.750886,227.4387550966,94.9373456468,203.7426118375,1.9142992793,0.02416799,6.800000000000001e-07,6.3e-07,0.12382727,3.96e-06,1.04e-06
Italy,2003,808.6141289999998,1154.9580810872,1093.6706858763,291.43616999999995,258.55001899999996,103.209272,190.28989869190002,4.815983,0.02324213,6.5e-07,6.1e-07,0.12610032000000002,4.15e-06,1.0700000000000001e-06
Italy,2004,785.8050054919999,1157.5113441965,1094.8987815449,295.5553731836,307.553024,126.66465600000001,175.3885087849,6.90822,0.02493261,6.5e-07,6.4e-07,0.12503042,4.09e-06,1.13e-06
Italy,2005,792.8098510530834,1185.5094444444444,1117.4411981376445,300.8800505550431,344.0722222222214,120.94138888888878,140.48027777777745,7.1019444444444435,0.026396970000000002,6.7e-07,6.800000000000001e-07,0.12066022,4.13e-06,1.0700000000000001e-06
Italy,2006,775.3079668301998,1170.3089937542002,1109.5342505715003,308.7764305689,353.3777615497,123.40755750219999,148.048820736,8.1863618846,0.025492380000000002,6.7e-07,6.5e-07,0.12173041,4.17e-06,1.0700000000000001e-06
Italy,2007,777.7039149999999,1189.1423757109999,1127.211462711,309.31729499999994,379.98211272689997,120.5344114755,122.97914226179999,8.8806627665,0.0264624,7e-07,6.7e-07,0.12103786999999999,4.03e-06,1.03e-06
Italy,2008,756.6748973185,1118.7645897567998,1061.4943755315996,309.31860616619997,375.04749581849995,119.94205684759999,111.2537763781,8.023531999100001,0.028241919999999997,7.5e-07,7.1e-07,0.11438974,3.84e-06,1e-06
Italy,2009,716.1712698380999,1021.100044,964.6604241386,290.01636669069995,317.2789706344,107.0799530158,88.47188753889999,8.6096829524,0.02575264,7e-07,6.5e-07,0.09800002000000001,3.62e-06,9.200000000000001e-07
Italy,2010,694.7945622603743,1063.030221640002,1001.4788327511131,299.3136645251836,336.87722222222305,105.07250000000046,85.65585188731293,9.517222222222243,0.02801272,7.2e-07,6.800000000000001e-07,0.09397330000000001,3.5e-06,8.900000000000001e-07
Italy,2011,678.4238888888891,1012.9108333333302,957.7148353017029,301.82277777777745,321.10050301188636,116.67192535269353,76.18055984019108,10.308053868784715,0.0268624,6.9e-07,6.4e-07,0.09305102999999999,3.99e-06,1.01e-06
Italy,2012,610.5608333333338,964.973720848746,919.3891234574102,296.7358333333339,292.14055555555456,125.97472222222241,68.01142471183297,9.904166666666644,0.02572458,6.800000000000001e-07,6.1e-07,0.09169616,4.09e-06,1.0700000000000001e-06
Italy,2013,604.9266666666646,825.3633913412247,790.0913075662392,287.3974999999991,244.32472222222293,117.75616982435328,52.56024542985565,9.96805555555558,0.022138770000000002,5.6e-07,5.1e-07,0.07847169,4.3899999999999995e-06,1.0900000000000002e-06
Italy,2014,591.5886111111109,787.4138888888886,757.1654268447203,281.49749999999995,216.6652777777781,112.85772450983158,48.77611111111112,10.30222222222222,0.02099914,5.2e-07,4.8e-07,0.07134928,4.360000000000001e-06,1.0700000000000001e-06
Italy,2015,594.8666666666662,873.9269444444443,835.2547222222221,287.48305555555544,243.87722222222266,113.98810375512984,52.59105913718125,10.242222222222246,0.02094714,5.1e-07,5e-07,0.07864062,4.2000000000000004e-06,1.0500000000000001e-06
Lithuania,2000,16.449166666666706,58.49833333333334,54.07055555555557,6.196944444444447,8.411442365914564,0.0,2.3005263302087253,0.0,0.00113255,3e-08,1e-08,0.00388928,1.5e-07,2e-08
Lithuania,2001,19.052265999999996,80.365626,74.6669018096,6.446508999999998,9.0433825159,0.0,2.610405835,0.0,0.00145036,4e-08,1e-08,0.00404353,1.9e-07,3e-08
Lithuania,2002,19.279753800899996,78.1386882466,72.2585602466,6.7231312249,8.685718613099999,0.0,2.6810584339,0.0,0.00147311,4e-08,1e-08,0.0038391999999999996,2.2e-07,3e-08
Lithuania,2003,19.3225304528,84.72941122370001,78.84230522370001,7.1793772879,10.2881386247,0.0,1.6770832159999998,0.0,0.00145728,4e-08,1e-08,0.00372647,2.3000000000000002e-07,3e-08
Lithuania,2004,21.311975,102.851068,96.026584,7.650213999999999,11.475321,0.0,1.8938379225000002,0.0,0.00169066,4e-08,1e-08,0.0036714,2.7e-07,4e-08
Lithuania,2005,23.051666666666655,109.48166666666634,102.28659621094306,7.9769444444444515,12.2889877560735,0.0,2.0659722415272888,0.0,0.00179192,5.0000000000000004e-08,1e-08,0.0038211399999999998,2.7e-07,4e-08
Lithuania,2006,23.707755000000006,97.9165835573,91.8073230418,8.43175,11.474942327199999,0.006932294100000011,1.9438229646999998,0.0,0.0015204700000000001,4e-08,1e-08,0.0036411300000000002,3e-07,4e-08
Lithuania,2007,25.710172695900003,68.95861752659998,62.99357819879998,8.858473307999999,10.4094282436,0.08438774519999999,0.8270994325,0.0,0.0014453900000000002,4e-08,1e-08,0.0032545,2.9e-07,4e-08
Lithuania,2008,26.131163576900004,113.1244879293,105.5463656244,9.0445488886,9.7484077697,0.0034887673999999965,0.9885408123,0.0,0.00180915,5.0000000000000004e-08,1e-08,0.00295459,3.3e-07,4e-08
Lithuania,2009,21.328257,103.212761,96.0286092482,8.371274,9.8518289403,0.0,1.2551767051,0.0,0.00167242,5.0000000000000004e-08,1e-08,0.0030661399999999998,3.8e-07,5.0000000000000004e-08
Lithuania,2010,22.48527777777779,109.82583333333359,103.14166666666692,8.331944444444444,12.986489021113645,0.0,1.1666588434127723,0.0,0.00158091,4e-08,1e-08,0.00370616,3.9e-07,5.0000000000000004e-08
Lithuania,2011,22.608154218286593,111.88499999999961,105.41195021563641,8.580040370581234,10.59585621153529,0.0,0.26666724244524365,0.0,0.0015410699999999999,4e-08,1e-08,0.00287178,3.5e-07,5.0000000000000004e-08
Lithuania,2012,22.222222222222225,107.10888888888923,101.11978005642018,8.921388888888902,9.321388888888853,0.0,1.555555555555559,0.0,0.00142432,4e-08,1e-08,0.0029359200000000003,4.5000000000000003e-07,6e-08
Lithuania,2013,22.08045276624538,113.13250737102355,106.95084070435688,8.954678535749009,7.684366521000865,0.0,0.5999987033054895,0.1730551815552406,0.00146023,4e-08,1e-08,0.00233806,5.2e-07,7e-08
Lithuania,2014,22.577777777777804,94.7166666666666,89.30111111111104,9.236944444444445,6.046666666666665,0.009722222222220482,0.27777777777777785,0.20999999999999996,0.0013063800000000002,3e-08,0.0,0.0018009,6.3e-07,8e-08
Lithuania,2015,24.63111111111112,105.5430633884166,99.59389672174993,9.342222222222215,5.36805555555555,0.0,0.24455888971241974,0.2619444444444446,0.0013666400000000001,3e-08,1e-08,0.00164903,8.100000000000001e-07,1.1e-07
Luxembourg,2000,26.96787419186346,0.0,0.0,5.789127733765537,0.7715813015701438,0.0,0.011669558033870354,0.21366405066776786,0.0,0.0,0.0,0.00011737000000000001,4e-08,1e-08
Luxembourg,2001,28.6117334875,0.0,0.0,5.8407432376,1.6747233727,0.0,0.01163,0.21050300000000002,0.0,0.0,0.0,0.00027933,5.0000000000000004e-08,1e-08
Luxembourg,2002,29.170366,0.0,0.0,5.918507,5.3299515442,0.0,0.011632326000000737,0.21403572879999996,0.0,0.0,0.0,0.0010256199999999999,6e-08,1e-08
Luxembourg,2003,31.402528414600003,0.0,0.0,6.173047227599999,5.3753063345,0.0,0.011632326000000076,0.2093822169,0.0,0.0,0.0,0.0010329,6e-08,1e-08
Luxembourg,2004,35.54360599999999,0.0,0.0,6.382544,6.410456,0.0,0.01163,0.226785,0.0,0.0,0.0,0.00125326,7e-08,1e-08
Luxembourg,2005,36.74833333333334,0.0,0.0,6.146666666666679,6.331809540915969,0.0,0.0,0.20749999999999946,0.0,0.0,0.0,0.00123918,7e-08,1e-08
Luxembourg,2006,34.68843325940001,0.0,0.0,6.6048284226,6.64073,0.0,0.0,0.218644,0.0,0.0,0.0,0.00130109,7e-08,1e-08
Luxembourg,2007,33.77738720759999,0.0,0.0,6.6836057395,5.8871841536,0.0,0.0,0.2244177135,0.0,0.0,0.0,0.00117754,7e-08,1e-08
Luxembourg,2008,33.98402299999999,0.0,0.0,6.587231999999999,5.0469800371,0.0,0.01163,0.227948,0.0,0.0,0.0,0.00099194,7e-08,1e-08
Luxembourg,2009,31.841777,0.0,0.0,6.109239,5.75685,0.0,0.01163,0.211666,0.0,0.0,0.0,0.0011866700000000001,7e-08,1e-08
Luxembourg,2010,33.368797094663975,0.0,0.0,6.588092274793725,6.044165788549349,0.0,0.0,0.192222222222222,0.0,0.0,0.0,0.0012020499999999999,6e-08,1e-08
Luxembourg,2011,34.10222222222219,0.0,0.0,6.480833333333336,4.9994443276480105,0.0,0.011666666666666633,0.21166666666666678,0.0,0.0,0.0,0.0010002000000000001,6e-08,1e-08
Luxembourg,2012,32.901476781073185,0.0,0.0,6.225241849793413,5.137115411657473,0.0,0.011666666666666633,0.20777777777777784,0.0,0.0,0.0,0.00103872,6e-08,1e-08
Luxembourg,2013,32.34472222222226,0.0,0.0,6.182777777777771,3.370238044783502,0.0,0.011667490758399337,0.21168161804525468,0.0,0.0,0.0,0.0006822999999999999,6e-08,1e-08
Luxembourg,2014,31.154444444444447,0.0,0.0,6.182777777777782,3.149166666666666,0.0,0.0,0.20222222222222216,0.0,0.0,0.0,0.00066465,8e-08,1e-08
Luxembourg,2015,30.622406599030594,0.0,0.0,6.223648583556599,1.9685337521302055,0.0,0.01166784167589851,0.23585708530566937,0.0,0.0,0.0,0.00045243000000000003,8e-08,1e-08
Latvia,2000,12.66955639736632,0.0,0.0,4.47698430186089,4.5152777777778,0.55,0.9467969359203741,0.0,0.0,0.0,0.0,0.00229305,1.5e-07,2e-08
Latvia,2001,15.6616655692,0.0,0.0,4.5832272743,5.776877092599999,0.3011860642,0.6116280964999999,0.0,0.0,0.0,0.0,0.00236446,1.6e-07,2e-08
Latvia,2002,15.547701570999996,0.0,0.0,4.8821089703,5.9363232296,0.2628332317,0.5778997009,0.0,0.0,0.0,0.0,0.00227034,1.7000000000000001e-07,2e-08
Latvia,2003,17.24729,0.0,0.0,5.200936,6.371523528299999,0.16800884079999998,0.4221323655,0.0,0.0,0.0,0.0,0.00219751,1.8e-07,3e-08
Latvia,2004,18.1285632518,0.0,0.0,5.404364936199999,6.224813287999999,0.0,0.32219077459999995,0.0,0.0,0.0,0.0,0.00200305,1.8e-07,2e-08
Latvia,2005,19.425165810637736,0.0,0.0,5.728849847005178,6.28892140607195,0.0,0.1555533051707986,0.0,0.0,0.0,0.0,0.00199182,1.6e-07,2e-08
Latvia,2006,20.696545521700003,0.0,0.0,6.1428985460000005,7.470906730500001,0.0,0.15587258690000003,0.0,0.0,0.0,0.0,0.00201564,1.8e-07,2e-08
Latvia,2007,22.026057,0.0,0.0,6.60584,7.0496275418,0.06511985899999999,0.1558212986,0.0,0.0,0.0,0.0,0.00190958,1.8e-07,2e-08
Latvia,2008,21.3622767271,0.0,0.0,6.628039111399998,6.8524140265,0.10216885220000001,0.05581783610000001,0.0,0.0,0.0,0.0,0.00186674,1.7000000000000001e-07,2e-08
Latvia,2009,20.0729074731,0.0,0.0,6.103253620499999,6.6770568865,0.12333684780000001,0.0887420172,0.0,0.0,0.0,0.0,0.00183749,1.7000000000000001e-07,2e-08
Latvia,2010,20.318055555555574,0.0,0.0,6.2150000000000025,8.673770045499786,0.10936305422385574,0.05555292110297503,0.0,0.0,0.0,0.0,0.00219662,2.0000000000000002e-07,3e-08
Latvia,2011,18.5107221636835,0.0,0.0,6.191068192986747,8.052559890554638,0.10916698825698819,0.05555402477594371,0.0,0.0,0.0,0.0,0.00201062,1.8e-07,2e-08
Latvia,2012,18.66156058225609,0.0,0.0,6.848009837541861,7.248611111111098,0.13833333333333336,0.044444444444444384,0.0,0.0,0.0,0.0,0.00179785,2.1e-07,3e-08
Latvia,2013,19.008611111111072,0.0,0.0,6.576111111111122,8.364511854163924,0.12472271093761238,0.03333400613595997,0.0,0.0,0.0,0.0,0.00185867,3.1e-07,4e-08
Latvia,2014,19.25388888888891,0.0,0.0,6.582222222222209,7.473910919525897,0.047139615781623546,0.0,0.0,0.0,0.0,0.0,0.0016031099999999998,3.7e-07,5.0000000000000004e-08
Latvia,2015,20.13734340487469,0.0,0.0,6.46115664171293,8.061175021263285,0.026506853349302948,0.0,0.0,0.0,0.0,0.0,0.00168984,4.0000000000000003e-07,5.0000000000000004e-08
Malta,2000,11.174166666666666,0.0,0.0,1.566944444444445,0.0,0.0,5.738333333333334,0.0,0.0,0.0,0.0,0.00167394,7e-08,1e-08
Malta,2001,11.460895380599998,0.0,0.0,1.5693566194,0.0,0.0,7.151287,0.0,0.0,0.0,0.0,0.00179283,7e-08,1e-08
Malta,2002,11.152007,0.0,0.0,1.657275,0.0,0.0,7.009400999999999,0.0,0.0,0.0,0.0,0.0017453199999999999,7e-08,1e-08
Malta,2003,13.354728999999999,0.0,0.0,1.8061390000000002,0.0,0.0,7.75721,0.0,0.0,0.0,0.0,0.00190434,7e-08,1e-08
Malta,2004,14.773589,0.0,0.0,1.789857,0.0,0.0,7.388538999999999,0.0,0.0,0.0,0.0,0.0018416600000000002,7e-08,1e-08
Malta,2005,10.468170755230396,0.0,0.0,1.857940355880713,0.0,0.0,8.483333333333338,0.0,0.0,0.0,0.0,0.00197126,8e-08,2e-08
Malta,2006,11.467866402599999,0.0,0.0,1.8531355974000003,0.0,0.0,7.888629000000001,0.0,0.0,0.0,0.0,0.00198577,8e-08,2e-08
Malta,2007,12.565520805299998,0.0,0.0,1.8510271947,0.0,0.0,8.495715,0.0,0.0,0.0,0.0,0.0020273699999999997,8e-08,2e-08
Malta,2008,14.688223869599998,0.0,0.0,1.8531251304,0.0,0.0,7.160591,0.0,0.0,0.0,0.0,0.00201859,8e-08,2e-08
Malta,2009,16.547164000000002,0.0,0.0,1.707284,0.0,0.0,6.729118,0.0,0.0,0.0,0.0,0.0018971099999999998,7e-08,1e-08
Malta,2010,20.98638888888889,0.0,0.0,1.8236111111111113,0.0,0.0,6.724722222222226,0.0,0.0,0.0,0.0,0.00187831,7e-08,1e-08
Malta,2011,19.430949922335003,0.0,0.0,1.8659920305731035,0.0,0.0,6.883055555555552,0.0,0.0,0.0,0.0,0.0019315699999999999,8e-08,2e-08
Malta,2012,17.773888888888848,0.0,0.0,1.9455555555555533,0.0,0.0,7.28305555555556,0.0,0.0,0.0,0.0,0.00205243,8e-08,2e-08
Malta,2013,17.816111111111162,0.0,0.0,1.9505555555555538,0.0,0.0,5.9149999999999965,0.0,0.0,0.0,0.0,0.0016973,6e-08,1e-08
Malta,2014,18.427222222222273,0.0,0.0,2.005277777777774,0.0,0.0,5.778333333333328,0.0,0.0,0.0,0.0,0.0016591199999999998,6e-08,1e-08
Malta,2015,22.313240194176537,0.0,0.0,2.1145323412038564,0.0,0.0,3.0611111111111113,0.0,0.0,0.0,0.0,0.00088961,3e-08,1e-08
Netherlands,2000,504.54611111111126,695.6187684558788,668.5126571993441,96.48166666666684,127.17329530444923,58.13053858342299,7.723133464323967,5.492498396377987,0.01234713,5.8e-07,4e-08,0.04979588,3.41e-06,6.1e-07
Netherlands,2001,526.623845,690.5952149999997,663.5566275347998,98.325835,135.4654428798,62.20943126379999,7.229641217500001,5.5485498383000005,0.012696569999999999,5.699999999999999e-07,4e-08,0.05326992,3.67e-06,6.5e-07
Netherlands,2002,547.525281,634.6814886195999,610.2660680068999,99.73073899999999,139.2126001537,62.735307997599996,6.8320688534,5.7917951262,0.010744370000000001,5.699999999999999e-07,3e-08,0.05440815,3.91e-06,6.800000000000001e-07
Netherlands,2003,553.1879279999999,666.1210429999999,640.7129837444999,100.93793300000003,139.050285012,64.0494945086,7.3278483102,6.3417767795,0.01134031,5.9e-07,4e-08,0.0552936,3.69e-06,6.800000000000001e-07
Netherlands,2004,572.2227489999999,690.1911572827,663.0862807946,104.136183,147.7848110135,61.83663649839999,7.218157988100001,6.4919249641,0.01132467,6.3e-07,4e-08,0.05675091,3.99e-06,7.1e-07
Netherlands,2005,580.9470814157442,698.723928602296,670.9779574567348,104.41051911298372,140.89544004055745,57.664705860748306,6.337804565904075,6.7527592756582715,0.011385590000000001,6.5e-07,4e-08,0.05398985,4.309999999999999e-06,7.7e-07
Netherlands,2006,602.7861247663999,682.3302721129,656.1732450442,106.56096984819999,134.829103243,58.5012955474,6.6082331051,6.3637820188,0.01063415,6.5e-07,4e-08,0.04980169,4.07e-06,7.3e-07
Netherlands,2007,600.8121792876002,664.3537757631,635.2956114673999,108.7694148549,142.0732694001,59.6134895435,6.8199020126,6.707021,0.01056465,6.800000000000001e-07,4e-08,0.05267372,3.7999999999999996e-06,7.3e-07
Netherlands,2008,575.9045524193,667.8389722879001,640.9544938364,109.39752347550001,145.664138082,56.343858557699996,7.0008389939999995,6.9941347642,0.0109363,6.6e-07,4e-08,0.05209063,3.91e-06,7.4e-07
Netherlands,2009,545.373376285,653.3787258422,630.9874546271,104.359381308,152.4249020098,57.8754630341,5.018249750300001,6.698871975299999,0.009729950000000001,5.9e-07,3e-08,0.052319489999999996,4.1900000000000005e-06,7.8e-07
Netherlands,2010,550.9587459152639,688.03261649533,667.3026201891167,107.4178145820439,164.93991490448693,54.30249999999999,4.490924841380794,6.396909214987562,0.00963935,6.1e-07,2e-08,0.05436607,4.48e-06,7.900000000000001e-07
Netherlands,2011,543.5558333333331,676.7229384299949,654.4229396429872,107.95555555555534,147.38833060641727,50.57638888888887,6.054857899869878,6.999165411202423,0.00992143,6.9e-07,3e-08,0.05026074,4.13e-06,7.8e-07
Netherlands,2012,527.2268020107697,673.4009119285329,649.9252329292916,105.81920522753767,122.77332775697334,58.728888888888946,4.928205964350598,8.211111111111098,0.009761770000000001,6.7e-07,3e-08,0.04730351,3.52e-06,8.2e-07
Netherlands,2013,518.7774999999997,658.2023408914421,636.5645631136643,104.38944444444459,119.68194803074401,60.55222222222218,4.902497099186654,8.772777777777781,0.00927921,6.6e-07,3e-08,0.047655949999999996,3.19e-06,8.000000000000001e-07
Netherlands,2014,504.902362437261,672.4646820761451,649.5672990525396,102.97476256488294,113.2199690658193,70.35386796606672,6.821987040045521,9.052219530145948,0.00969212,6.800000000000001e-07,3e-08,0.05132356,2.99e-06,8.4e-07
Netherlands,2015,498.761944444444,713.1899999999999,686.8466673541749,103.62444444444426,101.40944444444443,92.37035224396398,4.117209593094848,8.849166666666669,0.01012941,6.7e-07,3e-08,0.056023800000000006,2.67e-06,9.9e-07
Poland,2000,206.2186111111112,220.33500000000035,207.26742638741158,98.07305555555575,11.976671223263127,407.60042064401523,2.6491657564358646,0.24555547118478632,0.00417308,1.4e-07,3e-08,0.16583641,1.85e-06,2.47e-06
Poland,2001,213.46091209579996,219.52555411630007,204.74959829500008,98.22833117340001,13.3706724507,407.77240908,2.560364270999999,0.286098,0.004554,1.5e-07,3e-08,0.16783819,1.92e-06,2.5e-06
Poland,2002,211.21242999999996,209.51561311630002,194.6397616426,96.955821,16.317133764799998,397.95379414039996,2.4528257315,0.4198431163,0.004537810000000001,1.6e-07,3e-08,0.16315338000000001,1.89e-06,2.42e-06
Poland,2003,221.81741983369992,214.22808899999998,199.1552026478,100.7028194081,18.336120838000003,420.21503288409997,2.2522582405000002,0.0872254652,0.00471903,1.6e-07,3e-08,0.17108853,1.96e-06,2.5400000000000002e-06
Poland,2004,235.5933135832,221.1182647061,205.5560740159,104.19305881719997,19.7600848961,418.63352163540003,2.3818244651999994,0.11383618449999999,0.00496188,1.7000000000000001e-07,3e-08,0.16937280999999998,2.0299999999999996e-06,2.5099999999999997e-06
Poland,2005,237.5331551399072,220.45500000000015,205.46694444444455,105.00504472654438,20.4997334162925,421.1297284767281,1.9913868644321806,0.1519444331840162,0.00477038,1.6e-07,3e-08,0.16877465,2.2799999999999998e-06,2.5499999999999997e-06
Poland,2006,254.75091865710007,251.17513815570004,235.64892905730005,110.63404914959999,21.682552971100005,434.14174900930004,1.9805871391999998,0.12560353479999997,0.00487929,1.6e-07,3e-08,0.17396326,2.43e-06,2.63e-06
Poland,2007,263.9651269161001,258.7959730312,241.7978741566,114.09154161880001,20.967598604799996,425.52282264920007,1.8689396043999997,0.1174627674,0.00552579,1.7000000000000001e-07,3e-08,0.16898503,2.52e-06,2.5899999999999998e-06
Poland,2008,270.5624694566,260.7245819788,243.4795671557,117.1884546605,22.837639919100003,407.20596237050006,1.8945269999999996,0.16049399999999997,0.00544855,1.7000000000000001e-07,3e-08,0.16374044000000001,2.8500000000000002e-06,2.5400000000000002e-06
Poland,2009,268.3801360096,262.40885299999997,245.57344165969997,112.30528154520002,21.2294514275,390.3914489772001,1.7654395824000002,0.1895687674,0.005293180000000001,1.7000000000000001e-07,3e-08,0.15755078,3.2999999999999997e-06,2.53e-06
Poland,2010,278.9812865783646,280.75368671472484,261.3067626031132,118.68995607857815,24.111617018420112,398.3838313879316,1.8619464511703896,0.20027779015196984,0.0060128000000000004,1.8e-07,3e-08,0.16320476,3.66e-06,2.64e-06
Poland,2011,278.49472222222255,293.0697222222224,275.9205291243948,121.49222222222195,25.0308062731993,405.3220538434688,1.9470484703737443,0.20749998539328482,0.00583495,1.7000000000000001e-07,3e-08,0.16464251000000002,4.07e-06,2.69e-06
Poland,2012,265.5822222222223,303.7267861524982,286.75240656854163,122.16916666666624,28.063030627083517,387.77920516478497,1.6202807828509864,0.1841667924415648,0.0057785,1.5e-07,2e-08,0.15989687,4.83e-06,2.7200000000000002e-06
Poland,2013,250.54083333333367,295.08567835160363,282.7759046630693,123.55750000000033,27.763868191578908,393.7284503666581,1.5877751656953332,0.17472207662363523,0.00488857,1.2e-07,2e-08,0.16134142,4.2999999999999995e-06,2.67e-06
Poland,2014,249.32250000000002,292.44333333333327,281.8132703251939,125.34694444444482,28.444430480340912,368.80644702219234,1.3091654305822538,0.17055555555555554,0.00453962,1.2e-07,2e-08,0.15228832,4.48e-06,2.5499999999999997e-06
Poland,2015,263.2490645371803,319.26583333333315,304.19077283920444,127.81856111065649,33.28417782323606,371.13138888888864,1.4602790410648778,0.3688888888888894,0.0052765,1.5e-07,3e-08,0.15365179,4.48e-06,2.56e-06
Portugal,2000,158.81982025094277,145.99694444444435,136.60305555555547,38.3730099126321,14.131686271477054,37.18948994123981,19.568635050944167,1.0130567949067204,0.0022921300000000003,7e-08,1e-08,0.01911743,4.6000000000000004e-07,3.7e-07
Portugal,2001,158.39013300000002,155.309346,145.13077,39.937419999999996,13.944367674,34.434132609799995,22.331925999999996,1.015299,0.00240607,7e-08,1e-08,0.01951048,4.6000000000000004e-07,3.8e-07
Portugal,2002,161.584894,147.992913,138.29000399999998,41.47258,17.6462858761,38.36058063859999,27.032905047199996,1.0594982334999998,0.0025329000000000003,8e-08,1e-08,0.02282634,5.1e-07,4.5000000000000003e-07
Portugal,2003,160.05554899999993,157.97610499999996,146.72059099999996,43.163582,16.38667,36.49261400000003,14.615421,1.108339,0.0025161100000000002,8e-08,1e-08,0.01833249,4.8e-07,4.0000000000000003e-07
Portugal,2004,166.23499005270003,159.01117499999998,148.80352399999998,44.6682953578,23.109973,37.526520999999995,13.210516999999998,1.118806,0.0025628400000000003,8e-08,1e-08,0.01975826,5.1e-07,4.8e-07
Portugal,2005,163.04555555555538,162.26083333333332,151.29861111111114,46.3219444444445,26.850833333333316,38.598611111111026,20.856388888889004,1.2344444444444413,0.0024599,8e-08,1e-08,0.022882180000000002,5.6e-07,5.3e-07
Portugal,2006,152.82725988630003,171.65182199999998,161.43603,47.7627850564,24.628850999999997,38.09988,11.685823999999998,1.211846,0.0024995300000000002,8e-08,1e-08,0.019873259999999997,5.1e-07,4.9e-07
Portugal,2007,149.77066258850002,155.7010748706,145.6864818706,49.02417241409999,26.090872953799998,31.48605705170002,10.957841009900001,1.1211375824,0.0024197399999999997,7e-08,1e-08,0.01730399,4.6999999999999995e-07,4.6999999999999995e-07
Portugal,2008,141.589435,150.394508,139.9042322995,48.351725,29.709998,28.431860999999998,10.471651999999999,1.095546,0.0024798800000000003,8e-08,1e-08,0.01663977,4.9e-07,5e-07
Portugal,2009,133.85831713759998,134.00318599999997,124.02348079029997,47.8548790722,29.915849,32.958257,8.471292,1.17463,0.00217937,6e-08,1e-08,0.01708576,5.4e-07,5.2e-07
Portugal,2010,132.9924999999999,141.13638888888937,132.840555555556,49.88833333333315,32.26773481891317,18.576641935105886,6.675003640303212,1.2105539439139847,0.00230102,6e-08,1e-08,0.01207595,5.2e-07,4.5000000000000003e-07
Portugal,2011,126.70611111111106,127.59055555555597,121.18815788789027,48.36388888888902,31.972777777777658,25.592777777777712,5.681111111111114,1.2049999999999996,0.00212634,5.0000000000000004e-08,1e-08,0.01422611,5.5e-07,4.8e-07
Portugal,2012,113.62305555555575,138.06661782205694,130.69902537386736,46.24055555555562,25.2919775368258,33.833099823262266,4.627506054694403,1.0347235760691942,0.0021417,5.0000000000000004e-08,1e-08,0.01518389,5.3e-07,4.4e-07
Portugal,2013,112.76916666666689,165.91281340363037,155.15309118140812,45.2572222222223,22.84891606590835,30.529758535010085,3.3608373307895483,1.1525013708112941,0.0025473,5.0000000000000004e-08,1e-08,0.012570959999999999,5.1e-07,3.4000000000000003e-07
Portugal,2014,114.59666666666644,150.40694444444463,142.52111111111134,45.195277777777704,20.825528914530736,31.011349217669622,2.850551908991541,0.975832085001688,0.00212306,4e-08,0.0,0.01232106,4.9e-07,3.3e-07
Portugal,2015,115.61805555555586,179.61694444444402,169.82722222222182,45.81222222222231,27.157470982104762,37.74995966397701,2.9072191158438683,1.1544432109160285,0.00236496,4e-08,0.0,0.015881,5.5e-07,4.4e-07
Romania,2000,80.32378233417876,130.77055555555572,118.39108886205184,33.93892666134186,40.78995949863868,63.02882984476959,19.742456935890367,0.03444441217762324,0.00403349,1.3e-07,2e-08,0.03595865,6.2e-07,3.8e-07
Romania,2001,93.1563,143.71656199999998,132.2827127659,36.293741,34.4175743973,63.253247488999996,27.9353196619,0.011567895799999995,0.0034951599999999998,2.3000000000000002e-07,3e-08,0.038498489999999996,7e-07,4.2e-07
Romania,2002,90.91093718649998,157.66063752840003,148.22721330600004,35.586791678999994,37.0352356078,64.41373354820001,18.970943457599997,0.0453554881,0.0037956500000000002,9e-08,1e-08,0.03500154,6e-07,3.9e-07
Romania,2003,89.70476174189999,143.8565431223,132.9511853949,37.5010389722,45.4942174854,77.1903642069,16.6058157182,0.025586,0.00345588,1.0000000000000001e-07,1e-08,0.03823378,6.3e-07,4.2e-07
Romania,2004,86.86634010399997,156.06486254989997,144.62280346619997,38.7747391272,42.31642046859999,73.2504035137,10.157825986599999,0.0023262326000000008,0.0035110799999999998,1.0000000000000001e-07,1e-08,0.033535220000000004,5.2e-07,3.7e-07
Romania,2005,88.41110042195854,176.9897873227588,162.8300009051275,38.85892640710204,38.87620968305897,69.56846645109025,9.00665105872012,0.010833359393472426,0.0039814,1.2e-07,2e-08,0.033378910000000005,5e-07,3.8e-07
Romania,2006,99.80594462759994,171.683223,158.1828551153,40.9653501104,43.032520041000005,82.0542851365,6.785432088200001,0.0,0.00408763,1.4e-07,2e-08,0.0364246,5.3e-07,4.4e-07
Romania,2007,105.237544,165.89509737139997,154.73223458049998,40.97365299999999,42.319342622399994,83.068439163,4.5286960651,0.0,0.00382104,9e-08,1e-08,0.042849910000000005,5.9e-07,4.9e-07
Romania,2008,101.89700967249995,167.7913906195,155.54197484239998,42.58075036499999,38.355089766700004,85.156687073,2.9767635116999998,0.0,0.00399343,1.1e-07,2e-08,0.04039728,5.4e-07,5.1e-07
Romania,2009,91.05450139549998,146.7605787779,136.80675276050002,38.02184921279999,27.985937027200002,73.56641340850001,4.2356232052,0.0,0.0031057199999999997,8e-08,1e-08,0.03346834,4.6999999999999995e-07,4.4e-07
Romania,2010,90.11290555555556,133.46006460355892,122.70210302389577,41.46805555555549,27.02476820129087,67.9191652183075,3.552029228745736,0.0,0.0033298299999999998,8e-08,1e-08,0.03055459,4.5000000000000003e-07,4.1e-07
Romania,2011,92.39020077777784,127.8358333333337,119.1080405777678,42.6244444444445,29.56527777777783,83.18472222222232,4.29974241562557,0.0,0.00269187,7e-08,1e-08,0.035067730000000005,5.3e-07,5e-07
Romania,2012,87.1034228441131,117.46916666666677,108.99531710109225,42.05809970863032,29.970000000000027,75.57332454629976,3.765125180551394,0.0,0.00252966,6e-08,1e-08,0.03197159,4.6999999999999995e-07,4.5000000000000003e-07
Romania,2013,84.56322916755417,121.00222222222213,112.95102312475977,40.317177443667795,26.834756563127193,56.69951701072335,2.5530538803853635,0.0005555562665783944,0.00240502,6e-08,1e-08,0.025331330000000003,4.2e-07,3.5e-07
Romania,2014,85.52663400091332,139.37472222222206,131.8590441605455,41.956991032833756,25.199286765369955,56.324579886045015,2.3647900221429756,0.0005555785879459657,0.00196628,4e-08,1e-08,0.02556242,4.8e-07,3.6e-07
Romania,2015,94.16443201870563,137.8119444444446,130.5717050450155,43.133936119928784,28.862222222222115,57.531944439751236,2.145277777777773,0.000555555555555565,0.00186185,4e-08,1e-08,0.02573201,4.9e-07,3.6e-07
Sweden,2000,184.7127777777774,266.65410552303626,260.73188330081405,128.72555555555545,5.115271588002955,5.367490009860634,3.2344198750788866,2.6833185178988943,0.00206061,4e-08,0.0,0.00638538,9.300000000000001e-07,4.6999999999999995e-07
Sweden,2001,179.89026744400002,252.37712366019997,247.33272746019998,132.2945400107,5.370600254999999,5.828257385899999,4.332000666299999,2.7784566600999994,0.00219802,4e-08,1e-08,0.007745350000000001,1.13e-06,5.5e-07
Sweden,2002,188.76948471780003,229.53675522679993,225.57018451209993,130.9266510443,6.071997646599999,6.903025809400001,6.6737095399,2.8224530664,0.00213086,4e-08,0.0,0.008741510000000001,1.26e-06,5.9e-07
Sweden,2003,175.7565557191,229.18152734379998,222.6739684033,129.44348028439998,6.250867046599999,8.0785467837,7.9838036865,3.6204139991,0.0020714899999999996,4e-08,0.0,0.009931889999999999,1.38e-06,6.3e-07
Sweden,2004,175.92326548890003,240.11065411629994,231.77310711629994,130.36045391460001,6.1573254447000005,7.9101843909,5.3383396817,3.6297918496,0.00218483,4e-08,1e-08,0.00890898,1.37e-06,7.2e-07
Sweden,2005,173.41694444444406,233.30861111111088,225.42249999999976,130.6980555555557,5.694720423762054,5.9091952210858985,3.6866659418548084,4.330550307644208,0.00222441,4e-08,1e-08,0.00800676,1.51e-06,7.4e-07
Sweden,2006,163.60735099999997,234.3738976162,225.9119096162,130.806099,5.2613902519,6.6800411445,4.215678453,4.760175747199999,0.00216501,4e-08,0.0,0.00810508,1.64e-06,7.6e-07
Sweden,2007,162.278042,211.68960878369998,204.0266017837,131.08173,6.0101951288,5.0286879079,2.626815765,3.7784680251,0.00192077,3e-08,0.0,0.00783707,1.64e-06,7.900000000000001e-07
Sweden,2008,170.831676726,247.12789036360002,238.0262523636,128.6485331499,5.4136846367,5.8335839259,1.8234321122000001,4.216832614199999,0.00219276,4e-08,0.0,0.0074677,1.75e-06,8.2e-07
Sweden,2009,154.46617099999995,239.7366094748,229.9546164748,123.38615899999999,7.915299730100001,6.1193660550999995,2.588591444,4.2333052299,0.0020922600000000003,4e-08,0.0,0.00797862,1.95e-06,8.6e-07
Sweden,2010,172.86622415857866,244.54926880072927,235.8237132451737,131.2075986807472,10.808568990555763,6.944119996885391,5.0119209073721755,5.1022079406874274,0.00213036,4e-08,0.0,0.01034616,2.1899999999999998e-06,9.499999999999999e-07
Sweden,2011,172.87444444444466,231.3573992031933,223.3173992031933,124.62694444444426,7.868036098448192,5.986563989020282,2.240824004630707,5.416938738955629,0.00201804,4e-08,0.0,0.00810562,1.8200000000000002e-06,8.3e-07
Sweden,2012,155.97767194320073,252.95535016280039,243.4842390516893,127.28601241866745,5.83864162637429,5.0016182309158355,2.09054253158809,5.738321980640889,0.00219266,4e-08,0.0,0.0075347,1.87e-06,8.100000000000001e-07
Sweden,2013,150.14722222222207,207.21425099923607,199.49466500179676,125.01611111111146,5.667109710844507,5.636939256553478,1.2766654917025444,6.245827585059118,0.0019039600000000001,4e-08,0.0,0.0073076899999999995,1.89e-06,8.6e-07
Sweden,2014,148.45444444444468,235.1664149631898,223.9151422562279,122.19111111111118,4.096673538885836,3.763055555555558,0.9322222222222222,6.512499999999997,0.0020631,4e-08,0.0,0.006311649999999999,1.66e-06,7.7e-07
Sweden,2015,129.34972222222243,245.56611111111127,234.15722222222237,124.85888888888867,4.171668692166181,3.4822435868536323,0.7949996541475094,6.751114526315345,,,,0.00612501,1.6699999999999999e-06,8.100000000000001e-07
Slovenia,2000,27.99209974376753,1.9861111111111112,1.7816666666666663,10.521166871299313,0.6855555555555553,14.127499999999998,0.14601851851851846,0.0,3.173e-05,0.0,0.0,0.00553689,6e-08,8e-08
Slovenia,2001,29.123574555799998,0.0,0.0,10.941400841899998,0.7059409999999999,15.215528999999998,0.37329997260000003,0.0,2.749e-05,0.0,0.0,0.00625604,7e-08,9e-08
Slovenia,2002,28.418802487099995,0.0,0.0,11.6892027476,0.6873093911,17.007711999999998,0.1583812942,0.0,1.9829999999999998e-05,0.0,0.0,0.0065152100000000004,7e-08,9e-08
Slovenia,2003,28.810998999999995,0.0,0.0,12.047517000000001,0.8711157261000001,15.977294348899997,0.1244430934,0.010467,1.43e-05,0.0,0.0,0.00624626,7e-08,9e-08
Slovenia,2004,29.707104223400005,0.0,0.0,12.5466973014,0.7257119999999999,16.34015,0.1009001355,0.006978,0.0,0.0,0.0,0.00638905,7e-08,9e-08
Slovenia,2005,30.09653056604943,0.0,0.0,12.742004917641196,0.6762312232289124,16.416666140883375,0.10236111111111097,0.007222222222222228,0.0,0.0,0.0,0.0064173500000000005,8e-08,9e-08
Slovenia,2006,30.909050999999998,0.0,0.0,13.165159999999997,0.7768839999999999,16.796046,0.12630494009999998,0.005815,0.0,0.0,0.0,0.00646595,9e-08,9e-08
Slovenia,2007,30.604016917699997,0.0,0.0,13.2643834384,1.0415457003000002,17.1414678159,0.093093498,0.005815,0.0,0.0,0.0,0.0066946,9e-08,1.0000000000000001e-07
Slovenia,2008,35.673862,0.0,0.0,12.806955999999998,1.1103665742000002,16.6272500408,0.057571989000000004,0.004652232599999999,0.0,0.0,0.0,0.00645766,1.4e-07,1.0000000000000001e-07
Slovenia,2009,30.169132024599996,0.0,0.0,11.292634866599998,1.4537499999999999,15.658632,0.08141,0.006978,0.0,0.0,0.0,0.0061733199999999995,1.1e-07,9e-08
Slovenia,2010,30.48338643108815,0.0,0.0,11.94477846311602,1.3031099348768795,16.059485143358547,0.03481405903074091,0.005833247219761794,0.0,0.0,0.0,0.00629482,1.1e-07,9e-08
Slovenia,2011,30.262633989788736,0.0,0.0,12.5007732094704,1.197222222222223,16.23944444444445,0.04666666666666665,0.07305555555555553,0.0,0.0,0.0,0.00632395,1.2e-07,1.0000000000000001e-07
Slovenia,2012,29.589444444444386,0.0,0.0,12.427777777777806,1.2894639504492016,15.4257889048567,0.035556093420400114,0.08777910563161272,0.0,0.0,0.0,0.00601868,1.1e-07,9e-08
Slovenia,2013,28.00930683366766,0.0,0.0,12.479103810411305,1.2059296784670603,14.901900851772638,0.023704076216019915,0.08611246437850972,0.0,0.0,0.0,0.00573875,1.1e-07,9e-08
Slovenia,2014,27.544859486768775,0.0,0.0,12.458823810725962,0.7883122401955587,11.610879170845891,0.09471979102324335,0.08916488497249166,0.0,0.0,0.0,0.00441925,9e-08,7e-08
Slovenia,2015,27.246530436385388,0.0,0.0,12.788267652099217,0.8970606174002188,11.831627482761588,0.04734863369186886,0.09166666666666672,0.0,0.0,0.0,0.004531479999999999,1.0000000000000001e-07,7e-08
United Kingdom,2000,881.9987619160335,1032.489247566184,968.5289608630582,329.8280067441339,302.38238085825384,325.95278706812405,8.938305429839414,1.6744447010798262,0.01727687,4.6000000000000004e-07,8e-08,0.15825751999999998,3.83e-06,2.2e-06
United Kingdom,2001,868.1707213271002,981.2828183055002,914.6487333055002,332.91942459549995,288.48215,357.932802356,8.092163652900002,6.301133999999999,0.01708375,4.6999999999999995e-07,8e-08,0.16906814,4.139999999999999e-06,2.4100000000000002e-06
United Kingdom,2002,860.7490929999998,1006.2806876936,932.3852856592,333.80426000000006,303.62518188309997,346.0134520265,5.211399859900001,7.802567000000001,0.01920747,5.3e-07,9e-08,0.16479666,4.2900000000000004e-06,2.3e-06
United Kingdom,2003,884.3859049999998,1011.4541219999998,940.7374597101998,336.966457,302.79530846299997,379.65855251979997,9.457047892499999,7.8223329990999995,0.01862756,5.3e-07,9e-08,0.1739077,4.63e-06,2.5e-06
United Kingdom,2004,904.0092040000002,1078.0024728496999,1007.8754435351999,339.31571700000006,317.7839353489,347.5827095583,9.604084354300001,6.3057899542,0.01833,5e-07,8e-08,0.17368719,4.65e-06,2.44e-06
United Kingdom,2005,917.1855555555553,1028.13702582269,957.4212507681725,348.87416666666695,309.7908302953659,359.1423155662407,11.63976031171705,6.275000948970626,0.01988474,5.3e-07,9e-08,0.17300829,5.39e-06,2.5899999999999998e-06
United Kingdom,2006,916.4922389139996,992.8457732163001,929.7221984828002,345.4123788528,291.2964226407,397.14098669859993,11.619669071,5.3079286273,0.01800396,4.6000000000000004e-07,7e-08,0.18200470000000002,5.34e-06,2.8e-06
United Kingdom,2007,885.0374747033001,972.9343991163,916.4059910666,341.94188648590006,331.2431172168,364.2129956106,9.7109689389,5.438184510999999,0.01780809,4.4e-07,7e-08,0.17786415,5.49e-06,2.5899999999999998e-06
United Kingdom,2008,858.4972479734,965.3090157477997,903.4003016265997,341.9544483978,348.88904233029996,331.56506492439996,14.3758423022,4.4984788828,0.01726532,4.2e-07,7e-08,0.17286935,5.87e-06,2.43e-06
United Kingdom,2009,816.3870803212999,897.101742276,844.5707578191,321.86933058770006,332.102572356,273.0022194628,13.8373287593,4.790393627299999,0.01646905,3.9e-07,6e-08,0.15119829,5.62e-06,2.08e-06
United Kingdom,2010,809.4610804415184,874.6658333333351,820.2138235719091,328.95704898257935,346.99441399258325,283.0433362815723,8.795802353314524,3.941666511555294,0.016982979999999998,4.0000000000000003e-07,6e-08,0.15727075,5.76e-06,2.17e-06
United Kingdom,2011,786.9091666666659,894.6274999999972,841.9536949860259,317.9436111111107,285.79451013816794,288.0744057404678,4.784162760146083,7.123884118198215,0.01737621,4.1e-07,6e-08,0.14440318,5.9e-06,2.2e-06
United Kingdom,2012,773.6144444444448,860.5026946577514,808.6740835466403,318.0841666666661,203.9610760881275,379.62243349238014,5.437221269653025,7.98388749015873,0.01580244,3.9e-07,6e-08,0.15809138,6.21e-06,2.81e-06
United Kingdom,2013,759.7459559456985,784.8776912940358,741.642894637217,316.3853310306871,195.5707696111342,346.13419493888915,3.5290679186837477,5.442778729984446,0.01467571,3.5e-07,5.0000000000000004e-08,0.14708081,6.84e-06,2.73e-06
United Kingdom,2014,773.1512584501456,729.3585151256257,692.1789014760673,303.01883550820213,206.3739762986904,264.5880891833674,2.8999960818999333,8.10472155637805,0.01348431,3.1e-07,5.0000000000000004e-08,0.12379728999999999,7.51e-06,2.34e-06
United Kingdom,2015,789.1490350058037,734.6014868553075,695.4291921163766,302.8507809325348,200.6833064642404,201.58185111810207,3.427249595464666,10.206388888888926,0.01350149,3.2e-07,5.0000000000000004e-08,0.10348631,9.13e-06,2.17e-06
