Country,Years,ots_clm_temp_crop_yield[%],ots_clm_temp_global[°C]
Austria,1990,1.0,7.09
Belgium,1990,1.0,10.82
Bulgaria,1990,1.0,11.14
Croatia,1990,1.0,11.45
Cyprus,1990,1.0,17.88
Czech Republic,1990,1.0,8.81
Denmark,1990,1.0,9.5
Estonia,1990,1.0,6.66
Finland,1990,1.0,2.82
France,1990,1.0,11.77
Germany,1990,1.0,9.89
Greece,1990,1.0,14.32
Hungary,1990,1.0,11.03
Ireland,1990,1.0,9.86
Italy,1990,1.0,12.28
Latvia,1990,1.0,7.39
Lithuania,1990,1.0,8.02
Luxembourg,1990,1.0,10.4
Malta,1990,1.0,19.69
Netherlands,1990,1.0,10.66
Poland,1990,1.0,9.13
Portugal,1990,1.0,15.75
Romania,1990,1.0,9.68
Slovakia,1990,1.0,8.18
Slovenia,1990,1.0,8.93
Spain,1990,1.0,14.07
Sweden,1990,1.0,3.52
Switzerland,1990,1.0,5.97
United Kingdom,1990,1.0,9.35
Austria,1991,1.0,6.19
Belgium,1991,1.0,9.65
Bulgaria,1991,1.0,9.87
Croatia,1991,1.0,10.39
Cyprus,1991,1.0,17.67
Czech Republic,1991,1.0,7.59
Denmark,1991,1.0,8.31
Estonia,1991,1.0,6.25
Finland,1991,1.0,2.17
France,1991,1.0,10.73
Germany,1991,1.0,8.76
Greece,1991,1.0,13.11
Hungary,1991,1.0,9.8
Ireland,1991,1.0,9.34
Italy,1991,1.0,11.55
Latvia,1991,1.0,6.9
Lithuania,1991,1.0,7.17
Luxembourg,1991,1.0,9.5
Malta,1991,1.0,18.77
Netherlands,1991,1.0,9.37
Poland,1991,1.0,7.87
Portugal,1991,1.0,15.35
Romania,1991,1.0,8.42
Slovakia,1991,1.0,7.03
Slovenia,1991,1.0,8.0
Spain,1991,1.0,13.36
Sweden,1991,1.0,2.47
Switzerland,1991,1.0,4.92
United Kingdom,1991,1.0,8.5
Austria,1992,1.0,7.45
Belgium,1992,1.0,10.36
Bulgaria,1992,1.0,10.43
Croatia,1992,1.0,11.6
Cyprus,1992,1.0,17.0
Czech Republic,1992,1.0,8.82
Denmark,1992,1.0,9.14
Estonia,1992,1.0,6.44
Finland,1992,1.0,2.59
France,1992,1.0,11.08
Germany,1992,1.0,9.72
Greece,1992,1.0,13.44
Hungary,1992,1.0,11.05
Ireland,1992,1.0,9.31
Italy,1992,1.0,12.22
Latvia,1992,1.0,7.04
Lithuania,1992,1.0,7.56
Luxembourg,1992,1.0,10.18
Malta,1992,1.0,19.12
Netherlands,1992,1.0,10.38
Poland,1992,1.0,8.76
Portugal,1992,1.0,15.31
Romania,1992,1.0,9.02
Slovakia,1992,1.0,8.14
Slovenia,1992,1.0,9.2
Spain,1992,1.0,13.32
Sweden,1992,1.0,2.95
Switzerland,1992,1.0,5.5
United Kingdom,1992,1.0,8.66
Austria,1993,1.0,6.76
Belgium,1993,1.0,9.8
Bulgaria,1993,1.0,10.22
Croatia,1993,1.0,10.96
Cyprus,1993,1.0,17.74
Czech Republic,1993,1.0,8.0
Denmark,1993,1.0,7.75
Estonia,1993,1.0,5.17
Finland,1993,1.0,1.64
France,1993,1.0,10.75
Germany,1993,1.0,8.77
Greece,1993,1.0,13.63
Hungary,1993,1.0,10.25
Ireland,1993,1.0,9.15
Italy,1993,1.0,11.92
Latvia,1993,1.0,5.85
Lithuania,1993,1.0,6.39
Luxembourg,1993,1.0,9.51
Malta,1993,1.0,19.18
Netherlands,1993,1.0,9.36
Poland,1993,1.0,7.83
Portugal,1993,1.0,14.65
Romania,1993,1.0,8.49
Slovakia,1993,1.0,7.55
Slovenia,1993,1.0,8.54
Spain,1993,1.0,12.86
Sweden,1993,1.0,1.94
Switzerland,1993,1.0,5.03
United Kingdom,1993,1.0,8.28
Austria,1994,1.0,8.01
Belgium,1994,1.0,10.83
Bulgaria,1994,1.0,11.65
Croatia,1994,1.0,12.23
Cyprus,1994,1.0,18.6
Czech Republic,1994,1.0,9.15
Denmark,1994,1.0,8.72
Estonia,1994,1.0,5.37
Finland,1994,1.0,1.67
France,1994,1.0,11.95
Germany,1994,1.0,9.98
Greece,1994,1.0,14.62
Hungary,1994,1.0,11.65
Ireland,1994,1.0,9.31
Italy,1994,1.0,12.81
Latvia,1994,1.0,6.1
Lithuania,1994,1.0,6.84
Luxembourg,1994,1.0,10.74
Malta,1994,1.0,19.87
Netherlands,1994,1.0,10.36
Poland,1994,1.0,8.79
Portugal,1994,1.0,15.42
Romania,1994,1.0,10.27
Slovakia,1994,1.0,8.77
Slovenia,1994,1.0,9.87
Spain,1994,1.0,13.96
Sweden,1994,1.0,1.84
Switzerland,1994,1.0,6.26
United Kingdom,1994,1.0,8.89
Austria,1995,1.0,6.77
Belgium,1995,1.0,10.63
Bulgaria,1995,1.0,10.5
Croatia,1995,1.0,10.92
Cyprus,1995,1.0,17.93
Czech Republic,1995,1.0,8.17
Denmark,1995,1.0,8.43
Estonia,1995,1.0,6.25
Finland,1995,1.0,2.24
France,1995,1.0,11.58
Germany,1995,1.0,9.21
Greece,1995,1.0,13.72
Hungary,1995,1.0,10.52
Ireland,1995,1.0,9.9
Italy,1995,1.0,11.8
Latvia,1995,1.0,6.76
Lithuania,1995,1.0,7.06
Luxembourg,1995,1.0,10.25
Malta,1995,1.0,19.26
Netherlands,1995,1.0,10.18
Poland,1995,1.0,8.16
Portugal,1995,1.0,15.97
Romania,1995,1.0,8.93
Slovakia,1995,1.0,7.66
Slovenia,1995,1.0,8.58
Spain,1995,1.0,14.33
Sweden,1995,1.0,2.09
Switzerland,1995,1.0,5.28
United Kingdom,1995,1.0,9.24
Austria,1996,1.0,5.72
Belgium,1996,1.0,8.82
Bulgaria,1996,1.0,10.04
Croatia,1996,1.0,10.27
Cyprus,1996,1.0,18.31
Czech Republic,1996,1.0,6.5
Denmark,1996,1.0,6.89
Estonia,1996,1.0,4.78
Finland,1996,1.0,1.57
France,1996,1.0,10.62
Germany,1996,1.0,7.47
Greece,1996,1.0,13.42
Hungary,1996,1.0,9.58
Ireland,1996,1.0,9.03
Italy,1996,1.0,11.66
Latvia,1996,1.0,5.19
Lithuania,1996,1.0,5.55
Luxembourg,1996,1.0,8.52
Malta,1996,1.0,19.16
Netherlands,1996,1.0,8.3
Poland,1996,1.0,6.6
Portugal,1996,1.0,15.1
Romania,1996,1.0,8.45
Slovakia,1996,1.0,6.53
Slovenia,1996,1.0,7.87
Spain,1996,1.0,13.51
Sweden,1996,1.0,1.46
Switzerland,1996,1.0,4.51
United Kingdom,1996,1.0,8.26
Austria,1997,1.0,6.85
Belgium,1997,1.0,10.42
Bulgaria,1997,1.0,9.96
Croatia,1997,1.0,10.9
Cyprus,1997,1.0,17.77
Czech Republic,1997,1.0,7.87
Denmark,1997,1.0,8.51
Estonia,1997,1.0,5.85
Finland,1997,1.0,2.09
France,1997,1.0,11.88
Germany,1997,1.0,9.22
Greece,1997,1.0,13.48
Hungary,1997,1.0,10.15
Ireland,1997,1.0,10.08
Italy,1997,1.0,12.35
Latvia,1997,1.0,6.37
Lithuania,1997,1.0,6.83
Luxembourg,1997,1.0,10.17
Malta,1997,1.0,19.46
Netherlands,1997,1.0,10.04
Poland,1997,1.0,7.85
Portugal,1997,1.0,15.95
Romania,1997,1.0,8.45
Slovakia,1997,1.0,7.23
Slovenia,1997,1.0,8.76
Spain,1997,1.0,14.4
Sweden,1997,1.0,2.81
Switzerland,1997,1.0,5.7
United Kingdom,1997,1.0,9.45
Austria,1998,1.0,7.13
Belgium,1998,1.0,10.29
Bulgaria,1998,1.0,10.72
Croatia,1998,1.0,11.19
Cyprus,1998,1.0,19.31
Czech Republic,1998,1.0,8.48
Denmark,1998,1.0,8.19
Estonia,1998,1.0,5.4
Finland,1998,1.0,1.07
France,1998,1.0,11.27
Germany,1998,1.0,9.36
Greece,1998,1.0,14.28
Hungary,1998,1.0,10.63
Ireland,1998,1.0,9.9
Italy,1998,1.0,12.19
Latvia,1998,1.0,6.14
Lithuania,1998,1.0,6.72
Luxembourg,1998,1.0,9.84
Malta,1998,1.0,19.5
Netherlands,1998,1.0,10.17
Poland,1998,1.0,8.23
Portugal,1998,1.0,15.64
Romania,1998,1.0,8.98
Slovakia,1998,1.0,7.84
Slovenia,1998,1.0,8.95
Spain,1998,1.0,13.95
Sweden,1998,1.0,1.85
Switzerland,1998,1.0,5.42
United Kingdom,1998,1.0,9.16
Austria,1999,1.0,7.12
Belgium,1999,1.0,10.88
Bulgaria,1999,1.0,11.35
Croatia,1999,1.0,11.31
Cyprus,1999,1.0,19.23
Czech Republic,1999,1.0,8.69
Denmark,1999,1.0,8.91
Estonia,1999,1.0,6.63
Finland,1999,1.0,2.18
France,1999,1.0,11.71
Germany,1999,1.0,9.82
Greece,1999,1.0,14.85
Hungary,1999,1.0,10.76
Ireland,1999,1.0,9.88
Italy,1999,1.0,12.35
Latvia,1999,1.0,7.25
Lithuania,1999,1.0,7.79
Luxembourg,1999,1.0,10.42
Malta,1999,1.0,19.91
Netherlands,1999,1.0,10.76
Poland,1999,1.0,8.89
Portugal,1999,1.0,15.36
Romania,1999,1.0,9.67
Slovakia,1999,1.0,8.1
Slovenia,1999,1.0,8.95
Spain,1999,1.0,13.78
Sweden,1999,1.0,2.53
Switzerland,1999,1.0,5.47
United Kingdom,1999,1.0,9.34
Austria,2000,1.0,7.95
Belgium,2000,1.0,10.92
Bulgaria,2000,1.0,11.55
Croatia,2000,1.0,12.36
Cyprus,2000,1.0,18.69
Czech Republic,2000,1.0,9.51
Denmark,2000,1.0,9.23
Estonia,2000,1.0,7.02
Finland,2000,1.0,3.35
France,2000,1.0,11.85
Germany,2000,1.0,10.18
Greece,2000,1.0,14.62
Hungary,2000,1.0,11.89
Ireland,2000,1.0,9.49
Italy,2000,1.0,12.64
Latvia,2000,1.0,7.62
Lithuania,2000,1.0,8.16
Luxembourg,2000,1.0,10.64
Malta,2000,1.0,19.59
Netherlands,2000,1.0,10.73
Poland,2000,1.0,9.5
Portugal,2000,1.0,15.35
Romania,2000,1.0,10.17
Slovakia,2000,1.0,8.87
Slovenia,2000,1.0,9.95
Spain,2000,1.0,13.82
Sweden,2000,1.0,3.48
Switzerland,2000,1.0,6.1
United Kingdom,2000,1.0,9.08
Austria,2001,1.0,6.94
Belgium,2001,1.0,10.47
Bulgaria,2001,1.0,11.4
Croatia,2001,1.0,11.42
Cyprus,2001,1.0,19.25
Czech Republic,2001,1.0,8.21
Denmark,2001,1.0,8.36
Estonia,2001,1.0,6.06
Finland,2001,1.0,1.88
France,2001,1.0,11.39
Germany,2001,1.0,9.27
Greece,2001,1.0,14.77
Hungary,2001,1.0,10.73
Ireland,2001,1.0,9.44
Italy,2001,1.0,12.53
Latvia,2001,1.0,6.69
Lithuania,2001,1.0,7.1
Luxembourg,2001,1.0,10.46
Malta,2001,1.0,20.01
Netherlands,2001,1.0,10.18
Poland,2001,1.0,8.32
Portugal,2001,1.0,15.39
Romania,2001,1.0,9.5
Slovakia,2001,1.0,7.81
Slovenia,2001,1.0,9.16
Spain,2001,1.0,13.91
Sweden,2001,1.0,2.07
Switzerland,2001,1.0,5.52
United Kingdom,2001,1.0,8.82
Austria,2002,1.0,7.69
Belgium,2002,1.0,10.93
Bulgaria,2002,1.0,11.45
Croatia,2002,1.0,11.95
Cyprus,2002,1.0,18.98
Czech Republic,2002,1.0,9.04
Denmark,2002,1.0,9.29
Estonia,2002,1.0,6.27
Finland,2002,1.0,2.01
France,2002,1.0,11.84
Germany,2002,1.0,9.81
Greece,2002,1.0,14.55
Hungary,2002,1.0,11.64
Ireland,2002,1.0,9.79
Italy,2002,1.0,12.65
Latvia,2002,1.0,7.07
Lithuania,2002,1.0,7.84
Luxembourg,2002,1.0,10.54
Malta,2002,1.0,19.5
Netherlands,2002,1.0,10.64
Poland,2002,1.0,9.15
Portugal,2002,1.0,15.03
Romania,2002,1.0,10.02
Slovakia,2002,1.0,8.49
Slovenia,2002,1.0,9.6
Spain,2002,1.0,13.91
Sweden,2002,1.0,2.71
Switzerland,2002,1.0,6.09
United Kingdom,2002,1.0,9.46
Austria,2003,1.0,7.18
Belgium,2003,1.0,10.83
Bulgaria,2003,1.0,10.67
Croatia,2003,1.0,11.58
Cyprus,2003,1.0,19.06
Czech Republic,2003,1.0,8.7
Denmark,2003,1.0,8.81
Estonia,2003,1.0,5.75
Finland,2003,1.0,2.31
France,2003,1.0,11.94
Germany,2003,1.0,9.6
Greece,2003,1.0,14.36
Hungary,2003,1.0,10.74
Ireland,2003,1.0,9.91
Italy,2003,1.0,12.8
Latvia,2003,1.0,6.4
Lithuania,2003,1.0,6.86
Luxembourg,2003,1.0,10.76
Malta,2003,1.0,19.59
Netherlands,2003,1.0,10.33
Poland,2003,1.0,8.28
Portugal,2003,1.0,15.78
Romania,2003,1.0,9.1
Slovakia,2003,1.0,7.91
Slovenia,2003,1.0,9.17
Spain,2003,1.0,14.32
Sweden,2003,1.0,2.62
Switzerland,2003,1.0,6.0
United Kingdom,2003,1.0,9.5
Austria,2004,1.0,6.67
Belgium,2004,1.0,10.42
Bulgaria,2004,1.0,11.03
Croatia,2004,1.0,11.05
Cyprus,2004,1.0,18.68
Czech Republic,2004,1.0,8.36
Denmark,2004,1.0,8.79
Estonia,2004,1.0,6.05
Finland,2004,1.0,2.44
France,2004,1.0,11.39
Germany,2004,1.0,9.23
Greece,2004,1.0,14.27
Hungary,2004,1.0,10.51
Ireland,2004,1.0,9.71
Italy,2004,1.0,12.29
Latvia,2004,1.0,6.59
Lithuania,2004,1.0,6.88
Luxembourg,2004,1.0,9.89
Malta,2004,1.0,18.99
Netherlands,2004,1.0,10.26
Poland,2004,1.0,8.37
Portugal,2004,1.0,15.46
Romania,2004,1.0,9.36
Slovakia,2004,1.0,7.69
Slovenia,2004,1.0,8.57
Spain,2004,1.0,13.81
Sweden,2004,1.0,2.68
Switzerland,2004,1.0,5.41
United Kingdom,2004,1.0,9.44
Austria,2005,1.0,6.34
Belgium,2005,1.0,10.68
Bulgaria,2005,1.0,10.56
Croatia,2005,1.0,10.55
Cyprus,2005,1.0,18.56
Czech Republic,2005,1.0,8.14
Denmark,2005,1.0,8.83
Estonia,2005,1.0,5.89
Finland,2005,1.0,3.12
France,2005,1.0,11.35
Germany,2005,1.0,9.33
Greece,2005,1.0,13.9
Hungary,2005,1.0,10.15
Ireland,2005,1.0,9.83
Italy,2005,1.0,11.86
Latvia,2005,1.0,6.33
Lithuania,2005,1.0,6.78
Luxembourg,2005,1.0,10.22
Malta,2005,1.0,18.77
Netherlands,2005,1.0,10.46
Poland,2005,1.0,8.33
Portugal,2005,1.0,15.38
Romania,2005,1.0,8.88
Slovakia,2005,1.0,7.33
Slovenia,2005,1.0,8.19
Spain,2005,1.0,13.72
Sweden,2005,1.0,2.95
Switzerland,2005,1.0,5.19
United Kingdom,2005,1.0,9.37
Austria,2006,1.0,7.1
Belgium,2006,1.0,10.99
Bulgaria,2006,1.0,10.86
Croatia,2006,1.0,11.51
Cyprus,2006,1.0,18.22
Czech Republic,2006,1.0,8.6
Denmark,2006,1.0,9.52
Estonia,2006,1.0,6.28
Finland,2006,1.0,2.79
France,2006,1.0,11.91
Germany,2006,1.0,9.85
Greece,2006,1.0,13.89
Hungary,2006,1.0,10.87
Ireland,2006,1.0,9.95
Italy,2006,1.0,12.5
Latvia,2006,1.0,6.8
Lithuania,2006,1.0,7.41
Luxembourg,2006,1.0,10.62
Malta,2006,1.0,19.42
Netherlands,2006,1.0,10.96
Poland,2006,1.0,8.67
Portugal,2006,1.0,16.01
Romania,2006,1.0,9.25
Slovakia,2006,1.0,7.79
Slovenia,2006,1.0,9.08
Spain,2006,1.0,14.38
Sweden,2006,1.0,3.26
Switzerland,2006,1.0,5.84
United Kingdom,2006,1.0,9.65
Austria,2007,1.0,7.82
Belgium,2007,1.0,11.09
Bulgaria,2007,1.0,11.83
Croatia,2007,1.0,12.34
Cyprus,2007,1.0,18.66
Czech Republic,2007,1.0,9.58
Denmark,2007,1.0,9.6
Estonia,2007,1.0,6.58
Finland,2007,1.0,2.94
France,2007,1.0,11.62
Germany,2007,1.0,10.17
Greece,2007,1.0,14.68
Hungary,2007,1.0,12.02
Ireland,2007,1.0,10.11
Italy,2007,1.0,12.75
Latvia,2007,1.0,7.22
Lithuania,2007,1.0,7.83
Luxembourg,2007,1.0,10.77
Malta,2007,1.0,19.79
Netherlands,2007,1.0,10.99
Poland,2007,1.0,9.4
Portugal,2007,1.0,15.32
Romania,2007,1.0,10.57
Slovakia,2007,1.0,8.97
Slovenia,2007,1.0,9.93
Spain,2007,1.0,13.64
Sweden,2007,1.0,3.07
Switzerland,2007,1.0,5.98
United Kingdom,2007,1.0,9.58
Austria,2008,1.0,7.62
Belgium,2008,1.0,10.54
Bulgaria,2008,1.0,11.8
Croatia,2008,1.0,12.08
Cyprus,2008,1.0,18.93
Czech Republic,2008,1.0,9.34
Denmark,2008,1.0,9.62
Estonia,2008,1.0,7.03
Finland,2008,1.0,3.04
France,2008,1.0,11.3
Germany,2008,1.0,9.84
Greece,2008,1.0,14.72
Hungary,2008,1.0,11.8
Ireland,2008,1.0,9.43
Italy,2008,1.0,12.61
Latvia,2008,1.0,7.64
Lithuania,2008,1.0,8.28
Luxembourg,2008,1.0,10.22
Malta,2008,1.0,19.72
Netherlands,2008,1.0,10.5
Poland,2008,1.0,9.49
Portugal,2008,1.0,15.42
Romania,2008,1.0,10.39
Slovakia,2008,1.0,8.91
Slovenia,2008,1.0,9.67
Spain,2008,1.0,13.6
Sweden,2008,1.0,3.18
Switzerland,2008,1.0,5.49
United Kingdom,2008,1.0,9.09
Austria,2009,1.0,7.37
Belgium,2009,1.0,10.66
Bulgaria,2009,1.0,11.66
Croatia,2009,1.0,12.06
Cyprus,2009,1.0,18.97
Czech Republic,2009,1.0,8.97
Denmark,2009,1.0,8.95
Estonia,2009,1.0,5.8
Finland,2009,1.0,2.31
France,2009,1.0,11.66
Germany,2009,1.0,9.58
Greece,2009,1.0,14.61
Hungary,2009,1.0,11.65
Ireland,2009,1.0,9.44
Italy,2009,1.0,12.67
Latvia,2009,1.0,6.53
Lithuania,2009,1.0,7.2
Luxembourg,2009,1.0,10.47
Malta,2009,1.0,19.2
Netherlands,2009,1.0,10.33
Poland,2009,1.0,8.64
Portugal,2009,1.0,16.01
Romania,2009,1.0,10.41
Slovakia,2009,1.0,8.54
Slovenia,2009,1.0,9.7
Spain,2009,1.0,14.28
Sweden,2009,1.0,2.51
Switzerland,2009,1.0,5.78
United Kingdom,2009,1.0,9.21
Austria,2010,1.0,6.39
Belgium,2010,1.0,9.24
Bulgaria,2010,1.0,11.76
Croatia,2010,1.0,11.07
Cyprus,2010,1.0,20.08
Czech Republic,2010,1.0,7.67
Denmark,2010,1.0,7.17
Estonia,2010,1.0,4.8
Finland,2010,1.0,0.95
France,2010,1.0,10.6
Germany,2010,1.0,8.22
Greece,2010,1.0,15.1
Hungary,2010,1.0,10.54
Ireland,2010,1.0,8.53
Italy,2010,1.0,12.12
Latvia,2010,1.0,5.63
Lithuania,2010,1.0,6.41
Luxembourg,2010,1.0,9.21
Malta,2010,1.0,19.43
Netherlands,2010,1.0,8.86
Poland,2010,1.0,7.53
Portugal,2010,1.0,15.55
Romania,2010,1.0,9.95
Slovakia,2010,1.0,7.65
Slovenia,2010,1.0,8.72
Spain,2010,1.0,13.49
Sweden,2010,1.0,0.55
Switzerland,2010,1.0,4.69
United Kingdom,2010,1.0,8.08
Austria,2011,1.0,7.72
Belgium,2011,1.0,11.24
Bulgaria,2011,1.0,10.81
Croatia,2011,1.0,12.02
Cyprus,2011,1.0,18.53
Czech Republic,2011,1.0,9.1
Denmark,2011,1.0,9.24
Estonia,2011,1.0,6.73
Finland,2011,1.0,3.45
France,2011,1.0,12.32
Germany,2011,1.0,10.04
Greece,2011,1.0,14.07
Hungary,2011,1.0,11.13
Ireland,2011,1.0,9.6
Italy,2011,1.0,12.85
Latvia,2011,1.0,7.24
Lithuania,2011,1.0,7.73
Luxembourg,2011,1.0,11.03
Malta,2011,1.0,18.97
Netherlands,2011,1.0,10.67
Poland,2011,1.0,8.92
Portugal,2011,1.0,15.75
Romania,2011,1.0,9.45
Slovakia,2011,1.0,8.29
Slovenia,2011,1.0,9.6
Spain,2011,1.0,14.34
Sweden,2011,1.0,3.48
Switzerland,2011,1.0,6.38
United Kingdom,2011,1.0,9.54
Austria,2012,1.0,7.57
Belgium,2012,1.0,10.34
Bulgaria,2012,1.0,11.91
Croatia,2012,1.0,12.28
Cyprus,2012,1.0,19.16
Czech Republic,2012,1.0,8.98
Denmark,2012,1.0,8.65
Estonia,2012,1.0,5.28
Finland,2012,1.0,1.7
France,2012,1.0,11.51
Germany,2012,1.0,9.48
Greece,2012,1.0,14.94
Hungary,2012,1.0,11.63
Ireland,2012,1.0,9.36
Italy,2012,1.0,12.72
Latvia,2012,1.0,6.08
Lithuania,2012,1.0,6.87
Luxembourg,2012,1.0,10.17
Malta,2012,1.0,19.71
Netherlands,2012,1.0,10.11
Poland,2012,1.0,8.55
Portugal,2012,1.0,15.61
Romania,2012,1.0,10.22
Slovakia,2012,1.0,8.46
Slovenia,2012,1.0,9.75
Spain,2012,1.0,13.91
Sweden,2012,1.0,1.85
Switzerland,2012,1.0,5.77
United Kingdom,2012,1.0,8.78
Austria,2013,1.0,7.25
Belgium,2013,1.0,9.82
Bulgaria,2013,1.0,12.03
Croatia,2013,1.0,11.81
Cyprus,2013,1.0,19.2
Czech Republic,2013,1.0,8.45
Denmark,2013,1.0,8.77
Estonia,2013,1.0,6.59
Finland,2013,1.0,3.28
France,2013,1.0,11.05
Germany,2013,1.0,9.06
Greece,2013,1.0,15.08
Hungary,2013,1.0,11.44
Ireland,2013,1.0,9.63
Italy,2013,1.0,12.48
Latvia,2013,1.0,7.08
Lithuania,2013,1.0,7.61
Luxembourg,2013,1.0,9.59
Malta,2013,1.0,19.76
Netherlands,2013,1.0,9.64
Poland,2013,1.0,8.66
Portugal,2013,1.0,15.53
Romania,2013,1.0,10.36
Slovakia,2013,1.0,8.45
Slovenia,2013,1.0,9.28
Spain,2013,1.0,13.75
Sweden,2013,1.0,2.79
Switzerland,2013,1.0,5.53
United Kingdom,2013,1.0,8.95
Austria,2014,1.0,8.29
Belgium,2014,1.0,11.69
Bulgaria,2014,1.0,11.89
Croatia,2014,1.0,12.45
Cyprus,2014,1.0,19.33
Czech Republic,2014,1.0,9.99
Denmark,2014,1.0,10.47
Estonia,2014,1.0,6.79
Finland,2014,1.0,3.49
France,2014,1.0,12.45
Germany,2014,1.0,10.7
Greece,2014,1.0,14.8
Hungary,2014,1.0,12.28
Ireland,2014,1.0,9.86
Italy,2014,1.0,13.06
Latvia,2014,1.0,7.29
Lithuania,2014,1.0,7.9
Luxembourg,2014,1.0,11.41
Malta,2014,1.0,19.93
Netherlands,2014,1.0,11.56
Poland,2014,1.0,9.74
Portugal,2014,1.0,15.64
Romania,2014,1.0,10.67
Slovakia,2014,1.0,9.61
Slovenia,2014,1.0,10.27
Spain,2014,1.0,14.53
Sweden,2014,1.0,3.72
Switzerland,2014,1.0,6.76
United Kingdom,2014,1.0,9.9
Austria,2015,1.0,8.23
Belgium,2015,1.0,11.0
Bulgaria,2015,1.0,11.7
Croatia,2015,1.0,12.38
Cyprus,2015,1.0,18.99
Czech Republic,2015,1.0,9.86
Denmark,2015,1.0,9.17
Estonia,2015,1.0,7.5
Finland,2015,1.0,3.46
France,2015,1.0,12.11
Germany,2015,1.0,10.35
Greece,2015,1.0,14.61
Hungary,2015,1.0,12.03
Ireland,2015,1.0,9.38
Italy,2015,1.0,13.09
Latvia,2015,1.0,8.04
Lithuania,2015,1.0,8.48
Luxembourg,2015,1.0,10.94
Malta,2015,1.0,19.69
Netherlands,2015,1.0,10.71
Poland,2015,1.0,9.81
Portugal,2015,1.0,15.73
Romania,2015,1.0,10.8
Slovakia,2015,1.0,9.21
Slovenia,2015,1.0,9.98
Spain,2015,1.0,14.47
Sweden,2015,1.0,3.43
Switzerland,2015,1.0,6.8
United Kingdom,2015,1.0,9.15
