Country,Years,tra_length_road[km],tra_length_rail[km],tra_length_trolley-cables[km]
belgium,2000,5921.0,180.0,690.0
belgium,2001,5921.0,180.0,690.0
belgium,2002,5921.0,180.0,690.0
belgium,2003,5921.0,180.0,690.0
belgium,2004,5921.0,180.0,690.0
belgium,2005,5921.0,180.0,690.0
belgium,2006,5921.0,180.0,690.0
belgium,2007,5921.0,180.0,690.0
belgium,2008,5921.0,180.0,690.0
belgium,2009,5921.0,180.0,690.0
belgium,2010,5921.0,180.0,690.0
belgium,2011,5921.0,180.0,690.0
belgium,2012,5921.0,180.0,690.0
belgium,2013,5921.0,180.0,690.0
belgium,2014,5921.0,180.0,690.0
belgium,2015,5921.0,180.0,690.0
belgium,2020,5921.0,180.0,690.0
belgium,2025,5921.0,180.0,690.0
belgium,2030,5921.0,180.0,690.0
belgium,2035,5921.0,180.0,690.0
belgium,2040,5921.0,180.0,690.0
belgium,2045,5921.0,180.0,690.0
belgium,2050,5921.0,180.0,690.0
brussels,2000,1973.666667,60.0,230.0
brussels,2001,1973.666668,60.0,230.0
brussels,2002,1973.666669,60.0,230.0
brussels,2003,1973.66667,60.0,230.0
brussels,2004,1973.666671,60.0,230.0
brussels,2005,1973.666672,60.0,230.0
brussels,2006,1973.666673,60.0,230.0
brussels,2007,1973.666674,60.0,230.0
brussels,2008,1973.666675,60.0,230.0
brussels,2009,1973.666676,60.0,230.0
brussels,2010,1973.666677,60.0,230.0
brussels,2011,1973.666678,60.0,230.0
brussels,2012,1973.666679,60.0,230.0
brussels,2013,1973.66668,60.0,230.0
brussels,2014,1973.666681,60.0,230.0
brussels,2015,1973.666682,60.0,230.0
brussels,2020,1973.666683,60.0,230.0
brussels,2025,1973.666684,60.0,230.0
brussels,2030,1973.666685,60.0,230.0
brussels,2035,1973.666686,60.0,230.0
brussels,2040,1973.666687,60.0,230.0
brussels,2045,1973.666688,60.0,230.0
brussels,2050,1973.666689,60.0,230.0
flanders,2000,1973.66669,60.0,230.0
flanders,2001,1973.666691,60.0,230.0
flanders,2002,1973.666692,60.0,230.0
flanders,2003,1973.666693,60.0,230.0
flanders,2004,1973.666694,60.0,230.0
flanders,2005,1973.666695,60.0,230.0
flanders,2006,1973.666696,60.0,230.0
flanders,2007,1973.666697,60.0,230.0
flanders,2008,1973.666698,60.0,230.0
flanders,2009,1973.666699,60.0,230.0
flanders,2010,1973.6667,60.0,230.0
flanders,2011,1973.666701,60.0,230.0
flanders,2012,1973.666702,60.0,230.0
flanders,2013,1973.666703,60.0,230.0
flanders,2014,1973.666704,60.0,230.0
flanders,2015,1973.666705,60.0,230.0
flanders,2020,1973.666706,60.0,230.0
flanders,2025,1973.666707,60.0,230.0
flanders,2030,1973.666708,60.0,230.0
flanders,2035,1973.666709,60.0,230.0
flanders,2040,1973.66671,60.0,230.0
flanders,2045,1973.666711,60.0,230.0
flanders,2050,1973.666712,60.0,230.0
wallonia,2000,1973.666713,60.0,230.0
wallonia,2001,1973.666714,60.0,230.0
wallonia,2002,1973.666715,60.0,230.0
wallonia,2003,1973.666716,60.0,230.0
wallonia,2004,1973.666717,60.0,230.0
wallonia,2005,1973.666718,60.0,230.0
wallonia,2006,1973.666719,60.0,230.0
wallonia,2007,1973.66672,60.0,230.0
wallonia,2008,1973.666721,60.0,230.0
wallonia,2009,1973.666722,60.0,230.0
wallonia,2010,1973.666723,60.0,230.0
wallonia,2011,1973.666724,60.0,230.0
wallonia,2012,1973.666725,60.0,230.0
wallonia,2013,1973.666726,60.0,230.0
wallonia,2014,1973.666727,60.0,230.0
wallonia,2015,1973.666728,60.0,230.0
wallonia,2020,1973.666729,60.0,230.0
wallonia,2025,1973.66673,60.0,230.0
wallonia,2030,1973.666731,60.0,230.0
wallonia,2035,1973.666732,60.0,230.0
wallonia,2040,1973.666733,60.0,230.0
wallonia,2045,1973.666734,60.0,230.0
wallonia,2050,1973.666735,60.0,230.0
