Years,Country,lever_energy-need_hotwater_non-residential,fts_bld_energy-need_non-residential_hotwater_education_1800-2010[kWh/m2 year],fts_bld_energy-need_non-residential_hotwater_health_1800-2010[kWh/m2 year],fts_bld_energy-need_non-residential_hotwater_offices-all_1800-2010[kWh/m2 year],fts_bld_energy-need_non-residential_hotwater_offices-private_1800-2010[kWh/m2 year],fts_bld_energy-need_non-residential_hotwater_offices-public_1800-2010[kWh/m2 year],fts_bld_energy-need_non-residential_hotwater_others_1800-2010[kWh/m2 year],fts_bld_energy-need_non-residential_hotwater_trade_1800-2010[kWh/m2 year]
2016,belgium,1,6.492600828571429,10.63229962857143,10.866801314285714,1.7169013142857144,2.5807990857142857,20.09530045714286,12.601599257142857
2016,belgium,2,6.492600828571429,10.63229962857143,10.866801314285714,1.7169013142857144,2.5807990857142857,20.09530045714286,12.601599257142857
2016,belgium,3,6.492600828571429,10.63229962857143,10.866801314285714,1.7169013142857144,2.5807990857142857,20.09530045714286,12.601599257142857
2016,belgium,4,6.492600828571429,10.63229962857143,10.866801314285714,1.7169013142857144,2.5807990857142857,20.09530045714286,12.601599257142857
2016,brussels,1,3.09978940000002,19.732351057142864,16.824767028571387,7.820484171428575,8.81659337142861,40.402723314285595,22.702902114285735
2016,brussels,2,3.09978940000002,19.732351057142864,16.824767028571387,7.820484171428575,8.81659337142861,40.402723314285595,22.702902114285735
2016,brussels,3,3.09978940000002,19.732351057142864,16.824767028571387,7.820484171428575,8.81659337142861,40.402723314285595,22.702902114285735
2016,brussels,4,3.09978940000002,19.732351057142864,16.824767028571387,7.820484171428575,8.81659337142861,40.402723314285595,22.702902114285735
2016,flanders,1,8.928360828571414,9.046636771428567,9.053338457142857,0.04905560000000264,0.07373622857141982,18.05986617142858,10.074330685714273
2016,flanders,2,8.928360828571414,9.046636771428567,9.053338457142857,0.04905560000000264,0.07373622857141982,18.05986617142858,10.074330685714273
2016,flanders,3,8.928360828571414,9.046636771428567,9.053338457142857,0.04905560000000264,0.07373622857141982,18.05986617142858,10.074330685714273
2016,flanders,4,8.928360828571414,9.046636771428567,9.053338457142857,0.04905560000000264,0.07373622857141982,18.05986617142858,10.074330685714273
2016,wallonia,1,6.985503685714285,9.046636771428567,14.881909885714293,4.906198457142864,9.788021942857142,16.11700902857143,17.845759257142845
2016,wallonia,2,6.985503685714285,9.046636771428567,14.881909885714293,4.906198457142864,9.788021942857142,16.11700902857143,17.845759257142845
2016,wallonia,3,6.985503685714285,9.046636771428567,14.881909885714293,4.906198457142864,9.788021942857142,16.11700902857143,17.845759257142845
2016,wallonia,4,6.985503685714285,9.046636771428567,14.881909885714293,4.906198457142864,9.788021942857142,16.11700902857143,17.845759257142845
2017,belgium,1,6.492601657142857,10.632299257142858,10.866802628571428,1.7169026285714288,2.5807981714285715,20.095300914285716,12.601598514285714
2017,belgium,2,6.492601657142857,10.632299257142858,10.866802628571428,1.7169026285714288,2.5807981714285715,20.095300914285716,12.601598514285714
2017,belgium,3,6.492601657142857,10.632299257142858,10.866802628571428,1.7169026285714288,2.5807981714285715,20.095300914285716,12.601598514285714
2017,belgium,4,6.492601657142857,10.632299257142858,10.866802628571428,1.7169026285714288,2.5807981714285715,20.095300914285716,12.601598514285714
2017,brussels,1,3.199578800000012,19.46470211428573,16.64953405714283,7.64096834285715,8.633186742857163,39.80544662857142,22.40580422857147
2017,brussels,2,3.199578800000012,19.46470211428573,16.64953405714283,7.64096834285715,8.633186742857163,39.80544662857142,22.40580422857147
2017,brussels,3,3.199578800000012,19.46470211428573,16.64953405714283,7.64096834285715,8.633186742857163,39.80544662857142,22.40580422857147
2017,brussels,4,3.199578800000012,19.46470211428573,16.64953405714283,7.64096834285715,8.633186742857163,39.80544662857142,22.40580422857147
2017,flanders,1,8.856721657142856,9.093273542857148,9.106676914285714,0.09811120000000528,0.14747245714283963,18.119732342857148,10.148661371428574
2017,flanders,2,8.856721657142856,9.093273542857148,9.106676914285714,0.09811120000000528,0.14747245714283963,18.119732342857148,10.148661371428574
2017,flanders,3,8.856721657142856,9.093273542857148,9.106676914285714,0.09811120000000528,0.14747245714283963,18.119732342857148,10.148661371428574
2017,flanders,4,8.856721657142856,9.093273542857148,9.106676914285714,0.09811120000000528,0.14747245714283963,18.119732342857148,10.148661371428574
2017,wallonia,1,6.97100737142857,9.093273542857148,14.763819771428558,4.812396914285699,9.576043885714284,16.234018057142862,17.69151851428569
2017,wallonia,2,6.97100737142857,9.093273542857148,14.763819771428558,4.812396914285699,9.576043885714284,16.234018057142862,17.69151851428569
2017,wallonia,3,6.97100737142857,9.093273542857148,14.763819771428558,4.812396914285699,9.576043885714284,16.234018057142862,17.69151851428569
2017,wallonia,4,6.97100737142857,9.093273542857148,14.763819771428558,4.812396914285699,9.576043885714284,16.234018057142862,17.69151851428569
2018,belgium,1,6.492602485714285,10.632298885714286,10.866803942857143,1.716903942857143,2.5807972571428572,20.095301371428572,12.60159777142857
2018,belgium,2,6.492602485714285,10.632298885714286,10.866803942857143,1.716903942857143,2.5807972571428572,20.095301371428572,12.60159777142857
2018,belgium,3,6.492602485714285,10.632298885714286,10.866803942857143,1.716903942857143,2.5807972571428572,20.095301371428572,12.60159777142857
2018,belgium,4,6.492602485714285,10.632298885714286,10.866803942857143,1.716903942857143,2.5807972571428572,20.095301371428572,12.60159777142857
2018,brussels,1,3.2993682000000035,19.197053171428593,16.474301085714274,7.461452514285725,8.449780114285716,39.20816994285701,22.10870634285709
2018,brussels,2,3.2993682000000035,19.197053171428593,16.474301085714274,7.461452514285725,8.449780114285716,39.20816994285701,22.10870634285709
2018,brussels,3,3.2993682000000035,19.197053171428593,16.474301085714274,7.461452514285725,8.449780114285716,39.20816994285701,22.10870634285709
2018,brussels,4,3.2993682000000035,19.197053171428593,16.474301085714274,7.461452514285725,8.449780114285716,39.20816994285701,22.10870634285709
2018,flanders,1,8.78508248571427,9.139910314285714,9.160015371428571,0.14716680000000792,0.22120868571428787,18.179598514285715,10.222992057142847
2018,flanders,2,8.78508248571427,9.139910314285714,9.160015371428571,0.14716680000000792,0.22120868571428787,18.179598514285715,10.222992057142847
2018,flanders,3,8.78508248571427,9.139910314285714,9.160015371428571,0.14716680000000792,0.22120868571428787,18.179598514285715,10.222992057142847
2018,flanders,4,8.78508248571427,9.139910314285714,9.160015371428571,0.14716680000000792,0.22120868571428787,18.179598514285715,10.222992057142847
2018,wallonia,1,6.956511057142855,9.139910314285714,14.645729657142851,4.718595371428563,9.364065828571427,16.351027085714264,17.53727777142859
2018,wallonia,2,6.956511057142855,9.139910314285714,14.645729657142851,4.718595371428563,9.364065828571427,16.351027085714264,17.53727777142859
2018,wallonia,3,6.956511057142855,9.139910314285714,14.645729657142851,4.718595371428563,9.364065828571427,16.351027085714264,17.53727777142859
2018,wallonia,4,6.956511057142855,9.139910314285714,14.645729657142851,4.718595371428563,9.364065828571427,16.351027085714264,17.53727777142859
2019,belgium,1,6.492603314285714,10.632298514285715,10.866805257142857,1.7169052571428574,2.580796342857143,20.09530182857143,12.601597028571428
2019,belgium,2,6.492603314285714,10.632298514285715,10.866805257142857,1.7169052571428574,2.580796342857143,20.09530182857143,12.601597028571428
2019,belgium,3,6.492603314285714,10.632298514285715,10.866805257142857,1.7169052571428574,2.580796342857143,20.09530182857143,12.601597028571428
2019,belgium,4,6.492603314285714,10.632298514285715,10.866805257142857,1.7169052571428574,2.580796342857143,20.09530182857143,12.601597028571428
2019,brussels,1,3.3991576000000236,18.929404228571457,16.299068114285717,7.2819366857142995,8.266373485714325,38.610893257142834,21.811608457142825
2019,brussels,2,3.3991576000000236,18.929404228571457,16.299068114285717,7.2819366857142995,8.266373485714325,38.610893257142834,21.811608457142825
2019,brussels,3,3.3991576000000236,18.929404228571457,16.299068114285717,7.2819366857142995,8.266373485714325,38.610893257142834,21.811608457142825
2019,brussels,4,3.3991576000000236,18.929404228571457,16.299068114285717,7.2819366857142995,8.266373485714325,38.610893257142834,21.811608457142825
2019,flanders,1,8.713443314285712,9.186547085714281,9.213353828571428,0.19622239999999636,0.2949449142857077,18.239464685714296,10.297322742857148
2019,flanders,2,8.713443314285712,9.186547085714281,9.213353828571428,0.19622239999999636,0.2949449142857077,18.239464685714296,10.297322742857148
2019,flanders,3,8.713443314285712,9.186547085714281,9.213353828571428,0.19622239999999636,0.2949449142857077,18.239464685714296,10.297322742857148
2019,flanders,4,8.713443314285712,9.186547085714281,9.213353828571428,0.19622239999999636,0.2949449142857077,18.239464685714296,10.297322742857148
2019,wallonia,1,6.942014742857143,9.186547085714281,14.527639542857145,4.624793828571427,9.152087771428569,16.468036114285695,17.383037028571437
2019,wallonia,2,6.942014742857143,9.186547085714281,14.527639542857145,4.624793828571427,9.152087771428569,16.468036114285695,17.383037028571437
2019,wallonia,3,6.942014742857143,9.186547085714281,14.527639542857145,4.624793828571427,9.152087771428569,16.468036114285695,17.383037028571437
2019,wallonia,4,6.942014742857143,9.186547085714281,14.527639542857145,4.624793828571427,9.152087771428569,16.468036114285695,17.383037028571437
2020,belgium,1,6.492604142857143,10.632298142857143,10.86680657142857,1.7169065714285716,2.5807954285714287,20.095302285714286,12.601596285714285
2020,belgium,2,6.492604142857143,10.632298142857143,10.86680657142857,1.7169065714285716,2.5807954285714287,20.095302285714286,12.601596285714285
2020,belgium,3,6.492604142857143,10.632298142857143,10.86680657142857,1.7169065714285716,2.5807954285714287,20.095302285714286,12.601596285714285
2020,belgium,4,6.492604142857143,10.632298142857143,10.86680657142857,1.7169065714285716,2.5807954285714287,20.095302285714286,12.601596285714285
2020,brussels,1,3.4989470000000154,18.66175528571432,16.123835142857104,7.102420857142874,8.082966857142878,38.01361657142843,21.51451057142856
2020,brussels,2,3.4989470000000154,18.66175528571432,16.123835142857104,7.102420857142874,8.082966857142878,38.01361657142843,21.51451057142856
2020,brussels,3,3.4989470000000154,18.66175528571432,16.123835142857104,7.102420857142874,8.082966857142878,38.01361657142843,21.51451057142856
2020,brussels,4,3.4989470000000154,18.66175528571432,16.123835142857104,7.102420857142874,8.082966857142878,38.01361657142843,21.51451057142856
2020,flanders,1,8.641804142857126,9.233183857142862,9.266692285714285,0.245277999999999,0.3686811428571275,18.299330857142863,10.37165342857142
2020,flanders,2,8.641804142857126,9.233183857142862,9.266692285714285,0.245277999999999,0.3686811428571275,18.299330857142863,10.37165342857142
2020,flanders,3,8.641804142857126,9.233183857142862,9.266692285714285,0.245277999999999,0.3686811428571275,18.299330857142863,10.37165342857142
2020,flanders,4,8.641804142857126,9.233183857142862,9.266692285714285,0.245277999999999,0.3686811428571275,18.299330857142863,10.37165342857142
2020,wallonia,1,6.927518428571428,9.233183857142862,14.40954942857141,4.530992285714291,8.940109714285711,16.585045142857126,17.22879628571428
2020,wallonia,2,6.927518428571428,9.233183857142862,14.40954942857141,4.530992285714291,8.940109714285711,16.585045142857126,17.22879628571428
2020,wallonia,3,6.927518428571428,9.233183857142862,14.40954942857141,4.530992285714291,8.940109714285711,16.585045142857126,17.22879628571428
2020,wallonia,4,6.927518428571428,9.233183857142862,14.40954942857141,4.530992285714291,8.940109714285711,16.585045142857126,17.22879628571428
2021,belgium,1,6.4926050424,10.632297834857143,10.866807880571429,1.7169079551428572,2.5807944997142855,20.095302818285713,12.601595618285714
2021,belgium,2,6.449320789135243,10.561415867961898,10.79436224491431,1.7054615898476158,2.563589392019047,19.961333981257155,12.517585061257137
2021,belgium,3,6.406036593041932,10.490533952161968,10.721916605114302,1.6940152804809543,2.546384272585712,19.82736520499043,12.433574564990408
2021,belgium,4,6.362752396948565,10.419652036361924,10.649470965314322,1.6825689711142786,2.529179153152384,19.69339642872376,12.34956406872385
2021,brussels,1,3.5987364709714313,18.394106406285687,15.948602166285752,6.922905098000001,7.899560214000019,37.41633996114274,21.217412761142896
2021,brussels,2,3.555452217706687,18.323224439390515,15.87615653062852,6.911458732704773,7.882355106304772,37.282371124114206,21.13340220411419
2021,brussels,3,3.5121680216133484,18.252342523590528,15.803710890828484,6.900012423338126,7.865149986871472,37.14840234784742,21.04939170784769
2021,brussels,4,3.468883825520024,18.181460607790427,15.731265251028503,6.888566113971478,7.847944867438116,37.01443357158087,20.96538121158096
2021,flanders,1,8.570165042399992,9.279820692000001,9.32003073771429,0.29433366942856765,0.4424173568571348,18.359197104000003,10.445984189714267
2021,flanders,2,8.52688078913522,9.208938725104765,9.247585102057144,0.2828873041333395,0.4252122491618877,18.225228266971413,10.361973632685707
2021,flanders,3,8.48359659304191,9.138056809304743,9.175139462257135,0.27144099476666383,0.4080071297285457,18.091259490704772,10.277963136419032
2021,flanders,4,8.440312396948514,9.067174893504784,9.102693822457127,0.2599946853999988,0.390802010295225,17.957290714438045,10.19395264015236
2021,wallonia,1,6.9130221852571445,9.279820692000001,14.291459309142851,4.437190812285706,8.728131642571384,16.70205424685713,17.07455561828573
2021,wallonia,2,6.86973793199239,9.208938725104765,14.219013673485676,4.425744446990478,8.710926534876194,16.568085409828555,16.990545061257137
2021,wallonia,3,6.826453735899065,9.138056809304743,14.14656803368564,4.414298137623831,8.693721415442837,16.434116633561928,16.90653456499058
2021,wallonia,4,6.783169539805726,9.067174893504784,14.07412239388566,4.402851828257155,8.676516296009595,16.3001478572952,16.822524068723737
2022,belgium,1,6.4926058828,10.632297474,10.866809194,1.7169092810000002,2.5807935829999997,20.095303288,12.601594888000001
2022,belgium,2,6.406037435413339,10.490533593066658,10.72191791840001,1.694016608266665,2.5463833554666664,19.827365676800014,12.433573836800008
2022,belgium,3,6.31946904322669,10.348769761466713,10.577026638800021,1.671123989533335,2.5119731166000037,19.559428124266674,12.265552844266608
2022,belgium,4,6.232900651039984,10.207005929866682,10.432135359200004,1.6482313707999907,2.477562877733334,19.291490571733334,12.097531851733379
2022,brussels,1,3.6985258827999985,18.126457474000063,15.773369193999997,6.74338928100002,7.716153582999993,36.819063287999825,20.920314888000007
2022,brussels,2,3.611957435413345,17.98469359306671,15.628477918399938,6.7204966082666715,7.681743355466665,36.551125676799984,20.752293836799936
2022,brussels,3,3.5253890432266815,17.842929761466735,15.48358663879992,6.69760398953332,7.647333116600066,36.28318812426642,20.584272844266707
2022,brussels,4,3.438820651040025,17.701165929866647,15.33869535919996,6.674711370800026,7.612922877733354,36.015250571733304,20.41625185173325
2022,flanders,1,8.498525882799981,9.326457473999994,9.373369193999991,0.3433892810000003,0.5161535830000048,18.419063288000004,10.520314888000001
2022,flanders,2,8.411957435413314,9.184693593066669,9.228477918399996,0.3204966082666658,0.4817433554666479,18.15112567679998,10.35229383679999
2022,flanders,3,8.325389043226664,9.042929761466638,9.0835866388,0.29760398953332867,0.4473331165999781,17.883188124266724,10.184272844266644
2022,flanders,4,8.23882065103993,8.901165929866693,8.938695359199983,0.27471137079999863,0.4129228777333154,17.615250571733327,10.016251851733273
2022,wallonia,1,6.898525882800001,9.326457473999994,14.173369194000003,4.343389280999986,8.516153583000005,16.819063287999995,16.920314888000007
2022,wallonia,2,6.811957435413333,9.184693593066669,14.028477918399972,4.320496608266666,8.481743355466676,16.551125676799984,16.752293836799993
2022,wallonia,3,6.72538904322667,9.042929761466638,13.883586638800011,4.297603989533343,8.447333116599964,16.2831881242667,16.58427284426682
2022,wallonia,4,6.638820651040021,8.901165929866693,13.738695359199937,4.2747113707999915,8.412922877733422,16.015250571733304,16.41625185173325
2023,belgium,1,6.4926067232,10.632297113142856,10.866810507428571,1.716910606857143,2.580792666285714,20.095303757714287,12.601594157714286
2023,belgium,2,6.3627540816914205,10.419651318171418,10.649473591885737,1.6825716266857143,2.529177318914286,19.693397372342872,12.34956261234285
2023,belgium,3,6.232901493411447,10.207005570771457,10.43213667248574,1.6482326985857156,2.4775619606142953,19.291491043542806,12.097531123542808
2023,belgium,4,6.103048905131459,9.99435982337144,10.214799753085742,1.6138937704857028,2.4259466023142835,18.889584714742796,11.845499634742907
2023,brussels,1,3.7983152946285657,17.858808541714325,15.598136221714299,6.5638734639999825,7.532746952000025,36.22178661485714,20.62321701485712
2023,brussels,2,3.6684626531200166,17.646162746742903,15.380799306171355,6.529534483828627,7.481131604628558,35.819880229485534,20.37118546948568
2023,brussels,3,3.5386100648400145,17.43351699934294,15.163462386771357,6.495195555728571,7.429516246328603,35.41797390068564,20.119153980685724
2023,brussels,4,3.4087574765600266,17.220871251942867,14.946125467371417,6.46085662762863,7.3779008880285915,35.01606757188574,19.867122491885766
2023,flanders,1,8.426886723199999,9.373094256000002,9.426707650285707,0.3924448925714188,0.5898898091428464,18.478929472000004,10.594645586285708
2023,flanders,2,8.297034081691407,9.160448461028572,9.209370734742855,0.35810591240000633,0.5382744617714081,18.077023086628543,10.342614040914277
2023,flanders,3,8.16718149341142,8.947802713628562,8.992033815342865,0.3237669842999935,0.4866591034714105,17.67511675782862,10.090582552114256
2023,flanders,4,8.037328905131346,8.735156966228601,8.774696895942839,0.28942805619999845,0.43504374517141287,17.27321042902861,9.838551063314242
2023,wallonia,1,6.884029580342858,9.373094256000002,14.055279078857126,4.249587749714294,8.304175523428569,16.93607232914286,16.766074157714286
2023,wallonia,2,6.754176938834291,9.160448461028572,13.837942163314267,4.215248769542882,8.252560176057159,16.534165943771413,16.51404261234285
2023,wallonia,3,6.6243243505543035,8.947802713628562,13.62060524391427,4.180909841442883,8.200944817757147,16.132259614971474,16.262011123542948
2023,wallonia,4,6.4944717622743156,8.735156966228601,13.403268324514215,4.1465709133428845,8.149329459457249,15.730353286171407,16.009979634742876
2024,belgium,1,6.4926075636,10.632296752285715,10.866811820857142,1.7169119327142859,2.5807917495714285,20.09530422742857,12.601593427428572
2024,belgium,2,6.319470727969517,10.348769043276178,10.577029265371436,1.67112664510476,2.5119712823619054,19.55942906788573,12.265551387885722
2024,belgium,3,6.146333943596204,10.065241380076259,10.287246706171459,1.6253414076380963,2.443150804628573,19.02355396281905,11.929509402819008
2024,belgium,4,5.973197159222877,9.781713716876197,9.997464146971424,1.579556170171415,2.374330326895233,18.48767885775237,11.593467417752436
2024,brussels,1,3.898104706457133,17.591159609428587,15.4229032494286,6.384357647000002,7.349340321,35.62450994171422,20.32611914171423
2024,brussels,2,3.7249678708266885,17.307631900419096,15.133120693942828,6.338572359390525,7.280519853790452,35.08863478217131,19.990077102171313
2024,brussels,3,3.5518310864533476,17.02410423721915,14.84333813474268,6.292787121923823,7.211699376057197,34.55275967710463,19.65403511710474
2024,brussels,4,3.378694302080021,16.740576574018974,14.553555575542873,6.247001884457177,7.142878898323829,34.01688457203795,19.317993132038055
2024,flanders,1,8.355247563599988,9.419731037999995,9.480046106571422,0.44150050414285147,0.6636260352857164,18.538795656000005,10.668976284571414
2024,flanders,2,8.182110727969501,9.136203328990476,9.190263551085714,0.39571521653333264,0.5948055680761684,18.002920496457136,10.332934245028564
2024,flanders,3,8.008973943596175,8.852675665790457,8.9004809918857,0.34992997906666545,0.5259850903428429,17.467045391390513,9.996892259961896
2024,flanders,4,7.8358371592228195,8.56914800259051,8.610698432685695,0.3041447416000018,0.45716461260951036,16.931170286323777,9.66085027489521
2024,wallonia,1,6.869533277885715,9.419731037999995,13.937188963714277,4.155786218428574,8.092197463857133,17.053081370285696,16.611833427428564
2024,wallonia,2,6.696396442255235,9.136203328990476,13.647406408228562,4.110000930819069,8.023376996647642,16.51720621074284,16.275791387885704
2024,wallonia,3,6.523259657881908,8.852675665790457,13.357623849028528,4.064215693352395,7.9545565189142735,15.981331105676247,15.939749402819189
2024,wallonia,4,6.35012287350861,8.56914800259051,13.067841289828493,4.018430455885721,7.885736041181076,15.44545600060951,15.60370741775239
2025,belgium,1,6.492608404,10.632296391428572,10.866813134285714,1.7169132585714286,2.5807908328571427,20.095304697142858,12.601592697142857
2025,belgium,2,6.276187374247613,10.277886768380938,10.504584938857164,1.6596816635238092,2.4947652458095178,19.42546076342859,12.181540163428565
2025,belgium,3,6.059766393780961,9.923477189381003,10.142356739857178,1.602450116690477,2.4087396486428645,18.755616882095183,11.761487682095208
2025,belgium,4,5.843345413314296,9.569067610380955,9.780128540857163,1.545218569857127,2.322714051476197,18.085773000761833,11.341435200761964
2025,brussels,1,3.9978941182857284,17.32351067714285,15.247670277142845,6.204841830000021,7.165933690000031,35.02723326857131,20.029021268571455
2025,brussels,2,3.781473088533346,16.96910105409529,14.885442081714245,6.147610234952424,7.079908102952402,34.35738933485709,19.608968734857058
2025,brussels,3,3.565052108066677,16.614691475095356,14.523213882714117,6.090378688119074,6.993882505785734,33.687545453523626,19.18891625352387
2025,brussels,4,3.3486311276000222,16.260281896095194,14.160985683714216,6.033147141285724,6.907856908619067,33.01770157219039,18.76886377219057
2025,flanders,1,8.283608403999978,9.466367820000002,9.533384562857137,0.49055611571428415,0.737362261428558,18.598661840000005,10.743306982857149
2025,flanders,2,8.067187374247595,9.11195819695238,9.171156367428573,0.43332452066667315,0.6513366743809286,17.9288179062857,10.323254449142851
2025,flanders,3,7.85076639378093,8.757548617952352,8.808928168428565,0.3760929738333303,0.5653110772142611,17.25897402495241,9.903201967809508
2025,flanders,4,7.634345413314236,8.40313903895236,8.44669996942855,0.31886142700000164,0.47928548004760785,16.58913014361906,9.48314948647618
2025,wallonia,1,6.855036975428572,9.466367820000002,13.819098848571429,4.0619846871428535,7.880219404285697,17.17009041142856,16.457592697142843
2025,wallonia,2,6.638615945676193,9.11195819695238,13.456870653142857,4.004753092095257,7.794193817238124,16.50024647771427,16.03754016342856
2025,wallonia,3,6.422194965209542,8.757548617952352,13.094642454142786,3.947521545261907,7.7081682200714,15.830402596380964,15.617487682095316
2025,wallonia,4,6.205773984742905,8.40313903895236,12.732414255142771,3.8902899984286137,7.622142622904903,15.160558715047614,15.197435200761902
2026,belgium,1,6.4926092444,10.632296030571428,10.866814447714287,1.7169145844285716,2.580789916142857,20.09530516685714,12.601591966857143
2026,belgium,2,6.232904020525709,10.207004493485726,10.432140612342863,1.6482366819428549,2.4775592092571372,19.291492458971447,12.097528938971436
2026,belgium,3,5.973198843965719,9.781712998685748,9.997466773542897,1.5795588257428577,2.374328492657142,18.487679801371428,11.593465961371408
2026,belgium,4,5.713493667405714,9.356421503885713,9.562792934742845,1.5108809695428533,2.2710977760571467,17.68386714377141,11.089402983771492
2026,brussels,1,4.0976835301142955,17.05586174485711,15.072437304857147,6.025326012999983,6.982527059000006,34.42995659542839,19.731923395428566
2026,brussels,2,3.837978306240018,16.630570207771484,14.637763469485662,5.9566481105143225,6.879296352114295,33.62614388754287,19.227860367542803
2026,brussels,3,3.57827312968001,16.20527871297145,14.203089630685554,5.8879702543142685,6.776065635514328,32.82233122994262,18.723797389942888
2026,brussels,4,3.3185679531200236,15.779987218171414,13.768415791885673,5.819292398114328,6.672834918914305,32.01851857234283,18.21973441234286
2026,flanders,1,8.211969244399995,9.513004601999995,9.586723019142852,0.5396117272857026,0.811098487571428,18.658528024000006,10.817637681142855
2026,flanders,2,7.952264020525718,9.08771306491429,9.152049183771432,0.47093382479999946,0.707867780685703,17.854715316114266,10.313574653257138
2026,flanders,3,7.692558843965685,8.662421570114276,8.71737534497143,0.40225596859999513,0.6046370640856935,17.050902658514303,9.80951167565712
2026,flanders,4,7.432853667405652,8.237130075314269,8.282701506171463,0.33357811240000146,0.5014063474856982,16.247090000914227,9.305448698057091
2026,wallonia,1,6.840540672971429,9.513004601999995,13.70100873342858,3.968183155857133,7.668241344714261,17.287099452571425,16.30335196685712
2026,wallonia,2,6.580835449097151,9.08771306491429,13.266334898057096,3.8995052533714443,7.56501063782855,16.4832867446857,15.799288938971415
2026,wallonia,3,6.321130272537147,8.662421570114276,12.831661059257158,3.830827397171447,7.461779921228583,15.679474087085737,15.295225961371557
2026,wallonia,4,6.0614250959771425,8.237130075314269,12.39698722045705,3.76214954097145,7.358549204628616,14.875661429485604,14.791162983771414
2027,belgium,1,6.4926100848,10.632295669714285,10.866815761142858,1.7169159102857143,2.580788999428571,20.095305636571428,12.601591236571428
2027,belgium,2,6.189620666803805,10.136122218590486,10.35969628582859,1.6367917003619041,2.4603531727047567,19.15752415451425,12.013517714514279
2027,belgium,3,5.886631294150504,9.63994880799055,9.852576807228616,1.5566675347952383,2.3399173366714336,18.21974272064756,11.42544424064755
2027,belgium,4,5.583641921497133,9.14377539739047,9.345457328628584,1.4765433692285654,2.2194815006380963,17.281961286780984,10.83737076678102
2027,brussels,1,4.197472941942863,16.788212812571487,14.897204332571448,5.845810196000002,6.7991204280000375,33.832679922285706,19.434825522285678
2027,brussels,2,3.8944835239466755,16.292039361447678,14.39008485725708,5.765685986076221,6.6786846012761885,32.89489844022842,18.84675200022855
2027,brussels,3,3.591494151293343,15.795865950847656,13.88296537865699,5.68556182050952,6.558248765242922,31.95711700636184,18.258678526361905
2027,brussels,4,3.288504778640025,15.299692540247634,13.37584590005713,5.605437654942875,6.437812929209542,31.019335572495265,17.670605052495148
2027,flanders,1,8.140330084799984,9.559641384000003,9.640061475428567,0.5886673388571353,0.884834713714298,18.718394208000007,10.891968379428562
2027,flanders,2,7.8373406668038115,9.063467932876193,9.132942000114284,0.50854312893334,0.7643988869904632,17.78061272594283,10.303894857371422
2027,flanders,3,7.53435129415044,8.567294522276171,8.625822521514266,0.42841896336665997,0.6439630509571259,16.8428312920762,9.71582138350476
2027,flanders,4,7.231361921497069,8.071121111676177,8.11870304291432,0.3482947978000013,0.5235272149237957,15.905049858209509,9.12774790963806
2027,wallonia,1,6.8260443705142855,9.559641384000003,13.582918618285703,3.8743816245714413,7.456263285142825,17.40410849371426,16.1491112365714
2027,wallonia,2,6.523054952518095,9.063467932876193,13.075799142971391,3.7942574146476318,7.335827458419033,16.46632701165713,15.56103771451427
2027,wallonia,3,6.22006557986478,8.567294522276171,12.568679664371416,3.714133249080959,7.2153916223857095,15.52854557779051,14.972964240647684
2027,wallonia,4,5.917076207211437,8.071121111676177,12.061560185771327,3.634009083514286,7.094955786352443,14.590764143923707,14.384890766780927
2028,belgium,1,6.4926109252,10.632295308857143,10.86681707457143,1.7169172361428573,2.5807880827142857,20.095306106285715,12.601590506285715
2028,belgium,2,6.146337313081901,10.065239943695246,10.28725195931429,1.6253467187809498,2.443147136152376,19.023555850057107,11.92950649005715
2028,belgium,3,5.800063744335262,9.498184617295294,9.707686840914334,1.533776243847619,2.305506180685711,17.951805639923805,11.25742251992375
2028,belgium,4,5.453790175588551,8.931129290895285,9.128121722514322,1.4422057689142775,2.167865225219046,16.880055429790445,10.58533854979055
2028,brussels,1,4.29726235377143,16.52056388028575,14.72197136028575,5.666294379000021,6.615713797000012,33.23540324914279,19.13772764914279
2028,brussels,2,3.9509887416533473,15.953508515123872,14.142406245028496,5.57472386163812,6.478072850438082,32.163652992914194,18.46564363291418
2028,brussels,3,3.604715172906676,15.386453188723863,13.562841126628427,5.483153386704771,6.340431894971459,31.091902782780835,17.793559662781036
2028,brussels,4,3.2584416041600193,14.81939786232374,12.983276008228586,5.391582911771479,6.20279093950478,30.020152572647703,17.121475692647664
2028,flanders,1,8.068690925199974,9.606278165999996,9.693399931714282,0.637722950428568,0.9585709398571396,18.778260392000007,10.966299077714268
2028,flanders,2,7.722417313081905,9.039222800838097,9.113834816457143,0.5461524330666663,0.8209299932952234,17.706510135771396,10.294215061485708
2028,flanders,3,7.376143744335195,8.472167474438066,8.53426969805713,0.4545819581333319,0.6832890378285583,16.63475992563815,9.622131091352372
2028,flanders,4,7.029870175588485,7.905112148038086,7.954704579657175,0.3630114832000011,0.5456480823618932,15.56300971550479,8.95004712121903
2028,wallonia,1,6.811548068057142,9.606278165999996,13.464828503142854,3.780580093285721,7.244285225571389,17.521117534857126,15.994870506285736
2028,wallonia,2,6.465274455939053,9.039222800838097,12.885263387885686,3.6890095759238193,7.106644279009515,16.449367278628557,15.322786490057126
2028,wallonia,3,6.119000887192385,8.472167474438066,12.305698269485674,3.597439100990499,6.969003323542836,15.377617068495283,14.650702519923925
2028,wallonia,4,5.772727318445732,7.905112148038086,11.726133151085719,3.505868626057179,6.83136236807627,14.30586685836181,13.97861854979044
2029,belgium,1,6.4926117655999995,10.632294948,10.866818388,1.716918562,2.580787166,20.095306576,12.601589776
2029,belgium,2,6.103053959359997,9.994357668800006,10.214807632800017,1.613901737199999,2.4259410995999957,18.889587545599966,11.845495265599993
2029,belgium,3,5.713496194520019,9.356420426600039,9.562796874600053,1.5108849528999997,2.271095024700003,17.683868559199936,11.08940079919995
2029,belgium,4,5.323938429680027,8.718483184400043,8.910786116400004,1.4078681685999896,2.1162489497999957,16.47814957280002,10.333306332800078
2029,brussels,1,4.397051765599997,16.25291494800001,14.546738387999994,5.486778561999984,6.432307166000044,32.63812657599988,18.840629776000014
2029,brussels,2,4.007493959360019,15.614977668800066,13.89472763279997,5.383761737200018,6.277461099599975,31.432407545599972,18.084535265599925
2029,brussels,3,3.6179361945200093,14.97704042660007,13.242716874599864,5.280744952900022,6.122615024700053,30.22668855919983,17.328440799200052
2029,brussels,4,3.2283784296800206,14.33910318439996,12.590706116399929,5.1777281686000265,5.967768949800018,29.020969572799913,16.572346332799953
2029,flanders,1,7.997051765599991,9.652914948000003,9.746738387999997,0.6867785619999864,1.0323071660000096,18.838126576000008,11.040629776000003
2029,flanders,2,7.607493959359999,9.0149776688,9.094727632800002,0.5837617372000068,0.8774610995999836,17.63240754559999,10.284535265599995
2029,flanders,3,7.217936194520007,8.37704042659999,8.442716874599995,0.48074495289999675,0.7226150246999765,16.426688559200045,9.528440799199984
2029,flanders,4,6.828378429679958,7.739103184399994,7.790706116400031,0.3777281686000009,0.5677689497999907,15.220969572799959,8.772346332799941
2029,wallonia,1,6.797051765599999,9.652914948000003,13.346738388000006,3.6867785620000006,7.03230716600001,17.63812657599999,15.840629776000014
2029,wallonia,2,6.407493959359996,9.0149776688,12.694727632799982,3.583761737200007,6.877461099599998,16.432407545599986,15.084535265599982
2029,wallonia,3,6.0179361945200185,8.37704042659999,12.042716874599932,3.480744952900011,6.722615024699962,15.226688559200056,14.328440799200052
2029,wallonia,4,5.628378429680026,7.739103184399994,11.390706116399997,3.377728168600015,6.567768949800097,14.020969572799913,13.572346332799953
2030,belgium,1,6.492612606,10.632294587142857,10.866819701428572,1.716919887857143,2.580786249285714,20.095307045714286,12.601589045714286
2030,belgium,2,6.059770605638093,9.923475393904766,10.142363306285716,1.6024567556190448,2.408735063047615,18.755619241142824,11.761484041142864
2030,belgium,3,5.626928644704776,9.21465623590484,9.417906908285715,1.4879936619523804,2.2366838687142945,17.415931478476182,10.92137907847615
2030,belgium,4,5.194086683771445,8.5058370779048,8.693450510285743,1.3735305682857017,2.0646326743809595,16.076243715809483,10.08127411580955
2030,brussels,1,4.496841177428564,15.985266015714274,14.371505415714296,5.307262745000003,6.248900535000018,32.04084990285696,18.543531902857126
2030,brussels,2,4.063999177066677,15.27644682247626,13.647049020571387,5.192799612761917,6.076849348761925,30.70116209828575,17.70342689828567
2030,brussels,3,3.6311572161333423,14.567627664476277,12.922592622571301,5.078336519095217,5.90479815442859,29.361474335618823,16.86332193561907
2030,brussels,4,3.198315255200022,13.85880850647618,12.198136224571385,4.9638734254286305,5.732746960095255,28.02178657295235,16.02321697295247
2030,flanders,1,7.9254126059999805,9.699551729999996,9.800076844285712,0.7358341735714191,1.1060433921428512,18.897992760000008,11.11496047428571
2030,flanders,2,7.492570605638093,8.990732536761904,9.075620449142853,0.6213710413333331,0.9339922059047439,17.558304955428554,10.274855469714279
2030,flanders,3,7.059728644704762,8.281913378761885,8.35116405114286,0.5069079476666616,0.7619410115714089,16.21861719276194,9.434750507047596
2030,flanders,4,6.6268866837713745,7.573094220761902,7.626707653142887,0.39244485400000073,0.5898898172380811,14.87892943009524,8.59464554438091
2030,wallonia,1,6.782555463142856,9.699551729999996,13.228648272857129,3.5929770307142803,6.820329106428574,17.755135617142855,15.686389045714293
2030,wallonia,2,6.349713462780954,8.990732536761904,12.504191877714277,3.4785138984761943,6.6482779201904805,16.415447812571415,14.846284041142837
2030,wallonia,3,5.9168715018476234,8.281913378761885,11.779735479714304,3.364050804809551,6.4762267258571455,15.075760049904773,14.006179078476293
2030,wallonia,4,5.484029540914321,7.573094220761902,11.055279081714275,3.2495877111428513,6.304175531523924,13.736072287238017,13.166074115809465
2031,belgium,1,6.4926134464,10.632294226285714,10.866821014857143,1.716921213714286,2.5807853325714283,20.095307515428573,12.601588315428572
2031,belgium,2,6.016487251916189,9.852593119009526,10.069918979771444,1.591011774038094,2.3915290264952347,18.621650936685683,11.677472816685707
2031,belgium,3,5.540361094889533,9.072892045209585,9.273016941971434,1.465102371004761,2.202272712728572,17.147994397752313,10.75335735775235
2031,belgium,4,5.064234937862864,8.293190971409558,8.476114904171425,1.3391929679714139,2.013016398961909,15.674337858819058,9.829241898819078
2031,brussels,1,4.596630589257131,15.717617083428536,14.196272443428597,5.127746928000022,6.065493903999993,31.443573229714275,18.246434029714237
2031,brussels,2,4.120504394773349,14.937915976152453,13.399370408342804,5.001837488323815,5.876237597923819,29.9699166509713,17.322318530971415
2031,brussels,3,3.6443782377466754,14.158214902352483,12.602468370542738,4.875928085290468,5.686981284157184,28.496260112038044,16.398203072038086
2031,brussels,4,3.1682520807200234,13.3785138285524,11.805566332742842,4.750018682257178,5.497724970390493,27.02260357310479,15.474087613104757
2031,flanders,1,7.853773446399998,9.746188512000003,9.853415300571427,0.7848897851428518,1.1797796182857212,18.95785894400001,11.189291172571416
2031,flanders,2,7.377647251916187,8.966487404723807,9.056513265485712,0.6589803454666736,0.9905233122095041,17.48420236525712,10.265175673828566
2031,flanders,3,6.901521094889517,8.18678633092378,8.259611227685696,0.5330709424333335,0.8012669984428413,16.010545826323835,9.341060214895236
2031,flanders,4,6.425394937862791,7.407085257123811,7.462709189885743,0.40716153940000055,0.6120106846761786,14.536889287390522,8.416944755961879
2031,wallonia,1,6.768059160685716,9.746188512000003,13.11055815771428,3.49917549942856,6.608351046857138,17.87214465828569,15.532148315428572
2031,wallonia,2,6.291932966201912,8.966487404723807,12.313656122628572,3.373266059752382,6.419094740780963,16.398488079542844,14.608032816685693
2031,wallonia,3,5.815806809175257,8.18678633092378,11.516754084828563,3.247356656719063,6.229838427014272,14.924831540609546,13.683917357752534
2031,wallonia,4,5.3396806521486155,7.407085257123811,10.719852047028553,3.1214472536857443,6.040582113247751,13.45117500167612,12.759801898818978
2032,belgium,1,6.492614286799999,10.63229386542857,10.866822328285714,1.7169225395714287,2.5807844158571425,20.095307985142856,12.601587585142857
2032,belgium,2,5.973203898194285,9.781710844114286,9.997474653257143,1.5795667924571397,2.374322989942854,18.48768263222854,11.593461592228579
2032,belgium,3,5.453793545074291,8.93112785451433,9.128126975657153,1.4422110800571417,2.1678615567428636,16.88005731702856,10.58533563702855
2032,belgium,4,4.934383191954282,8.080544864914316,8.258779298057163,1.3048553676571402,1.9614001235428589,15.27243200182852,9.577209681828663
2032,brussels,1,4.696420001085727,15.449968151142912,14.021039471142842,4.948231110999984,5.882087273000025,30.84629655657136,17.949336156571462
2032,brussels,2,4.177009612480006,14.599385129828647,13.151691796114221,4.810875363885714,5.675625847085712,29.238671203657077,16.941210163657047
2032,brussels,3,3.6575992593600084,13.748802140228577,12.282344118514175,4.673519651485719,5.469164413885778,27.631045888457038,15.933084208457217
2032,brussels,4,3.1381889062400177,12.898219150628506,11.412996440914299,4.536163939085725,5.262702980685731,26.023420573257226,14.924958253257046
2032,flanders,1,7.782134286799987,9.792825293999996,9.906753756857142,0.8339453967142845,1.2535158444285628,19.01772512800001,11.26362187085715
2032,flanders,2,7.262723898194281,8.94224227268571,9.037406081828571,0.6965896495999999,1.0470544185142785,17.410099775085683,10.255495877942852
2032,flanders,3,6.7433135450742725,8.091659283085704,8.16805840422856,0.5592339371999984,0.8405929853142737,15.80247445988573,9.247369922742848
2032,flanders,4,6.223903191954207,7.241076293485719,7.298710726628599,0.42187822480000037,0.6341315521142761,14.19484914468569,8.239243967542848
2032,wallonia,1,6.753562858228573,9.792825293999996,12.992468042571431,3.405373968142868,6.396372987285702,17.989153699428556,15.37790758514285
2032,wallonia,2,6.234152469622856,8.94224227268571,12.12312036754281,3.2680182210285693,6.189911561371446,16.381528346514273,14.369781592228605
2032,wallonia,3,5.714742116502862,8.091659283085704,11.25377268994282,3.130662508628575,5.983450128171398,14.773903031314319,13.361655637028662
2032,wallonia,4,5.195331763382853,7.241076293485719,10.384425012342831,2.9933067962285804,5.776988694971465,13.166277716114223,12.35352968182849
2033,belgium,1,6.4926151272,10.632293504571429,10.866823641714285,1.7169238654285717,2.580783499142857,20.095308454857143,12.601586854857144
2033,belgium,2,5.929920544472381,9.710828569219046,9.92503032674287,1.568121810876189,2.3571169533904737,18.3537143277714,11.509450367771421
2033,belgium,3,5.367225995259076,8.789363663819074,8.983237009342872,1.4193197891095224,2.133450400757141,16.61212023630469,10.417313916304693
2033,belgium,4,4.804531446045701,7.867898758419074,8.041443691942845,1.2705177673428523,1.9097838481238085,14.870526144838095,9.325177464838134
2033,brussels,1,4.796209412914294,15.182319218857174,13.845806498857144,4.768715294000003,5.698680641999999,30.249019883428446,17.652238283428574
2033,brussels,2,4.233514830186678,14.260854283504841,12.904013183885695,4.619913239447669,5.475014096247605,28.507425756342855,16.560101796342792
2033,brussels,3,3.6708202809733415,13.339389378104784,11.962219866485611,4.471111217680971,5.251347543614315,26.765831664876032,15.467965344876234
2033,brussels,4,3.108125731760019,12.417924472704726,11.020426549085755,4.322309195914329,5.0276809909809685,25.024237573409437,14.375828893409562
2033,flanders,1,7.710495127199977,9.839462076000004,9.960092213142858,0.8830010082857029,1.3272520705714328,19.07759131200001,11.337952569142857
2033,flanders,2,7.147800544472375,8.917997140647621,9.01829889817143,0.7341989537333404,1.1035855248190387,17.335997184914277,10.24581608205714
2033,flanders,3,6.585105995259028,7.996532235247599,8.076505580771425,0.5853969319666632,0.8799189721857061,15.594403093447625,9.15367963059046
2033,flanders,4,6.02241144604568,7.075067329847627,7.134712263371455,0.4365949102000002,0.6562524195523736,13.852809001980972,8.06154317912376
2033,wallonia,1,6.73906655577143,9.839462076000004,12.874377927428554,3.3115724368571477,6.184394927714266,18.10616274057142,15.223666854857129
2033,wallonia,2,6.176371973043814,8.917997140647621,11.932584612457106,3.1627703823047852,5.960728381961928,16.36456861348571,14.131530367771461
2033,wallonia,3,5.613677423830495,7.996532235247599,10.990791295057079,3.013968360538115,5.7370618293285816,14.622974522019092,13.039393916304903
2033,wallonia,4,5.050982874617148,7.075067329847627,10.048997977657109,2.8651663387714734,5.513395276695292,12.881380430552326,11.947257464838117
2034,belgium,1,6.4926159676,10.632293143714286,10.866824955142857,1.7169251912857144,2.5807825824285713,20.09530892457143,12.60158612457143
2034,belgium,2,5.886637190750477,9.639946294323806,9.852586000228598,1.5566768292952347,2.339910916838093,18.219746023314258,11.425439143314293
2034,belgium,3,5.280658445443834,8.647599473123876,8.838347043028591,1.396428498161903,2.0990392447714328,16.344183155580936,10.249292195580892
2034,belgium,4,4.674679700137176,7.655252651923831,7.824108085828584,1.2361801670285644,1.8581675727047582,14.468620287847557,9.07314524784772
2034,brussels,1,4.895998824742861,14.914670286571436,13.670573526571445,4.589199477000022,5.515274011000031,29.65174321028553,17.355140410285685
2034,brussels,2,4.29002004789335,13.922323437181035,12.656334571657112,4.428951115009568,5.274402345409499,27.776180309028632,16.178993429028537
2034,brussels,3,3.6840413025866745,12.92997661598099,11.642095614457048,4.268702783876165,5.033530673342909,25.900617441295026,15.00284648129525
2034,brussels,4,3.0780625572800204,11.937629794780946,10.627856657257098,4.108454452742876,4.792659001276206,24.025054573561874,13.82669953356185
2034,flanders,1,7.638855967599994,9.886098857999997,10.013430669428573,0.9320566198571356,1.4009882967142744,19.137457495999996,11.412283267428563
2034,flanders,2,7.032877190750469,8.893752008609525,8.99919171451429,0.7718082578666667,1.160116631123799,17.26189459474284,10.236136286171426
2034,flanders,3,6.426898445443783,7.901405187409495,7.984952757314289,0.611559926733328,0.9192449590571243,15.386331727009576,9.059989338438072
2034,flanders,4,5.820919700137097,6.9090583662095355,6.970713800114311,0.4513115956,0.678373286990464,13.51076885927614,7.883842390704729
2034,wallonia,1,6.724570253314287,9.886098857999997,12.756287812285706,3.2177709055714274,5.97241686814283,18.223171781714285,15.069426124571407
2034,wallonia,2,6.118591476464758,8.893752008609525,11.742048857371401,3.0575225435809728,5.731545202552411,16.347608880457138,13.893279143314317
2034,wallonia,3,5.5126127311581,7.901405187409495,10.72780990017145,2.897274212447627,5.490673530485708,14.472046012723865,12.71713219558103
2034,wallonia,4,4.9066339858514425,6.9090583662095355,9.713570942971387,2.7370258813143096,5.249801858419119,12.59648314499043,11.54098524784763
2035,belgium,1,6.492616807999999,10.632292782857142,10.86682626857143,1.7169265171428574,2.5807816657142855,20.095309394285714,12.601585394285715
2035,belgium,2,5.843353837028573,9.569064019428566,9.780141673714297,1.545231847714284,2.3227048802857126,18.085777718857116,11.341427918857136
2035,belgium,3,5.194090895628591,8.50583528242862,8.69345707671431,1.3735372072142837,2.0646280887857102,16.076246074857067,10.081270474857092
2035,belgium,4,4.5448279542285945,7.442606545428589,7.606772479714323,1.2018425667142765,1.806551297285722,14.066714430857132,8.821113030857191
2035,brussels,1,4.995788236571428,14.647021354285698,13.495340554285747,4.409683659999985,5.331867380000006,29.054466537142844,17.058042537142796
2035,brussels,2,4.3465252656000075,13.583792590857229,12.408655959428529,4.237988990571466,5.073790594571449,27.044934861714182,15.797885061714169
2035,brussels,3,3.6972623242000076,12.520563853857198,11.321971362428485,4.066294350071416,4.815713803071446,25.035403217714247,14.537727617714268
2035,brussels,4,3.0479993828000147,11.457335116857166,10.235286765428555,3.89459970957148,4.557637011571444,23.025871573714312,13.277570173714366
2035,flanders,1,7.5672168079999835,9.932735640000004,10.066769125714288,0.9811122314285683,1.4747245228571444,19.197323679999997,11.48661396571427
2035,flanders,2,6.917953837028563,8.869506876571428,8.980084530857141,0.8094175620000073,1.2166477374285591,17.187792004571406,10.22645649028571
2035,flanders,3,6.268690895628538,7.806278139571418,7.8933999338571255,0.6377229215,0.9585709459285567,15.178260360571471,8.966299046285712
2035,flanders,4,5.619427954228513,6.743049402571444,6.806715336857167,0.4660282809999998,0.7004941544285614,13.168728716571422,7.7061416022856974
2035,wallonia,1,6.710073950857144,9.932735640000004,12.638197697142857,3.123969374285707,5.760438808571394,18.34018082285712,14.915185394285686
2035,wallonia,2,6.060810979885716,8.869506876571428,11.551513102285696,2.9522747048571603,5.502362023142837,16.330649147428566,13.655027918857172
2035,wallonia,3,5.4115480384857335,7.806278139571418,10.464828505285709,2.780580064357167,5.244285231642834,14.321117503428582,12.394870474857271
2035,wallonia,4,4.762285097085737,6.743049402571444,9.378143908285665,2.6088854238571457,4.986208440142946,12.311585859428533,11.134713030857142
2036,belgium,1,6.4926176483999996,10.632292421999999,10.866827582,1.7169278430000001,2.5807807489999997,20.095309864,12.601584664
2036,belgium,2,5.800070483306669,9.498181744533326,9.707697347200025,1.5337868661333331,2.305498843733332,17.951809414399975,11.257416694400007
2036,belgium,3,5.107523345813348,8.364071091733365,8.548567110400029,1.3506459162666715,2.030216932800002,15.808308994133313,9.913248754133292
2036,belgium,4,4.414976208320013,7.229960438933347,7.389436873600005,1.1675049663999886,1.7549350218666717,13.664808573866594,8.569080813866663
2036,brussels,1,5.0955776483999955,14.379372422000074,13.320107581999991,4.230167843000004,5.148460749000037,28.45718986399993,16.76094466400002
2036,brussels,2,4.403030483306679,13.245261744533309,12.160977347199946,4.047026866133365,4.873178843733342,26.31368941439996,15.416776694399914
2036,brussels,3,3.7104833458133406,12.111151091733404,11.001847110399922,3.8638859162666677,4.59789693280004,24.17018899413324,14.072608754133398
2036,brussels,4,3.017936208320016,10.977040438933273,9.842716873600011,3.6807449664000274,4.322615021866682,22.02668857386675,12.728440813866655
2036,flanders,1,7.495577648399973,9.979372421999997,10.120107582000003,1.0301678429999868,1.548460748999986,19.257189863999997,11.560944664000004
2036,flanders,2,6.803030483306657,8.845261744533332,8.9609773472,0.8470268661333336,1.2731788437333194,17.11368941439997,10.216776694399996
2036,flanders,3,6.110483345813293,7.7111510917333135,7.80184711039999,0.6638859162666648,0.9978969327999891,14.970188994133366,8.872608754133324
2036,flanders,4,5.417936208319929,6.577040438933352,6.642716873600023,0.48074496639999964,0.7226150218666589,12.826688573866704,7.5284408138666095
2036,wallonia,1,6.6955776484000005,9.979372421999997,12.520107582000009,3.0301678429999868,5.548460748999958,18.457189863999986,14.760944663999965
2036,wallonia,2,6.003030483306674,8.845261744533332,11.360977347199992,2.8470268661333478,5.273178843733319,16.313689414399995,13.416776694400028
2036,wallonia,3,5.3104833458133385,7.7111510917333135,10.201847110399967,2.663885916266679,4.997896932800018,14.170188994133355,12.072608754133398
2036,wallonia,4,4.617936208320032,6.577040438933352,9.042716873599943,2.4807449664000387,4.722615021866773,12.026688573866636,10.728440813866655
2037,belgium,1,6.4926184888,10.632292061142858,10.866828895428572,1.716929168857143,2.5807798322857143,20.095310333714284,12.601583933714286
2037,belgium,2,5.756787129584765,9.427299469638086,9.635253020685724,1.5223418845523788,2.2882928071809516,17.817841109942833,11.17340546994285
2037,belgium,3,5.0209557959981055,8.222306901038166,8.403677144085748,1.3277546253190522,1.9958057768142936,15.540371913409444,9.745227033409492
2037,belgium,4,4.2851244624114315,7.017314332438104,7.172101267485743,1.1331673660857007,1.7033187464476214,13.26290271687617,8.317048596876248
2037,brussels,1,5.195367060228563,14.111723489714336,13.144874609714293,4.050652026000023,4.965054118000012,27.859913190857014,16.463846790857133
2037,brussels,2,4.459535701013337,12.906730898209503,11.91329873497142,3.8560647416952634,4.672567092895235,25.582443967085737,15.03566832708566
2037,brussels,3,3.7237043674266737,11.701738329609611,10.681722858371359,3.661477482461919,4.380080062528577,23.304974770552235,13.607489890552415
2037,brussels,4,2.9878730338400175,10.496745761009493,9.450146981771468,3.4668902232285745,4.087593032161919,21.027505574019187,12.179311454019171
2037,flanders,1,7.42393848879999,10.026009204000005,10.173446038285718,1.0792234545714194,1.622196975142856,19.317056047999998,11.63527536228571
2037,flanders,2,6.6881071295847505,8.821016612495235,8.941870163542859,0.8846361702666741,1.3297099500380796,17.039586824228564,10.207096898514283
2037,flanders,3,5.952275795998105,7.616024043895209,7.710294286942855,0.6900489110333297,1.0372229196714216,14.762117627695261,8.778918461980936
2037,flanders,4,5.216444462411403,6.41103147529526,6.4787184103428785,0.49546165179999946,0.7447358893047564,12.484648431161872,7.350740025447578
2037,wallonia,1,6.681081345942857,10.026009204000005,12.402017466857131,2.936366311714295,5.336482689428578,18.57419890514285,14.6067039337143
2037,wallonia,2,5.945249986727617,8.821016612495235,11.170441592114287,2.7417790274095353,5.043995664323802,16.296729681371424,13.178525469942883
2037,wallonia,3,5.209418653140972,7.616024043895209,9.938865715514225,2.547191768176191,4.751508633957144,14.019260484838128,11.75034703340964
2037,wallonia,4,4.473587319554326,6.41103147529526,8.707289838914221,2.352604508942875,4.4590216035906,11.74179128830474,10.322168596876168
2038,belgium,1,6.492619329199999,10.632291700285714,10.866830208857143,1.7169304947142858,2.5807789155714285,20.09531080342857,12.601583203428572
2038,belgium,2,5.713503775862861,9.356417194742846,9.562808694171451,1.510896902971428,2.271086770628571,17.68387280548569,11.089394245485721
2038,belgium,3,4.934388246182863,8.080542710342911,8.258787177771467,1.3048633343714329,1.961394620828571,15.27243483268569,9.577205312685692
2038,belgium,4,4.15527271650285,6.804668225942862,6.954765661371425,1.0988297657714128,1.651702471028571,12.860996859885745,8.06501637988572
2038,brussels,1,5.295156472057158,13.844074557428598,12.969641637428595,3.8711362089999852,4.781647487000043,27.2626365177141,16.166748917714244
2038,brussels,2,4.516040918720009,12.568200051885697,11.665620122742837,3.665102617257162,4.471955342057129,24.851198519771515,14.654559959771404
2038,brussels,3,3.7369253890400067,11.292325567485818,10.361598606342795,3.4590690486571134,4.162263192257171,22.43976054697123,13.142371026971432
2038,brussels,4,2.957809859360019,10.016451083085713,9.05757708994281,3.2530354800571786,3.852571042457157,20.028322574171398,11.63018209417146
2038,flanders,1,7.35229932919998,10.072645985999998,10.226784494571433,1.1282790661428521,1.695933201285726,19.376922232,11.709606060571417
2038,flanders,2,6.573183775862844,8.796771480457139,8.92276297988571,0.9222454744000004,1.3862410563428398,16.96548423405713,10.197417102628567
2038,flanders,3,5.79406824618286,7.520896996057132,7.618741463485719,0.7162119057999945,1.0765489065428397,14.554046261257156,8.685228169828548
2038,flanders,4,5.014952716502819,6.245022511657169,6.3147199470857345,0.5101783371999993,0.7668567567428468,12.142608288457154,7.173039237028547
2038,wallonia,1,6.666585043485714,10.072645985999998,12.283927351714283,2.8425647804285745,5.124504629857142,18.691207946285715,14.452463203428579
2038,wallonia,2,5.887469490148575,8.796771480457139,10.979905837028582,2.636531188685723,4.814812484914285,16.279769948342853,12.940274245485739
2038,wallonia,3,5.108353960468577,7.520896996057132,9.675884320628597,2.430497620085731,4.50512033511427,13.868331975542901,11.428085312685766
2038,wallonia,4,4.329238430788621,6.245022511657169,8.371862804228499,2.224464051485711,4.195428185314427,11.456894002742843,9.91589637988568
2039,belgium,1,6.492620169599999,10.632291339428571,10.866831522285715,1.7169318205714288,2.5807779988571427,20.09531127314286,12.601582473142859
2039,belgium,2,5.670220422140957,9.285534919847606,9.49036436765715,1.4994519213904738,2.2538807340761906,17.54990450102855,11.005383021028564
2039,belgium,3,4.8478206963676485,7.938778519647656,8.113897211457186,1.2819720434238135,1.9269834648428628,15.004497751961821,9.409183591961835
2039,belgium,4,4.0254209705942685,6.59202211944762,6.737430055257164,1.064492165457139,1.6000861956095207,12.459091002895207,7.8129841628953045
2039,brussels,1,5.394945883885725,13.57642562514286,12.794408665142896,3.6916203920000044,4.598240856000018,26.665359844571412,15.86965104457147
2039,brussels,2,4.572546136426681,12.22966920556189,11.417941510514254,3.4741404928190605,4.271343591219022,24.119953072457065,14.273451592457036
2039,brussels,3,3.7501464106533398,10.882912805361912,10.041474354314232,3.2566606148523647,3.9444463219857653,21.57454632339045,12.677252163390563
2039,brussels,4,2.927746684880013,9.536156405161819,8.665007198114267,3.0391807368857258,3.617549052752395,19.029139574323835,11.081052734323748
2039,flanders,1,7.280660169599997,10.119282768000005,10.280122950857148,1.1773346777142848,1.7696694274285676,19.436788416,11.783936758857124
2039,flanders,2,6.458260422140938,8.77252634841905,8.90365579622857,0.9598547785333409,1.4427721626476142,16.891381643885694,10.187737306742854
2039,flanders,3,5.635860696367615,7.425769948219028,7.527188640028555,0.7423749005666664,1.1158748934142722,14.34597489481905,8.591537877676188
2039,flanders,4,4.813460970594235,6.079013548019077,6.15072148382859,0.5248950225999991,0.7889776241809443,11.800568145752322,6.995338448609516
2039,wallonia,1,6.652088741028571,10.119282768000005,12.165837236571434,2.748763249142854,4.912526570285706,18.80821698742855,14.298222473142857
2039,wallonia,2,5.829688993569533,8.77252634841905,10.78937008194282,2.5312833499619103,4.585629305504767,16.262810215314282,12.702023021028594
2039,wallonia,3,5.00728926779621,7.425769948219028,9.412902925742856,2.313803471995243,4.258732036271397,13.717403466247674,11.105823591962007
2039,wallonia,4,4.184889542022859,6.079013548019077,8.036435769542777,2.096323594028604,3.93183476703814,11.171996717180946,9.509624162895193
2040,belgium,1,6.49262101,10.632290978571428,10.866832835714286,1.7169331464285715,2.580777082142857,20.09531174285714,12.601581742857144
2040,belgium,2,5.626937068419039,9.214652644952366,9.417920041142878,1.488006939809523,2.236674697523803,17.41593619657141,10.921371796571435
2040,belgium,3,4.761253146552406,7.797014328952457,7.969007245142905,1.2590807524761942,1.8925723088571402,14.736560671238067,9.241161871238035
2040,belgium,4,3.895569224685744,6.3793760129523776,6.520094449142846,1.0301545651428512,1.5484699201904704,12.057185145904782,7.560951945904776
2040,brussels,1,5.4947352957142925,13.308776692857123,12.61917569285714,3.5121045750000235,4.414834224999993,26.068083171428498,15.57255317142858
2040,brussels,2,4.629051354133338,11.891138359238084,11.17026289828567,3.283178368380959,4.070731840380915,23.388707625142843,13.892343225142781
2040,brussels,3,3.7633674322666693,10.473500043238118,9.721350102285555,3.054252181047616,3.7266294517143024,20.709332099809444,12.21213329980958
2040,brussels,4,2.8976835104000145,9.055861727238039,8.272437306285724,2.82532599371433,3.3825270630476325,18.029956574476273,10.531923374476264
2040,flanders,1,7.2090210099999865,10.165919549999998,10.333461407142849,1.2263902892857033,1.8434056535714376,19.4966546,11.858267457142858
2040,flanders,2,6.343337068419032,8.748281216380953,8.884548612571429,0.9974640826666672,1.4993032689523744,16.81727905371426,10.17805751085714
2040,flanders,3,5.47765314655237,7.330642900380923,7.43563581657142,0.7685378953333313,1.1552008802857046,14.137903528381003,8.4978475855238
2040,flanders,4,4.611969224685652,5.913004584380985,5.986723020571446,0.5396117080000025,0.8110984916190418,11.458528003047604,6.817637660190428
2040,wallonia,1,6.637592438571428,10.165919549999998,12.047747121428557,2.654961717857134,4.70054851071427,18.925226028571416,14.143981742857136
2040,wallonia,2,5.771908496990477,8.748281216380953,10.598834326857116,2.426035511238098,4.35644612609525,16.24585048228571,12.46377179657145
2040,wallonia,3,4.906224575123815,7.330642900380923,9.149921530857114,2.197109323904783,4.01234373742858,13.566474956952447,10.783561871238248
2040,wallonia,4,4.040540653257153,5.913004584380985,7.701008734857055,1.9681831365714402,3.668241348761967,10.887099431619049,9.103351945904706
2041,belgium,1,6.4926218504,10.632290617714286,10.866834149142857,1.7169344722857145,2.5807761654285715,20.09531221257143,12.60158101257143
2041,belgium,2,5.583653714697135,9.143770370057155,9.345475714628577,1.4765619582285687,2.2194686609714225,17.281967892114267,10.837360572114278
2041,belgium,3,4.674685596737163,7.655250138257202,7.8241172788286235,1.236189461528575,1.858161152871432,14.468623590514198,9.073140150514234
2041,belgium,4,3.7657174787771623,6.166729906457135,6.302758843028585,0.9958169648285633,1.4968536447714342,11.655279288914244,7.308919728914361
2041,brussels,1,5.59452470754286,13.041127760571499,12.443942720571442,3.3325887579999858,4.231427594000024,25.470806498285583,15.275455298285692
2041,brussels,2,4.68555657184001,11.552607512914278,10.922584286057088,3.0922162439428575,3.8701200895428656,22.65746217782862,13.511234857828526
2041,brussels,3,3.7765884538800023,10.064087281114325,9.401225850256992,2.8518437472428673,3.5088125814428963,19.844117876228438,11.747014436228596
2041,brussels,4,2.867620335920016,8.575567049314259,7.8798674144571805,2.611471250542877,3.14750507334287,17.03077357462871,9.982794014628553
2041,flanders,1,7.137381850399976,10.212556332000005,10.386799863428564,1.275445900857136,1.9171418797142792,19.556520784,11.932598155428565
2041,flanders,2,6.2284137146971545,8.724036084342856,8.865441428914288,1.0350733868000077,1.5558343752571346,16.743176463542824,10.168377714971427
2041,flanders,3,5.3194455967371255,7.2355158525428465,7.344082993114284,0.7947008900999961,1.194526867157137,13.929832161942898,8.404157293371412
2041,flanders,4,4.410477478777068,5.746995620742837,5.822724557314302,0.5543283934000023,0.8332193590571393,11.116487860342886,6.639936871771397
2041,wallonia,1,6.623096136114285,10.212556332000005,11.929657006285709,2.561160186571442,4.488570451142834,19.04223506971428,13.989741012571415
2041,wallonia,2,5.714128000411435,8.724036084342856,10.408298571771411,2.3207876725142853,4.1272629466857325,16.22889074925714,12.225520572114306
2041,wallonia,3,4.8051598824514485,7.2355158525428465,8.886940135971372,2.080415175814295,3.7659554385857064,13.415546447657164,10.461300150514376
2041,wallonia,4,3.896191764491448,5.746995620742837,7.365581700171333,1.8400426791142763,3.404647930485794,10.602202146057039,8.697079728914218
2042,belgium,1,6.492622690799999,10.632290256857143,10.866835462571428,1.7169357981428572,2.5807752487142857,20.095312682285716,12.601580282285715
2042,belgium,2,5.540370360975231,9.072888095161915,9.273031388114305,1.465116976647618,2.202262624419042,17.147999587657125,10.75334934765715
2042,belgium,3,4.58811804692192,7.513485947561946,7.679227312514286,1.2132981705809556,1.8237499968857236,14.200686509790444,8.905118429790434
2042,belgium,4,3.635865732868581,5.95408379996195,6.085423236914323,0.9614793645142754,1.445237369352384,11.25337343192382,7.056887511923833
2042,brussels,1,5.694314119371427,12.77347882828576,12.268709748285744,3.153072941000005,4.048020962999999,24.87352982514267,14.978357425142804
2042,brussels,2,4.742061789546668,11.214076666590472,10.674905673828562,2.901254119504756,3.669508338704759,21.926216730514398,13.130126490514272
2042,brussels,3,3.7898094754933354,9.654674518990532,9.081101598228429,2.6494353134380617,3.2909957111714334,18.978903652647432,11.281895572647613
2042,brussels,4,2.8375571614400172,8.095272371390479,7.487297522628523,2.397616507371481,2.912483083638108,16.03159057478092,9.433664654781069
2042,flanders,1,7.065742690799993,10.259193113999999,10.44013831971428,1.3245015124285686,1.9908781058571492,19.616386968,12.006928853714271
2042,flanders,2,6.1134903609752484,8.69979095230476,8.846334245257147,1.072682690933334,1.6123654815618949,16.669073873371417,10.158697919085714
2042,flanders,3,5.161238046921881,7.140388804704742,7.252530169657149,0.820863884866661,1.2338528540285552,13.721760795504792,8.310467001219024
2042,flanders,4,4.208985732868541,5.580986657104745,5.658726094057158,0.5690450788000021,0.8553402264952297,10.774447717638054,6.462236083352366
2042,wallonia,1,6.608599833657141,10.259193113999999,11.81156689114286,2.4673586552857216,4.276592391571398,19.159244110857145,13.835500282285693
2042,wallonia,2,5.656347503832379,8.69979095230476,10.217762816685706,2.215539833790473,3.898079767276215,16.21193101622857,11.987269347657161
2042,wallonia,3,4.7040951897790535,7.140388804704742,8.623958741085744,1.9637210277238353,3.5195671397428328,13.264617938361937,10.139038429790617
2042,wallonia,4,3.7518428757257425,5.580986657104745,7.030154665485725,1.7119022216571693,3.141054512209621,10.317304860495142,8.290807511923731
2043,belgium,1,6.4926235312,10.632289896,10.866836776,1.7169371240000002,2.580774332,20.095313152,12.601579552
2043,belgium,2,5.497087007253327,9.002005820266675,9.200587061600004,1.4536719950666637,2.1850565878666615,17.014031283199984,10.669338123199992
2043,belgium,3,4.5015504971066775,7.371721756866691,7.5343373462000045,1.1904068796333362,1.789338840900001,13.932749429066575,8.737096709066634
2043,belgium,4,3.5060139869599993,5.7414376934667075,5.868087630800005,0.9271417641999875,1.3936210939333336,10.851467574933281,6.804855294933418
2043,brussels,1,5.794103531199994,12.505829896000023,12.093476775999989,2.973557124000024,3.8646143320000306,24.27625315199998,14.681259552000029
2043,brussels,2,4.7985670072533395,10.875545820266666,10.427227061599979,2.7102919950667115,3.4688965878666522,21.194971283199948,12.749018123199903
2043,brussels,3,3.8030304971066684,9.24526175686674,8.760977346199866,2.447026879633313,3.0731788409000274,18.113689429066653,10.816776709066744
2043,brussels,4,2.8074939869600115,7.614977693466585,7.09472763079998,2.183761764200028,2.6774610939333456,15.032407574933359,8.884535294933357
2043,flanders,1,6.994103531199983,10.305829896000006,10.493476775999994,1.373557123999987,2.064614331999991,19.676253152,12.081259552000006
2043,flanders,2,5.998567007253342,8.675545820266663,8.827227061599999,1.1102919950666745,1.668896587866655,16.594971283199982,10.149018123199998
2043,flanders,3,5.003030497106636,7.045261756866637,7.160977346199985,0.8470268796333329,1.2731788408999876,13.513689429066687,8.216776709066664
2043,flanders,4,4.0074939869599575,5.414977693466653,5.494727630800014,0.5837617642000019,0.8774610939333272,10.432407574933336,6.284535294933278
2043,wallonia,1,6.594103531200002,10.305829896000006,11.693476775999983,2.3735571240000013,4.064614331999962,19.27625315199998,13.681259551999972
2043,wallonia,2,5.598567007253337,8.675545820266663,10.027227061600001,2.1102919950666887,3.6688965878666977,16.194971283199997,11.749018123200017
2043,wallonia,3,4.603030497106687,7.045261756866637,8.360977346200002,1.847026879633347,3.273178840900016,13.11368942906671,9.816776709066744
2043,wallonia,4,3.607493986960037,5.414977693466653,6.694727630800003,1.5837617642000055,2.877461093933448,10.032407574933245,7.884535294933357
2044,belgium,1,6.4926243716,10.632289535142856,10.866838089428573,1.716938449857143,2.580773415285714,20.095313621714286,12.601578821714286
2044,belgium,2,5.453803653531423,8.931123545371435,9.128142735085731,1.442227013485713,2.167850551314281,16.880062978742842,10.585326898742863
2044,belgium,3,4.414982947291435,7.2299575661714925,7.389447379885723,1.167515588685717,1.7549276849142927,13.66481234834282,8.569074988342834
2044,belgium,4,3.376162241051418,5.528791586971465,5.650752024685744,0.8928041638856996,1.3420048185142832,10.449561717942856,6.5528230779428895
2044,brussels,1,5.893892943028561,12.238180963714285,11.91824380371429,2.7940413069999863,3.6812077010000053,23.678976478857066,14.38416167885714
2044,brussels,2,4.855072224960011,10.53701497394286,10.179548449371396,2.51932987062861,3.2682848370285456,20.463725835885725,12.367909755885648
2044,brussels,3,3.8162515187200015,8.835848994742946,8.440853094171302,2.2446184458285643,2.8553619706286213,17.248475205485647,10.35165784548576
2044,brussels,4,2.777430812480013,7.134683015542805,6.702157738971437,1.9699070210285754,2.4424391042285833,14.033224575085796,8.335405935085646
2044,flanders,1,6.922464371599972,10.352466677999999,10.54681523228571,1.4226127355714198,2.138350558142861,19.736119336,12.155590250285712
2044,flanders,2,5.883643653531436,8.651300688228567,8.808119877942858,1.1479012992000008,1.7254276941714153,16.520868693028547,10.139338327314285
2044,flanders,3,4.844822947291391,6.950134709028561,7.06942452274285,0.8731898743999977,1.31250482777142,13.305618062628582,8.123086416914276
2044,flanders,4,3.806002241051374,5.248968729828562,5.33072916754287,0.5984784496000017,0.8995819613714247,10.090367432228618,6.106834506514247
2044,wallonia,1,6.579607228742859,10.352466677999999,11.575386660857134,2.279755592714281,3.8526362724285264,19.393262193142846,13.527018821714307
2044,wallonia,2,5.540786510674295,8.651300688228567,9.836691306514297,2.0050441563428762,3.4397134084571235,16.178011550171426,11.510766898742872
2044,wallonia,3,4.501965804434292,6.950134709028561,8.09799595131426,1.730332731542859,3.0267905420571424,12.962760919771483,9.494514988342985
2044,wallonia,4,3.4631450981943317,5.248968729828562,6.359300596114281,1.4556213067428985,2.613867675657275,9.747510289371348,7.47826307794287
2045,belgium,1,6.492625211999999,10.632289174285713,10.866839402857144,1.716939775714286,2.580772498571428,20.09531409142857,12.601578091428573
2045,belgium,2,5.410520299809519,8.860241270476195,9.05569840857143,1.4307820319047586,2.1506445147619004,16.7460946742857,10.501315674285706
2045,belgium,3,4.3284153974762205,7.088193375476237,7.244557413571442,1.1446242977380976,1.7205165289285702,13.396875267618952,8.401053267618977
2045,belgium,4,3.2463104951428363,5.316145480476223,5.433416418571426,0.8584665635714259,1.2903885430952329,10.047655860952318,6.300790860952475
2045,brussels,1,5.993682354857157,11.970532031428547,11.743010831428592,2.6145254900000054,3.497801070000037,23.081699805714152,14.087063805714251
2045,brussels,2,4.911577442666669,10.198484127619054,9.931869837142813,2.3283677461905086,3.067673086190439,19.732480388571503,11.986801388571394
2045,brussels,3,3.8294725403333345,8.42643623261904,8.12072884214274,2.0422100120238156,2.6375451003571584,16.38326098190464,9.886538981904778
2045,brussels,4,2.7473676380000143,6.654388337619025,6.309587847142893,1.7560522778571794,2.207417114523821,13.034041575238234,7.786276575238162
2045,flanders,1,6.8508252119999895,10.399103460000006,10.600153688571424,1.4716683471428524,2.2120867842857024,19.795985520000002,12.229920948571419
2045,flanders,2,5.76872029980953,8.627055556190477,8.789012694285717,1.1855106033333414,1.7819588004761897,16.44676610285711,10.129658531428571
2045,flanders,3,4.686615397476203,6.855007661190456,6.977871699285714,0.8993528691666626,1.3518308146428524,13.097546696190477,8.029396124761888
2045,flanders,4,3.60451049514279,5.08295976619047,5.166730704285726,0.6131951350000016,0.9217028288095221,9.748327289523786,5.9291337180952155
2045,wallonia,1,6.5651109262857155,10.399103460000006,11.457296545714286,2.1859540614285606,3.640658212857147,19.51027123428571,13.372778091428586
2045,wallonia,2,5.483006014095238,8.627055556190477,9.646155551428535,1.8997963176190638,3.210530229047606,16.161051817142855,11.272515674285728
2045,wallonia,3,4.400901111761925,6.855007661190456,7.8350145564285185,1.6136385834523992,2.7804022432142688,12.811832410476256,9.172253267619112
2045,wallonia,4,3.3187962094285695,5.08295976619047,6.023873561428559,1.3274808492857346,2.3502742573809883,9.462613003809452,7.071990860952383
2046,belgium,1,6.4926260523999995,10.632288813428572,10.866840716285715,1.7169411015714287,2.580771581857143,20.095314561142857,12.601577361142859
2046,belgium,2,5.3672369460876155,8.789358995580955,8.983254082057158,1.4193370503238079,2.13343847820952,16.61212636982856,10.417304449828578
2046,belgium,3,4.241847847660978,6.946429184780982,7.099667447257161,1.1217330067904783,1.686105372942862,13.128938186895198,8.233031546895177
2046,belgium,4,3.1164587492343117,5.103499373980981,5.2160808124571645,0.824128963257138,1.2387722676761967,9.645750003961894,6.048758643961946
2046,brussels,1,6.093471766685724,11.702883099142923,11.567777859142893,2.4350096730000246,3.3143944390000115,22.484423132571237,13.789965932571363
2046,brussels,2,4.968082660373341,9.859953281295248,9.684191224914287,2.137405621752407,2.867061335352389,19.00123494125728,11.605693021257139
2046,brussels,3,3.8426935619466676,8.017023470495246,7.800604590114176,1.83980157821901,2.4197282300857523,15.518046758323635,9.421420118323795
2046,brussels,4,2.7173044635200156,6.174093659695245,5.917017955314236,1.5421975346857266,1.9723951248190588,12.034858575390444,7.237147215390451
2046,flanders,1,6.779186052399979,10.445740242,10.65349214485714,1.5207239587142851,2.2858230104285724,19.855851704000003,12.304251646857125
2046,flanders,2,5.653796946087624,8.60281042415238,8.769905510628568,1.2231199074666677,1.83848990678095,16.372663512685705,10.119978735542855
2046,flanders,3,4.528407847660958,6.759880613352351,6.886318875828579,0.9255158639333274,1.3911568015142706,12.889475329752429,7.9357058326095
2046,flanders,4,3.4030187492342634,4.916950802552378,5.002732241028582,0.6279118204000014,0.9438236962476125,9.406287146819068,5.751432929676184
2046,wallonia,1,6.550614623828572,10.445740242,11.339206430571437,2.0921525301428687,3.428680153285711,19.627280275428575,13.218537361142864
2046,wallonia,2,5.425225517516196,8.60281042415238,9.45561979634283,1.7945484788952513,2.9813470496380887,16.144092084114284,11.034264449828584
2046,wallonia,3,4.29983641908953,6.759880613352351,7.57203316154289,1.496944435361911,2.534013944371395,12.660903901180973,8.849991546895353
2046,wallonia,4,3.174447320662864,4.916950802552378,5.688446526742837,1.1993403918285708,2.0866808391048153,9.177715718247555,6.665718643961895
2047,belgium,1,6.4926268928,10.632288452571428,10.866842029714286,1.7169424274285716,2.580770665142857,20.095315030857144,12.601576630857144
2047,belgium,2,5.3239535923657115,8.718476720685715,8.910809755542857,1.4078920687428536,2.1162324416571394,16.478158065371417,10.33329322537142
2047,belgium,3,4.155280297845735,6.804664994085783,6.95477748094288,1.098841715842859,1.6516942169571394,12.86100110617133,8.065009826171377
2047,belgium,4,2.98660700332573,4.890853267485738,4.998745206342846,0.7897913629428501,1.1871559922571464,9.243844146971355,5.7967264269715315
2047,brussels,1,6.193261178514291,11.435234166857185,11.392544886857138,2.255493855999987,3.130987808000043,21.88714645942855,13.492868059428588
2047,brussels,2,5.024587878079998,9.521422434971441,9.436512612685704,1.9464434973143057,2.6664495845142824,18.26998949394283,11.22458465394277
2047,brussels,3,3.8559145835600006,7.607610708371453,7.480480338085613,1.6373931444142613,2.2019113598142894,14.652832534742856,8.956301254742925
2047,brussels,4,2.68724128904001,5.6937989817713515,5.524448063485693,1.3283427915143307,1.7373731351142965,11.035675575542882,6.688017855542967
2047,flanders,1,6.707546892799996,10.492377024000007,10.706830601142855,1.5697795702857036,2.359559236571414,19.915717888000003,12.37858234514286
2047,flanders,2,5.538873592365718,8.578565292114284,8.750798326971427,1.2607292116000082,1.8950210130857101,16.29856092251427,10.110298939657142
2047,flanders,3,4.370200297845713,6.664753565514275,6.794766052371415,0.9516788586999994,1.430482788385703,12.681403963314324,7.84201554045714
2047,flanders,4,3.2015270033256797,4.750941838914287,4.838733777771438,0.6426285058000012,0.96594456368571,9.064247004114236,5.573732141257096
2047,wallonia,1,6.536118321371429,10.492377024000007,11.22111631542856,1.9983509988571484,3.216702093714275,19.74428931657141,13.064296630857143
2047,wallonia,2,5.36744502093714,8.578565292114284,9.265084041257126,1.6893006401714388,2.7521638702285713,16.127132351085713,10.79601322537144
2047,wallonia,3,4.198771726417164,6.664753565514275,7.309051766657149,1.3802502872714513,2.2876256455285784,12.509975391885746,8.52772982617148
2047,wallonia,4,3.0300984318971587,4.750941838914287,5.353019492057115,1.0711999343714638,1.8230874208286423,8.892818432685658,6.259446426971408
2048,belgium,1,6.492627733199999,10.632288091714285,10.866843343142857,1.7169437532857144,2.580769748428571,20.095315500571427,12.60157590057143
2048,belgium,2,5.280670238643808,8.647594445790475,8.838365429028585,1.3964470871619028,2.099026405104759,16.344189760914276,10.249282000914292
2048,belgium,3,4.068712748030492,6.662900803390528,6.809887514628599,1.0759504248952396,1.617283060971431,12.593064025447575,7.896988105447576
2048,belgium,4,2.8567552574171486,4.678207160990496,4.781409600228585,0.7554537626285622,1.135539716838096,8.84193828998093,5.544694209981003
2048,brussels,1,6.293050590342858,11.167585234571447,11.21731191457144,2.075978039000006,2.9475811770000178,21.289869786285635,13.1957701862857
2048,brussels,2,5.08109309578667,9.182891588647635,9.18883400045712,1.7554813728762042,2.4658378336761757,17.538744046628608,10.843476286628515
2048,brussels,3,3.8691356051733337,7.19819794624766,7.16035608605705,1.4349847106095126,1.9840944895428834,13.78761831116185,8.491182391161942
2048,brussels,4,2.6571781145600113,5.2135043038475715,5.131878171657149,1.1144880483428778,1.5023511454095342,10.03649257569532,6.138888495695255
2048,flanders,1,6.635907733199986,10.539013806,10.76016905742857,1.6188351818571363,2.433295462714284,19.975584072000004,12.452913043428566
2048,flanders,2,5.423950238643812,8.554320160076188,8.731691143314286,1.2983385157333345,1.9515521193904704,16.224458332342834,10.100619143771429
2048,flanders,3,4.211992748030468,6.56962651767617,6.703213228914279,0.9778418534666642,1.4698087752571354,12.473332596876219,7.748325248304752
2048,flanders,4,3.000035257417096,4.584932875276195,4.674735314514294,0.657345191200001,0.9880654311238075,8.722206861409518,5.396031352838065
2048,wallonia,1,6.521622018914286,10.539013806,11.103026200285711,1.904549467571428,3.004724034142839,19.861298357714276,12.910055900571422
2048,wallonia,2,5.309664524358098,8.554320160076188,9.07454828617142,1.5840528014476263,2.522980690819054,16.110172618057142,10.557762000914295
2048,wallonia,3,4.0977070337447685,6.56962651767617,7.046070371771407,1.263556139180963,2.041237346685705,12.359046882590519,8.205468105447721
2048,wallonia,4,2.8857495431314533,4.584932875276195,5.017592457371393,0.9430594769142999,1.5594940025524693,8.607921147123761,5.853174209980921
2049,belgium,1,6.492628573599999,10.632287730857142,10.866844656571429,1.7169450791428573,2.5807688317142854,20.095315970285714,12.601575170285715
2049,belgium,2,5.237386884921904,8.576712170895235,8.765921102514312,1.385002105580952,2.0818203685523784,16.210221456457134,10.165270776457163
2049,belgium,3,3.9821451982152496,6.521136612695273,6.664997548314318,1.0530591339476203,1.5828719049857227,12.32512694472382,7.728966384723776
2049,belgium,4,2.726903511508567,4.465561054495254,4.564073994114324,0.7211161623142743,1.0839234414190457,8.440032432990506,5.292661992990475
2049,brussels,1,6.392840002171425,10.89993630228571,11.042078942285741,1.8964622220000251,2.7641745459999925,20.69259311314272,12.89867231314281
2049,brussels,2,5.137598313493342,8.844360742323829,8.941155388228538,1.5645192484381027,2.265226082838069,16.807498599314386,10.46236791931426
2049,brussels,3,3.8823566267866667,6.788785184123867,6.8402318340284864,1.232576276804764,1.7662776192714773,12.922404087580844,8.026063527580959
2049,brussels,4,2.6271149400800127,4.7332096259237915,4.739308279828606,0.900633305171425,1.267329155704772,9.037309575847758,5.589759135847544
2049,flanders,1,6.564268573599975,10.585650587999993,10.813507513714285,1.667890793428569,2.507031688857154,20.035450256000004,12.527243741714273
2049,flanders,2,5.309026884921906,8.530075028038091,8.712583959657145,1.3359478198666608,2.0080832256952306,16.1503557421714,10.090939347885715
2049,flanders,3,4.053785198215223,6.474499469838065,6.611660405457144,1.004004848233329,1.5091347621285678,12.265261230438114,7.654634956152364
2049,flanders,4,2.7985435115085124,4.418923911638103,4.51073685125715,0.6720618766000008,1.010186298561905,8.3801667187048,5.218330564419034
2049,wallonia,1,6.507125716457143,10.585650587999993,10.984936085142863,1.8107479362857077,2.792745974571403,19.97830739885714,12.7558151702857
2049,wallonia,2,5.251884027779056,8.530075028038091,8.884012531085716,1.4788049627238138,2.2937975114095366,16.09321288502857,10.31951077645715
2049,wallonia,3,3.9966423410723735,6.474499469838065,6.783088976885665,1.146861991090475,1.7948490478428312,12.208118373295292,7.883206384723962
2049,wallonia,4,2.741400654365748,4.418923911638103,4.682165422685671,0.8149190194571361,1.2959005842762963,8.323023861561865,5.446901992990433
2050,belgium,1,6.492629414,10.63228737,10.86684597,1.716946405,2.580767915,20.09531644,12.60157444
2050,belgium,2,5.1941035312,8.505829895999995,8.693476776000011,1.3735571239999977,2.064614331999998,16.076253151999992,10.081259552000006
2050,belgium,3,3.895577648400007,6.379372422000074,6.520107582000037,1.030167843000001,1.5484607490000002,12.057189863999952,7.560944663999976
2050,belgium,4,2.5970517655999856,4.2529149480000115,4.346738388000006,0.6867785619999864,1.0323071659999954,8.038126575999968,5.04062977600006
2050,brussels,1,6.4926294139999925,10.632287369999972,10.866845969999986,1.7169464049999874,2.580767915000024,20.095316440000033,12.601574440000036
2050,brussels,2,5.1941035312,8.505829896000023,8.693476775999954,1.3735571240000013,2.0646143319999624,16.076253151999936,10.081259551999892
2050,brussels,3,3.8955776483999998,6.379372422000074,6.520107581999923,1.0301678430000152,1.5484607490000144,12.057189864000065,7.56094466400009
2050,brussels,4,2.597051765600007,4.252914947999898,4.3467383880000625,0.6867785620000291,1.0323071660000096,8.038126576000195,5.04062977600006
2050,flanders,1,6.4926294139999925,10.63228737,10.86684597,1.7169464049999874,2.5807679149999956,20.095316440000005,12.601574440000007
2050,flanders,2,5.1941035312,8.505829895999995,8.693476776000004,1.3735571240000013,2.064614331999991,16.076253151999964,10.081259552000002
2050,flanders,3,3.8955776483999784,6.379372421999989,6.52010758199998,1.030167843000001,1.5484607490000002,12.057189864000009,7.560944664000004
2050,flanders,4,2.597051765599929,4.2529149480000115,4.346738388000006,0.6867785620000006,1.0323071660000025,8.038126575999968,5.040629775999946
2050,wallonia,1,6.492629414,10.63228737,10.866845969999986,1.7169464049999874,2.580767914999967,20.095316439999976,12.601574439999979
2050,wallonia,2,5.1941035312,8.505829895999995,8.693476776000011,1.3735571240000013,2.064614332000019,16.076253152,10.081259552000006
2050,wallonia,3,3.895577648400007,6.379372421999989,6.520107581999923,1.0301678430000152,1.5484607490000144,12.057189864000065,7.56094466400009
2050,wallonia,4,2.5970517656000425,4.2529149480000115,4.346738387999949,0.6867785620000291,1.0323071660001233,8.038126575999968,5.040629775999946
