Country,Years,lever_temp,fts_clm_temp_crop_yield[%],fts_clm_temp_global[°C]
austria,2020,1,1,6.52
austria,2020,2,1,6.39
austria,2020,3,1,6.39
austria,2020,4,1,6.39
belgium,2020,1,1,10.05
belgium,2020,2,1,9.94
belgium,2020,3,1,9.94
belgium,2020,4,1,9.94
bulgaria,2020,1,1,11.01
bulgaria,2020,2,1,10.88
bulgaria,2020,3,1,10.88
bulgaria,2020,4,1,10.88
croatia,2020,1,1,10.76
croatia,2020,2,1,10.62
croatia,2020,3,1,10.62
croatia,2020,4,1,10.62
cyprus,2020,1,1,18.67
cyprus,2020,2,1,18.56
cyprus,2020,3,1,18.56
cyprus,2020,4,1,18.56
czech republic,2020,1,1,7.74
czech republic,2020,2,1,7.61
czech republic,2020,3,1,7.61
czech republic,2020,4,1,7.61
denmark,2020,1,1,8.37
denmark,2020,2,1,8.25
denmark,2020,3,1,8.25
denmark,2020,4,1,8.25
estonia,2020,1,1,5.8
estonia,2020,2,1,5.64
estonia,2020,3,1,5.64
estonia,2020,4,1,5.64
finland,2020,1,1,2.25
finland,2020,2,1,2.08
finland,2020,3,1,2.08
finland,2020,4,1,2.08
france,2020,1,1,10.86
france,2020,2,1,10.75
france,2020,3,1,10.75
france,2020,4,1,10.75
germany,2020,1,1,8.85
germany,2020,2,1,8.73
germany,2020,3,1,8.73
germany,2020,4,1,8.73
greece,2020,1,1,14.39
greece,2020,2,1,14.27
greece,2020,3,1,14.27
greece,2020,4,1,14.27
hungary,2020,1,1,10.17
hungary,2020,2,1,10.03
hungary,2020,3,1,10.03
hungary,2020,4,1,10.03
ireland,2020,1,1,9.71
ireland,2020,2,1,9.63
ireland,2020,3,1,9.63
ireland,2020,4,1,9.63
italy,2020,1,1,12.07
italy,2020,2,1,11.94
italy,2020,3,1,11.94
italy,2020,4,1,11.94
latvia,2020,1,1,6.09
latvia,2020,2,1,5.94
latvia,2020,3,1,5.94
latvia,2020,4,1,5.94
lithuania,2020,1,1,6.28
lithuania,2020,2,1,6.13
lithuania,2020,3,1,6.13
lithuania,2020,4,1,6.13
luxembourg,2020,1,1,9.19
luxembourg,2020,2,1,9.07
luxembourg,2020,3,1,9.07
luxembourg,2020,4,1,9.07
malta,2020,1,1,18.94
malta,2020,2,1,18.83
malta,2020,3,1,18.83
malta,2020,4,1,18.83
netherlands,2020,1,1,9.9
netherlands,2020,2,1,9.8
netherlands,2020,3,1,9.8
netherlands,2020,4,1,9.8
poland,2020,1,1,7.84
poland,2020,2,1,7.7
poland,2020,3,1,7.7
poland,2020,4,1,7.7
portugal,2020,1,1,15.83
portugal,2020,2,1,15.72
portugal,2020,3,1,15.72
portugal,2020,4,1,15.72
romania,2020,1,1,9.12
romania,2020,2,1,8.98
romania,2020,3,1,8.98
romania,2020,4,1,8.98
slovakia,2020,1,1,7.39
slovakia,2020,2,1,7.26
slovakia,2020,3,1,7.26
slovakia,2020,4,1,7.26
slovenia,2020,1,1,8.39
slovenia,2020,2,1,8.26
slovenia,2020,3,1,8.26
slovenia,2020,4,1,8.26
spain,2020,1,1,13.76
spain,2020,2,1,13.64
spain,2020,3,1,13.64
spain,2020,4,1,13.64
sweden,2020,1,1,2.14
sweden,2020,2,1,1.99
sweden,2020,3,1,1.99
sweden,2020,4,1,1.99
switzerland,2020,1,1,5.27
switzerland,2020,2,1,5.14
switzerland,2020,3,1,5.14
switzerland,2020,4,1,5.14
united kingdom,2020,1,1,9.04
united kingdom,2020,2,1,8.95
united kingdom,2020,3,1,8.95
united kingdom,2020,4,1,8.95
austria,2025,1,1,7.07
austria,2025,2,1,6.88
austria,2025,3,1,6.88
austria,2025,4,1,6.88
belgium,2025,1,1,9.77
belgium,2025,2,1,9.62
belgium,2025,3,1,9.62
belgium,2025,4,1,9.62
bulgaria,2025,1,1,11.43
bulgaria,2025,2,1,11.24
bulgaria,2025,3,1,11.24
bulgaria,2025,4,1,11.24
croatia,2025,1,1,11.51
croatia,2025,2,1,11.31
croatia,2025,3,1,11.31
croatia,2025,4,1,11.31
cyprus,2025,1,1,19.16
cyprus,2025,2,1,19.0
cyprus,2025,3,1,19.0
cyprus,2025,4,1,19.0
czech republic,2025,1,1,8.13
czech republic,2025,2,1,7.94
czech republic,2025,3,1,7.94
czech republic,2025,4,1,7.94
denmark,2025,1,1,7.78
denmark,2025,2,1,7.62
denmark,2025,3,1,7.62
denmark,2025,4,1,7.62
estonia,2025,1,1,5.24
estonia,2025,2,1,5.02
estonia,2025,3,1,5.02
estonia,2025,4,1,5.02
finland,2025,1,1,1.2
finland,2025,2,1,0.95
finland,2025,3,1,0.95
finland,2025,4,1,0.95
france,2025,1,1,11.23
france,2025,2,1,11.06
france,2025,3,1,11.06
france,2025,4,1,11.06
germany,2025,1,1,8.98
germany,2025,2,1,8.8
germany,2025,3,1,8.8
germany,2025,4,1,8.8
greece,2025,1,1,15.13
greece,2025,2,1,14.95
greece,2025,3,1,14.95
greece,2025,4,1,14.95
hungary,2025,1,1,10.68
hungary,2025,2,1,10.48
hungary,2025,3,1,10.48
hungary,2025,4,1,10.48
ireland,2025,1,1,9.49
ireland,2025,2,1,9.38
ireland,2025,3,1,9.38
ireland,2025,4,1,9.38
italy,2025,1,1,13.03
italy,2025,2,1,12.85
italy,2025,3,1,12.85
italy,2025,4,1,12.85
latvia,2025,1,1,5.83
latvia,2025,2,1,5.61
latvia,2025,3,1,5.61
latvia,2025,4,1,5.61
lithuania,2025,1,1,6.38
lithuania,2025,2,1,6.17
lithuania,2025,3,1,6.17
lithuania,2025,4,1,6.17
luxembourg,2025,1,1,9.19
luxembourg,2025,2,1,9.03
luxembourg,2025,3,1,9.03
luxembourg,2025,4,1,9.03
malta,2025,1,1,20.16
malta,2025,2,1,20.01
malta,2025,3,1,20.01
malta,2025,4,1,20.01
netherlands,2025,1,1,9.44
netherlands,2025,2,1,9.28
netherlands,2025,3,1,9.28
netherlands,2025,4,1,9.28
poland,2025,1,1,8.26
poland,2025,2,1,8.07
poland,2025,3,1,8.07
poland,2025,4,1,8.07
portugal,2025,1,1,16.47
portugal,2025,2,1,16.31
portugal,2025,3,1,16.31
portugal,2025,4,1,16.31
romania,2025,1,1,9.26
romania,2025,2,1,9.06
romania,2025,3,1,9.06
romania,2025,4,1,9.06
slovakia,2025,1,1,7.83
slovakia,2025,2,1,7.63
slovakia,2025,3,1,7.63
slovakia,2025,4,1,7.63
slovenia,2025,1,1,8.96
slovenia,2025,2,1,8.77
slovenia,2025,3,1,8.77
slovenia,2025,4,1,8.77
spain,2025,1,1,14.58
spain,2025,2,1,14.41
spain,2025,3,1,14.41
spain,2025,4,1,14.41
sweden,2025,1,1,1.23
sweden,2025,2,1,1.02
sweden,2025,3,1,1.02
sweden,2025,4,1,1.02
switzerland,2025,1,1,5.85
switzerland,2025,2,1,5.66
switzerland,2025,3,1,5.66
switzerland,2025,4,1,5.66
united kingdom,2025,1,1,8.64
united kingdom,2025,2,1,8.51
united kingdom,2025,3,1,8.51
united kingdom,2025,4,1,8.51
austria,2030,1,1,8.35
austria,2030,2,1,8.09
austria,2030,3,1,8.09
austria,2030,4,1,8.09
belgium,2030,1,1,11.87
belgium,2030,2,1,11.66
belgium,2030,3,1,11.66
belgium,2030,4,1,11.66
bulgaria,2030,1,1,12.61
bulgaria,2030,2,1,12.35
bulgaria,2030,3,1,12.35
bulgaria,2030,4,1,12.35
croatia,2030,1,1,12.75
croatia,2030,2,1,12.49
croatia,2030,3,1,12.49
croatia,2030,4,1,12.49
cyprus,2030,1,1,19.01
cyprus,2030,2,1,18.8
cyprus,2030,3,1,18.8
cyprus,2030,4,1,18.8
czech republic,2030,1,1,10.09
czech republic,2030,2,1,9.83
czech republic,2030,3,1,9.83
czech republic,2030,4,1,9.83
denmark,2030,1,1,10.6
denmark,2030,2,1,10.38
denmark,2030,3,1,10.38
denmark,2030,4,1,10.38
estonia,2030,1,1,8.24
estonia,2030,2,1,7.93
estonia,2030,3,1,7.93
estonia,2030,4,1,7.93
finland,2030,1,1,4.77
finland,2030,2,1,4.43
finland,2030,3,1,4.43
finland,2030,4,1,4.43
france,2030,1,1,12.88
france,2030,2,1,12.65
france,2030,3,1,12.65
france,2030,4,1,12.65
germany,2030,1,1,11.04
germany,2030,2,1,10.8
germany,2030,3,1,10.8
germany,2030,4,1,10.8
greece,2030,1,1,15.75
greece,2030,2,1,15.5
greece,2030,3,1,15.5
greece,2030,4,1,15.5
hungary,2030,1,1,12.44
hungary,2030,2,1,12.17
hungary,2030,3,1,12.17
hungary,2030,4,1,12.17
ireland,2030,1,1,10.69
ireland,2030,2,1,10.55
ireland,2030,3,1,10.55
ireland,2030,4,1,10.55
italy,2030,1,1,13.53
italy,2030,2,1,13.28
italy,2030,3,1,13.28
italy,2030,4,1,13.28
latvia,2030,1,1,8.84
latvia,2030,2,1,8.55
latvia,2030,3,1,8.55
latvia,2030,4,1,8.55
lithuania,2030,1,1,9.49
lithuania,2030,2,1,9.21
lithuania,2030,3,1,9.21
lithuania,2030,4,1,9.21
luxembourg,2030,1,1,11.44
luxembourg,2030,2,1,11.21
luxembourg,2030,3,1,11.21
luxembourg,2030,4,1,11.21
malta,2030,1,1,20.74
malta,2030,2,1,20.53
malta,2030,3,1,20.53
malta,2030,4,1,20.53
netherlands,2030,1,1,11.67
netherlands,2030,2,1,11.46
netherlands,2030,3,1,11.46
netherlands,2030,4,1,11.46
poland,2030,1,1,10.57
poland,2030,2,1,10.3
poland,2030,3,1,10.3
poland,2030,4,1,10.3
portugal,2030,1,1,16.85
portugal,2030,2,1,16.63
portugal,2030,3,1,16.63
portugal,2030,4,1,16.63
romania,2030,1,1,11.18
romania,2030,2,1,10.9
romania,2030,3,1,10.9
romania,2030,4,1,10.9
slovakia,2030,1,1,9.6
slovakia,2030,2,1,9.34
slovakia,2030,3,1,9.34
slovakia,2030,4,1,9.34
slovenia,2030,1,1,10.25
slovenia,2030,2,1,9.98
slovenia,2030,3,1,9.98
slovenia,2030,4,1,9.98
spain,2030,1,1,15.18
spain,2030,2,1,14.94
spain,2030,3,1,14.94
spain,2030,4,1,14.94
sweden,2030,1,1,5.18
sweden,2030,2,1,4.89
sweden,2030,3,1,4.89
sweden,2030,4,1,4.89
switzerland,2030,1,1,7.26
switzerland,2030,2,1,7.01
switzerland,2030,3,1,7.01
switzerland,2030,4,1,7.01
united kingdom,2030,1,1,10.2
united kingdom,2030,2,1,10.02
united kingdom,2030,3,1,10.02
united kingdom,2030,4,1,10.02
austria,2035,1,1,7.61
austria,2035,2,1,7.27
austria,2035,3,1,7.27
austria,2035,4,1,8.09
belgium,2035,1,1,10.7
belgium,2035,2,1,10.41
belgium,2035,3,1,10.41
belgium,2035,4,1,11.66
bulgaria,2035,1,1,12.22
bulgaria,2035,2,1,11.87
bulgaria,2035,3,1,11.87
bulgaria,2035,4,1,12.35
croatia,2035,1,1,12.16
croatia,2035,2,1,11.81
croatia,2035,3,1,11.81
croatia,2035,4,1,12.49
cyprus,2035,1,1,19.84
cyprus,2035,2,1,19.56
cyprus,2035,3,1,19.56
cyprus,2035,4,1,18.8
czech republic,2035,1,1,8.96
czech republic,2035,2,1,8.62
czech republic,2035,3,1,8.62
czech republic,2035,4,1,9.83
denmark,2035,1,1,9.0
denmark,2035,2,1,8.71
denmark,2035,3,1,8.71
denmark,2035,4,1,10.38
estonia,2035,1,1,6.78
estonia,2035,2,1,6.39
estonia,2035,3,1,6.39
estonia,2035,4,1,7.93
finland,2035,1,1,3.58
finland,2035,2,1,3.14
finland,2035,3,1,3.14
finland,2035,4,1,4.43
france,2035,1,1,11.95
france,2035,2,1,11.65
france,2035,3,1,11.65
france,2035,4,1,12.65
germany,2035,1,1,9.74
germany,2035,2,1,9.43
germany,2035,3,1,9.43
germany,2035,4,1,10.8
greece,2035,1,1,15.59
greece,2035,2,1,15.27
greece,2035,3,1,15.27
greece,2035,4,1,15.5
hungary,2035,1,1,11.42
hungary,2035,2,1,11.06
hungary,2035,3,1,11.06
hungary,2035,4,1,12.17
ireland,2035,1,1,9.81
ireland,2035,2,1,9.62
ireland,2035,3,1,9.62
ireland,2035,4,1,10.55
italy,2035,1,1,13.09
italy,2035,2,1,12.77
italy,2035,3,1,12.77
italy,2035,4,1,13.28
latvia,2035,1,1,7.01
latvia,2035,2,1,6.64
latvia,2035,3,1,6.64
latvia,2035,4,1,8.55
lithuania,2035,1,1,7.53
lithuania,2035,2,1,7.16
lithuania,2035,3,1,7.16
lithuania,2035,4,1,9.21
luxembourg,2035,1,1,10.04
luxembourg,2035,2,1,9.75
luxembourg,2035,3,1,9.75
luxembourg,2035,4,1,11.21
malta,2035,1,1,20.04
malta,2035,2,1,19.78
malta,2035,3,1,19.78
malta,2035,4,1,20.53
netherlands,2035,1,1,10.37
netherlands,2035,2,1,10.09
netherlands,2035,3,1,10.09
netherlands,2035,4,1,11.46
poland,2035,1,1,9.08
poland,2035,2,1,8.74
poland,2035,3,1,8.74
poland,2035,4,1,10.3
portugal,2035,1,1,16.54
portugal,2035,2,1,16.26
portugal,2035,3,1,16.26
portugal,2035,4,1,16.63
romania,2035,1,1,10.38
romania,2035,2,1,10.01
romania,2035,3,1,10.01
romania,2035,4,1,10.9
slovakia,2035,1,1,8.31
slovakia,2035,2,1,7.96
slovakia,2035,3,1,7.96
slovakia,2035,4,1,9.34
slovenia,2035,1,1,9.78
slovenia,2035,2,1,9.43
slovenia,2035,3,1,9.43
slovenia,2035,4,1,9.98
spain,2035,1,1,14.79
spain,2035,2,1,14.48
spain,2035,3,1,14.48
spain,2035,4,1,14.94
sweden,2035,1,1,3.38
sweden,2035,2,1,3.0
sweden,2035,3,1,3.0
sweden,2035,4,1,4.89
switzerland,2035,1,1,6.23
switzerland,2035,2,1,5.9
switzerland,2035,3,1,5.9
switzerland,2035,4,1,7.01
united kingdom,2035,1,1,9.22
united kingdom,2035,2,1,8.99
united kingdom,2035,3,1,8.99
united kingdom,2035,4,1,10.02
austria,2040,1,1,8.13
austria,2040,2,1,7.68
austria,2040,3,1,7.68
austria,2040,4,1,8.09
belgium,2040,1,1,11.47
belgium,2040,2,1,11.09
belgium,2040,3,1,11.09
belgium,2040,4,1,11.66
bulgaria,2040,1,1,13.18
bulgaria,2040,2,1,12.71
bulgaria,2040,3,1,12.71
bulgaria,2040,4,1,12.35
croatia,2040,1,1,12.66
croatia,2040,2,1,12.2
croatia,2040,3,1,12.2
croatia,2040,4,1,12.49
cyprus,2040,1,1,20.49
cyprus,2040,2,1,20.12
cyprus,2040,3,1,20.12
cyprus,2040,4,1,18.8
czech republic,2040,1,1,9.66
czech republic,2040,2,1,9.21
czech republic,2040,3,1,9.21
czech republic,2040,4,1,9.83
denmark,2040,1,1,9.23
denmark,2040,2,1,8.84
denmark,2040,3,1,8.84
denmark,2040,4,1,10.38
estonia,2040,1,1,7.06
estonia,2040,2,1,6.53
estonia,2040,3,1,6.53
estonia,2040,4,1,7.93
finland,2040,1,1,4.26
finland,2040,2,1,3.67
finland,2040,3,1,3.67
finland,2040,4,1,4.43
france,2040,1,1,12.54
france,2040,2,1,12.14
france,2040,3,1,12.14
france,2040,4,1,12.65
germany,2040,1,1,10.17
germany,2040,2,1,9.75
germany,2040,3,1,9.75
germany,2040,4,1,10.8
greece,2040,1,1,16.26
greece,2040,2,1,15.82
greece,2040,3,1,15.82
greece,2040,4,1,15.5
hungary,2040,1,1,12.25
hungary,2040,2,1,11.77
hungary,2040,3,1,11.77
hungary,2040,4,1,12.17
ireland,2040,1,1,10.44
ireland,2040,2,1,10.18
ireland,2040,3,1,10.18
ireland,2040,4,1,10.55
italy,2040,1,1,13.73
italy,2040,2,1,13.3
italy,2040,3,1,13.3
italy,2040,4,1,13.28
latvia,2040,1,1,7.5
latvia,2040,2,1,7.0
latvia,2040,3,1,7.0
latvia,2040,4,1,8.55
lithuania,2040,1,1,8.08
lithuania,2040,2,1,7.58
lithuania,2040,3,1,7.58
lithuania,2040,4,1,9.21
luxembourg,2040,1,1,10.64
luxembourg,2040,2,1,10.24
luxembourg,2040,3,1,10.24
luxembourg,2040,4,1,11.21
malta,2040,1,1,20.5
malta,2040,2,1,20.15
malta,2040,3,1,20.15
malta,2040,4,1,20.53
netherlands,2040,1,1,10.95
netherlands,2040,2,1,10.58
netherlands,2040,3,1,10.58
netherlands,2040,4,1,11.46
poland,2040,1,1,9.56
poland,2040,2,1,9.1
poland,2040,3,1,9.1
poland,2040,4,1,10.3
portugal,2040,1,1,16.87
portugal,2040,2,1,16.5
portugal,2040,3,1,16.5
portugal,2040,4,1,16.63
romania,2040,1,1,11.48
romania,2040,2,1,11.0
romania,2040,3,1,11.0
romania,2040,4,1,10.9
slovakia,2040,1,1,9.44
slovakia,2040,2,1,8.97
slovakia,2040,3,1,8.97
slovakia,2040,4,1,9.34
slovenia,2040,1,1,10.21
slovenia,2040,2,1,9.75
slovenia,2040,3,1,9.75
slovenia,2040,4,1,9.98
spain,2040,1,1,15.18
spain,2040,2,1,14.76
spain,2040,3,1,14.76
spain,2040,4,1,14.94
sweden,2040,1,1,3.64
sweden,2040,2,1,3.13
sweden,2040,3,1,3.13
sweden,2040,4,1,4.89
switzerland,2040,1,1,6.75
switzerland,2040,2,1,6.32
switzerland,2040,3,1,6.32
switzerland,2040,4,1,7.01
united kingdom,2040,1,1,9.93
united kingdom,2040,2,1,9.62
united kingdom,2040,3,1,9.62
united kingdom,2040,4,1,10.02
austria,2045,1,1,9.52
austria,2045,2,1,8.94
austria,2045,3,1,8.94
austria,2045,4,1,8.09
belgium,2045,1,1,12.3
belgium,2045,2,1,11.82
belgium,2045,3,1,11.82
belgium,2045,4,1,11.66
bulgaria,2045,1,1,13.38
bulgaria,2045,2,1,12.77
bulgaria,2045,3,1,12.77
bulgaria,2045,4,1,12.35
croatia,2045,1,1,13.79
croatia,2045,2,1,13.2
croatia,2045,3,1,13.2
croatia,2045,4,1,12.49
cyprus,2045,1,1,20.15
cyprus,2045,2,1,19.67
cyprus,2045,3,1,19.67
cyprus,2045,4,1,18.8
czech republic,2045,1,1,11.28
czech republic,2045,2,1,10.7
czech republic,2045,3,1,10.7
czech republic,2045,4,1,9.83
denmark,2045,1,1,11.47
denmark,2045,2,1,10.97
denmark,2045,3,1,10.97
denmark,2045,4,1,10.38
estonia,2045,1,1,10.17
estonia,2045,2,1,9.48
estonia,2045,3,1,9.48
estonia,2045,4,1,7.93
finland,2045,1,1,6.49
finland,2045,2,1,5.73
finland,2045,3,1,5.73
finland,2045,4,1,4.43
france,2045,1,1,13.1
france,2045,2,1,12.59
france,2045,3,1,12.59
france,2045,4,1,12.65
germany,2045,1,1,11.78
germany,2045,2,1,11.25
germany,2045,3,1,11.25
germany,2045,4,1,10.8
greece,2045,1,1,16.12
greece,2045,2,1,15.56
greece,2045,3,1,15.56
greece,2045,4,1,15.5
hungary,2045,1,1,13.56
hungary,2045,2,1,12.95
hungary,2045,3,1,12.95
hungary,2045,4,1,12.17
ireland,2045,1,1,11.15
ireland,2045,2,1,10.82
ireland,2045,3,1,10.82
ireland,2045,4,1,10.55
italy,2045,1,1,14.21
italy,2045,2,1,13.65
italy,2045,3,1,13.65
italy,2045,4,1,13.28
latvia,2045,1,1,10.63
latvia,2045,2,1,9.97
latvia,2045,3,1,9.97
latvia,2045,4,1,8.55
lithuania,2045,1,1,11.11
lithuania,2045,2,1,10.47
lithuania,2045,3,1,10.47
lithuania,2045,4,1,9.21
luxembourg,2045,1,1,12.06
luxembourg,2045,2,1,11.53
luxembourg,2045,3,1,11.53
luxembourg,2045,4,1,11.21
malta,2045,1,1,20.63
malta,2045,2,1,20.17
malta,2045,3,1,20.17
malta,2045,4,1,20.53
netherlands,2045,1,1,12.02
netherlands,2045,2,1,11.54
netherlands,2045,3,1,11.54
netherlands,2045,4,1,11.46
poland,2045,1,1,11.89
poland,2045,2,1,11.3
poland,2045,3,1,11.3
poland,2045,4,1,10.3
portugal,2045,1,1,16.97
portugal,2045,2,1,16.49
portugal,2045,3,1,16.49
portugal,2045,4,1,16.63
romania,2045,1,1,12.23
romania,2045,2,1,11.61
romania,2045,3,1,11.61
romania,2045,4,1,10.9
slovakia,2045,1,1,11.1
slovakia,2045,2,1,10.49
slovakia,2045,3,1,10.49
slovakia,2045,4,1,9.34
slovenia,2045,1,1,11.52
slovenia,2045,2,1,10.92
slovenia,2045,3,1,10.92
slovenia,2045,4,1,9.98
spain,2045,1,1,15.3
spain,2045,2,1,14.76
spain,2045,3,1,14.76
spain,2045,4,1,14.94
sweden,2045,1,1,6.36
sweden,2045,2,1,5.7
sweden,2045,3,1,5.7
sweden,2045,4,1,4.89
switzerland,2045,1,1,7.75
switzerland,2045,2,1,7.18
switzerland,2045,3,1,7.18
switzerland,2045,4,1,7.01
united kingdom,2045,1,1,10.75
united kingdom,2045,2,1,10.36
united kingdom,2045,3,1,10.36
united kingdom,2045,4,1,10.02
austria,2050,1,1,8.23
austria,2050,2,1,7.5
austria,2050,3,1,7.75
austria,2050,4,1,8.09
belgium,2050,1,1,11.49
belgium,2050,2,1,10.88
belgium,2050,3,1,10.9
belgium,2050,4,1,11.66
bulgaria,2050,1,1,12.78
bulgaria,2050,2,1,12.03
bulgaria,2050,3,1,12.29
bulgaria,2050,4,1,12.35
croatia,2050,1,1,12.51
croatia,2050,2,1,11.76
croatia,2050,3,1,11.91
croatia,2050,4,1,12.49
cyprus,2050,1,1,20.06
cyprus,2050,2,1,19.47
cyprus,2050,3,1,19.81
cyprus,2050,4,1,18.8
czech republic,2050,1,1,9.45
czech republic,2050,2,1,8.72
czech republic,2050,3,1,9.29
czech republic,2050,4,1,9.83
denmark,2050,1,1,9.85
denmark,2050,2,1,9.22
denmark,2050,3,1,9.54
denmark,2050,4,1,10.38
estonia,2050,1,1,7.79
estonia,2050,2,1,6.94
estonia,2050,3,1,6.42
estonia,2050,4,1,7.93
finland,2050,1,1,4.5
finland,2050,2,1,3.54
finland,2050,3,1,2.86
finland,2050,4,1,4.43
france,2050,1,1,12.37
france,2050,2,1,11.73
france,2050,3,1,12.02
france,2050,4,1,12.65
germany,2050,1,1,10.42
germany,2050,2,1,9.75
germany,2050,3,1,10.0
germany,2050,4,1,10.8
greece,2050,1,1,16.03
greece,2050,2,1,15.33
greece,2050,3,1,15.43
greece,2050,4,1,15.5
hungary,2050,1,1,11.97
hungary,2050,2,1,11.2
hungary,2050,3,1,11.56
hungary,2050,4,1,12.17
ireland,2050,1,1,10.69
ireland,2050,2,1,10.27
ireland,2050,3,1,10.4
ireland,2050,4,1,10.55
italy,2050,1,1,13.7
italy,2050,2,1,13.0
italy,2050,3,1,13.13
italy,2050,4,1,13.28
latvia,2050,1,1,8.01
latvia,2050,2,1,7.19
latvia,2050,3,1,7.08
latvia,2050,4,1,8.55
lithuania,2050,1,1,8.14
lithuania,2050,2,1,7.35
lithuania,2050,3,1,7.65
lithuania,2050,4,1,9.21
luxembourg,2050,1,1,10.7
luxembourg,2050,2,1,10.06
luxembourg,2050,3,1,10.07
luxembourg,2050,4,1,11.21
malta,2050,1,1,20.27
malta,2050,2,1,19.71
malta,2050,3,1,19.9
malta,2050,4,1,20.53
netherlands,2050,1,1,11.29
netherlands,2050,2,1,10.7
netherlands,2050,3,1,10.65
netherlands,2050,4,1,11.46
poland,2050,1,1,9.59
poland,2050,2,1,8.84
poland,2050,3,1,9.44
poland,2050,4,1,10.3
portugal,2050,1,1,17.25
portugal,2050,2,1,16.64
portugal,2050,3,1,16.71
portugal,2050,4,1,16.63
romania,2050,1,1,10.94
romania,2050,2,1,10.16
romania,2050,3,1,10.51
romania,2050,4,1,10.9
slovakia,2050,1,1,9.2
slovakia,2050,2,1,8.43
slovakia,2050,3,1,8.83
slovakia,2050,4,1,9.34
slovenia,2050,1,1,10.13
slovenia,2050,2,1,9.39
slovenia,2050,3,1,9.42
slovenia,2050,4,1,9.98
spain,2050,1,1,15.34
spain,2050,2,1,14.67
spain,2050,3,1,14.93
spain,2050,4,1,14.94
sweden,2050,1,1,4.08
sweden,2050,2,1,3.25
sweden,2050,3,1,3.17
sweden,2050,4,1,4.89
switzerland,2050,1,1,6.92
switzerland,2050,2,1,6.22
switzerland,2050,3,1,6.37
switzerland,2050,4,1,7.01
united kingdom,2050,1,1,10.2
united kingdom,2050,2,1,9.71
united kingdom,2050,3,1,9.7
united kingdom,2050,4,1,10.02
