Years,Country,fts_tec_fuel-price_gas-bio-biogas[USD/TWh],fts_tec_fuel-price_liquid-bio-biodiesel-adv[USD/TWh],fts_tec_fuel-price_liquid-bio-biodiesel-conv[USD/TWh],fts_tec_fuel-price_liquid-bio-ethanol-adv[USD/TWh],fts_tec_fuel-price_liquid-bio-ethanol-conv[USD/TWh],fts_tec_fuel-price_solid-bio-fuelwood[USD/TWh],tec_emission-factor_CO2_el[Mt/TWh],tec_emission-factor_CO2_coal[Mt/TWh],tec_emission-factor_CO2_gas[Mt/TWh],tec_emission-factor_CO2_fuel-oil[Mt/TWh],tec_emission-factor_CO2_gasoline[Mt/TWh],tec_emission-factor_CO2_diesel[Mt/TWh]
2015,belgium,85481226.42,108170023.4,116675900.3,105880155.5,72853317.97,14148325.52,0.0,0.34524,0.20196,0.26388,0.2519879841,0.2653378773
2015,brussels,85481226.42,108170023.4,116675900.3,105880155.5,72853317.97,14148325.52,0.0,0.34524,0.20196,0.26388,0.2519879841,0.2653378773
2015,flanders,85481226.42,108170023.4,116675900.3,105880155.5,72853317.97,14148325.52,0.0,0.34524,0.20196,0.26388,0.2519879841,0.2653378773
2015,wallonia,85481226.42,108170023.4,116675900.3,105880155.5,72853317.97,14148325.52,0.0,0.34524,0.20196,0.26388,0.2519879841,0.2653378773
2020,belgium,85481226.4198272,108170023.359262,116675900.309677,105880155.451831,72853317.9714437,14148325.5190919,0.0,0.34524,0.20196,0.26388,0.2519879841,0.2653378773
2020,brussels,85481226.4198272,108170023.359262,116675900.309677,105880155.451831,72853317.9714437,14148325.5190919,0.0,0.34524,0.20196,0.26388,0.2519879841,0.2653378773
2020,flanders,85481226.4198272,108170023.359262,116675900.309677,105880155.451831,72853317.9714437,14148325.5190919,0.0,0.34524,0.20196,0.26388,0.2519879841,0.2653378773
2020,wallonia,85481226.4198272,108170023.359262,116675900.309677,105880155.451831,72853317.9714437,14148325.5190919,0.0,0.34524,0.20196,0.26388,0.2519879841,0.2653378773
2025,belgium,85481226.4198272,108170023.359262,116675900.309677,105880155.451831,72853317.9714437,14148325.5190919,0.0,0.34524,0.20196,0.26388,0.2519879841,0.2653378773
2025,brussels,85481226.4198272,108170023.359262,116675900.309677,105880155.451831,72853317.9714437,14148325.5190919,0.0,0.34524,0.20196,0.26388,0.2519879841,0.2653378773
2025,flanders,85481226.4198272,108170023.359262,116675900.309677,105880155.451831,72853317.9714437,14148325.5190919,0.0,0.34524,0.20196,0.26388,0.2519879841,0.2653378773
2025,wallonia,85481226.4198272,108170023.359262,116675900.309677,105880155.451831,72853317.9714437,14148325.5190919,0.0,0.34524,0.20196,0.26388,0.2519879841,0.2653378773
2030,belgium,85481226.4198272,108170023.359262,116675900.309677,105880155.451831,72853317.9714437,14148325.5190919,0.0,0.34524,0.20196,0.26388,0.2519879841,0.2653378773
2030,brussels,85481226.4198272,108170023.359262,116675900.309677,105880155.451831,72853317.9714437,14148325.5190919,0.0,0.34524,0.20196,0.26388,0.2519879841,0.2653378773
2030,flanders,85481226.4198272,108170023.359262,116675900.309677,105880155.451831,72853317.9714437,14148325.5190919,0.0,0.34524,0.20196,0.26388,0.2519879841,0.2653378773
2030,wallonia,85481226.4198272,108170023.359262,116675900.309677,105880155.451831,72853317.9714437,14148325.5190919,0.0,0.34524,0.20196,0.26388,0.2519879841,0.2653378773
2035,belgium,85481226.4198272,108170023.359262,116675900.309677,105880155.451831,72853317.9714437,14148325.5190919,0.0,0.34524,0.20196,0.26388,0.2519879841,0.2653378773
2035,brussels,85481226.4198272,108170023.359262,116675900.309677,105880155.451831,72853317.9714437,14148325.5190919,0.0,0.34524,0.20196,0.26388,0.2519879841,0.2653378773
2035,flanders,85481226.4198272,108170023.359262,116675900.309677,105880155.451831,72853317.9714437,14148325.5190919,0.0,0.34524,0.20196,0.26388,0.2519879841,0.2653378773
2035,wallonia,85481226.4198272,108170023.359262,116675900.309677,105880155.451831,72853317.9714437,14148325.5190919,0.0,0.34524,0.20196,0.26388,0.2519879841,0.2653378773
2040,belgium,85481226.4198272,108170023.359262,116675900.309677,105880155.451831,72853317.9714437,14148325.5190919,0.0,0.34524,0.20196,0.26388,0.2519879841,0.2653378773
2040,brussels,85481226.4198272,108170023.359262,116675900.309677,105880155.451831,72853317.9714437,14148325.5190919,0.0,0.34524,0.20196,0.26388,0.2519879841,0.2653378773
2040,flanders,85481226.4198272,108170023.359262,116675900.309677,105880155.451831,72853317.9714437,14148325.5190919,0.0,0.34524,0.20196,0.26388,0.2519879841,0.2653378773
2040,wallonia,85481226.4198272,108170023.359262,116675900.309677,105880155.451831,72853317.9714437,14148325.5190919,0.0,0.34524,0.20196,0.26388,0.2519879841,0.2653378773
2045,belgium,85481226.4198272,108170023.359262,116675900.309677,105880155.451831,72853317.9714437,14148325.5190919,0.0,0.34524,0.20196,0.26388,0.2519879841,0.2653378773
2045,brussels,85481226.4198272,108170023.359262,116675900.309677,105880155.451831,72853317.9714437,14148325.5190919,0.0,0.34524,0.20196,0.26388,0.2519879841,0.2653378773
2045,flanders,85481226.4198272,108170023.359262,116675900.309677,105880155.451831,72853317.9714437,14148325.5190919,0.0,0.34524,0.20196,0.26388,0.2519879841,0.2653378773
2045,wallonia,85481226.4198272,108170023.359262,116675900.309677,105880155.451831,72853317.9714437,14148325.5190919,0.0,0.34524,0.20196,0.26388,0.2519879841,0.2653378773
2050,belgium,85481226.4198272,108170023.359262,116675900.309677,105880155.451831,72853317.9714437,14148325.5190919,0.0,0.34524,0.20196,0.26388,0.2519879841,0.2653378773
2050,brussels,85481226.4198272,108170023.359262,116675900.309677,105880155.451831,72853317.9714437,14148325.5190919,0.0,0.34524,0.20196,0.26388,0.2519879841,0.2653378773
2050,flanders,85481226.4198272,108170023.359262,116675900.309677,105880155.451831,72853317.9714437,14148325.5190919,0.0,0.34524,0.20196,0.26388,0.2519879841,0.2653378773
2050,wallonia,85481226.4198272,108170023.359262,116675900.309677,105880155.451831,72853317.9714437,14148325.5190919,0.0,0.34524,0.20196,0.26388,0.2519879841,0.2653378773
1990,belgium,0.0,0.0,0.0,0.0,0.0,0.0,0.0,0.34524,0.20196,0.26388,0.2519879841,0.2653378773
1990,brussels,0.0,0.0,0.0,0.0,0.0,0.0,0.0,0.34524,0.20196,0.26388,0.2519879841,0.2653378773
1990,flanders,0.0,0.0,0.0,0.0,0.0,0.0,0.0,0.34524,0.20196,0.26388,0.2519879841,0.2653378773
1990,wallonia,0.0,0.0,0.0,0.0,0.0,0.0,0.0,0.34524,0.20196,0.26388,0.2519879841,0.2653378773
1991,belgium,0.0,0.0,0.0,0.0,0.0,0.0,0.0,0.34524,0.20196,0.26388,0.2519879841,0.2653378773
1991,brussels,0.0,0.0,0.0,0.0,0.0,0.0,0.0,0.34524,0.20196,0.26388,0.2519879841,0.2653378773
1991,flanders,0.0,0.0,0.0,0.0,0.0,0.0,0.0,0.34524,0.20196,0.26388,0.2519879841,0.2653378773
1991,wallonia,0.0,0.0,0.0,0.0,0.0,0.0,0.0,0.34524,0.20196,0.26388,0.2519879841,0.2653378773
1992,belgium,0.0,0.0,0.0,0.0,0.0,0.0,0.0,0.34524,0.20196,0.26388,0.2519879841,0.2653378773
1992,brussels,0.0,0.0,0.0,0.0,0.0,0.0,0.0,0.34524,0.20196,0.26388,0.2519879841,0.2653378773
1992,flanders,0.0,0.0,0.0,0.0,0.0,0.0,0.0,0.34524,0.20196,0.26388,0.2519879841,0.2653378773
1992,wallonia,0.0,0.0,0.0,0.0,0.0,0.0,0.0,0.34524,0.20196,0.26388,0.2519879841,0.2653378773
1993,belgium,0.0,0.0,0.0,0.0,0.0,0.0,0.0,0.34524,0.20196,0.26388,0.2519879841,0.2653378773
1993,brussels,0.0,0.0,0.0,0.0,0.0,0.0,0.0,0.34524,0.20196,0.26388,0.2519879841,0.2653378773
1993,flanders,0.0,0.0,0.0,0.0,0.0,0.0,0.0,0.34524,0.20196,0.26388,0.2519879841,0.2653378773
1993,wallonia,0.0,0.0,0.0,0.0,0.0,0.0,0.0,0.34524,0.20196,0.26388,0.2519879841,0.2653378773
1994,belgium,0.0,0.0,0.0,0.0,0.0,0.0,0.0,0.34524,0.20196,0.26388,0.2519879841,0.2653378773
1994,brussels,0.0,0.0,0.0,0.0,0.0,0.0,0.0,0.34524,0.20196,0.26388,0.2519879841,0.2653378773
1994,flanders,0.0,0.0,0.0,0.0,0.0,0.0,0.0,0.34524,0.20196,0.26388,0.2519879841,0.2653378773
1994,wallonia,0.0,0.0,0.0,0.0,0.0,0.0,0.0,0.34524,0.20196,0.26388,0.2519879841,0.2653378773
1995,belgium,0.0,0.0,0.0,0.0,0.0,0.0,0.0,0.34524,0.20196,0.26388,0.2519879841,0.2653378773
1995,brussels,0.0,0.0,0.0,0.0,0.0,0.0,0.0,0.34524,0.20196,0.26388,0.2519879841,0.2653378773
1995,flanders,0.0,0.0,0.0,0.0,0.0,0.0,0.0,0.34524,0.20196,0.26388,0.2519879841,0.2653378773
1995,wallonia,0.0,0.0,0.0,0.0,0.0,0.0,0.0,0.34524,0.20196,0.26388,0.2519879841,0.2653378773
1996,belgium,0.0,0.0,0.0,0.0,0.0,0.0,0.0,0.34524,0.20196,0.26388,0.2519879841,0.2653378773
1996,brussels,0.0,0.0,0.0,0.0,0.0,0.0,0.0,0.34524,0.20196,0.26388,0.2519879841,0.2653378773
1996,flanders,0.0,0.0,0.0,0.0,0.0,0.0,0.0,0.34524,0.20196,0.26388,0.2519879841,0.2653378773
1996,wallonia,0.0,0.0,0.0,0.0,0.0,0.0,0.0,0.34524,0.20196,0.26388,0.2519879841,0.2653378773
1997,belgium,0.0,0.0,0.0,0.0,0.0,0.0,0.0,0.34524,0.20196,0.26388,0.2519879841,0.2653378773
1997,brussels,0.0,0.0,0.0,0.0,0.0,0.0,0.0,0.34524,0.20196,0.26388,0.2519879841,0.2653378773
1997,flanders,0.0,0.0,0.0,0.0,0.0,0.0,0.0,0.34524,0.20196,0.26388,0.2519879841,0.2653378773
1997,wallonia,0.0,0.0,0.0,0.0,0.0,0.0,0.0,0.34524,0.20196,0.26388,0.2519879841,0.2653378773
1998,belgium,0.0,0.0,0.0,0.0,0.0,0.0,0.0,0.34524,0.20196,0.26388,0.2519879841,0.2653378773
1998,brussels,0.0,0.0,0.0,0.0,0.0,0.0,0.0,0.34524,0.20196,0.26388,0.2519879841,0.2653378773
1998,flanders,0.0,0.0,0.0,0.0,0.0,0.0,0.0,0.34524,0.20196,0.26388,0.2519879841,0.2653378773
1998,wallonia,0.0,0.0,0.0,0.0,0.0,0.0,0.0,0.34524,0.20196,0.26388,0.2519879841,0.2653378773
1999,belgium,0.0,0.0,0.0,0.0,0.0,0.0,0.0,0.34524,0.20196,0.26388,0.2519879841,0.2653378773
1999,brussels,0.0,0.0,0.0,0.0,0.0,0.0,0.0,0.34524,0.20196,0.26388,0.2519879841,0.2653378773
1999,flanders,0.0,0.0,0.0,0.0,0.0,0.0,0.0,0.34524,0.20196,0.26388,0.2519879841,0.2653378773
1999,wallonia,0.0,0.0,0.0,0.0,0.0,0.0,0.0,0.34524,0.20196,0.26388,0.2519879841,0.2653378773
2000,belgium,0.0,0.0,0.0,0.0,0.0,0.0,0.0,0.34524,0.20196,0.26388,0.2519879841,0.2653378773
2000,brussels,0.0,0.0,0.0,0.0,0.0,0.0,0.0,0.34524,0.20196,0.26388,0.2519879841,0.2653378773
2000,flanders,0.0,0.0,0.0,0.0,0.0,0.0,0.0,0.34524,0.20196,0.26388,0.2519879841,0.2653378773
2000,wallonia,0.0,0.0,0.0,0.0,0.0,0.0,0.0,0.34524,0.20196,0.26388,0.2519879841,0.2653378773
2001,belgium,0.0,0.0,0.0,0.0,0.0,0.0,0.0,0.34524,0.20196,0.26388,0.2519879841,0.2653378773
2001,brussels,0.0,0.0,0.0,0.0,0.0,0.0,0.0,0.34524,0.20196,0.26388,0.2519879841,0.2653378773
2001,flanders,0.0,0.0,0.0,0.0,0.0,0.0,0.0,0.34524,0.20196,0.26388,0.2519879841,0.2653378773
2001,wallonia,0.0,0.0,0.0,0.0,0.0,0.0,0.0,0.34524,0.20196,0.26388,0.2519879841,0.2653378773
2002,belgium,0.0,0.0,0.0,0.0,0.0,0.0,0.0,0.34524,0.20196,0.26388,0.2519879841,0.2653378773
2002,brussels,0.0,0.0,0.0,0.0,0.0,0.0,0.0,0.34524,0.20196,0.26388,0.2519879841,0.2653378773
2002,flanders,0.0,0.0,0.0,0.0,0.0,0.0,0.0,0.34524,0.20196,0.26388,0.2519879841,0.2653378773
2002,wallonia,0.0,0.0,0.0,0.0,0.0,0.0,0.0,0.34524,0.20196,0.26388,0.2519879841,0.2653378773
2003,belgium,0.0,0.0,0.0,0.0,0.0,0.0,0.0,0.34524,0.20196,0.26388,0.2519879841,0.2653378773
2003,brussels,0.0,0.0,0.0,0.0,0.0,0.0,0.0,0.34524,0.20196,0.26388,0.2519879841,0.2653378773
2003,flanders,0.0,0.0,0.0,0.0,0.0,0.0,0.0,0.34524,0.20196,0.26388,0.2519879841,0.2653378773
2003,wallonia,0.0,0.0,0.0,0.0,0.0,0.0,0.0,0.34524,0.20196,0.26388,0.2519879841,0.2653378773
2004,belgium,0.0,0.0,0.0,0.0,0.0,0.0,0.0,0.34524,0.20196,0.26388,0.2519879841,0.2653378773
2004,brussels,0.0,0.0,0.0,0.0,0.0,0.0,0.0,0.34524,0.20196,0.26388,0.2519879841,0.2653378773
2004,flanders,0.0,0.0,0.0,0.0,0.0,0.0,0.0,0.34524,0.20196,0.26388,0.2519879841,0.2653378773
2004,wallonia,0.0,0.0,0.0,0.0,0.0,0.0,0.0,0.34524,0.20196,0.26388,0.2519879841,0.2653378773
2005,belgium,0.0,0.0,0.0,0.0,0.0,0.0,0.0,0.34524,0.20196,0.26388,0.2519879841,0.2653378773
2005,brussels,0.0,0.0,0.0,0.0,0.0,0.0,0.0,0.34524,0.20196,0.26388,0.2519879841,0.2653378773
2005,flanders,0.0,0.0,0.0,0.0,0.0,0.0,0.0,0.34524,0.20196,0.26388,0.2519879841,0.2653378773
2005,wallonia,0.0,0.0,0.0,0.0,0.0,0.0,0.0,0.34524,0.20196,0.26388,0.2519879841,0.2653378773
2006,belgium,0.0,0.0,0.0,0.0,0.0,0.0,0.0,0.34524,0.20196,0.26388,0.2519879841,0.2653378773
2006,brussels,0.0,0.0,0.0,0.0,0.0,0.0,0.0,0.34524,0.20196,0.26388,0.2519879841,0.2653378773
2006,flanders,0.0,0.0,0.0,0.0,0.0,0.0,0.0,0.34524,0.20196,0.26388,0.2519879841,0.2653378773
2006,wallonia,0.0,0.0,0.0,0.0,0.0,0.0,0.0,0.34524,0.20196,0.26388,0.2519879841,0.2653378773
2007,belgium,0.0,0.0,0.0,0.0,0.0,0.0,0.0,0.34524,0.20196,0.26388,0.2519879841,0.2653378773
2007,brussels,0.0,0.0,0.0,0.0,0.0,0.0,0.0,0.34524,0.20196,0.26388,0.2519879841,0.2653378773
2007,flanders,0.0,0.0,0.0,0.0,0.0,0.0,0.0,0.34524,0.20196,0.26388,0.2519879841,0.2653378773
2007,wallonia,0.0,0.0,0.0,0.0,0.0,0.0,0.0,0.34524,0.20196,0.26388,0.2519879841,0.2653378773
2008,belgium,0.0,0.0,0.0,0.0,0.0,0.0,0.0,0.34524,0.20196,0.26388,0.2519879841,0.2653378773
2008,brussels,0.0,0.0,0.0,0.0,0.0,0.0,0.0,0.34524,0.20196,0.26388,0.2519879841,0.2653378773
2008,flanders,0.0,0.0,0.0,0.0,0.0,0.0,0.0,0.34524,0.20196,0.26388,0.2519879841,0.2653378773
2008,wallonia,0.0,0.0,0.0,0.0,0.0,0.0,0.0,0.34524,0.20196,0.26388,0.2519879841,0.2653378773
2009,belgium,0.0,0.0,0.0,0.0,0.0,0.0,0.0,0.34524,0.20196,0.26388,0.2519879841,0.2653378773
2009,brussels,0.0,0.0,0.0,0.0,0.0,0.0,0.0,0.34524,0.20196,0.26388,0.2519879841,0.2653378773
2009,flanders,0.0,0.0,0.0,0.0,0.0,0.0,0.0,0.34524,0.20196,0.26388,0.2519879841,0.2653378773
2009,wallonia,0.0,0.0,0.0,0.0,0.0,0.0,0.0,0.34524,0.20196,0.26388,0.2519879841,0.2653378773
2010,belgium,0.0,0.0,0.0,0.0,0.0,0.0,0.0,0.34524,0.20196,0.26388,0.2519879841,0.2653378773
2010,brussels,0.0,0.0,0.0,0.0,0.0,0.0,0.0,0.34524,0.20196,0.26388,0.2519879841,0.2653378773
2010,flanders,0.0,0.0,0.0,0.0,0.0,0.0,0.0,0.34524,0.20196,0.26388,0.2519879841,0.2653378773
2010,wallonia,0.0,0.0,0.0,0.0,0.0,0.0,0.0,0.34524,0.20196,0.26388,0.2519879841,0.2653378773
2011,belgium,0.0,0.0,0.0,0.0,0.0,0.0,0.0,0.34524,0.20196,0.26388,0.2519879841,0.2653378773
2011,brussels,0.0,0.0,0.0,0.0,0.0,0.0,0.0,0.34524,0.20196,0.26388,0.2519879841,0.2653378773
2011,flanders,0.0,0.0,0.0,0.0,0.0,0.0,0.0,0.34524,0.20196,0.26388,0.2519879841,0.2653378773
2011,wallonia,0.0,0.0,0.0,0.0,0.0,0.0,0.0,0.34524,0.20196,0.26388,0.2519879841,0.2653378773
2012,belgium,0.0,0.0,0.0,0.0,0.0,0.0,0.0,0.34524,0.20196,0.26388,0.2519879841,0.2653378773
2012,brussels,0.0,0.0,0.0,0.0,0.0,0.0,0.0,0.34524,0.20196,0.26388,0.2519879841,0.2653378773
2012,flanders,0.0,0.0,0.0,0.0,0.0,0.0,0.0,0.34524,0.20196,0.26388,0.2519879841,0.2653378773
2012,wallonia,0.0,0.0,0.0,0.0,0.0,0.0,0.0,0.34524,0.20196,0.26388,0.2519879841,0.2653378773
2013,belgium,0.0,0.0,0.0,0.0,0.0,0.0,0.0,0.34524,0.20196,0.26388,0.2519879841,0.2653378773
2013,brussels,0.0,0.0,0.0,0.0,0.0,0.0,0.0,0.34524,0.20196,0.26388,0.2519879841,0.2653378773
2013,flanders,0.0,0.0,0.0,0.0,0.0,0.0,0.0,0.34524,0.20196,0.26388,0.2519879841,0.2653378773
2013,wallonia,0.0,0.0,0.0,0.0,0.0,0.0,0.0,0.34524,0.20196,0.26388,0.2519879841,0.2653378773
2014,belgium,0.0,0.0,0.0,0.0,0.0,0.0,0.0,0.34524,0.20196,0.26388,0.2519879841,0.2653378773
2014,brussels,0.0,0.0,0.0,0.0,0.0,0.0,0.0,0.34524,0.20196,0.26388,0.2519879841,0.2653378773
2014,flanders,0.0,0.0,0.0,0.0,0.0,0.0,0.0,0.34524,0.20196,0.26388,0.2519879841,0.2653378773
2014,wallonia,0.0,0.0,0.0,0.0,0.0,0.0,0.0,0.34524,0.20196,0.26388,0.2519879841,0.2653378773
