Years,Country,lever_freight_technology-share_new_ZEV-mix,fts_tra_freight_technology-share_new_ZEV-mix_HDV_BEV[%],fts_tra_freight_technology-share_new_ZEV-mix_HDV_FCEV[%],fts_tra_freight_technology-share_new_ZEV-mix_LDV_BEV[%],fts_tra_freight_technology-share_new_ZEV-mix_LDV_FCEV[%],fts_tra_freight_technology-share_new_ZEV-mix_rail_CEV[%],fts_tra_freight_technology-share_new_ZEV-mix_rail_FCEV[%]
2016,belgium,1,1.0,0.0,1.0,0.0,1.0,0.0
2016,belgium,2,1.0,0.0,1.0,0.0,1.0,0.0
2016,belgium,3,1.0,0.0,1.0,0.0,1.0,0.0
2016,belgium,4,1.0,0.0,1.0,0.0,1.0,0.0
2016,brussels,1,1.0,0.0,1.0,0.0,1.0,0.0
2016,brussels,2,1.0,0.0,1.0,0.0,1.0,0.0
2016,brussels,3,1.0,0.0,1.0,0.0,1.0,0.0
2016,brussels,4,1.0,0.0,1.0,0.0,1.0,0.0
2016,flanders,1,1.0,0.0,1.0,0.0,1.0,0.0
2016,flanders,2,1.0,0.0,1.0,0.0,1.0,0.0
2016,flanders,3,1.0,0.0,1.0,0.0,1.0,0.0
2016,flanders,4,1.0,0.0,1.0,0.0,1.0,0.0
2016,rest_of_europe,1,0.028571428571432023,0.0,0.028571428571432023,0.0,0.028571428571432023,0.0
2016,rest_of_europe,2,0.028571428571432023,0.0,0.028571428571432023,0.0,0.028571428571432023,0.0
2016,rest_of_europe,3,0.028571428571432023,0.0,0.028571428571432023,0.0,0.028571428571432023,0.0
2016,rest_of_europe,4,0.028571428571432023,0.0,0.028571428571432023,0.0,0.028571428571432023,0.0
2016,wallonia,1,1.0,0.0,1.0,0.0,1.0,0.0
2016,wallonia,2,1.0,0.0,1.0,0.0,1.0,0.0
2016,wallonia,3,1.0,0.0,1.0,0.0,1.0,0.0
2016,wallonia,4,1.0,0.0,1.0,0.0,1.0,0.0
2017,belgium,1,1.0,0.0,1.0,0.0,1.0,0.0
2017,belgium,2,1.0,0.0,1.0,0.0,1.0,0.0
2017,belgium,3,1.0,0.0,1.0,0.0,1.0,0.0
2017,belgium,4,1.0,0.0,1.0,0.0,1.0,0.0
2017,brussels,1,1.0,0.0,1.0,0.0,1.0,0.0
2017,brussels,2,1.0,0.0,1.0,0.0,1.0,0.0
2017,brussels,3,1.0,0.0,1.0,0.0,1.0,0.0
2017,brussels,4,1.0,0.0,1.0,0.0,1.0,0.0
2017,flanders,1,1.0,0.0,1.0,0.0,1.0,0.0
2017,flanders,2,1.0,0.0,1.0,0.0,1.0,0.0
2017,flanders,3,1.0,0.0,1.0,0.0,1.0,0.0
2017,flanders,4,1.0,0.0,1.0,0.0,1.0,0.0
2017,rest_of_europe,1,0.05714285714285694,0.0,0.05714285714285694,0.0,0.05714285714285694,0.0
2017,rest_of_europe,2,0.05714285714285694,0.0,0.05714285714285694,0.0,0.05714285714285694,0.0
2017,rest_of_europe,3,0.05714285714285694,0.0,0.05714285714285694,0.0,0.05714285714285694,0.0
2017,rest_of_europe,4,0.05714285714285694,0.0,0.05714285714285694,0.0,0.05714285714285694,0.0
2017,wallonia,1,1.0,0.0,1.0,0.0,1.0,0.0
2017,wallonia,2,1.0,0.0,1.0,0.0,1.0,0.0
2017,wallonia,3,1.0,0.0,1.0,0.0,1.0,0.0
2017,wallonia,4,1.0,0.0,1.0,0.0,1.0,0.0
2018,belgium,1,1.0,0.0,1.0,0.0,1.0,0.0
2018,belgium,2,1.0,0.0,1.0,0.0,1.0,0.0
2018,belgium,3,1.0,0.0,1.0,0.0,1.0,0.0
2018,belgium,4,1.0,0.0,1.0,0.0,1.0,0.0
2018,brussels,1,1.0,0.0,1.0,0.0,1.0,0.0
2018,brussels,2,1.0,0.0,1.0,0.0,1.0,0.0
2018,brussels,3,1.0,0.0,1.0,0.0,1.0,0.0
2018,brussels,4,1.0,0.0,1.0,0.0,1.0,0.0
2018,flanders,1,1.0,0.0,1.0,0.0,1.0,0.0
2018,flanders,2,1.0,0.0,1.0,0.0,1.0,0.0
2018,flanders,3,1.0,0.0,1.0,0.0,1.0,0.0
2018,flanders,4,1.0,0.0,1.0,0.0,1.0,0.0
2018,rest_of_europe,1,0.08571428571428896,0.0,0.08571428571428896,0.0,0.08571428571428896,0.0
2018,rest_of_europe,2,0.08571428571428896,0.0,0.08571428571428896,0.0,0.08571428571428896,0.0
2018,rest_of_europe,3,0.08571428571428896,0.0,0.08571428571428896,0.0,0.08571428571428896,0.0
2018,rest_of_europe,4,0.08571428571428896,0.0,0.08571428571428896,0.0,0.08571428571428896,0.0
2018,wallonia,1,1.0,0.0,1.0,0.0,1.0,0.0
2018,wallonia,2,1.0,0.0,1.0,0.0,1.0,0.0
2018,wallonia,3,1.0,0.0,1.0,0.0,1.0,0.0
2018,wallonia,4,1.0,0.0,1.0,0.0,1.0,0.0
2019,belgium,1,1.0,0.0,1.0,0.0,1.0,0.0
2019,belgium,2,1.0,0.0,1.0,0.0,1.0,0.0
2019,belgium,3,1.0,0.0,1.0,0.0,1.0,0.0
2019,belgium,4,1.0,0.0,1.0,0.0,1.0,0.0
2019,brussels,1,1.0,0.0,1.0,0.0,1.0,0.0
2019,brussels,2,1.0,0.0,1.0,0.0,1.0,0.0
2019,brussels,3,1.0,0.0,1.0,0.0,1.0,0.0
2019,brussels,4,1.0,0.0,1.0,0.0,1.0,0.0
2019,flanders,1,1.0,0.0,1.0,0.0,1.0,0.0
2019,flanders,2,1.0,0.0,1.0,0.0,1.0,0.0
2019,flanders,3,1.0,0.0,1.0,0.0,1.0,0.0
2019,flanders,4,1.0,0.0,1.0,0.0,1.0,0.0
2019,rest_of_europe,1,0.11428571428571388,0.0,0.11428571428571388,0.0,0.11428571428571388,0.0
2019,rest_of_europe,2,0.11428571428571388,0.0,0.11428571428571388,0.0,0.11428571428571388,0.0
2019,rest_of_europe,3,0.11428571428571388,0.0,0.11428571428571388,0.0,0.11428571428571388,0.0
2019,rest_of_europe,4,0.11428571428571388,0.0,0.11428571428571388,0.0,0.11428571428571388,0.0
2019,wallonia,1,1.0,0.0,1.0,0.0,1.0,0.0
2019,wallonia,2,1.0,0.0,1.0,0.0,1.0,0.0
2019,wallonia,3,1.0,0.0,1.0,0.0,1.0,0.0
2019,wallonia,4,1.0,0.0,1.0,0.0,1.0,0.0
2020,belgium,1,1.0,0.0,1.0,0.0,1.0,0.0
2020,belgium,2,1.0,0.0,1.0,0.0,1.0,0.0
2020,belgium,3,1.0,0.0,1.0,0.0,1.0,0.0
2020,belgium,4,1.0,0.0,1.0,0.0,1.0,0.0
2020,brussels,1,1.0,0.0,1.0,0.0,1.0,0.0
2020,brussels,2,1.0,0.0,1.0,0.0,1.0,0.0
2020,brussels,3,1.0,0.0,1.0,0.0,1.0,0.0
2020,brussels,4,1.0,0.0,1.0,0.0,1.0,0.0
2020,flanders,1,1.0,0.0,1.0,0.0,1.0,0.0
2020,flanders,2,1.0,0.0,1.0,0.0,1.0,0.0
2020,flanders,3,1.0,0.0,1.0,0.0,1.0,0.0
2020,flanders,4,1.0,0.0,1.0,0.0,1.0,0.0
2020,rest_of_europe,1,0.1428571428571459,0.0,0.1428571428571459,0.0,0.1428571428571459,0.0
2020,rest_of_europe,2,0.1428571428571459,0.0,0.1428571428571459,0.0,0.1428571428571459,0.0
2020,rest_of_europe,3,0.1428571428571459,0.0,0.1428571428571459,0.0,0.1428571428571459,0.0
2020,rest_of_europe,4,0.1428571428571459,0.0,0.1428571428571459,0.0,0.1428571428571459,0.0
2020,wallonia,1,1.0,0.0,1.0,0.0,1.0,0.0
2020,wallonia,2,1.0,0.0,1.0,0.0,1.0,0.0
2020,wallonia,3,1.0,0.0,1.0,0.0,1.0,0.0
2020,wallonia,4,1.0,0.0,1.0,0.0,1.0,0.0
2021,belgium,1,1.0,0.0,1.0,0.0,1.0,0.0
2021,belgium,2,0.988666666666667,0.011333333333332973,0.988666666666667,0.011333333333332973,1.0,0.0
2021,belgium,3,0.9776666666666713,0.022333333333328653,0.9776666666666713,0.022333333333328653,1.0,0.0
2021,belgium,4,0.9666666666666686,0.03333333333333144,0.9666666666666686,0.03333333333333144,1.0,0.0
2021,brussels,1,1.0,0.0,1.0,0.0,1.0,0.0
2021,brussels,2,0.988666666666667,0.011333333333332973,0.988666666666667,0.011333333333332973,1.0,0.0
2021,brussels,3,0.9776666666666713,0.022333333333328653,0.9776666666666713,0.022333333333328653,1.0,0.0
2021,brussels,4,0.9666666666666686,0.03333333333333144,0.9666666666666686,0.03333333333333144,1.0,0.0
2021,flanders,1,1.0,0.0,1.0,0.0,1.0,0.0
2021,flanders,2,0.988666666666667,0.011333333333332973,0.988666666666667,0.011333333333332973,1.0,0.0
2021,flanders,3,0.9776666666666713,0.022333333333328653,0.9776666666666713,0.022333333333328653,1.0,0.0
2021,flanders,4,0.9666666666666686,0.03333333333333144,0.9666666666666686,0.03333333333333144,1.0,0.0
2021,rest_of_europe,1,0.17142857142857082,0.0,0.17142857142857082,0.0,0.17142857142857082,0.0
2021,rest_of_europe,2,0.16009523809524495,0.011333333333332973,0.16009523809524495,0.011333333333332973,0.17142857142857082,0.0
2021,rest_of_europe,3,0.1490952380952404,0.022333333333328653,0.1490952380952404,0.022333333333328653,0.17142857142857082,0.0
2021,rest_of_europe,4,0.13809523809524116,0.03333333333333144,0.13809523809524116,0.03333333333333144,0.17142857142857082,0.0
2021,wallonia,1,1.0,0.0,1.0,0.0,1.0,0.0
2021,wallonia,2,0.988666666666667,0.011333333333332973,0.988666666666667,0.011333333333332973,1.0,0.0
2021,wallonia,3,0.9776666666666713,0.022333333333328653,0.9776666666666713,0.022333333333328653,1.0,0.0
2021,wallonia,4,0.9666666666666686,0.03333333333333144,0.9666666666666686,0.03333333333333144,1.0,0.0
2022,belgium,1,1.0,0.0,1.0,0.0,1.0,0.0
2022,belgium,2,0.977333333333334,0.022666666666665947,0.977333333333334,0.022666666666665947,1.0,0.0
2022,belgium,3,0.9553333333333356,0.04466666666666441,0.9553333333333356,0.04466666666666441,1.0,0.0
2022,belgium,4,0.9333333333333229,0.06666666666667709,0.9333333333333229,0.06666666666667709,1.0,0.0
2022,brussels,1,1.0,0.0,1.0,0.0,1.0,0.0
2022,brussels,2,0.977333333333334,0.022666666666665947,0.977333333333334,0.022666666666665947,1.0,0.0
2022,brussels,3,0.9553333333333356,0.04466666666666441,0.9553333333333356,0.04466666666666441,1.0,0.0
2022,brussels,4,0.9333333333333229,0.06666666666667709,0.9333333333333229,0.06666666666667709,1.0,0.0
2022,flanders,1,1.0,0.0,1.0,0.0,1.0,0.0
2022,flanders,2,0.977333333333334,0.022666666666665947,0.977333333333334,0.022666666666665947,1.0,0.0
2022,flanders,3,0.9553333333333356,0.04466666666666441,0.9553333333333356,0.04466666666666441,1.0,0.0
2022,flanders,4,0.9333333333333229,0.06666666666667709,0.9333333333333229,0.06666666666667709,1.0,0.0
2022,rest_of_europe,1,0.20000000000000284,0.0,0.20000000000000284,0.0,0.20000000000000284,0.0
2022,rest_of_europe,2,0.1773333333333369,0.022666666666665947,0.1773333333333369,0.022666666666665947,0.20000000000000284,0.0
2022,rest_of_europe,3,0.15533333333333488,0.04466666666666441,0.15533333333333488,0.04466666666666441,0.20000000000000284,0.0
2022,rest_of_europe,4,0.1333333333333364,0.06666666666667709,0.1333333333333364,0.06666666666667709,0.20000000000000284,0.0
2022,wallonia,1,1.0,0.0,1.0,0.0,1.0,0.0
2022,wallonia,2,0.977333333333334,0.022666666666665947,0.977333333333334,0.022666666666665947,1.0,0.0
2022,wallonia,3,0.9553333333333356,0.04466666666666441,0.9553333333333356,0.04466666666666441,1.0,0.0
2022,wallonia,4,0.9333333333333229,0.06666666666667709,0.9333333333333229,0.06666666666667709,1.0,0.0
2023,belgium,1,1.0,0.0,1.0,0.0,1.0,0.0
2023,belgium,2,0.9660000000000011,0.03399999999999892,0.9660000000000011,0.03399999999999892,1.0,0.0
2023,belgium,3,0.9329999999999998,0.06700000000000017,0.9329999999999998,0.06700000000000017,1.0,0.0
2023,belgium,4,0.8999999999999915,0.10000000000000853,0.8999999999999915,0.10000000000000853,1.0,0.0
2023,brussels,1,1.0,0.0,1.0,0.0,1.0,0.0
2023,brussels,2,0.9660000000000011,0.03399999999999892,0.9660000000000011,0.03399999999999892,1.0,0.0
2023,brussels,3,0.9329999999999998,0.06700000000000017,0.9329999999999998,0.06700000000000017,1.0,0.0
2023,brussels,4,0.8999999999999915,0.10000000000000853,0.8999999999999915,0.10000000000000853,1.0,0.0
2023,flanders,1,1.0,0.0,1.0,0.0,1.0,0.0
2023,flanders,2,0.9660000000000011,0.03399999999999892,0.9660000000000011,0.03399999999999892,1.0,0.0
2023,flanders,3,0.9329999999999998,0.06700000000000017,0.9329999999999998,0.06700000000000017,1.0,0.0
2023,flanders,4,0.8999999999999915,0.10000000000000853,0.8999999999999915,0.10000000000000853,1.0,0.0
2023,rest_of_europe,1,0.22857142857142776,0.0,0.22857142857142776,0.0,0.22857142857142776,0.0
2023,rest_of_europe,2,0.19457142857143594,0.03399999999999892,0.19457142857143594,0.03399999999999892,0.22857142857143486,0.0
2023,rest_of_europe,3,0.16157142857143114,0.06700000000000017,0.16157142857143114,0.06700000000000017,0.22857142857143486,0.0
2023,rest_of_europe,4,0.12857142857143167,0.10000000000000853,0.12857142857143167,0.10000000000000853,0.22857142857143486,0.0
2023,wallonia,1,1.0,0.0,1.0,0.0,1.0,0.0
2023,wallonia,2,0.9660000000000011,0.03399999999999892,0.9660000000000011,0.03399999999999892,1.0,0.0
2023,wallonia,3,0.9329999999999998,0.06700000000000017,0.9329999999999998,0.06700000000000017,1.0,0.0
2023,wallonia,4,0.8999999999999915,0.10000000000000853,0.8999999999999915,0.10000000000000853,1.0,0.0
2024,belgium,1,1.0,0.0,1.0,0.0,1.0,0.0
2024,belgium,2,0.9546666666666646,0.045333333333335446,0.9546666666666646,0.045333333333335446,1.0,0.0
2024,belgium,3,0.9106666666666712,0.08933333333332882,0.9106666666666712,0.08933333333332882,1.0,0.0
2024,belgium,4,0.86666666666666,0.13333333333333997,0.86666666666666,0.13333333333333997,1.0,0.0
2024,brussels,1,1.0,0.0,1.0,0.0,1.0,0.0
2024,brussels,2,0.9546666666666646,0.045333333333335446,0.9546666666666646,0.045333333333335446,1.0,0.0
2024,brussels,3,0.9106666666666712,0.08933333333332882,0.9106666666666712,0.08933333333332882,1.0,0.0
2024,brussels,4,0.86666666666666,0.13333333333333997,0.86666666666666,0.13333333333333997,1.0,0.0
2024,flanders,1,1.0,0.0,1.0,0.0,1.0,0.0
2024,flanders,2,0.9546666666666646,0.045333333333335446,0.9546666666666646,0.045333333333335446,1.0,0.0
2024,flanders,3,0.9106666666666712,0.08933333333332882,0.9106666666666712,0.08933333333332882,1.0,0.0
2024,flanders,4,0.86666666666666,0.13333333333333997,0.86666666666666,0.13333333333333997,1.0,0.0
2024,rest_of_europe,1,0.2571428571428598,0.0,0.2571428571428598,0.0,0.2571428571428598,0.0
2024,rest_of_europe,2,0.2118095238095279,0.045333333333335446,0.2118095238095279,0.045333333333335446,0.2571428571428598,0.0
2024,rest_of_europe,3,0.16780952380952563,0.08933333333332882,0.16780952380952563,0.08933333333332882,0.2571428571428598,0.0
2024,rest_of_europe,4,0.12380952380952692,0.13333333333333997,0.12380952380952692,0.13333333333333997,0.2571428571428598,0.0
2024,wallonia,1,1.0,0.0,1.0,0.0,1.0,0.0
2024,wallonia,2,0.9546666666666646,0.045333333333335446,0.9546666666666646,0.045333333333335446,1.0,0.0
2024,wallonia,3,0.9106666666666712,0.08933333333332882,0.9106666666666712,0.08933333333332882,1.0,0.0
2024,wallonia,4,0.86666666666666,0.13333333333333997,0.86666666666666,0.13333333333333997,1.0,0.0
2025,belgium,1,1.0,0.0,1.0,0.0,1.0,0.0
2025,belgium,2,0.9433333333333316,0.05666666666666842,0.9433333333333316,0.05666666666666842,1.0,0.0
2025,belgium,3,0.8883333333333354,0.11166666666666458,0.8883333333333354,0.11166666666666458,1.0,0.0
2025,belgium,4,0.8333333333333286,0.1666666666666714,0.8333333333333286,0.1666666666666714,1.0,0.0
2025,brussels,1,1.0,0.0,1.0,0.0,1.0,0.0
2025,brussels,2,0.9433333333333316,0.05666666666666842,0.9433333333333316,0.05666666666666842,1.0,0.0
2025,brussels,3,0.8883333333333354,0.11166666666666458,0.8883333333333354,0.11166666666666458,1.0,0.0
2025,brussels,4,0.8333333333333286,0.1666666666666714,0.8333333333333286,0.1666666666666714,1.0,0.0
2025,flanders,1,1.0,0.0,1.0,0.0,1.0,0.0
2025,flanders,2,0.9433333333333316,0.05666666666666842,0.9433333333333316,0.05666666666666842,1.0,0.0
2025,flanders,3,0.8883333333333354,0.11166666666666458,0.8883333333333354,0.11166666666666458,1.0,0.0
2025,flanders,4,0.8333333333333286,0.1666666666666714,0.8333333333333286,0.1666666666666714,1.0,0.0
2025,rest_of_europe,1,0.2857142857142847,0.0,0.2857142857142847,0.0,0.2857142857142847,0.0
2025,rest_of_europe,2,0.22904761904762694,0.05666666666666842,0.22904761904762694,0.05666666666666842,0.2857142857142847,0.0
2025,rest_of_europe,3,0.1740476190476219,0.11166666666666458,0.1740476190476219,0.11166666666666458,0.2857142857142847,0.0
2025,rest_of_europe,4,0.11904761904762218,0.1666666666666714,0.11904761904762218,0.1666666666666714,0.2857142857142847,0.0
2025,wallonia,1,1.0,0.0,1.0,0.0,1.0,0.0
2025,wallonia,2,0.9433333333333316,0.05666666666666842,0.9433333333333316,0.05666666666666842,1.0,0.0
2025,wallonia,3,0.8883333333333354,0.11166666666666458,0.8883333333333354,0.11166666666666458,1.0,0.0
2025,wallonia,4,0.8333333333333286,0.1666666666666714,0.8333333333333286,0.1666666666666714,1.0,0.0
2026,belgium,1,1.0,0.0,1.0,0.0,1.0,0.0
2026,belgium,2,0.9319999999999986,0.06800000000000139,0.9319999999999986,0.06800000000000139,1.0,0.0
2026,belgium,3,0.8659999999999997,0.13400000000000034,0.8659999999999997,0.13400000000000034,1.0,0.0
2026,belgium,4,0.7999999999999972,0.20000000000000284,0.7999999999999972,0.20000000000000284,1.0,0.0
2026,brussels,1,1.0,0.0,1.0,0.0,1.0,0.0
2026,brussels,2,0.9319999999999986,0.06800000000000139,0.9319999999999986,0.06800000000000139,1.0,0.0
2026,brussels,3,0.8659999999999997,0.13400000000000034,0.8659999999999997,0.13400000000000034,1.0,0.0
2026,brussels,4,0.7999999999999972,0.20000000000000284,0.7999999999999972,0.20000000000000284,1.0,0.0
2026,flanders,1,1.0,0.0,1.0,0.0,1.0,0.0
2026,flanders,2,0.9319999999999986,0.06800000000000139,0.9319999999999986,0.06800000000000139,1.0,0.0
2026,flanders,3,0.8659999999999997,0.13400000000000034,0.8659999999999997,0.13400000000000034,1.0,0.0
2026,flanders,4,0.7999999999999972,0.20000000000000284,0.7999999999999972,0.20000000000000284,1.0,0.0
2026,rest_of_europe,1,0.3142857142857167,0.0,0.3142857142857167,0.0,0.3142857142857167,0.0
2026,rest_of_europe,2,0.24628571428571888,0.06800000000000139,0.24628571428571888,0.06800000000000139,0.3142857142857167,0.0
2026,rest_of_europe,3,0.18028571428571638,0.13400000000000034,0.18028571428571638,0.13400000000000034,0.3142857142857167,0.0
2026,rest_of_europe,4,0.11428571428571566,0.20000000000000284,0.11428571428571566,0.20000000000000284,0.3142857142857167,0.0
2026,wallonia,1,1.0,0.0,1.0,0.0,1.0,0.0
2026,wallonia,2,0.9319999999999986,0.06800000000000139,0.9319999999999986,0.06800000000000139,1.0,0.0
2026,wallonia,3,0.8659999999999997,0.13400000000000034,0.8659999999999997,0.13400000000000034,1.0,0.0
2026,wallonia,4,0.7999999999999972,0.20000000000000284,0.7999999999999972,0.20000000000000284,1.0,0.0
2027,belgium,1,1.0,0.0,1.0,0.0,1.0,0.0
2027,belgium,2,0.9206666666666656,0.07933333333333437,0.9206666666666656,0.07933333333333437,1.0,0.0
2027,belgium,3,0.843666666666671,0.156333333333329,0.843666666666671,0.156333333333329,1.0,0.0
2027,belgium,4,0.7666666666666657,0.23333333333333428,0.7666666666666657,0.23333333333333428,1.0,0.0
2027,brussels,1,1.0,0.0,1.0,0.0,1.0,0.0
2027,brussels,2,0.9206666666666656,0.07933333333333437,0.9206666666666656,0.07933333333333437,1.0,0.0
2027,brussels,3,0.843666666666671,0.156333333333329,0.843666666666671,0.156333333333329,1.0,0.0
2027,brussels,4,0.7666666666666657,0.23333333333333428,0.7666666666666657,0.23333333333333428,1.0,0.0
2027,flanders,1,1.0,0.0,1.0,0.0,1.0,0.0
2027,flanders,2,0.9206666666666656,0.07933333333333437,0.9206666666666656,0.07933333333333437,1.0,0.0
2027,flanders,3,0.843666666666671,0.156333333333329,0.843666666666671,0.156333333333329,1.0,0.0
2027,flanders,4,0.7666666666666657,0.23333333333333428,0.7666666666666657,0.23333333333333428,1.0,0.0
2027,rest_of_europe,1,0.34285714285714164,0.0,0.34285714285714164,0.0,0.34285714285714164,0.0
2027,rest_of_europe,2,0.26352380952381793,0.07933333333333437,0.26352380952381793,0.07933333333333437,0.34285714285714874,0.0
2027,rest_of_europe,3,0.18652380952381087,0.156333333333329,0.18652380952381087,0.156333333333329,0.34285714285714874,0.0
2027,rest_of_europe,4,0.10952380952381091,0.23333333333333428,0.10952380952381091,0.23333333333333428,0.34285714285714874,0.0
2027,wallonia,1,1.0,0.0,1.0,0.0,1.0,0.0
2027,wallonia,2,0.9206666666666656,0.07933333333333437,0.9206666666666656,0.07933333333333437,1.0,0.0
2027,wallonia,3,0.843666666666671,0.156333333333329,0.843666666666671,0.156333333333329,1.0,0.0
2027,wallonia,4,0.7666666666666657,0.23333333333333428,0.7666666666666657,0.23333333333333428,1.0,0.0
2028,belgium,1,1.0,0.0,1.0,0.0,1.0,0.0
2028,belgium,2,0.9093333333333327,0.09066666666666734,0.9093333333333327,0.09066666666666734,1.0,0.0
2028,belgium,3,0.8213333333333352,0.17866666666666475,0.8213333333333352,0.17866666666666475,1.0,0.0
2028,belgium,4,0.7333333333333343,0.2666666666666657,0.7333333333333343,0.2666666666666657,1.0,0.0
2028,brussels,1,1.0,0.0,1.0,0.0,1.0,0.0
2028,brussels,2,0.9093333333333327,0.09066666666666734,0.9093333333333327,0.09066666666666734,1.0,0.0
2028,brussels,3,0.8213333333333352,0.17866666666666475,0.8213333333333352,0.17866666666666475,1.0,0.0
2028,brussels,4,0.7333333333333343,0.2666666666666657,0.7333333333333343,0.2666666666666657,1.0,0.0
2028,flanders,1,1.0,0.0,1.0,0.0,1.0,0.0
2028,flanders,2,0.9093333333333327,0.09066666666666734,0.9093333333333327,0.09066666666666734,1.0,0.0
2028,flanders,3,0.8213333333333352,0.17866666666666475,0.8213333333333352,0.17866666666666475,1.0,0.0
2028,flanders,4,0.7333333333333343,0.2666666666666657,0.7333333333333343,0.2666666666666657,1.0,0.0
2028,rest_of_europe,1,0.37142857142857366,0.0,0.37142857142857366,0.0,0.37142857142857366,0.0
2028,rest_of_europe,2,0.2807619047619099,0.09066666666666734,0.2807619047619099,0.09066666666666734,0.37142857142857366,0.0
2028,rest_of_europe,3,0.19276190476190713,0.17866666666666475,0.19276190476190713,0.17866666666666475,0.37142857142857366,0.0
2028,rest_of_europe,4,0.10476190476190617,0.2666666666666657,0.10476190476190617,0.2666666666666657,0.37142857142857366,0.0
2028,wallonia,1,1.0,0.0,1.0,0.0,1.0,0.0
2028,wallonia,2,0.9093333333333327,0.09066666666666734,0.9093333333333327,0.09066666666666734,1.0,0.0
2028,wallonia,3,0.8213333333333352,0.17866666666666475,0.8213333333333352,0.17866666666666475,1.0,0.0
2028,wallonia,4,0.7333333333333343,0.2666666666666657,0.7333333333333343,0.2666666666666657,1.0,0.0
2029,belgium,1,1.0,0.0,1.0,0.0,1.0,0.0
2029,belgium,2,0.8979999999999997,0.10200000000000031,0.8979999999999997,0.10200000000000031,1.0,0.0
2029,belgium,3,0.7990000000000066,0.2009999999999934,0.7990000000000066,0.2009999999999934,1.0,0.0
2029,belgium,4,0.7000000000000028,0.29999999999999716,0.7000000000000028,0.29999999999999716,1.0,0.0
2029,brussels,1,1.0,0.0,1.0,0.0,1.0,0.0
2029,brussels,2,0.8979999999999997,0.10200000000000031,0.8979999999999997,0.10200000000000031,1.0,0.0
2029,brussels,3,0.7990000000000066,0.2009999999999934,0.7990000000000066,0.2009999999999934,1.0,0.0
2029,brussels,4,0.7000000000000028,0.29999999999999716,0.7000000000000028,0.29999999999999716,1.0,0.0
2029,flanders,1,1.0,0.0,1.0,0.0,1.0,0.0
2029,flanders,2,0.8979999999999997,0.10200000000000031,0.8979999999999997,0.10200000000000031,1.0,0.0
2029,flanders,3,0.7990000000000066,0.2009999999999934,0.7990000000000066,0.2009999999999934,1.0,0.0
2029,flanders,4,0.7000000000000028,0.29999999999999716,0.7000000000000028,0.29999999999999716,1.0,0.0
2029,rest_of_europe,1,0.3999999999999986,0.0,0.3999999999999986,0.0,0.3999999999999986,0.0
2029,rest_of_europe,2,0.2980000000000018,0.10200000000000031,0.2980000000000018,0.10200000000000031,0.3999999999999986,0.0
2029,rest_of_europe,3,0.19900000000000162,0.2009999999999934,0.19900000000000162,0.2009999999999934,0.3999999999999986,0.0
2029,rest_of_europe,4,0.10000000000000142,0.29999999999999716,0.10000000000000142,0.29999999999999716,0.3999999999999986,0.0
2029,wallonia,1,1.0,0.0,1.0,0.0,1.0,0.0
2029,wallonia,2,0.8979999999999997,0.10200000000000031,0.8979999999999997,0.10200000000000031,1.0,0.0
2029,wallonia,3,0.7990000000000066,0.2009999999999934,0.7990000000000066,0.2009999999999934,1.0,0.0
2029,wallonia,4,0.7000000000000028,0.29999999999999716,0.7000000000000028,0.29999999999999716,1.0,0.0
2030,belgium,1,1.0,0.0,1.0,0.0,1.0,0.0
2030,belgium,2,0.8866666666666667,0.11333333333333329,0.8866666666666667,0.11333333333333329,1.0,0.0
2030,belgium,3,0.7766666666666708,0.22333333333332916,0.7766666666666708,0.22333333333332916,1.0,0.0
2030,belgium,4,0.6666666666666572,0.3333333333333428,0.6666666666666572,0.3333333333333428,1.0,0.0
2030,brussels,1,1.0,0.0,1.0,0.0,1.0,0.0
2030,brussels,2,0.8866666666666667,0.11333333333333329,0.8866666666666667,0.11333333333333329,1.0,0.0
2030,brussels,3,0.7766666666666708,0.22333333333332916,0.7766666666666708,0.22333333333332916,1.0,0.0
2030,brussels,4,0.6666666666666572,0.3333333333333428,0.6666666666666572,0.3333333333333428,1.0,0.0
2030,flanders,1,1.0,0.0,1.0,0.0,1.0,0.0
2030,flanders,2,0.8866666666666667,0.11333333333333329,0.8866666666666667,0.11333333333333329,1.0,0.0
2030,flanders,3,0.7766666666666708,0.22333333333332916,0.7766666666666708,0.22333333333332916,1.0,0.0
2030,flanders,4,0.6666666666666572,0.3333333333333428,0.6666666666666572,0.3333333333333428,1.0,0.0
2030,rest_of_europe,1,0.4285714285714306,0.0,0.4285714285714306,0.0,0.4285714285714306,0.0
2030,rest_of_europe,2,0.31523809523810087,0.11333333333333329,0.31523809523810087,0.11333333333333329,0.4285714285714306,0.0
2030,rest_of_europe,3,0.2052380952380961,0.22333333333332916,0.2052380952380961,0.22333333333332916,0.4285714285714306,0.0
2030,rest_of_europe,4,0.09523809523809668,0.3333333333333428,0.09523809523809668,0.3333333333333428,0.4285714285714306,0.0
2030,wallonia,1,1.0,0.0,1.0,0.0,1.0,0.0
2030,wallonia,2,0.8866666666666667,0.11333333333333329,0.8866666666666667,0.11333333333333329,1.0,0.0
2030,wallonia,3,0.7766666666666708,0.22333333333332916,0.7766666666666708,0.22333333333332916,1.0,0.0
2030,wallonia,4,0.6666666666666572,0.3333333333333428,0.6666666666666572,0.3333333333333428,1.0,0.0
2031,belgium,1,1.0,0.0,1.0,0.0,1.0,0.0
2031,belgium,2,0.8753333333333337,0.12466666666666626,0.8753333333333337,0.12466666666666626,1.0,0.0
2031,belgium,3,0.7543333333333351,0.24566666666666492,0.7543333333333351,0.24566666666666492,1.0,0.0
2031,belgium,4,0.6333333333333258,0.36666666666667425,0.6333333333333258,0.36666666666667425,1.0,0.0
2031,brussels,1,1.0,0.0,1.0,0.0,1.0,0.0
2031,brussels,2,0.8753333333333337,0.12466666666666626,0.8753333333333337,0.12466666666666626,1.0,0.0
2031,brussels,3,0.7543333333333351,0.24566666666666492,0.7543333333333351,0.24566666666666492,1.0,0.0
2031,brussels,4,0.6333333333333258,0.36666666666667425,0.6333333333333258,0.36666666666667425,1.0,0.0
2031,flanders,1,1.0,0.0,1.0,0.0,1.0,0.0
2031,flanders,2,0.8753333333333337,0.12466666666666626,0.8753333333333337,0.12466666666666626,1.0,0.0
2031,flanders,3,0.7543333333333351,0.24566666666666492,0.7543333333333351,0.24566666666666492,1.0,0.0
2031,flanders,4,0.6333333333333258,0.36666666666667425,0.6333333333333258,0.36666666666667425,1.0,0.0
2031,rest_of_europe,1,0.4571428571428555,0.0,0.4571428571428555,0.0,0.4571428571428555,0.0
2031,rest_of_europe,2,0.3324761904761928,0.12466666666666626,0.3324761904761928,0.12466666666666626,0.4571428571428626,0.0
2031,rest_of_europe,3,0.21147619047619237,0.24566666666666492,0.21147619047619237,0.24566666666666492,0.4571428571428626,0.0
2031,rest_of_europe,4,0.09047619047619193,0.36666666666667425,0.09047619047619193,0.36666666666667425,0.4571428571428626,0.0
2031,wallonia,1,1.0,0.0,1.0,0.0,1.0,0.0
2031,wallonia,2,0.8753333333333337,0.12466666666666626,0.8753333333333337,0.12466666666666626,1.0,0.0
2031,wallonia,3,0.7543333333333351,0.24566666666666492,0.7543333333333351,0.24566666666666492,1.0,0.0
2031,wallonia,4,0.6333333333333258,0.36666666666667425,0.6333333333333258,0.36666666666667425,1.0,0.0
2032,belgium,1,1.0,0.0,1.0,0.0,1.0,0.0
2032,belgium,2,0.8640000000000008,0.13599999999999923,0.8640000000000008,0.13599999999999923,1.0,0.0
2032,belgium,3,0.7320000000000064,0.2679999999999936,0.7320000000000064,0.2679999999999936,1.0,0.0
2032,belgium,4,0.5999999999999943,0.4000000000000057,0.5999999999999943,0.4000000000000057,1.0,0.0
2032,brussels,1,1.0,0.0,1.0,0.0,1.0,0.0
2032,brussels,2,0.8640000000000008,0.13599999999999923,0.8640000000000008,0.13599999999999923,1.0,0.0
2032,brussels,3,0.7320000000000064,0.2679999999999936,0.7320000000000064,0.2679999999999936,1.0,0.0
2032,brussels,4,0.5999999999999943,0.4000000000000057,0.5999999999999943,0.4000000000000057,1.0,0.0
2032,flanders,1,1.0,0.0,1.0,0.0,1.0,0.0
2032,flanders,2,0.8640000000000008,0.13599999999999923,0.8640000000000008,0.13599999999999923,1.0,0.0
2032,flanders,3,0.7320000000000064,0.2679999999999936,0.7320000000000064,0.2679999999999936,1.0,0.0
2032,flanders,4,0.5999999999999943,0.4000000000000057,0.5999999999999943,0.4000000000000057,1.0,0.0
2032,rest_of_europe,1,0.48571428571428754,0.0,0.48571428571428754,0.0,0.48571428571428754,0.0
2032,rest_of_europe,2,0.34971428571429186,0.13599999999999923,0.34971428571429186,0.13599999999999923,0.48571428571428754,0.0
2032,rest_of_europe,3,0.21771428571428686,0.2679999999999936,0.21771428571428686,0.2679999999999936,0.48571428571428754,0.0
2032,rest_of_europe,4,0.08571428571428719,0.4000000000000057,0.08571428571428719,0.4000000000000057,0.48571428571428754,0.0
2032,wallonia,1,1.0,0.0,1.0,0.0,1.0,0.0
2032,wallonia,2,0.8640000000000008,0.13599999999999923,0.8640000000000008,0.13599999999999923,1.0,0.0
2032,wallonia,3,0.7320000000000064,0.2679999999999936,0.7320000000000064,0.2679999999999936,1.0,0.0
2032,wallonia,4,0.5999999999999943,0.4000000000000057,0.5999999999999943,0.4000000000000057,1.0,0.0
2033,belgium,1,1.0,0.0,1.0,0.0,1.0,0.0
2033,belgium,2,0.8526666666666678,0.1473333333333322,0.8526666666666678,0.1473333333333322,1.0,0.0
2033,belgium,3,0.7096666666666707,0.29033333333332934,0.7096666666666707,0.29033333333332934,1.0,0.0
2033,belgium,4,0.5666666666666629,0.4333333333333371,0.5666666666666629,0.4333333333333371,1.0,0.0
2033,brussels,1,1.0,0.0,1.0,0.0,1.0,0.0
2033,brussels,2,0.8526666666666678,0.1473333333333322,0.8526666666666678,0.1473333333333322,1.0,0.0
2033,brussels,3,0.7096666666666707,0.29033333333332934,0.7096666666666707,0.29033333333332934,1.0,0.0
2033,brussels,4,0.5666666666666629,0.4333333333333371,0.5666666666666629,0.4333333333333371,1.0,0.0
2033,flanders,1,1.0,0.0,1.0,0.0,1.0,0.0
2033,flanders,2,0.8526666666666678,0.1473333333333322,0.8526666666666678,0.1473333333333322,1.0,0.0
2033,flanders,3,0.7096666666666707,0.29033333333332934,0.7096666666666707,0.29033333333332934,1.0,0.0
2033,flanders,4,0.5666666666666629,0.4333333333333371,0.5666666666666629,0.4333333333333371,1.0,0.0
2033,rest_of_europe,1,0.5142857142857125,0.0,0.5142857142857125,0.0,0.5142857142857125,0.0
2033,rest_of_europe,2,0.3669523809523838,0.1473333333333322,0.3669523809523838,0.1473333333333322,0.5142857142857125,0.0
2033,rest_of_europe,3,0.22395238095238312,0.29033333333332934,0.22395238095238312,0.29033333333332934,0.5142857142857125,0.0
2033,rest_of_europe,4,0.08095238095238244,0.4333333333333371,0.08095238095238244,0.4333333333333371,0.5142857142857125,0.0
2033,wallonia,1,1.0,0.0,1.0,0.0,1.0,0.0
2033,wallonia,2,0.8526666666666678,0.1473333333333322,0.8526666666666678,0.1473333333333322,1.0,0.0
2033,wallonia,3,0.7096666666666707,0.29033333333332934,0.7096666666666707,0.29033333333332934,1.0,0.0
2033,wallonia,4,0.5666666666666629,0.4333333333333371,0.5666666666666629,0.4333333333333371,1.0,0.0
2034,belgium,1,1.0,0.0,1.0,0.0,1.0,0.0
2034,belgium,2,0.8413333333333313,0.15866666666666873,0.8413333333333313,0.15866666666666873,1.0,0.0
2034,belgium,3,0.6873333333333349,0.3126666666666651,0.6873333333333349,0.3126666666666651,1.0,0.0
2034,belgium,4,0.5333333333333314,0.46666666666666856,0.5333333333333314,0.46666666666666856,1.0,0.0
2034,brussels,1,1.0,0.0,1.0,0.0,1.0,0.0
2034,brussels,2,0.8413333333333313,0.15866666666666873,0.8413333333333313,0.15866666666666873,1.0,0.0
2034,brussels,3,0.6873333333333349,0.3126666666666651,0.6873333333333349,0.3126666666666651,1.0,0.0
2034,brussels,4,0.5333333333333314,0.46666666666666856,0.5333333333333314,0.46666666666666856,1.0,0.0
2034,flanders,1,1.0,0.0,1.0,0.0,1.0,0.0
2034,flanders,2,0.8413333333333313,0.15866666666666873,0.8413333333333313,0.15866666666666873,1.0,0.0
2034,flanders,3,0.6873333333333349,0.3126666666666651,0.6873333333333349,0.3126666666666651,1.0,0.0
2034,flanders,4,0.5333333333333314,0.46666666666666856,0.5333333333333314,0.46666666666666856,1.0,0.0
2034,rest_of_europe,1,0.5428571428571445,0.0,0.5428571428571445,0.0,0.5428571428571445,0.0
2034,rest_of_europe,2,0.38419047619048285,0.15866666666666873,0.38419047619048285,0.15866666666666873,0.5428571428571445,0.0
2034,rest_of_europe,3,0.2301904761904776,0.3126666666666651,0.2301904761904776,0.3126666666666651,0.5428571428571445,0.0
2034,rest_of_europe,4,0.0761904761904777,0.46666666666666856,0.0761904761904777,0.46666666666666856,0.5428571428571445,0.0
2034,wallonia,1,1.0,0.0,1.0,0.0,1.0,0.0
2034,wallonia,2,0.8413333333333313,0.15866666666666873,0.8413333333333313,0.15866666666666873,1.0,0.0
2034,wallonia,3,0.6873333333333349,0.3126666666666651,0.6873333333333349,0.3126666666666651,1.0,0.0
2034,wallonia,4,0.5333333333333314,0.46666666666666856,0.5333333333333314,0.46666666666666856,1.0,0.0
2035,belgium,1,1.0,0.0,1.0,0.0,1.0,0.0
2035,belgium,2,0.8299999999999983,0.1700000000000017,0.8299999999999983,0.1700000000000017,1.0,0.0
2035,belgium,3,0.6650000000000063,0.33499999999999375,0.6650000000000063,0.33499999999999375,1.0,0.0
2035,belgium,4,0.5,0.5,0.5,0.5,1.0,0.0
2035,brussels,1,1.0,0.0,1.0,0.0,1.0,0.0
2035,brussels,2,0.8299999999999983,0.1700000000000017,0.8299999999999983,0.1700000000000017,1.0,0.0
2035,brussels,3,0.6650000000000063,0.33499999999999375,0.6650000000000063,0.33499999999999375,1.0,0.0
2035,brussels,4,0.5,0.5,0.5,0.5,1.0,0.0
2035,flanders,1,1.0,0.0,1.0,0.0,1.0,0.0
2035,flanders,2,0.8299999999999983,0.1700000000000017,0.8299999999999983,0.1700000000000017,1.0,0.0
2035,flanders,3,0.6650000000000063,0.33499999999999375,0.6650000000000063,0.33499999999999375,1.0,0.0
2035,flanders,4,0.5,0.5,0.5,0.5,1.0,0.0
2035,rest_of_europe,1,0.5714285714285694,0.0,0.5714285714285694,0.0,0.5714285714285694,0.0
2035,rest_of_europe,2,0.4014285714285748,0.1700000000000017,0.4014285714285748,0.1700000000000017,0.5714285714285765,0.0
2035,rest_of_europe,3,0.2364285714285721,0.33499999999999375,0.2364285714285721,0.33499999999999375,0.5714285714285765,0.0
2035,rest_of_europe,4,0.07142857142857295,0.5,0.07142857142857295,0.5,0.5714285714285765,0.0
2035,wallonia,1,1.0,0.0,1.0,0.0,1.0,0.0
2035,wallonia,2,0.8299999999999983,0.1700000000000017,0.8299999999999983,0.1700000000000017,1.0,0.0
2035,wallonia,3,0.6650000000000063,0.33499999999999375,0.6650000000000063,0.33499999999999375,1.0,0.0
2035,wallonia,4,0.5,0.5,0.5,0.5,1.0,0.0
2036,belgium,1,1.0,0.0,1.0,0.0,1.0,0.0
2036,belgium,2,0.8186666666666653,0.18133333333333468,0.8186666666666653,0.18133333333333468,1.0,0.0
2036,belgium,3,0.6426666666666705,0.3573333333333295,0.6426666666666705,0.3573333333333295,1.0,0.0
2036,belgium,4,0.46666666666666856,0.5333333333333314,0.46666666666666856,0.5333333333333314,1.0,0.0
2036,brussels,1,1.0,0.0,1.0,0.0,1.0,0.0
2036,brussels,2,0.8186666666666653,0.18133333333333468,0.8186666666666653,0.18133333333333468,1.0,0.0
2036,brussels,3,0.6426666666666705,0.3573333333333295,0.6426666666666705,0.3573333333333295,1.0,0.0
2036,brussels,4,0.46666666666666856,0.5333333333333314,0.46666666666666856,0.5333333333333314,1.0,0.0
2036,flanders,1,1.0,0.0,1.0,0.0,1.0,0.0
2036,flanders,2,0.8186666666666653,0.18133333333333468,0.8186666666666653,0.18133333333333468,1.0,0.0
2036,flanders,3,0.6426666666666705,0.3573333333333295,0.6426666666666705,0.3573333333333295,1.0,0.0
2036,flanders,4,0.46666666666666856,0.5333333333333314,0.46666666666666856,0.5333333333333314,1.0,0.0
2036,rest_of_europe,1,0.6000000000000014,0.0,0.6000000000000014,0.0,0.6000000000000014,0.0
2036,rest_of_europe,2,0.41866666666667385,0.18133333333333468,0.41866666666667385,0.18133333333333468,0.6000000000000014,0.0
2036,rest_of_europe,3,0.24266666666666836,0.3573333333333295,0.24266666666666836,0.3573333333333295,0.6000000000000014,0.0
2036,rest_of_europe,4,0.0666666666666682,0.5333333333333314,0.0666666666666682,0.5333333333333314,0.6000000000000014,0.0
2036,wallonia,1,1.0,0.0,1.0,0.0,1.0,0.0
2036,wallonia,2,0.8186666666666653,0.18133333333333468,0.8186666666666653,0.18133333333333468,1.0,0.0
2036,wallonia,3,0.6426666666666705,0.3573333333333295,0.6426666666666705,0.3573333333333295,1.0,0.0
2036,wallonia,4,0.46666666666666856,0.5333333333333314,0.46666666666666856,0.5333333333333314,1.0,0.0
2037,belgium,1,1.0,0.0,1.0,0.0,1.0,0.0
2037,belgium,2,0.8073333333333323,0.19266666666666765,0.8073333333333323,0.19266666666666765,1.0,0.0
2037,belgium,3,0.6203333333333347,0.37966666666666526,0.6203333333333347,0.37966666666666526,1.0,0.0
2037,belgium,4,0.4333333333333229,0.5666666666666771,0.4333333333333229,0.5666666666666771,1.0,0.0
2037,brussels,1,1.0,0.0,1.0,0.0,1.0,0.0
2037,brussels,2,0.8073333333333323,0.19266666666666765,0.8073333333333323,0.19266666666666765,1.0,0.0
2037,brussels,3,0.6203333333333347,0.37966666666666526,0.6203333333333347,0.37966666666666526,1.0,0.0
2037,brussels,4,0.4333333333333229,0.5666666666666771,0.4333333333333229,0.5666666666666771,1.0,0.0
2037,flanders,1,1.0,0.0,1.0,0.0,1.0,0.0
2037,flanders,2,0.8073333333333323,0.19266666666666765,0.8073333333333323,0.19266666666666765,1.0,0.0
2037,flanders,3,0.6203333333333347,0.37966666666666526,0.6203333333333347,0.37966666666666526,1.0,0.0
2037,flanders,4,0.4333333333333229,0.5666666666666771,0.4333333333333229,0.5666666666666771,1.0,0.0
2037,rest_of_europe,1,0.6285714285714263,0.0,0.6285714285714263,0.0,0.6285714285714263,0.0
2037,rest_of_europe,2,0.4359047619047658,0.19266666666666765,0.4359047619047658,0.19266666666666765,0.6285714285714263,0.0
2037,rest_of_europe,3,0.24890476190476285,0.37966666666666526,0.24890476190476285,0.37966666666666526,0.6285714285714263,0.0
2037,rest_of_europe,4,0.06190476190476346,0.5666666666666771,0.06190476190476346,0.5666666666666771,0.6285714285714263,0.0
2037,wallonia,1,1.0,0.0,1.0,0.0,1.0,0.0
2037,wallonia,2,0.8073333333333323,0.19266666666666765,0.8073333333333323,0.19266666666666765,1.0,0.0
2037,wallonia,3,0.6203333333333347,0.37966666666666526,0.6203333333333347,0.37966666666666526,1.0,0.0
2037,wallonia,4,0.4333333333333229,0.5666666666666771,0.4333333333333229,0.5666666666666771,1.0,0.0
2038,belgium,1,1.0,0.0,1.0,0.0,1.0,0.0
2038,belgium,2,0.7959999999999994,0.20400000000000063,0.7959999999999994,0.20400000000000063,1.0,0.0
2038,belgium,3,0.5980000000000061,0.4019999999999939,0.5980000000000061,0.4019999999999939,1.0,0.0
2038,belgium,4,0.3999999999999915,0.6000000000000085,0.3999999999999915,0.6000000000000085,1.0,0.0
2038,brussels,1,1.0,0.0,1.0,0.0,1.0,0.0
2038,brussels,2,0.7959999999999994,0.20400000000000063,0.7959999999999994,0.20400000000000063,1.0,0.0
2038,brussels,3,0.5980000000000061,0.4019999999999939,0.5980000000000061,0.4019999999999939,1.0,0.0
2038,brussels,4,0.3999999999999915,0.6000000000000085,0.3999999999999915,0.6000000000000085,1.0,0.0
2038,flanders,1,1.0,0.0,1.0,0.0,1.0,0.0
2038,flanders,2,0.7959999999999994,0.20400000000000063,0.7959999999999994,0.20400000000000063,1.0,0.0
2038,flanders,3,0.5980000000000061,0.4019999999999939,0.5980000000000061,0.4019999999999939,1.0,0.0
2038,flanders,4,0.3999999999999915,0.6000000000000085,0.3999999999999915,0.6000000000000085,1.0,0.0
2038,rest_of_europe,1,0.6571428571428584,0.0,0.6571428571428584,0.0,0.6571428571428584,0.0
2038,rest_of_europe,2,0.45314285714286484,0.20400000000000063,0.45314285714286484,0.20400000000000063,0.6571428571428584,0.0
2038,rest_of_europe,3,0.25514285714285734,0.4019999999999939,0.25514285714285734,0.4019999999999939,0.6571428571428584,0.0
2038,rest_of_europe,4,0.057142857142858716,0.6000000000000085,0.057142857142858716,0.6000000000000085,0.6571428571428584,0.0
2038,wallonia,1,1.0,0.0,1.0,0.0,1.0,0.0
2038,wallonia,2,0.7959999999999994,0.20400000000000063,0.7959999999999994,0.20400000000000063,1.0,0.0
2038,wallonia,3,0.5980000000000061,0.4019999999999939,0.5980000000000061,0.4019999999999939,1.0,0.0
2038,wallonia,4,0.3999999999999915,0.6000000000000085,0.3999999999999915,0.6000000000000085,1.0,0.0
2039,belgium,1,1.0,0.0,1.0,0.0,1.0,0.0
2039,belgium,2,0.7846666666666664,0.2153333333333336,0.7846666666666664,0.2153333333333336,1.0,0.0
2039,belgium,3,0.5756666666666703,0.4243333333333297,0.5756666666666703,0.4243333333333297,1.0,0.0
2039,belgium,4,0.36666666666666003,0.63333333333334,0.36666666666666003,0.63333333333334,1.0,0.0
2039,brussels,1,1.0,0.0,1.0,0.0,1.0,0.0
2039,brussels,2,0.7846666666666664,0.2153333333333336,0.7846666666666664,0.2153333333333336,1.0,0.0
2039,brussels,3,0.5756666666666703,0.4243333333333297,0.5756666666666703,0.4243333333333297,1.0,0.0
2039,brussels,4,0.36666666666666003,0.63333333333334,0.36666666666666003,0.63333333333334,1.0,0.0
2039,flanders,1,1.0,0.0,1.0,0.0,1.0,0.0
2039,flanders,2,0.7846666666666664,0.2153333333333336,0.7846666666666664,0.2153333333333336,1.0,0.0
2039,flanders,3,0.5756666666666703,0.4243333333333297,0.5756666666666703,0.4243333333333297,1.0,0.0
2039,flanders,4,0.36666666666666003,0.63333333333334,0.36666666666666003,0.63333333333334,1.0,0.0
2039,rest_of_europe,1,0.6857142857142833,0.0,0.6857142857142833,0.0,0.6857142857142833,0.0
2039,rest_of_europe,2,0.4703809523809568,0.2153333333333336,0.4703809523809568,0.2153333333333336,0.6857142857142904,0.0
2039,rest_of_europe,3,0.2613809523809536,0.4243333333333297,0.2613809523809536,0.4243333333333297,0.6857142857142904,0.0
2039,rest_of_europe,4,0.05238095238095397,0.63333333333334,0.05238095238095397,0.63333333333334,0.6857142857142904,0.0
2039,wallonia,1,1.0,0.0,1.0,0.0,1.0,0.0
2039,wallonia,2,0.7846666666666664,0.2153333333333336,0.7846666666666664,0.2153333333333336,1.0,0.0
2039,wallonia,3,0.5756666666666703,0.4243333333333297,0.5756666666666703,0.4243333333333297,1.0,0.0
2039,wallonia,4,0.36666666666666003,0.63333333333334,0.36666666666666003,0.63333333333334,1.0,0.0
2040,belgium,1,1.0,0.0,1.0,0.0,1.0,0.0
2040,belgium,2,0.7733333333333334,0.22666666666666657,0.7733333333333334,0.22666666666666657,1.0,0.0
2040,belgium,3,0.5533333333333346,0.44666666666666544,0.5533333333333346,0.44666666666666544,1.0,0.0
2040,belgium,4,0.3333333333333286,0.6666666666666714,0.3333333333333286,0.6666666666666714,1.0,0.0
2040,brussels,1,1.0,0.0,1.0,0.0,1.0,0.0
2040,brussels,2,0.7733333333333334,0.22666666666666657,0.7733333333333334,0.22666666666666657,1.0,0.0
2040,brussels,3,0.5533333333333346,0.44666666666666544,0.5533333333333346,0.44666666666666544,1.0,0.0
2040,brussels,4,0.3333333333333286,0.6666666666666714,0.3333333333333286,0.6666666666666714,1.0,0.0
2040,flanders,1,1.0,0.0,1.0,0.0,1.0,0.0
2040,flanders,2,0.7733333333333334,0.22666666666666657,0.7733333333333334,0.22666666666666657,1.0,0.0
2040,flanders,3,0.5533333333333346,0.44666666666666544,0.5533333333333346,0.44666666666666544,1.0,0.0
2040,flanders,4,0.3333333333333286,0.6666666666666714,0.3333333333333286,0.6666666666666714,1.0,0.0
2040,rest_of_europe,1,0.7142857142857153,0.0,0.7142857142857153,0.0,0.7142857142857153,0.0
2040,rest_of_europe,2,0.48761904761904873,0.22666666666666657,0.48761904761904873,0.22666666666666657,0.7142857142857153,0.0
2040,rest_of_europe,3,0.2676190476190481,0.44666666666666544,0.2676190476190481,0.44666666666666544,0.7142857142857153,0.0
2040,rest_of_europe,4,0.047619047619049226,0.6666666666666714,0.047619047619049226,0.6666666666666714,0.7142857142857153,0.0
2040,wallonia,1,1.0,0.0,1.0,0.0,1.0,0.0
2040,wallonia,2,0.7733333333333334,0.22666666666666657,0.7733333333333334,0.22666666666666657,1.0,0.0
2040,wallonia,3,0.5533333333333346,0.44666666666666544,0.5533333333333346,0.44666666666666544,1.0,0.0
2040,wallonia,4,0.3333333333333286,0.6666666666666714,0.3333333333333286,0.6666666666666714,1.0,0.0
2041,belgium,1,1.0,0.0,1.0,0.0,1.0,0.0
2041,belgium,2,0.7620000000000005,0.23799999999999955,0.7620000000000005,0.23799999999999955,1.0,0.0
2041,belgium,3,0.5310000000000059,0.4689999999999941,0.5310000000000059,0.4689999999999941,1.0,0.0
2041,belgium,4,0.29999999999999716,0.7000000000000028,0.29999999999999716,0.7000000000000028,1.0,0.0
2041,brussels,1,1.0,0.0,1.0,0.0,1.0,0.0
2041,brussels,2,0.7620000000000005,0.23799999999999955,0.7620000000000005,0.23799999999999955,1.0,0.0
2041,brussels,3,0.5310000000000059,0.4689999999999941,0.5310000000000059,0.4689999999999941,1.0,0.0
2041,brussels,4,0.29999999999999716,0.7000000000000028,0.29999999999999716,0.7000000000000028,1.0,0.0
2041,flanders,1,1.0,0.0,1.0,0.0,1.0,0.0
2041,flanders,2,0.7620000000000005,0.23799999999999955,0.7620000000000005,0.23799999999999955,1.0,0.0
2041,flanders,3,0.5310000000000059,0.4689999999999941,0.5310000000000059,0.4689999999999941,1.0,0.0
2041,flanders,4,0.29999999999999716,0.7000000000000028,0.29999999999999716,0.7000000000000028,1.0,0.0
2041,rest_of_europe,1,0.7428571428571402,0.0,0.7428571428571402,0.0,0.7428571428571402,0.0
2041,rest_of_europe,2,0.5048571428571478,0.23799999999999955,0.5048571428571478,0.23799999999999955,0.7428571428571402,0.0
2041,rest_of_europe,3,0.2738571428571426,0.4689999999999941,0.2738571428571426,0.4689999999999941,0.7428571428571402,0.0
2041,rest_of_europe,4,0.042857142857142705,0.7000000000000028,0.042857142857142705,0.7000000000000028,0.7428571428571402,0.0
2041,wallonia,1,1.0,0.0,1.0,0.0,1.0,0.0
2041,wallonia,2,0.7620000000000005,0.23799999999999955,0.7620000000000005,0.23799999999999955,1.0,0.0
2041,wallonia,3,0.5310000000000059,0.4689999999999941,0.5310000000000059,0.4689999999999941,1.0,0.0
2041,wallonia,4,0.29999999999999716,0.7000000000000028,0.29999999999999716,0.7000000000000028,1.0,0.0
2042,belgium,1,1.0,0.0,1.0,0.0,1.0,0.0
2042,belgium,2,0.7506666666666675,0.24933333333333252,0.7506666666666675,0.24933333333333252,1.0,0.0
2042,belgium,3,0.5086666666666702,0.49133333333332985,0.5086666666666702,0.49133333333332985,1.0,0.0
2042,belgium,4,0.2666666666666657,0.7333333333333343,0.2666666666666657,0.7333333333333343,1.0,0.0
2042,brussels,1,1.0,0.0,1.0,0.0,1.0,0.0
2042,brussels,2,0.7506666666666675,0.24933333333333252,0.7506666666666675,0.24933333333333252,1.0,0.0
2042,brussels,3,0.5086666666666702,0.49133333333332985,0.5086666666666702,0.49133333333332985,1.0,0.0
2042,brussels,4,0.2666666666666657,0.7333333333333343,0.2666666666666657,0.7333333333333343,1.0,0.0
2042,flanders,1,1.0,0.0,1.0,0.0,1.0,0.0
2042,flanders,2,0.7506666666666675,0.24933333333333252,0.7506666666666675,0.24933333333333252,1.0,0.0
2042,flanders,3,0.5086666666666702,0.49133333333332985,0.5086666666666702,0.49133333333332985,1.0,0.0
2042,flanders,4,0.2666666666666657,0.7333333333333343,0.2666666666666657,0.7333333333333343,1.0,0.0
2042,rest_of_europe,1,0.7714285714285722,0.0,0.7714285714285722,0.0,0.7714285714285722,0.0
2042,rest_of_europe,2,0.5220952380952397,0.24933333333333252,0.5220952380952397,0.24933333333333252,0.7714285714285722,0.0
2042,rest_of_europe,3,0.28009523809523884,0.49133333333332985,0.28009523809523884,0.49133333333332985,0.7714285714285722,0.0
2042,rest_of_europe,4,0.03809523809523796,0.7333333333333343,0.03809523809523796,0.7333333333333343,0.7714285714285722,0.0
2042,wallonia,1,1.0,0.0,1.0,0.0,1.0,0.0
2042,wallonia,2,0.7506666666666675,0.24933333333333252,0.7506666666666675,0.24933333333333252,1.0,0.0
2042,wallonia,3,0.5086666666666702,0.49133333333332985,0.5086666666666702,0.49133333333332985,1.0,0.0
2042,wallonia,4,0.2666666666666657,0.7333333333333343,0.2666666666666657,0.7333333333333343,1.0,0.0
2043,belgium,1,1.0,0.0,1.0,0.0,1.0,0.0
2043,belgium,2,0.7393333333333345,0.2606666666666655,0.7393333333333345,0.2606666666666655,1.0,0.0
2043,belgium,3,0.4863333333333344,0.5136666666666656,0.4863333333333344,0.5136666666666656,1.0,0.0
2043,belgium,4,0.23333333333333428,0.7666666666666657,0.23333333333333428,0.7666666666666657,1.0,0.0
2043,brussels,1,1.0,0.0,1.0,0.0,1.0,0.0
2043,brussels,2,0.7393333333333345,0.2606666666666655,0.7393333333333345,0.2606666666666655,1.0,0.0
2043,brussels,3,0.4863333333333344,0.5136666666666656,0.4863333333333344,0.5136666666666656,1.0,0.0
2043,brussels,4,0.23333333333333428,0.7666666666666657,0.23333333333333428,0.7666666666666657,1.0,0.0
2043,flanders,1,1.0,0.0,1.0,0.0,1.0,0.0
2043,flanders,2,0.7393333333333345,0.2606666666666655,0.7393333333333345,0.2606666666666655,1.0,0.0
2043,flanders,3,0.4863333333333344,0.5136666666666656,0.4863333333333344,0.5136666666666656,1.0,0.0
2043,flanders,4,0.23333333333333428,0.7666666666666657,0.23333333333333428,0.7666666666666657,1.0,0.0
2043,rest_of_europe,1,0.7999999999999972,0.0,0.7999999999999972,0.0,0.7999999999999972,0.0
2043,rest_of_europe,2,0.5393333333333388,0.2606666666666655,0.5393333333333388,0.2606666666666655,0.8000000000000043,0.0
2043,rest_of_europe,3,0.28633333333333333,0.5136666666666656,0.28633333333333333,0.5136666666666656,0.8000000000000043,0.0
2043,rest_of_europe,4,0.033333333333333215,0.7666666666666657,0.033333333333333215,0.7666666666666657,0.8000000000000043,0.0
2043,wallonia,1,1.0,0.0,1.0,0.0,1.0,0.0
2043,wallonia,2,0.7393333333333345,0.2606666666666655,0.7393333333333345,0.2606666666666655,1.0,0.0
2043,wallonia,3,0.4863333333333344,0.5136666666666656,0.4863333333333344,0.5136666666666656,1.0,0.0
2043,wallonia,4,0.23333333333333428,0.7666666666666657,0.23333333333333428,0.7666666666666657,1.0,0.0
2044,belgium,1,1.0,0.0,1.0,0.0,1.0,0.0
2044,belgium,2,0.727999999999998,0.272000000000002,0.727999999999998,0.272000000000002,1.0,0.0
2044,belgium,3,0.46400000000000574,0.5359999999999943,0.46400000000000574,0.5359999999999943,1.0,0.0
2044,belgium,4,0.20000000000000284,0.7999999999999972,0.20000000000000284,0.7999999999999972,1.0,0.0
2044,brussels,1,1.0,0.0,1.0,0.0,1.0,0.0
2044,brussels,2,0.727999999999998,0.272000000000002,0.727999999999998,0.272000000000002,1.0,0.0
2044,brussels,3,0.46400000000000574,0.5359999999999943,0.46400000000000574,0.5359999999999943,1.0,0.0
2044,brussels,4,0.20000000000000284,0.7999999999999972,0.20000000000000284,0.7999999999999972,1.0,0.0
2044,flanders,1,1.0,0.0,1.0,0.0,1.0,0.0
2044,flanders,2,0.727999999999998,0.272000000000002,0.727999999999998,0.272000000000002,1.0,0.0
2044,flanders,3,0.46400000000000574,0.5359999999999943,0.46400000000000574,0.5359999999999943,1.0,0.0
2044,flanders,4,0.20000000000000284,0.7999999999999972,0.20000000000000284,0.7999999999999972,1.0,0.0
2044,rest_of_europe,1,0.8285714285714292,0.0,0.8285714285714292,0.0,0.8285714285714292,0.0
2044,rest_of_europe,2,0.5565714285714307,0.272000000000002,0.5565714285714307,0.272000000000002,0.8285714285714292,0.0
2044,rest_of_europe,3,0.2925714285714296,0.5359999999999943,0.2925714285714296,0.5359999999999943,0.8285714285714292,0.0
2044,rest_of_europe,4,0.02857142857142847,0.7999999999999972,0.02857142857142847,0.7999999999999972,0.8285714285714292,0.0
2044,wallonia,1,1.0,0.0,1.0,0.0,1.0,0.0
2044,wallonia,2,0.727999999999998,0.272000000000002,0.727999999999998,0.272000000000002,1.0,0.0
2044,wallonia,3,0.46400000000000574,0.5359999999999943,0.46400000000000574,0.5359999999999943,1.0,0.0
2044,wallonia,4,0.20000000000000284,0.7999999999999972,0.20000000000000284,0.7999999999999972,1.0,0.0
2045,belgium,1,1.0,0.0,1.0,0.0,1.0,0.0
2045,belgium,2,0.716666666666665,0.283333333333335,0.716666666666665,0.283333333333335,1.0,0.0
2045,belgium,3,0.44166666666667,0.55833333333333,0.44166666666667,0.55833333333333,1.0,0.0
2045,belgium,4,0.1666666666666572,0.8333333333333428,0.1666666666666572,0.8333333333333428,1.0,0.0
2045,brussels,1,1.0,0.0,1.0,0.0,1.0,0.0
2045,brussels,2,0.716666666666665,0.283333333333335,0.716666666666665,0.283333333333335,1.0,0.0
2045,brussels,3,0.44166666666667,0.55833333333333,0.44166666666667,0.55833333333333,1.0,0.0
2045,brussels,4,0.1666666666666572,0.8333333333333428,0.1666666666666572,0.8333333333333428,1.0,0.0
2045,flanders,1,1.0,0.0,1.0,0.0,1.0,0.0
2045,flanders,2,0.716666666666665,0.283333333333335,0.716666666666665,0.283333333333335,1.0,0.0
2045,flanders,3,0.44166666666667,0.55833333333333,0.44166666666667,0.55833333333333,1.0,0.0
2045,flanders,4,0.1666666666666572,0.8333333333333428,0.1666666666666572,0.8333333333333428,1.0,0.0
2045,rest_of_europe,1,0.8571428571428541,0.0,0.8571428571428541,0.0,0.8571428571428541,0.0
2045,rest_of_europe,2,0.5738095238095298,0.283333333333335,0.5738095238095298,0.283333333333335,0.8571428571428541,0.0
2045,rest_of_europe,3,0.2988095238095241,0.55833333333333,0.2988095238095241,0.55833333333333,0.8571428571428541,0.0
2045,rest_of_europe,4,0.023809523809523725,0.8333333333333428,0.023809523809523725,0.8333333333333428,0.8571428571428541,0.0
2045,wallonia,1,1.0,0.0,1.0,0.0,1.0,0.0
2045,wallonia,2,0.716666666666665,0.283333333333335,0.716666666666665,0.283333333333335,1.0,0.0
2045,wallonia,3,0.44166666666667,0.55833333333333,0.44166666666667,0.55833333333333,1.0,0.0
2045,wallonia,4,0.1666666666666572,0.8333333333333428,0.1666666666666572,0.8333333333333428,1.0,0.0
2046,belgium,1,1.0,0.0,1.0,0.0,1.0,0.0
2046,belgium,2,0.705333333333332,0.29466666666666796,0.705333333333332,0.29466666666666796,1.0,0.0
2046,belgium,3,0.4193333333333342,0.5806666666666658,0.4193333333333342,0.5806666666666658,1.0,0.0
2046,belgium,4,0.13333333333332575,0.8666666666666742,0.13333333333332575,0.8666666666666742,1.0,0.0
2046,brussels,1,1.0,0.0,1.0,0.0,1.0,0.0
2046,brussels,2,0.705333333333332,0.29466666666666796,0.705333333333332,0.29466666666666796,1.0,0.0
2046,brussels,3,0.4193333333333342,0.5806666666666658,0.4193333333333342,0.5806666666666658,1.0,0.0
2046,brussels,4,0.13333333333332575,0.8666666666666742,0.13333333333332575,0.8666666666666742,1.0,0.0
2046,flanders,1,1.0,0.0,1.0,0.0,1.0,0.0
2046,flanders,2,0.705333333333332,0.29466666666666796,0.705333333333332,0.29466666666666796,1.0,0.0
2046,flanders,3,0.4193333333333342,0.5806666666666658,0.4193333333333342,0.5806666666666658,1.0,0.0
2046,flanders,4,0.13333333333332575,0.8666666666666742,0.13333333333332575,0.8666666666666742,1.0,0.0
2046,rest_of_europe,1,0.8857142857142861,0.0,0.8857142857142861,0.0,0.8857142857142861,0.0
2046,rest_of_europe,2,0.5910476190476217,0.29466666666666796,0.5910476190476217,0.29466666666666796,0.8857142857142861,0.0
2046,rest_of_europe,3,0.30504761904761857,0.5806666666666658,0.30504761904761857,0.5806666666666658,0.8857142857142861,0.0
2046,rest_of_europe,4,0.01904761904761898,0.8666666666666742,0.01904761904761898,0.8666666666666742,0.8857142857142861,0.0
2046,wallonia,1,1.0,0.0,1.0,0.0,1.0,0.0
2046,wallonia,2,0.705333333333332,0.29466666666666796,0.705333333333332,0.29466666666666796,1.0,0.0
2046,wallonia,3,0.4193333333333342,0.5806666666666658,0.4193333333333342,0.5806666666666658,1.0,0.0
2046,wallonia,4,0.13333333333332575,0.8666666666666742,0.13333333333332575,0.8666666666666742,1.0,0.0
2047,belgium,1,1.0,0.0,1.0,0.0,1.0,0.0
2047,belgium,2,0.6939999999999991,0.30600000000000094,0.6939999999999991,0.30600000000000094,1.0,0.0
2047,belgium,3,0.39700000000000557,0.6029999999999944,0.39700000000000557,0.6029999999999944,1.0,0.0
2047,belgium,4,0.09999999999999432,0.9000000000000057,0.09999999999999432,0.9000000000000057,1.0,0.0
2047,brussels,1,1.0,0.0,1.0,0.0,1.0,0.0
2047,brussels,2,0.6939999999999991,0.30600000000000094,0.6939999999999991,0.30600000000000094,1.0,0.0
2047,brussels,3,0.39700000000000557,0.6029999999999944,0.39700000000000557,0.6029999999999944,1.0,0.0
2047,brussels,4,0.09999999999999432,0.9000000000000057,0.09999999999999432,0.9000000000000057,1.0,0.0
2047,flanders,1,1.0,0.0,1.0,0.0,1.0,0.0
2047,flanders,2,0.6939999999999991,0.30600000000000094,0.6939999999999991,0.30600000000000094,1.0,0.0
2047,flanders,3,0.39700000000000557,0.6029999999999944,0.39700000000000557,0.6029999999999944,1.0,0.0
2047,flanders,4,0.09999999999999432,0.9000000000000057,0.09999999999999432,0.9000000000000057,1.0,0.0
2047,rest_of_europe,1,0.914285714285711,0.0,0.914285714285711,0.0,0.914285714285711,0.0
2047,rest_of_europe,2,0.6082857142857208,0.30600000000000094,0.6082857142857208,0.30600000000000094,0.9142857142857181,0.0
2047,rest_of_europe,3,0.31128571428571483,0.6029999999999944,0.31128571428571483,0.6029999999999944,0.9142857142857181,0.0
2047,rest_of_europe,4,0.014285714285714235,0.9000000000000057,0.014285714285714235,0.9000000000000057,0.9142857142857181,0.0
2047,wallonia,1,1.0,0.0,1.0,0.0,1.0,0.0
2047,wallonia,2,0.6939999999999991,0.30600000000000094,0.6939999999999991,0.30600000000000094,1.0,0.0
2047,wallonia,3,0.39700000000000557,0.6029999999999944,0.39700000000000557,0.6029999999999944,1.0,0.0
2047,wallonia,4,0.09999999999999432,0.9000000000000057,0.09999999999999432,0.9000000000000057,1.0,0.0
2048,belgium,1,1.0,0.0,1.0,0.0,1.0,0.0
2048,belgium,2,0.6826666666666661,0.3173333333333339,0.6826666666666661,0.3173333333333339,1.0,0.0
2048,belgium,3,0.3746666666666698,0.6253333333333302,0.3746666666666698,0.6253333333333302,1.0,0.0
2048,belgium,4,0.06666666666666288,0.9333333333333371,0.06666666666666288,0.9333333333333371,1.0,0.0
2048,brussels,1,1.0,0.0,1.0,0.0,1.0,0.0
2048,brussels,2,0.6826666666666661,0.3173333333333339,0.6826666666666661,0.3173333333333339,1.0,0.0
2048,brussels,3,0.3746666666666698,0.6253333333333302,0.3746666666666698,0.6253333333333302,1.0,0.0
2048,brussels,4,0.06666666666666288,0.9333333333333371,0.06666666666666288,0.9333333333333371,1.0,0.0
2048,flanders,1,1.0,0.0,1.0,0.0,1.0,0.0
2048,flanders,2,0.6826666666666661,0.3173333333333339,0.6826666666666661,0.3173333333333339,1.0,0.0
2048,flanders,3,0.3746666666666698,0.6253333333333302,0.3746666666666698,0.6253333333333302,1.0,0.0
2048,flanders,4,0.06666666666666288,0.9333333333333371,0.06666666666666288,0.9333333333333371,1.0,0.0
2048,rest_of_europe,1,0.9428571428571431,0.0,0.9428571428571431,0.0,0.9428571428571431,0.0
2048,rest_of_europe,2,0.6255238095238127,0.3173333333333339,0.6255238095238127,0.3173333333333339,0.9428571428571431,0.0
2048,rest_of_europe,3,0.3175238095238093,0.6253333333333302,0.3175238095238093,0.6253333333333302,0.9428571428571431,0.0
2048,rest_of_europe,4,0.00952380952380949,0.9333333333333371,0.00952380952380949,0.9333333333333371,0.9428571428571431,0.0
2048,wallonia,1,1.0,0.0,1.0,0.0,1.0,0.0
2048,wallonia,2,0.6826666666666661,0.3173333333333339,0.6826666666666661,0.3173333333333339,1.0,0.0
2048,wallonia,3,0.3746666666666698,0.6253333333333302,0.3746666666666698,0.6253333333333302,1.0,0.0
2048,wallonia,4,0.06666666666666288,0.9333333333333371,0.06666666666666288,0.9333333333333371,1.0,0.0
2049,belgium,1,1.0,0.0,1.0,0.0,1.0,0.0
2049,belgium,2,0.6713333333333331,0.3286666666666669,0.6713333333333331,0.3286666666666669,1.0,0.0
2049,belgium,3,0.35233333333333405,0.647666666666666,0.35233333333333405,0.647666666666666,1.0,0.0
2049,belgium,4,0.03333333333333144,0.9666666666666686,0.03333333333333144,0.9666666666666686,1.0,0.0
2049,brussels,1,1.0,0.0,1.0,0.0,1.0,0.0
2049,brussels,2,0.6713333333333331,0.3286666666666669,0.6713333333333331,0.3286666666666669,1.0,0.0
2049,brussels,3,0.35233333333333405,0.647666666666666,0.35233333333333405,0.647666666666666,1.0,0.0
2049,brussels,4,0.03333333333333144,0.9666666666666686,0.03333333333333144,0.9666666666666686,1.0,0.0
2049,flanders,1,1.0,0.0,1.0,0.0,1.0,0.0
2049,flanders,2,0.6713333333333331,0.3286666666666669,0.6713333333333331,0.3286666666666669,1.0,0.0
2049,flanders,3,0.35233333333333405,0.647666666666666,0.35233333333333405,0.647666666666666,1.0,0.0
2049,flanders,4,0.03333333333333144,0.9666666666666686,0.03333333333333144,0.9666666666666686,1.0,0.0
2049,rest_of_europe,1,0.9714285714285751,0.0,0.9714285714285751,0.0,0.9714285714285751,0.0
2049,rest_of_europe,2,0.6427619047619046,0.3286666666666669,0.6427619047619046,0.3286666666666669,0.971428571428568,0.0
2049,rest_of_europe,3,0.3237619047619038,0.647666666666666,0.3237619047619038,0.647666666666666,0.971428571428568,0.0
2049,rest_of_europe,4,0.004761904761904745,0.9666666666666686,0.004761904761904745,0.9666666666666686,0.971428571428568,0.0
2049,wallonia,1,1.0,0.0,1.0,0.0,1.0,0.0
2049,wallonia,2,0.6713333333333331,0.3286666666666669,0.6713333333333331,0.3286666666666669,1.0,0.0
2049,wallonia,3,0.35233333333333405,0.647666666666666,0.35233333333333405,0.647666666666666,1.0,0.0
2049,wallonia,4,0.03333333333333144,0.9666666666666686,0.03333333333333144,0.9666666666666686,1.0,0.0
2050,belgium,1,1.0,0.0,1.0,0.0,1.0,0.0
2050,belgium,2,0.6600000000000001,0.33999999999999986,0.6600000000000001,0.33999999999999986,1.0,0.0
2050,belgium,3,0.3300000000000054,0.6699999999999946,0.3300000000000054,0.6699999999999946,1.0,0.0
2050,belgium,4,0.0,1.0,0.0,1.0,1.0,0.0
2050,brussels,1,1.0,0.0,1.0,0.0,1.0,0.0
2050,brussels,2,0.6600000000000001,0.33999999999999986,0.6600000000000001,0.33999999999999986,1.0,0.0
2050,brussels,3,0.3300000000000054,0.6699999999999946,0.3300000000000054,0.6699999999999946,1.0,0.0
2050,brussels,4,0.0,1.0,0.0,1.0,1.0,0.0
2050,flanders,1,1.0,0.0,1.0,0.0,1.0,0.0
2050,flanders,2,0.6600000000000001,0.33999999999999986,0.6600000000000001,0.33999999999999986,1.0,0.0
2050,flanders,3,0.3300000000000054,0.6699999999999946,0.3300000000000054,0.6699999999999946,1.0,0.0
2050,flanders,4,0.0,1.0,0.0,1.0,1.0,0.0
2050,rest_of_europe,1,1.0,0.0,1.0,0.0,1.0,0.0
2050,rest_of_europe,2,0.6600000000000037,0.33999999999999986,0.6600000000000037,0.33999999999999986,1.0,0.0
2050,rest_of_europe,3,0.33000000000000007,0.6699999999999946,0.33000000000000007,0.6699999999999946,1.0,0.0
2050,rest_of_europe,4,0.0,1.0,0.0,1.0,1.0,0.0
2050,wallonia,1,1.0,0.0,1.0,0.0,1.0,0.0
2050,wallonia,2,0.6600000000000001,0.33999999999999986,0.6600000000000001,0.33999999999999986,1.0,0.0
2050,wallonia,3,0.3300000000000054,0.6699999999999946,0.3300000000000054,0.6699999999999946,1.0,0.0
2050,wallonia,4,0.0,1.0,0.0,1.0,1.0,0.0
