Years,Country,lever_passenger_technology-share_new_ZEV,fts_tra_passenger_technology-share_new_ZEV_LDV[%],fts_tra_passenger_technology-share_new_ZEV_bike[%],fts_tra_passenger_technology-share_new_ZEV_bus[%],fts_tra_passenger_technology-share_new_ZEV_rail[%],fts_tra_passenger_technology-share_new_ZEV_walk[%]
2016,belgium,1,0.0007,0.0,0.001,0.85,0.0
2016,belgium,2,0.0007,0.0,0.001,0.85,0.0
2016,belgium,3,0.0007,0.0,0.001,0.85,0.0
2016,belgium,4,0.0007,0.0,0.001,0.85,0.0
2016,brussels,1,0.0007,0.0,0.001,0.85,0.0
2016,brussels,2,0.0007,0.0,0.001,0.85,0.0
2016,brussels,3,0.0007,0.0,0.001,0.85,0.0
2016,brussels,4,0.0007,0.0,0.001,0.85,0.0
2016,flanders,1,0.0007,0.0,0.001,0.85,0.0
2016,flanders,2,0.0007,0.0,0.001,0.85,0.0
2016,flanders,3,0.0007,0.0,0.001,0.85,0.0
2016,flanders,4,0.0007,0.0,0.001,0.85,0.0
2016,rest_of_europe,1,0.0,0.0,0.0,0.0,0.0
2016,rest_of_europe,2,0.0,0.0,0.0,0.0,0.0
2016,rest_of_europe,3,0.0,0.0,0.0,0.0,0.0
2016,rest_of_europe,4,0.0,0.0,0.0,0.0,0.0
2016,wallonia,1,0.0007,0.0,0.001,0.85,0.0
2016,wallonia,2,0.0007,0.0,0.001,0.85,0.0
2016,wallonia,3,0.0007,0.0,0.001,0.85,0.0
2016,wallonia,4,0.0007,0.0,0.001,0.85,0.0
2017,belgium,1,0.0007,0.0,0.001,0.85,0.0
2017,belgium,2,0.0007,0.0,0.001,0.85,0.0
2017,belgium,3,0.0007,0.0,0.001,0.85,0.0
2017,belgium,4,0.0007,0.0,0.001,0.85,0.0
2017,brussels,1,0.0007,0.0,0.001,0.85,0.0
2017,brussels,2,0.0007,0.0,0.001,0.85,0.0
2017,brussels,3,0.0007,0.0,0.001,0.85,0.0
2017,brussels,4,0.0007,0.0,0.001,0.85,0.0
2017,flanders,1,0.0007,0.0,0.001,0.85,0.0
2017,flanders,2,0.0007,0.0,0.001,0.85,0.0
2017,flanders,3,0.0007,0.0,0.001,0.85,0.0
2017,flanders,4,0.0007,0.0,0.001,0.85,0.0
2017,rest_of_europe,1,0.0,0.0,0.0,0.0,0.0
2017,rest_of_europe,2,0.0,0.0,0.0,0.0,0.0
2017,rest_of_europe,3,0.0,0.0,0.0,0.0,0.0
2017,rest_of_europe,4,0.0,0.0,0.0,0.0,0.0
2017,wallonia,1,0.0007,0.0,0.001,0.85,0.0
2017,wallonia,2,0.0007,0.0,0.001,0.85,0.0
2017,wallonia,3,0.0007,0.0,0.001,0.85,0.0
2017,wallonia,4,0.0007,0.0,0.001,0.85,0.0
2018,belgium,1,0.0007,0.0,0.001,0.85,0.0
2018,belgium,2,0.0007,0.0,0.001,0.85,0.0
2018,belgium,3,0.0007,0.0,0.001,0.85,0.0
2018,belgium,4,0.0007,0.0,0.001,0.85,0.0
2018,brussels,1,0.0007,0.0,0.001,0.85,0.0
2018,brussels,2,0.0007,0.0,0.001,0.85,0.0
2018,brussels,3,0.0007,0.0,0.001,0.85,0.0
2018,brussels,4,0.0007,0.0,0.001,0.85,0.0
2018,flanders,1,0.0007,0.0,0.001,0.85,0.0
2018,flanders,2,0.0007,0.0,0.001,0.85,0.0
2018,flanders,3,0.0007,0.0,0.001,0.85,0.0
2018,flanders,4,0.0007,0.0,0.001,0.85,0.0
2018,rest_of_europe,1,0.0,0.0,0.0,0.0,0.0
2018,rest_of_europe,2,0.0,0.0,0.0,0.0,0.0
2018,rest_of_europe,3,0.0,0.0,0.0,0.0,0.0
2018,rest_of_europe,4,0.0,0.0,0.0,0.0,0.0
2018,wallonia,1,0.0007,0.0,0.001,0.85,0.0
2018,wallonia,2,0.0007,0.0,0.001,0.85,0.0
2018,wallonia,3,0.0007,0.0,0.001,0.85,0.0
2018,wallonia,4,0.0007,0.0,0.001,0.85,0.0
2019,belgium,1,0.0007,0.0,0.001,0.85,0.0
2019,belgium,2,0.0007,0.0,0.001,0.85,0.0
2019,belgium,3,0.0007,0.0,0.001,0.85,0.0
2019,belgium,4,0.0007,0.0,0.001,0.85,0.0
2019,brussels,1,0.0007,0.0,0.001,0.85,0.0
2019,brussels,2,0.0007,0.0,0.001,0.85,0.0
2019,brussels,3,0.0007,0.0,0.001,0.85,0.0
2019,brussels,4,0.0007,0.0,0.001,0.85,0.0
2019,flanders,1,0.0007,0.0,0.001,0.85,0.0
2019,flanders,2,0.0007,0.0,0.001,0.85,0.0
2019,flanders,3,0.0007,0.0,0.001,0.85,0.0
2019,flanders,4,0.0007,0.0,0.001,0.85,0.0
2019,rest_of_europe,1,0.0,0.0,0.0,0.0,0.0
2019,rest_of_europe,2,0.0,0.0,0.0,0.0,0.0
2019,rest_of_europe,3,0.0,0.0,0.0,0.0,0.0
2019,rest_of_europe,4,0.0,0.0,0.0,0.0,0.0
2019,wallonia,1,0.0007,0.0,0.001,0.85,0.0
2019,wallonia,2,0.0007,0.0,0.001,0.85,0.0
2019,wallonia,3,0.0007,0.0,0.001,0.85,0.0
2019,wallonia,4,0.0007,0.0,0.001,0.85,0.0
2020,belgium,1,0.0007,0.0,0.001,0.85,0.0
2020,belgium,2,0.0007,0.0,0.001,0.85,0.0
2020,belgium,3,0.0007,0.0,0.001,0.85,0.0
2020,belgium,4,0.0007,0.0,0.001,0.85,0.0
2020,brussels,1,0.0007,0.0,0.001,0.85,0.0
2020,brussels,2,0.0007,0.0,0.001,0.85,0.0
2020,brussels,3,0.0007,0.0,0.001,0.85,0.0
2020,brussels,4,0.0007,0.0,0.001,0.85,0.0
2020,flanders,1,0.0007,0.0,0.001,0.85,0.0
2020,flanders,2,0.0007,0.0,0.001,0.85,0.0
2020,flanders,3,0.0007,0.0,0.001,0.85,0.0
2020,flanders,4,0.0007,0.0,0.001,0.85,0.0
2020,rest_of_europe,1,0.0,0.0,0.0,0.0,0.0
2020,rest_of_europe,2,0.0,0.0,0.0,0.0,0.0
2020,rest_of_europe,3,0.0,0.0,0.0,0.0,0.0
2020,rest_of_europe,4,0.0,0.0,0.0,0.0,0.0
2020,wallonia,1,0.0007,0.0,0.001,0.85,0.0
2020,wallonia,2,0.0007,0.0,0.001,0.85,0.0
2020,wallonia,3,0.0007,0.0,0.001,0.85,0.0
2020,wallonia,4,0.0007,0.0,0.001,0.85,0.0
2021,belgium,1,0.0007482840011140804,0.0,0.0010298492852763707,0.8500487335269818,0.0
2021,belgium,2,0.0011986011099500635,0.0,0.0010907661940036577,0.850085442346955,0.0
2021,belgium,3,0.0025245348193004575,0.0,0.0012430584658218754,0.8501165122913024,0.0
2021,belgium,4,0.0032000104825544323,0.0,0.0016085599181855982,0.8501165122913024,0.0
2021,brussels,1,0.0007482840011140804,0.0,0.0010298492852763707,0.8500487335269818,0.0
2021,brussels,2,0.0011986011099500635,0.0,0.0010907661940036577,0.850085442346955,0.0
2021,brussels,3,0.0025245348193004575,0.0,0.0012430584658218754,0.8501165122913024,0.0
2021,brussels,4,0.0032000104825544323,0.0,0.0016085599181855982,0.8501165122913024,0.0
2021,flanders,1,0.0007482840011140804,0.0,0.0010298492852763707,0.8500487335269818,0.0
2021,flanders,2,0.0011986011099500635,0.0,0.0010907661940036577,0.850085442346955,0.0
2021,flanders,3,0.0025245348193004575,0.0,0.0012430584658218754,0.8501165122913024,0.0
2021,flanders,4,0.0032000104825544323,0.0,0.0016085599181855982,0.8501165122913024,0.0
2021,rest_of_europe,1,5.003523431510922e-05,0.0,3.0458454363643547e-05,0.00056652725116377,0.0
2021,rest_of_europe,2,0.0005003523431510922,0.0,9.137536309093064e-05,0.0007456786643351172,0.0
2021,rest_of_europe,3,0.0018262860525014863,0.0,0.00024366763490914838,0.0007767486086824138,0.0
2021,rest_of_europe,4,0.002501761715755461,0.0,0.0006091690872728709,0.0007767486086824138,0.0
2021,wallonia,1,0.0007482840011140804,0.0,0.0010298492852763707,0.8500487335269818,0.0
2021,wallonia,2,0.0011986011099500635,0.0,0.0010907661940036577,0.850085442346955,0.0
2021,wallonia,3,0.0025245348193004575,0.0,0.0012430584658218754,0.8501165122913024,0.0
2021,wallonia,4,0.0032000104825544323,0.0,0.0016085599181855982,0.8501165122913024,0.0
2022,belgium,1,0.0009158895868840621,0.0,0.0010778347185941804,0.8501270770915823,0.0
2022,belgium,2,0.002929367599274279,0.0,0.0012366810830720994,0.8502370423244753,0.0
2022,belgium,3,0.008857941746867694,0.0,0.001633796994266897,0.8503232395333754,0.0
2022,belgium,4,0.011878158765453018,0.0,0.002586875181134411,0.8503232395333754,0.0
2022,brussels,1,0.0009158895868840621,0.0,0.0010778347185941804,0.8501270770915823,0.0
2022,brussels,2,0.002929367599274279,0.0,0.0012366810830720994,0.8502370423244753,0.0
2022,brussels,3,0.008857941746867694,0.0,0.001633796994266897,0.8503232395333754,0.0
2022,brussels,4,0.011878158765453018,0.0,0.002586875181134411,0.8503232395333754,0.0
2022,flanders,1,0.0009158895868840621,0.0,0.0010778347185941804,0.8501270770915823,0.0
2022,flanders,2,0.002929367599274279,0.0,0.0012366810830720994,0.8502370423244753,0.0
2022,flanders,3,0.008857941746867694,0.0,0.001633796994266897,0.8503232395333754,0.0
2022,flanders,4,0.011878158765453018,0.0,0.002586875181134411,0.8503232395333754,0.0
2022,rest_of_europe,1,0.00022371977915446853,0.0,7.942318223895952e-05,0.001477271189644647,0.0
2022,rest_of_europe,2,0.002237197791544685,0.0,0.00023826954671687855,0.002068733013602774,0.0
2022,rest_of_europe,3,0.008165771939138101,0.0,0.0006353854579116762,0.0021549302225028896,0.0
2022,rest_of_europe,4,0.011185988957723426,0.0,0.0015884636447791904,0.0021549302225028896,0.0
2022,wallonia,1,0.0009158895868840621,0.0,0.0010778347185941804,0.8501270770915823,0.0
2022,wallonia,2,0.002929367599274279,0.0,0.0012366810830720994,0.8502370423244753,0.0
2022,wallonia,3,0.008857941746867694,0.0,0.001633796994266897,0.8503232395333754,0.0
2022,wallonia,4,0.011878158765453018,0.0,0.002586875181134411,0.8503232395333754,0.0
2023,belgium,1,0.001481835917882428,0.0,0.0011549010074817176,0.8502528996040518,0.0
2023,belgium,2,0.008773569867044965,0.0,0.0014710255125464475,0.8505055755613454,0.0
2023,belgium,3,0.03024367538402355,0.0,0.0022613367752082718,0.8506894212200166,0.0
2023,belgium,4,0.041181276307767356,0.0,0.004158083805596651,0.8506894212200166,0.0
2023,brussels,1,0.001481835917882428,0.0,0.0011549010074817176,0.8502528996040518,0.0
2023,brussels,2,0.008773569867044965,0.0,0.0014710255125464475,0.8505055755613454,0.0
2023,brussels,3,0.03024367538402355,0.0,0.0022613367752082718,0.8506894212200166,0.0
2023,brussels,4,0.041181276307767356,0.0,0.004158083805596651,0.8506894212200166,0.0
2023,flanders,1,0.001481835917882428,0.0,0.0011549010074817176,0.8502528996040518,0.0
2023,flanders,2,0.008773569867044965,0.0,0.0014710255125464475,0.8505055755613454,0.0
2023,flanders,3,0.03024367538402355,0.0,0.0022613367752082718,0.8506894212200166,0.0
2023,flanders,4,0.041181276307767356,0.0,0.004158083805596651,0.8506894212200166,0.0
2023,rest_of_europe,1,0.0008101926610180599,0.0,0.0001580622525323649,0.0029399578971019873,0.0
2023,rest_of_europe,2,0.0081019266101806,0.0,0.0004741867575970947,0.004412295808105959,0.0
2023,rest_of_europe,3,0.029572032127159184,0.0,0.0012644980202589193,0.00459614146677704,0.0
2023,rest_of_europe,4,0.04050963305090299,0.0,0.003161245050647298,0.00459614146677704,0.0
2023,wallonia,1,0.001481835917882428,0.0,0.0011549010074817176,0.8502528996040518,0.0
2023,wallonia,2,0.008773569867044965,0.0,0.0014710255125464475,0.8505055755613454,0.0
2023,wallonia,3,0.03024367538402355,0.0,0.0022613367752082718,0.8506894212200166,0.0
2023,wallonia,4,0.041181276307767356,0.0,0.004158083805596651,0.8506894212200166,0.0
2024,belgium,1,0.003227701672609832,0.0,0.0012784799280069607,0.8504546611069501,0.0
2024,belgium,2,0.026802121417157484,0.0,0.0018468063116946357,0.8509798283895105,0.0
2024,belgium,3,0.09621569066499223,0.0,0.0032676222709138235,0.8513361296220597,0.0
2024,belgium,4,0.1315773202818137,0.0,0.006677580573039873,0.8513361296220597,0.0
2024,brussels,1,0.003227701672609832,0.0,0.0012784799280069607,0.8504546611069501,0.0
2024,brussels,2,0.026802121417157484,0.0,0.0018468063116946357,0.8509798283895105,0.0
2024,brussels,3,0.09621569066499223,0.0,0.0032676222709138235,0.8513361296220597,0.0
2024,brussels,4,0.1315773202818137,0.0,0.006677580573039873,0.8513361296220597,0.0
2024,flanders,1,0.003227701672609832,0.0,0.0012784799280069607,0.8504546611069501,0.0
2024,flanders,2,0.026802121417157484,0.0,0.0018468063116946357,0.8509798283895105,0.0
2024,flanders,3,0.09621569066499223,0.0,0.0032676222709138235,0.8513361296220597,0.0
2024,flanders,4,0.1315773202818137,0.0,0.006677580573039873,0.8513361296220597,0.0
2024,rest_of_europe,1,0.0026193799716164056,0.0,0.0002841631918438375,0.005285435368295378,0.0
2024,rest_of_europe,2,0.02619379971616406,0.0,0.0008524895755315125,0.00855122958118269,0.0
2024,rest_of_europe,3,0.09560736896399881,0.0,0.0022733055347507,0.008907530813731968,0.0
2024,rest_of_europe,4,0.13096899858082028,0.0,0.00568326383687675,0.008907530813731968,0.0
2024,wallonia,1,0.003227701672609832,0.0,0.0012784799280069607,0.8504546611069501,0.0
2024,wallonia,2,0.026802121417157484,0.0,0.0018468063116946357,0.8509798283895105,0.0
2024,wallonia,3,0.09621569066499223,0.0,0.0032676222709138235,0.8513361296220597,0.0
2024,wallonia,4,0.1315773202818137,0.0,0.006677580573039873,0.8513361296220597,0.0
2025,belgium,1,0.007396904186225546,0.0,0.0014761506493270694,0.8507773888152278,0.0
2025,belgium,2,0.06985507794376951,0.0,0.0024478866683619047,0.8518130324634463,0.0
2025,belgium,3,0.2537597006743156,0.0,0.004877226715948994,0.8524723169956087,0.0
2025,belgium,4,0.3474469613106315,0.0,0.010707642830158005,0.8524723169956087,0.0
2025,brussels,1,0.007396904186225546,0.0,0.0014761506493270694,0.8507773888152278,0.0
2025,brussels,2,0.06985507794376951,0.0,0.0024478866683619047,0.8518130324634463,0.0
2025,brussels,3,0.2537597006743156,0.0,0.004877226715948994,0.8524723169956087,0.0
2025,brussels,4,0.3474469613106315,0.0,0.010707642830158005,0.8524723169956087,0.0
2025,flanders,1,0.007396904186225546,0.0,0.0014761506493270694,0.8507773888152278,0.0
2025,flanders,2,0.06985507794376951,0.0,0.0024478866683619047,0.8518130324634463,0.0
2025,flanders,3,0.2537597006743156,0.0,0.004877226715948994,0.8524723169956087,0.0
2025,flanders,4,0.3474469613106315,0.0,0.010707642830158005,0.8524723169956087,0.0
2025,rest_of_europe,1,0.006939797084171551,0.0,0.00048586800951741776,0.00903714497702397,0.0
2025,rest_of_europe,2,0.0693979708417155,0.0,0.0014576040285522532,0.015822828771895628,0.0
2025,rest_of_europe,3,0.2533025935722616,0.0,0.003886944076139342,0.016482113304057945,0.0
2025,rest_of_europe,4,0.34698985420857753,0.0,0.009717360190348355,0.016482113304057945,0.0
2025,wallonia,1,0.007396904186225546,0.0,0.0014761506493270694,0.8507773888152278,0.0
2025,wallonia,2,0.06985507794376951,0.0,0.0024478866683619047,0.8518130324634463,0.0
2025,wallonia,3,0.2537597006743156,0.0,0.004877226715948994,0.8524723169956087,0.0
2025,wallonia,4,0.3474469613106315,0.0,0.010707642830158005,0.8524723169956087,0.0
2026,belgium,1,0.013264495813774447,0.0,0.0017910783564238759,0.8512915565002839,0.0
2026,belgium,2,0.13044632205623044,0.0,0.0034055239817787244,0.8532635127639695,0.0
2026,belgium,3,0.4754816993256841,0.0,0.007441638045165846,0.8544502446781401,0.0
2026,belgium,4,0.6512544386893682,0.0,0.01712831179729494,0.8544502446781401,0.0
2026,brussels,1,0.013264495813774447,0.0,0.0017910783564238759,0.8512915565002839,0.0
2026,brussels,2,0.13044632205623044,0.0,0.0034055239817787244,0.8532635127639695,0.0
2026,brussels,3,0.4754816993256841,0.0,0.007441638045165846,0.8544502446781401,0.0
2026,brussels,4,0.6512544386893682,0.0,0.01712831179729494,0.8544502446781401,0.0
2026,flanders,1,0.013264495813774447,0.0,0.0017910783564238759,0.8512915565002839,0.0
2026,flanders,2,0.13044632205623044,0.0,0.0034055239817787244,0.8532635127639695,0.0
2026,flanders,3,0.4754816993256841,0.0,0.007441638045165846,0.8544502446781401,0.0
2026,flanders,4,0.6512544386893682,0.0,0.01712831179729494,0.8544502446781401,0.0
2026,rest_of_europe,1,0.013020202915828442,0.0,0.0008072228126774243,0.015014344315800093,0.0
2026,rest_of_europe,2,0.13020202915828444,0.0,0.002421668438032273,0.028481565940097264,0.0
2026,rest_of_europe,3,0.47523740642773815,0.0,0.006457782501419394,0.029668297854267986,0.0
2026,rest_of_europe,4,0.6510101457914221,0.0,0.016144456253548486,0.029668297854267986,0.0
2026,wallonia,1,0.013264495813774447,0.0,0.0017910783564238759,0.8512915565002839,0.0
2026,wallonia,2,0.13044632205623044,0.0,0.0034055239817787244,0.8532635127639695,0.0
2026,wallonia,3,0.4754816993256841,0.0,0.007441638045165846,0.8544502446781401,0.0
2026,wallonia,4,0.6512544386893682,0.0,0.01712831179729494,0.8544502446781401,0.0
2027,belgium,1,0.017433698327390165,0.0,0.002289649720311295,0.8521055505637736,0.0
2027,belgium,2,0.1734992785828425,0.0,0.004921587925028223,0.8557487355196624,0.0
2027,belgium,3,0.6330257093350077,0.0,0.011501433436820543,0.8578391847995396,0.0
2027,belgium,4,0.8671240797181862,0.0,0.027293062665122117,0.8578391847995396,0.0
2027,brussels,1,0.017433698327390165,0.0,0.002289649720311295,0.8521055505637736,0.0
2027,brussels,2,0.1734992785828425,0.0,0.004921587925028223,0.8557487355196624,0.0
2027,brussels,3,0.6330257093350077,0.0,0.011501433436820543,0.8578391847995396,0.0
2027,brussels,4,0.8671240797181862,0.0,0.027293062665122117,0.8578391847995396,0.0
2027,flanders,1,0.017433698327390165,0.0,0.002289649720311295,0.8521055505637736,0.0
2027,flanders,2,0.1734992785828425,0.0,0.004921587925028223,0.8557487355196624,0.0
2027,flanders,3,0.6330257093350077,0.0,0.011501433436820543,0.8578391847995396,0.0
2027,flanders,4,0.8671240797181862,0.0,0.027293062665122117,0.8578391847995396,0.0
2027,rest_of_europe,1,0.01734062002838359,0.0,0.0013159691023584643,0.024477025303867438,0.0
2027,rest_of_europe,2,0.1734062002838359,0.0,0.0039479073070753925,0.05017078271705337,0.0
2027,rest_of_europe,3,0.6329326310360011,0.0,0.010527752818867715,0.0522612319969306,0.0
2027,rest_of_europe,4,0.8670310014191795,0.0,0.026319382047169285,0.0522612319969306,0.0
2027,wallonia,1,0.017433698327390165,0.0,0.002289649720311295,0.8521055505637736,0.0
2027,wallonia,2,0.1734992785828425,0.0,0.004921587925028223,0.8557487355196624,0.0
2027,wallonia,3,0.6330257093350077,0.0,0.011501433436820543,0.8578391847995396,0.0
2027,wallonia,4,0.8671240797181862,0.0,0.027293062665122117,0.8578391847995396,0.0
2028,belgium,1,0.01917956408211757,0.0,0.0030710884429526663,0.8533813688864533,0.0
2028,belgium,2,0.19152783013295502,0.0,0.0072977995510193315,0.859893032232858,0.0
2028,belgium,3,0.6989977246159763,0.0,0.017864577321185997,0.8634904984993518,0.0
2028,belgium,4,0.9575201236922325,0.0,0.043224843969585994,0.8634904984993518,0.0
2028,brussels,1,0.01917956408211757,0.0,0.0030710884429526663,0.8533813688864533,0.0
2028,brussels,2,0.19152783013295502,0.0,0.0072977995510193315,0.859893032232858,0.0
2028,brussels,3,0.6989977246159763,0.0,0.017864577321185997,0.8634904984993518,0.0
2028,brussels,4,0.9575201236922325,0.0,0.043224843969585994,0.8634904984993518,0.0
2028,flanders,1,0.01917956408211757,0.0,0.0030710884429526663,0.8533813688864533,0.0
2028,flanders,2,0.19152783013295502,0.0,0.0072977995510193315,0.859893032232858,0.0
2028,flanders,3,0.6989977246159763,0.0,0.017864577321185997,0.8634904984993518,0.0
2028,flanders,4,0.9575201236922325,0.0,0.043224843969585994,0.8634904984993518,0.0
2028,rest_of_europe,1,0.019149807338981938,0.0,0.002113355554033333,0.039308413305019996,0.0
2028,rest_of_europe,2,0.1914980733898194,0.0,0.006340066662099998,0.08633919039585175,0.0
2028,rest_of_europe,3,0.6989679678728407,0.0,0.016906844432266664,0.08993665666234557,0.0
2028,rest_of_europe,4,0.9574903669490968,0.0,0.04226711108066666,0.08993665666234557,0.0
2028,wallonia,1,0.01917956408211757,0.0,0.0030710884429526663,0.8533813688864533,0.0
2028,wallonia,2,0.19152783013295502,0.0,0.0072977995510193315,0.859893032232858,0.0
2028,wallonia,3,0.6989977246159763,0.0,0.017864577321185997,0.8634904984993518,0.0
2028,wallonia,4,0.9575201236922325,0.0,0.043224843969585994,0.8634904984993518,0.0
2029,belgium,1,0.019745510413115935,0.0,0.0042768613931813085,0.8553499777847858,0.0
2029,belgium,2,0.1973720324007257,0.0,0.010964333624163568,0.8665012784449486,0.0
2029,belgium,3,0.7203834582531321,0.0,0.027683014201619224,0.8725017433340209,0.0
2029,belgium,4,0.9868232412345468,0.0,0.06780784758751279,0.8725017433340209,0.0
2029,brussels,1,0.019745510413115935,0.0,0.0042768613931813085,0.8553499777847858,0.0
2029,brussels,2,0.1973720324007257,0.0,0.010964333624163568,0.8665012784449486,0.0
2029,brussels,3,0.7203834582531321,0.0,0.027683014201619224,0.8725017433340209,0.0
2029,brussels,4,0.9868232412345468,0.0,0.06780784758751279,0.8725017433340209,0.0
2029,flanders,1,0.019745510413115935,0.0,0.0042768613931813085,0.8553499777847858,0.0
2029,flanders,2,0.1973720324007257,0.0,0.010964333624163568,0.8665012784449486,0.0
2029,flanders,3,0.7203834582531321,0.0,0.027683014201619224,0.8725017433340209,0.0
2029,flanders,4,0.9868232412345468,0.0,0.06780784758751279,0.8725017433340209,0.0
2029,rest_of_europe,1,0.019736280220845528,0.0,0.0033437361154911305,0.06219349174813503,0.0
2029,rest_of_europe,2,0.19736280220845528,0.0,0.010031208346473391,0.14401115733773331,0.0
2029,rest_of_europe,3,0.7203742280608617,0.0,0.026749888923929044,0.15001162222680553,0.0
2029,rest_of_europe,4,0.9868140110422764,0.0,0.06687472230982261,0.15001162222680553,0.0
2029,wallonia,1,0.019745510413115935,0.0,0.0042768613931813085,0.8553499777847858,0.0
2029,wallonia,2,0.1973720324007257,0.0,0.010964333624163568,0.8665012784449486,0.0
2029,wallonia,3,0.7203834582531321,0.0,0.027683014201619224,0.8725017433340209,0.0
2029,wallonia,4,0.9868232412345468,0.0,0.06780784758751279,0.8725017433340209,0.0
2030,belgium,1,0.019913115998885917,0.0,0.006093181395156091,0.8583153981961732,0.0
2030,belgium,2,0.1991027988900499,0.0,0.0164874291403726,0.8763211862995189,0.0
2030,belgium,3,0.7267168651806993,0.0,0.042473048503413886,0.8858925267720713,0.0
2030,belgium,4,0.9955013895174454,0.0,0.10483853497471295,0.8858925267720713,0.0
2030,brussels,1,0.019913115998885917,0.0,0.006093181395156091,0.8583153981961732,0.0
2030,brussels,2,0.1991027988900499,0.0,0.0164874291403726,0.8763211862995189,0.0
2030,brussels,3,0.7267168651806993,0.0,0.042473048503413886,0.8858925267720713,0.0
2030,brussels,4,0.9955013895174454,0.0,0.10483853497471295,0.8858925267720713,0.0
2030,flanders,1,0.019913115998885917,0.0,0.006093181395156091,0.8583153981961732,0.0
2030,flanders,2,0.1991027988900499,0.0,0.0164874291403726,0.8763211862995189,0.0
2030,flanders,3,0.7267168651806993,0.0,0.042473048503413886,0.8858925267720713,0.0
2030,flanders,4,0.9955013895174454,0.0,0.10483853497471295,0.8858925267720713,0.0
2030,rest_of_europe,1,0.019909964765684886,0.0,0.005197123872608256,0.09666650403051356,0.0
2030,rest_of_europe,2,0.19909964765684887,0.0,0.015591371617824767,0.22971217134125632,0.0
2030,rest_of_europe,3,0.7267137139474984,0.0,0.04157699098086605,0.23928351181380866,0.0
2030,rest_of_europe,4,0.9954982382842443,0.0,0.10394247745216512,0.23928351181380866,0.0
2030,wallonia,1,0.019913115998885917,0.0,0.006093181395156091,0.8583153981961732,0.0
2030,wallonia,2,0.1991027988900499,0.0,0.0164874291403726,0.8763211862995189,0.0
2030,wallonia,3,0.7267168651806993,0.0,0.042473048503413886,0.8858925267720713,0.0
2030,wallonia,4,0.9955013895174454,0.0,0.10483853497471295,0.8858925267720713,0.0
2031,belgium,1,0.019961399999999997,0.0,0.008732436885065753,0.8626243867511277,0.0
2031,belgium,2,0.19960139999999996,0.0,0.024512920323975455,0.8894849629361055,0.0
2031,belgium,3,0.7285413999999998,0.0,0.06396412892124971,0.9038431312765075,0.0
2031,belgium,4,0.9980013999999998,0.0,0.1586470295547079,0.9038431312765075,0.0
2031,brussels,1,0.019961399999999997,0.0,0.008732436885065753,0.8626243867511277,0.0
2031,brussels,2,0.19960139999999996,0.0,0.024512920323975455,0.8894849629361055,0.0
2031,brussels,3,0.7285413999999998,0.0,0.06396412892124971,0.9038431312765075,0.0
2031,brussels,4,0.9980013999999998,0.0,0.1586470295547079,0.9038431312765075,0.0
2031,flanders,1,0.019961399999999997,0.0,0.008732436885065753,0.8626243867511277,0.0
2031,flanders,2,0.19960139999999996,0.0,0.024512920323975455,0.8894849629361055,0.0
2031,flanders,3,0.7285413999999998,0.0,0.06396412892124971,0.9038431312765075,0.0
2031,flanders,4,0.9980013999999998,0.0,0.1586470295547079,0.9038431312765075,0.0
2031,rest_of_europe,1,0.019959999999999995,0.0,0.00789024171945485,0.14675849598186022,0.0
2031,rest_of_europe,2,0.19959999999999997,0.0,0.02367072515836455,0.3445960401696482,0.0
2031,rest_of_europe,3,0.7285399999999999,0.0,0.0631219337556388,0.3589542085100502,0.0
2031,rest_of_europe,4,0.9979999999999998,0.0,0.157804834389097,0.3589542085100502,0.0
2031,wallonia,1,0.019961399999999997,0.0,0.008732436885065753,0.8626243867511277,0.0
2031,wallonia,2,0.19960139999999996,0.0,0.024512920323975455,0.8894849629361055,0.0
2031,wallonia,3,0.7285413999999998,0.0,0.06396412892124971,0.9038431312765075,0.0
2031,wallonia,4,0.9980013999999998,0.0,0.1586470295547079,0.9038431312765075,0.0
2032,belgium,1,0.02,0.0,0.012373505108244583,0.8685689879318279,0.0
2032,belgium,2,0.2,0.0,0.03558474002302944,0.90489,0.0
2032,belgium,3,0.73,0.0,0.0936128273099916,0.92485,0.0
2032,belgium,4,1.0,0.0,0.23288023679870076,0.92485,0.0
2032,brussels,1,0.02,0.0,0.012373505108244583,0.8685689879318279,0.0
2032,brussels,2,0.2,0.0,0.03558474002302944,0.90489,0.0
2032,brussels,3,0.73,0.0,0.0936128273099916,0.92485,0.0
2032,brussels,4,1.0,0.0,0.23288023679870076,0.92485,0.0
2032,flanders,1,0.02,0.0,0.012373505108244583,0.8685689879318279,0.0
2032,flanders,2,0.2,0.0,0.03558474002302944,0.90489,0.0
2032,flanders,3,0.73,0.0,0.0936128273099916,0.92485,0.0
2032,flanders,4,1.0,0.0,0.23288023679870076,0.92485,0.0
2032,rest_of_europe,1,0.02,0.0,0.011605617457392432,0.21586448470749922,0.0
2032,rest_of_europe,2,0.2,0.0,0.03481685237217729,0.47903999999999985,0.0
2032,rest_of_europe,3,0.73,0.0,0.09284493965913945,0.4989999999999999,0.0
2032,rest_of_europe,4,1.0,0.0,0.23211234914784862,0.4989999999999999,0.0
2032,wallonia,1,0.02,0.0,0.012373505108244583,0.8685689879318279,0.0
2032,wallonia,2,0.2,0.0,0.03558474002302944,0.90489,0.0
2032,wallonia,3,0.73,0.0,0.0936128273099916,0.92485,0.0
2032,wallonia,4,1.0,0.0,0.23288023679870076,0.92485,0.0
2033,belgium,1,0.01997913250753972,0.0,0.0170527459944385,0.8762085648888792,0.0
2033,belgium,2,0.1997845134068739,0.0,0.04981345210553748,0.9202950370638944,0.0
2033,belgium,3,0.7292114682771356,0.0,0.13171521738328493,0.9458568687234924,0.0
2033,belgium,4,0.9989195396261368,0.0,0.3282794540498788,0.9458568687234924,0.0
2033,brussels,1,0.01997913250753972,0.0,0.0170527459944385,0.8762085648888792,0.0
2033,brussels,2,0.1997845134068739,0.0,0.04981345210553748,0.9202950370638944,0.0
2033,brussels,3,0.7292114682771356,0.0,0.13171521738328493,0.9458568687234924,0.0
2033,brussels,4,0.9989195396261368,0.0,0.3282794540498788,0.9458568687234924,0.0
2033,flanders,1,0.01997913250753972,0.0,0.0170527459944385,0.8762085648888792,0.0
2033,flanders,2,0.1997845134068739,0.0,0.04981345210553748,0.9202950370638944,0.0
2033,flanders,3,0.7292114682771356,0.0,0.13171521738328493,0.9458568687234924,0.0
2033,flanders,4,0.9989195396261368,0.0,0.3282794540498788,0.9458568687234924,0.0
2033,rest_of_europe,1,0.019978375655481575,0.0,0.016380353055549492,0.30467456683322053,0.0
2033,rest_of_europe,2,0.19978375655481573,0.0,0.04914105916664847,0.6134839598303514,0.0
2033,rest_of_europe,3,0.7292107114250774,0.0,0.13104282444439594,0.6390457914899494,0.0
2033,rest_of_europe,4,0.9989187827740786,0.0,0.3276070611109898,0.6390457914899494,0.0
2033,wallonia,1,0.01997913250753972,0.0,0.0170527459944385,0.8762085648888792,0.0
2033,wallonia,2,0.1997845134068739,0.0,0.04981345210553748,0.9202950370638944,0.0
2033,wallonia,3,0.7292114682771356,0.0,0.13171521738328493,0.9458568687234924,0.0
2033,wallonia,4,0.9989195396261368,0.0,0.3282794540498788,0.9458568687234924,0.0
2034,belgium,1,0.01998025346537268,0.0,0.02254720433280238,0.8851791091147794,0.0
2034,belgium,2,0.19979608889371894,0.0,0.06652109072627661,0.933458813700481,0.0
2034,belgium,3,0.7292538265438495,0.0,0.17645580670996225,0.9638074732279287,0.0
2034,belgium,4,0.9989775796863689,0.0,0.4402991250708077,0.9638074732279287,0.0
2034,brussels,1,0.01998025346537268,0.0,0.02254720433280238,0.8851791091147794,0.0
2034,brussels,2,0.19979608889371894,0.0,0.06652109072627661,0.933458813700481,0.0
2034,brussels,3,0.7292538265438495,0.0,0.17645580670996225,0.9638074732279287,0.0
2034,brussels,4,0.9989775796863689,0.0,0.4402991250708077,0.9638074732279287,0.0
2034,flanders,1,0.01998025346537268,0.0,0.02254720433280238,0.8851791091147794,0.0
2034,flanders,2,0.19979608889371894,0.0,0.06652109072627661,0.933458813700481,0.0
2034,flanders,3,0.7292538265438495,0.0,0.17645580670996225,0.9638074732279287,0.0
2034,flanders,4,0.9989775796863689,0.0,0.4402991250708077,0.9638074732279287,0.0
2034,rest_of_europe,1,0.01997953726981625,0.0,0.02198694319673712,0.4089571434593105,0.0
2034,rest_of_europe,2,0.1997953726981625,0.0,0.06596082959021136,0.7283678286587436,0.0
2034,rest_of_europe,3,0.7292531103482931,0.0,0.17589554557389697,0.7587164881861913,0.0
2034,rest_of_europe,4,0.9989768634908125,0.0,0.43973886393474243,0.7587164881861913,0.0
2034,wallonia,1,0.01998025346537268,0.0,0.02254720433280238,0.8851791091147794,0.0
2034,wallonia,2,0.19979608889371894,0.0,0.06652109072627661,0.933458813700481,0.0
2034,wallonia,3,0.7292538265438495,0.0,0.17645580670996225,0.9638074732279287,0.0
2034,wallonia,4,0.9989775796863689,0.0,0.4402991250708077,0.9638074732279287,0.0
2035,belgium,1,0.019980572800095506,0.0,0.028354795667197626,0.8946608908852206,0.0
2035,belgium,2,0.1997993864797427,0.0,0.08418090927372339,0.9432787215550513,0.0
2035,belgium,3,0.7292658934253705,0.0,0.2237461932900378,0.9771982566659791,0.0
2035,belgium,4,0.9989941139448413,0.0,0.5587028749291924,0.9771982566659791,0.0
2035,brussels,1,0.019980572800095506,0.0,0.028354795667197626,0.8946608908852206,0.0
2035,brussels,2,0.1997993864797427,0.0,0.08418090927372339,0.9432787215550513,0.0
2035,brussels,3,0.7292658934253705,0.0,0.2237461932900378,0.9771982566659791,0.0
2035,brussels,4,0.9989941139448413,0.0,0.5587028749291924,0.9771982566659791,0.0
2035,flanders,1,0.019980572800095506,0.0,0.028354795667197626,0.8946608908852206,0.0
2035,flanders,2,0.1997993864797427,0.0,0.08418090927372339,0.9432787215550513,0.0
2035,flanders,3,0.7292658934253705,0.0,0.2237461932900378,0.9771982566659791,0.0
2035,flanders,4,0.9989941139448413,0.0,0.5587028749291924,0.9771982566659791,0.0
2035,rest_of_europe,1,0.019979868186627465,0.0,0.027913056803262882,0.5191828565406896,0.0
2035,rest_of_europe,2,0.19979868186627467,0.0,0.08373917040978864,0.8140688426622664,0.0
2035,rest_of_europe,3,0.7292651888119025,0.0,0.22330445442610306,0.8479883777731942,0.0
2035,rest_of_europe,4,0.9989934093313733,0.0,0.5582611360652576,0.8479883777731942,0.0
2035,wallonia,1,0.019980572800095506,0.0,0.028354795667197626,0.8946608908852206,0.0
2035,wallonia,2,0.1997993864797427,0.0,0.08418090927372339,0.9432787215550513,0.0
2035,wallonia,3,0.7292658934253705,0.0,0.2237461932900378,0.9771982566659791,0.0
2035,wallonia,4,0.9989941139448413,0.0,0.5587028749291924,0.9771982566659791,0.0
2036,belgium,1,0.019980663766249553,0.0,0.03384925400556149,0.9036314351111209,0.0
2036,belgium,2,0.1998003258348982,0.0,0.10088854789446249,0.9498869677671419,0.0
2036,belgium,3,0.7292693308148082,0.0,0.268486782616715,0.9862095015006481,0.0
2036,belgium,4,0.9989988239177812,0.0,0.6707225459501209,0.9862095015006481,0.0
2036,brussels,1,0.019980663766249553,0.0,0.03384925400556149,0.9036314351111209,0.0
2036,brussels,2,0.1998003258348982,0.0,0.10088854789446249,0.9498869677671419,0.0
2036,brussels,3,0.7292693308148082,0.0,0.268486782616715,0.9862095015006481,0.0
2036,brussels,4,0.9989988239177812,0.0,0.6707225459501209,0.9862095015006481,0.0
2036,flanders,1,0.019980663766249553,0.0,0.03384925400556149,0.9036314351111209,0.0
2036,flanders,2,0.1998003258348982,0.0,0.10088854789446249,0.9498869677671419,0.0
2036,flanders,3,0.7292693308148082,0.0,0.268486782616715,0.9862095015006481,0.0
2036,flanders,4,0.9989988239177812,0.0,0.6707225459501209,0.9862095015006481,0.0
2036,rest_of_europe,1,0.019979962452072075,0.0,0.0335196469444505,0.6234654331667793,0.0
2036,rest_of_europe,2,0.19979962452072075,0.0,0.1005589408333515,0.8717408096041479,0.0
2036,rest_of_europe,3,0.7292686295006306,0.0,0.268157175555604,0.9080633433376541,0.0
2036,rest_of_europe,4,0.9989981226036037,0.0,0.67039293888901,0.9080633433376541,0.0
2036,wallonia,1,0.019980663766249553,0.0,0.03384925400556149,0.9036314351111209,0.0
2036,wallonia,2,0.1998003258348982,0.0,0.10088854789446249,0.9498869677671419,0.0
2036,wallonia,3,0.7292693308148082,0.0,0.268486782616715,0.9862095015006481,0.0
2036,wallonia,4,0.9989988239177812,0.0,0.6707225459501209,0.9862095015006481,0.0
2037,belgium,1,0.019980689678606667,0.0,0.038528494891755395,0.9112710120681721,0.0
2037,belgium,2,0.1998005934169072,0.0,0.11511725997697049,0.9540312644803376,0.0
2037,belgium,3,0.729270309979681,0.0,0.30658917269000824,0.9918608152004604,0.0
2037,belgium,4,0.9990001655871318,0.0,0.7661217632012988,0.9918608152004604,0.0
2037,brussels,1,0.019980689678606667,0.0,0.038528494891755395,0.9112710120681721,0.0
2037,brussels,2,0.1998005934169072,0.0,0.11511725997697049,0.9540312644803376,0.0
2037,brussels,3,0.729270309979681,0.0,0.30658917269000824,0.9918608152004604,0.0
2037,brussels,4,0.9990001655871318,0.0,0.7661217632012988,0.9918608152004604,0.0
2037,flanders,1,0.019980689678606667,0.0,0.038528494891755395,0.9112710120681721,0.0
2037,flanders,2,0.1998005934169072,0.0,0.11511725997697049,0.9540312644803376,0.0
2037,flanders,3,0.729270309979681,0.0,0.30658917269000824,0.9918608152004604,0.0
2037,flanders,4,0.9990001655871318,0.0,0.7661217632012988,0.9918608152004604,0.0
2037,rest_of_europe,1,0.019979989304255614,0.0,0.03829438254260755,0.7122755152925004,0.0
2037,rest_of_europe,2,0.19979989304255616,0.0,0.11488314762782263,0.9079092172829464,0.0
2037,rest_of_europe,3,0.7292696096053299,0.0,0.3063550603408604,0.9457387680030692,0.0
2037,rest_of_europe,4,0.9989994652127807,0.0,0.7658876508521509,0.9457387680030692,0.0
2037,wallonia,1,0.019980689678606667,0.0,0.038528494891755395,0.9112710120681721,0.0
2037,wallonia,2,0.1998005934169072,0.0,0.11511725997697049,0.9540312644803376,0.0
2037,wallonia,3,0.729270309979681,0.0,0.30658917269000824,0.9918608152004604,0.0
2037,wallonia,4,0.9990001655871318,0.0,0.7661217632012988,0.9918608152004604,0.0
2038,belgium,1,0.019980697059894248,0.0,0.04216956311493424,0.9172156132488722,0.0
2038,belgium,2,0.19980066963921886,0.0,0.12618907967602452,0.9565164872360304,0.0
2038,belgium,3,0.7292705889005634,0.0,0.33623787107875025,0.9952497553218598,0.0
2038,belgium,4,0.9990005477695504,0.0,0.8403549704452918,0.9952497553218598,0.0
2038,brussels,1,0.019980697059894248,0.0,0.04216956311493424,0.9172156132488722,0.0
2038,brussels,2,0.19980066963921886,0.0,0.12618907967602452,0.9565164872360304,0.0
2038,brussels,3,0.7292705889005634,0.0,0.33623787107875025,0.9952497553218598,0.0
2038,brussels,4,0.9990005477695504,0.0,0.8403549704452918,0.9952497553218598,0.0
2038,flanders,1,0.019980697059894248,0.0,0.04216956311493424,0.9172156132488722,0.0
2038,flanders,2,0.19980066963921886,0.0,0.12618907967602452,0.9565164872360304,0.0
2038,flanders,3,0.7292705889005634,0.0,0.33623787107875025,0.9952497553218598,0.0
2038,flanders,4,0.9990005477695504,0.0,0.8403549704452918,0.9952497553218598,0.0
2038,rest_of_europe,1,0.019979996953258288,0.0,0.042009758280545144,0.7813815040181397,0.0
2038,rest_of_europe,2,0.1997999695325829,0.0,0.12602927484163542,0.9295984340599024,0.0
2038,rest_of_europe,3,0.7292698887939275,0.0,0.33607806624436115,0.9683317021457317,0.0
2038,rest_of_europe,4,0.9989998476629144,0.0,0.8401951656109028,0.9683317021457317,0.0
2038,wallonia,1,0.019980697059894248,0.0,0.04216956311493424,0.9172156132488722,0.0
2038,wallonia,2,0.19980066963921886,0.0,0.12618907967602452,0.9565164872360304,0.0
2038,wallonia,3,0.7292705889005634,0.0,0.33623787107875025,0.9952497553218598,0.0
2038,wallonia,4,0.9990005477695504,0.0,0.8403549704452918,0.9952497553218598,0.0
2039,belgium,1,0.019980699162494904,0.0,0.0448088186048439,0.9215246018038268,0.0
2039,belgium,2,0.19980069135156658,0.0,0.13421457085962735,0.9579669675365535,0.0
2039,belgium,3,0.729270668352722,0.0,0.35772895149658607,0.9972276830043912,0.0
2039,belgium,4,0.9990006566363294,0.0,0.8941634650252869,0.9972276830043912,0.0
2039,brussels,1,0.019980699162494904,0.0,0.0448088186048439,0.9215246018038268,0.0
2039,brussels,2,0.19980069135156658,0.0,0.13421457085962735,0.9579669675365535,0.0
2039,brussels,3,0.729270668352722,0.0,0.35772895149658607,0.9972276830043912,0.0
2039,brussels,4,0.9990006566363294,0.0,0.8941634650252869,0.9972276830043912,0.0
2039,flanders,1,0.019980699162494904,0.0,0.0448088186048439,0.9215246018038268,0.0
2039,flanders,2,0.19980069135156658,0.0,0.13421457085962735,0.9579669675365535,0.0
2039,flanders,3,0.729270668352722,0.0,0.35772895149658607,0.9972276830043912,0.0
2039,flanders,4,0.9990006566363294,0.0,0.8941634650252869,0.9972276830043912,0.0
2039,rest_of_europe,1,0.019979999132119074,0.0,0.04470287612739174,0.8314734959694863,0.0
2039,rest_of_europe,2,0.19979999132119075,0.0,0.1341086283821752,0.9422571712281042,0.0
2039,rest_of_europe,3,0.7292699683223461,0.0,0.3576230090191339,0.9815178866959419,0.0
2039,rest_of_europe,4,0.9989999566059536,0.0,0.8940575225478347,0.9815178866959419,0.0
2039,wallonia,1,0.019980699162494904,0.0,0.0448088186048439,0.9215246018038268,0.0
2039,wallonia,2,0.19980069135156658,0.0,0.13421457085962735,0.9579669675365535,0.0
2039,wallonia,3,0.729270668352722,0.0,0.35772895149658607,0.9972276830043912,0.0
2039,wallonia,4,0.9990006566363294,0.0,0.8941634650252869,0.9972276830043912,0.0
2040,belgium,1,0.019980699761432144,0.0,0.04662513860681869,0.9244900222152143,0.0
2040,belgium,2,0.19980069753644697,0.0,0.1397376663758364,0.9588001716104895,0.0
2040,belgium,3,0.7292706909851017,0.0,0.3725189857983808,0.9983638703779402,0.0
2040,belgium,4,0.9990006876476238,0.0,0.9311941524124872,0.9983638703779402,0.0
2040,brussels,1,0.019980699761432144,0.0,0.04662513860681869,0.9244900222152143,0.0
2040,brussels,2,0.19980069753644697,0.0,0.1397376663758364,0.9588001716104895,0.0
2040,brussels,3,0.7292706909851017,0.0,0.3725189857983808,0.9983638703779402,0.0
2040,brussels,4,0.9990006876476238,0.0,0.9311941524124872,0.9983638703779402,0.0
2040,flanders,1,0.019980699761432144,0.0,0.04662513860681869,0.9244900222152143,0.0
2040,flanders,2,0.19980069753644697,0.0,0.1397376663758364,0.9588001716104895,0.0
2040,flanders,3,0.7292706909851017,0.0,0.3725189857983808,0.9983638703779402,0.0
2040,flanders,4,0.9990006876476238,0.0,0.9311941524124872,0.9983638703779402,0.0
2040,rest_of_europe,1,0.019979999752779424,0.0,0.04655626388450887,0.8659465082518649,0.0
2040,rest_of_europe,2,0.19979999752779423,0.0,0.13966879165352658,0.9495287704188171,0.0
2040,rest_of_europe,3,0.729269990976449,0.0,0.37245011107607096,0.9890924691862678,0.0
2040,rest_of_europe,4,0.9989999876389711,0.0,0.9311252776901773,0.9890924691862678,0.0
2040,wallonia,1,0.019980699761432144,0.0,0.04662513860681869,0.9244900222152143,0.0
2040,wallonia,2,0.19980069753644697,0.0,0.1397376663758364,0.9588001716104895,0.0
2040,wallonia,3,0.7292706909851017,0.0,0.3725189857983808,0.9983638703779402,0.0
2040,wallonia,4,0.9990006876476238,0.0,0.9311941524124872,0.9983638703779402,0.0
2041,belgium,1,0.019980699932042656,0.0,0.04783091155704733,0.9264586311135468,0.0
2041,belgium,2,0.1998006992982436,0.0,0.14340420044898064,0.9592744244386545,0.0
2041,belgium,3,0.7292706974320574,0.0,0.38233742267881393,0.9990105787799834,0.0
2041,belgium,4,0.9990006964813588,0.0,0.9557771560304138,0.9990105787799834,0.0
2041,brussels,1,0.019980699932042656,0.0,0.04783091155704733,0.9264586311135468,0.0
2041,brussels,2,0.1998006992982436,0.0,0.14340420044898064,0.9592744244386545,0.0
2041,brussels,3,0.7292706974320574,0.0,0.38233742267881393,0.9990105787799834,0.0
2041,brussels,4,0.9990006964813588,0.0,0.9557771560304138,0.9990105787799834,0.0
2041,flanders,1,0.019980699932042656,0.0,0.04783091155704733,0.9264586311135468,0.0
2041,flanders,2,0.1998006992982436,0.0,0.14340420044898064,0.9592744244386545,0.0
2041,flanders,3,0.7292706974320574,0.0,0.38233742267881393,0.9990105787799834,0.0
2041,flanders,4,0.9990006964813588,0.0,0.9557771560304138,0.9990105787799834,0.0
2041,rest_of_europe,1,0.01997999992957788,0.0,0.04778664444596666,0.8888315866949799,0.0
2041,rest_of_europe,2,0.19979999929577882,0.0,0.14335993333789998,0.953667704191894,0.0
2041,rest_of_europe,3,0.7292699974295926,0.0,0.3822931555677333,0.9934038585332229,0.0
2041,rest_of_europe,4,0.998999996478894,0.0,0.9557328889193332,0.9934038585332229,0.0
2041,wallonia,1,0.019980699932042656,0.0,0.04783091155704733,0.9264586311135468,0.0
2041,wallonia,2,0.1998006992982436,0.0,0.14340420044898064,0.9592744244386545,0.0
2041,wallonia,3,0.7292706974320574,0.0,0.38233742267881393,0.9990105787799834,0.0
2041,wallonia,4,0.9990006964813588,0.0,0.9557771560304138,0.9990105787799834,0.0
2042,belgium,1,0.019980699980641985,0.0,0.0486123502796887,0.9277344494362265,0.0
2042,belgium,2,0.1998006998001009,0.0,0.14578041207497175,0.9595429576755247,0.0
2042,belgium,3,0.7292706992685077,0.0,0.3887005665631794,0.9993767604666246,0.0
2042,belgium,4,0.9990006989976961,0.0,0.9717089373348777,0.9993767604666246,0.0
2042,brussels,1,0.019980699980641985,0.0,0.0486123502796887,0.9277344494362265,0.0
2042,brussels,2,0.1998006998001009,0.0,0.14578041207497175,0.9595429576755247,0.0
2042,brussels,3,0.7292706992685077,0.0,0.3887005665631794,0.9993767604666246,0.0
2042,brussels,4,0.9990006989976961,0.0,0.9717089373348777,0.9993767604666246,0.0
2042,flanders,1,0.019980699980641985,0.0,0.0486123502796887,0.9277344494362265,0.0
2042,flanders,2,0.1998006998001009,0.0,0.14578041207497175,0.9595429576755247,0.0
2042,flanders,3,0.7292706992685077,0.0,0.3887005665631794,0.9993767604666246,0.0
2042,flanders,4,0.9990006989976961,0.0,0.9717089373348777,0.9993767604666246,0.0
2042,rest_of_europe,1,0.01997999997993988,0.0,0.04858403089764153,0.9036629746961324,0.0
2042,rest_of_europe,2,0.1997999997993988,0.0,0.14575209269292458,0.956011266986397,0.0
2042,rest_of_europe,3,0.7292699992678056,0.0,0.38867224718113225,0.995845069777497,0.0
2042,rest_of_europe,4,0.998999998996994,0.0,0.9716806179528306,0.995845069777497,0.0
2042,wallonia,1,0.019980699980641985,0.0,0.0486123502796887,0.9277344494362265,0.0
2042,wallonia,2,0.1998006998001009,0.0,0.14578041207497175,0.9595429576755247,0.0
2042,wallonia,3,0.7292706992685077,0.0,0.3887005665631794,0.9993767604666246,0.0
2042,wallonia,4,0.9990006989976961,0.0,0.9717089373348777,0.9993767604666246,0.0
2043,belgium,1,0.019980699994485762,0.0,0.04911092164357612,0.9285484434997162,0.0
2043,belgium,2,0.19980069994305766,0.0,0.14729647601822124,0.9596945576530449,0.0
2043,belgium,3,0.7292706997916304,0.0,0.3927603619548341,0.9995834877086976,0.0
2043,belgium,4,0.9990006997144882,0.0,0.9818736882027049,0.9995834877086976,0.0
2043,brussels,1,0.019980699994485762,0.0,0.04911092164357612,0.9285484434997162,0.0
2043,brussels,2,0.19980069994305766,0.0,0.14729647601822124,0.9596945576530449,0.0
2043,brussels,3,0.7292706997916304,0.0,0.3927603619548341,0.9995834877086976,0.0
2043,brussels,4,0.9990006997144882,0.0,0.9818736882027049,0.9995834877086976,0.0
2043,flanders,1,0.019980699994485762,0.0,0.04911092164357612,0.9285484434997162,0.0
2043,flanders,2,0.19980069994305766,0.0,0.14729647601822124,0.9596945576530449,0.0
2043,flanders,3,0.7292706997916304,0.0,0.3927603619548341,0.9995834877086976,0.0
2043,flanders,4,0.9990006997144882,0.0,0.9818736882027049,0.9995834877086976,0.0
2043,rest_of_europe,1,0.019979999994285763,0.0,0.04909277718732257,0.9131256556841998,0.0
2043,rest_of_europe,2,0.19979999994285766,0.0,0.1472783315619677,0.9573343213356647,0.0
2043,rest_of_europe,3,0.7292699997914304,0.0,0.39274221749858057,0.9972232513913174,0.0
2043,rest_of_europe,4,0.9989999997142882,0.0,0.9818555437464513,0.9972232513913174,0.0
2043,wallonia,1,0.019980699994485762,0.0,0.04911092164357612,0.9285484434997162,0.0
2043,wallonia,2,0.19980069994305766,0.0,0.14729647601822124,0.9596945576530449,0.0
2043,wallonia,3,0.7292706997916304,0.0,0.3927603619548341,0.9995834877086976,0.0
2043,wallonia,4,0.9990006997144882,0.0,0.9818736882027049,0.9995834877086976,0.0
2044,belgium,1,0.01998069999842924,0.0,0.04942584935067292,0.9290626111847722,0.0
2044,belgium,2,0.19980069998377967,0.0,0.14825411333163807,0.95978,0.0
2044,belgium,3,0.7292706999406448,0.0,0.39532477328405097,0.9997,0.0
2044,belgium,4,0.9990006999186704,0.0,0.9882943571698418,0.9997,0.0
2044,brussels,1,0.01998069999842924,0.0,0.04942584935067292,0.9290626111847722,0.0
2044,brussels,2,0.19980069998377967,0.0,0.14825411333163807,0.95978,0.0
2044,brussels,3,0.7292706999406448,0.0,0.39532477328405097,0.9997,0.0
2044,brussels,4,0.9990006999186704,0.0,0.9882943571698418,0.9997,0.0
2044,flanders,1,0.01998069999842924,0.0,0.04942584935067292,0.9290626111847722,0.0
2044,flanders,2,0.19980069998377967,0.0,0.14825411333163807,0.95978,0.0
2044,flanders,3,0.7292706999406448,0.0,0.39532477328405097,0.9997,0.0
2044,flanders,4,0.9990006999186704,0.0,0.9882943571698418,0.9997,0.0
2044,rest_of_europe,1,0.01997999999837227,0.0,0.04941413199048258,0.919102855022976,0.0
2044,rest_of_europe,2,0.1997999999837227,0.0,0.14824239597144773,0.9580799999999997,0.0
2044,rest_of_europe,3,0.7292699999405878,0.0,0.3953130559238606,0.9979999999999998,0.0
2044,rest_of_europe,4,0.9989999999186134,0.0,0.9882826398096515,0.9979999999999998,0.0
2044,wallonia,1,0.01998069999842924,0.0,0.04942584935067292,0.9290626111847722,0.0
2044,wallonia,2,0.19980069998377967,0.0,0.14825411333163807,0.95978,0.0
2044,wallonia,3,0.7292706999406448,0.0,0.39532477328405097,0.9997,0.0
2044,wallonia,4,0.9990006999186704,0.0,0.9882943571698418,0.9997,0.0
2045,belgium,1,0.019980699999552556,0.0,0.049623520071993034,0.9293853388930499,0.0
2045,belgium,2,0.19980069999537953,0.0,0.14885519368830533,0.96,0.0
2045,belgium,3,0.7292706999830922,0.0,0.39693437772908613,1.0,0.0
2045,belgium,4,0.9990006999768326,0.0,0.9923244194269599,1.0,0.0
2045,brussels,1,0.019980699999552556,0.0,0.049623520071993034,0.9293853388930499,0.0
2045,brussels,2,0.19980069999537953,0.0,0.14885519368830533,0.96,0.0
2045,brussels,3,0.7292706999830922,0.0,0.39693437772908613,1.0,0.0
2045,brussels,4,0.9990006999768326,0.0,0.9923244194269599,1.0,0.0
2045,flanders,1,0.019980699999552556,0.0,0.049623520071993034,0.9293853388930499,0.0
2045,flanders,2,0.19980069999537953,0.0,0.14885519368830533,0.96,0.0
2045,flanders,3,0.7292706999830922,0.0,0.39693437772908613,1.0,0.0
2045,flanders,4,0.9990006999768326,0.0,0.9923244194269599,1.0,0.0
2045,rest_of_europe,1,0.01997999999953633,0.0,0.04961583680815616,0.9228545646317046,0.0
2045,rest_of_europe,2,0.1997999999953633,0.0,0.14884751042446845,0.96,0.0
2045,rest_of_europe,3,0.729269999983076,0.0,0.39692669446524925,1.0,0.0
2045,rest_of_europe,4,0.9989999999768164,0.0,0.9923167361631231,1.0,0.0
2045,wallonia,1,0.019980699999552556,0.0,0.049623520071993034,0.9293853388930499,0.0
2045,wallonia,2,0.19980069999537953,0.0,0.14885519368830533,0.96,0.0
2045,wallonia,3,0.7292706999830922,0.0,0.39693437772908613,1.0,0.0
2045,wallonia,4,0.9990006999768326,0.0,0.9923244194269599,1.0,0.0
2046,belgium,1,0.019980699999872543,0.0,0.04974709899251828,0.9295871003959483,0.0
2046,belgium,2,0.19980069999868386,0.0,0.14923097448745354,0.9598551853413838,0.0
2046,belgium,3,0.7292706999951837,0.0,0.3979406632247917,0.9998025254655234,0.0
2046,belgium,4,0.9990006999934007,0.0,0.9948439161944033,0.9998025254655234,0.0
2046,brussels,1,0.019980699999872543,0.0,0.04974709899251828,0.9295871003959483,0.0
2046,brussels,2,0.19980069999868386,0.0,0.14923097448745354,0.9598551853413838,0.0
2046,brussels,3,0.7292706999951837,0.0,0.3979406632247917,0.9998025254655234,0.0
2046,brussels,4,0.9990006999934007,0.0,0.9948439161944033,0.9998025254655234,0.0
2046,flanders,1,0.019980699999872543,0.0,0.04974709899251828,0.9295871003959483,0.0
2046,flanders,2,0.19980069999868386,0.0,0.14923097448745354,0.9598551853413838,0.0
2046,flanders,3,0.7292706999951837,0.0,0.3979406632247917,0.9998025254655234,0.0
2046,flanders,4,0.9990006999934007,0.0,0.9948439161944033,0.9998025254655234,0.0
2046,rest_of_europe,1,0.019979999999867923,0.0,0.04974193774746763,0.925200042102898,0.0
2046,rest_of_europe,2,0.19979999999867923,0.0,0.1492258132424029,0.9587361629793497,0.0
2046,rest_of_europe,3,0.729269999995179,0.0,0.39793550197974104,0.9986835031034893,0.0
2046,rest_of_europe,4,0.9989999999933961,0.0,0.9948387549493526,0.9986835031034893,0.0
2046,wallonia,1,0.019980699999872543,0.0,0.04974709899251828,0.9295871003959483,0.0
2046,wallonia,2,0.19980069999868386,0.0,0.14923097448745354,0.9598551853413838,0.0
2046,wallonia,3,0.7292706999951837,0.0,0.3979406632247917,0.9998025254655234,0.0
2046,wallonia,4,0.9990006999934007,0.0,0.9948439161944033,0.9998025254655234,0.0
2047,belgium,1,0.019980699999963693,0.0,0.049824165281405805,0.9297129229084177,0.0
2047,belgium,2,0.19980069999962508,0.0,0.14946531891692785,0.9598704179342061,0.0
2047,belgium,3,0.7292706999986279,0.0,0.398568203005733,0.9998232971830086,0.0
2047,belgium,4,0.99900069999812,0.0,0.9964151248188653,0.9998232971830086,0.0
2047,brussels,1,0.019980699999963693,0.0,0.049824165281405805,0.9297129229084177,0.0
2047,brussels,2,0.19980069999962508,0.0,0.14946531891692785,0.9598704179342061,0.0
2047,brussels,3,0.7292706999986279,0.0,0.398568203005733,0.9998232971830086,0.0
2047,brussels,4,0.99900069999812,0.0,0.9964151248188653,0.9998232971830086,0.0
2047,flanders,1,0.019980699999963693,0.0,0.049824165281405805,0.9297129229084177,0.0
2047,flanders,2,0.19980069999962508,0.0,0.14946531891692785,0.9598704179342061,0.0
2047,flanders,3,0.7292706999986279,0.0,0.398568203005733,0.9998232971830086,0.0
2047,flanders,4,0.99900069999812,0.0,0.9964151248188653,0.9998232971830086,0.0
2047,rest_of_europe,1,0.019979999999962375,0.0,0.04982057681776103,0.9266627288103552,0.0
2047,rest_of_europe,2,0.19979999999962375,0.0,0.14946173045328306,0.9588691019712543,0.0
2047,rest_of_europe,3,0.7292699999986266,0.0,0.39856461454208825,0.9988219812200566,0.0
2047,rest_of_europe,4,0.9989999999981187,0.0,0.9964115363552205,0.9988219812200566,0.0
2047,wallonia,1,0.019980699999963693,0.0,0.049824165281405805,0.9297129229084177,0.0
2047,wallonia,2,0.19980069999962508,0.0,0.14946531891692785,0.9598704179342061,0.0
2047,wallonia,3,0.7292706999986279,0.0,0.398568203005733,0.9998232971830086,0.0
2047,wallonia,4,0.99900069999812,0.0,0.9964151248188653,0.9998232971830086,0.0
2048,belgium,1,0.019980699999989658,0.0,0.04987215071472362,0.9297912664730182,0.0
2048,belgium,2,0.1998006999998932,0.0,0.1496112338059963,0.9598789864190315,0.0
2048,belgium,3,0.7292706999996091,0.0,0.39895894153417805,0.9998349814804974,0.0
2048,belgium,4,0.9990006999994645,0.0,0.9973934400818141,0.9998349814804974,0.0
2048,brussels,1,0.019980699999989658,0.0,0.04987215071472362,0.9297912664730182,0.0
2048,brussels,2,0.1998006999998932,0.0,0.1496112338059963,0.9598789864190315,0.0
2048,brussels,3,0.7292706999996091,0.0,0.39895894153417805,0.9998349814804974,0.0
2048,brussels,4,0.9990006999994645,0.0,0.9973934400818141,0.9998349814804974,0.0
2048,flanders,1,0.019980699999989658,0.0,0.04987215071472362,0.9297912664730182,0.0
2048,flanders,2,0.1998006999998932,0.0,0.1496112338059963,0.9598789864190315,0.0
2048,flanders,3,0.7292706999996091,0.0,0.39895894153417805,0.9998349814804974,0.0
2048,flanders,4,0.9990006999994645,0.0,0.9973934400818141,0.9998349814804974,0.0
2048,rest_of_europe,1,0.01997999999998928,0.0,0.049869541545636345,0.9275734727488361,0.0
2048,rest_of_europe,2,0.19979999999989284,0.0,0.14960862463690902,0.9589438814751836,0.0
2048,rest_of_europe,3,0.7292699999996087,0.0,0.39895633236509076,0.9988998765366496,0.0
2048,rest_of_europe,4,0.9989999999994641,0.0,0.9973908309127268,0.9988998765366496,0.0
2048,wallonia,1,0.019980699999989658,0.0,0.04987215071472362,0.9297912664730182,0.0
2048,wallonia,2,0.1998006999998932,0.0,0.1496112338059963,0.9598789864190315,0.0
2048,wallonia,3,0.7292706999996091,0.0,0.39895894153417805,0.9998349814804974,0.0
2048,wallonia,4,0.9990006999994645,0.0,0.9973934400818141,0.9998349814804974,0.0
2049,belgium,1,0.019980699999997055,0.0,0.049901999999999995,0.92984,0.0
2049,belgium,2,0.19980069999996958,0.0,0.14970199999999997,0.959883805820488,0.0
2049,belgium,3,0.7292706999998887,0.0,0.39920199999999995,0.9998415533915747,0.0
2049,belgium,4,0.9990006999998474,0.0,0.9980019999999997,0.9998415533915747,0.0
2049,brussels,1,0.019980699999997055,0.0,0.049901999999999995,0.92984,0.0
2049,brussels,2,0.19980069999996958,0.0,0.14970199999999997,0.959883805820488,0.0
2049,brussels,3,0.7292706999998887,0.0,0.39920199999999995,0.9998415533915747,0.0
2049,brussels,4,0.9990006999998474,0.0,0.9980019999999997,0.9998415533915747,0.0
2049,flanders,1,0.019980699999997055,0.0,0.049901999999999995,0.92984,0.0
2049,flanders,2,0.19980069999996958,0.0,0.14970199999999997,0.959883805820488,0.0
2049,flanders,3,0.7292706999998887,0.0,0.39920199999999995,0.9998415533915747,0.0
2049,flanders,4,0.9990006999998474,0.0,0.9980019999999997,0.9998415533915747,0.0
2049,rest_of_europe,1,0.019979999999996948,0.0,0.04989999999999999,0.9281399999999999,0.0
2049,rest_of_europe,2,0.19979999999996947,0.0,0.14969999999999997,0.9589859417060775,0.0
2049,rest_of_europe,3,0.7292699999998885,0.0,0.39919999999999994,0.9989436892771641,0.0
2049,rest_of_europe,4,0.9989999999998473,0.0,0.9979999999999998,0.9989436892771641,0.0
2049,wallonia,1,0.019980699999997055,0.0,0.049901999999999995,0.92984,0.0
2049,wallonia,2,0.19980069999996958,0.0,0.14970199999999997,0.959883805820488,0.0
2049,wallonia,3,0.7292706999998887,0.0,0.39920199999999995,0.9998415533915747,0.0
2049,wallonia,4,0.9990006999998474,0.0,0.9980019999999997,0.9998415533915747,0.0
2050,belgium,1,0.019980699999999157,0.0,0.05,0.93,0.0
2050,belgium,2,0.1998006999999913,0.0,0.15,0.959886516380613,0.0
2050,belgium,3,0.7292706999999682,0.0,0.4,0.9998452496099268,0.0
2050,belgium,4,0.9990006999999564,0.0,1.0,0.9998452496099268,0.0
2050,brussels,1,0.019980699999999157,0.0,0.05,0.93,0.0
2050,brussels,2,0.1998006999999913,0.0,0.15,0.959886516380613,0.0
2050,brussels,3,0.7292706999999682,0.0,0.4,0.9998452496099268,0.0
2050,brussels,4,0.9990006999999564,0.0,1.0,0.9998452496099268,0.0
2050,flanders,1,0.019980699999999157,0.0,0.05,0.93,0.0
2050,flanders,2,0.1998006999999913,0.0,0.15,0.959886516380613,0.0
2050,flanders,3,0.7292706999999682,0.0,0.4,0.9998452496099268,0.0
2050,flanders,4,0.9990006999999564,0.0,1.0,0.9998452496099268,0.0
2050,rest_of_europe,1,0.019979999999999127,0.0,0.05,0.93,0.0
2050,rest_of_europe,2,0.1997999999999913,0.0,0.15,0.9590095975035317,0.0
2050,rest_of_europe,3,0.7292699999999681,0.0,0.4,0.9989683307328455,0.0
2050,rest_of_europe,4,0.9989999999999564,0.0,1.0,0.9989683307328455,0.0
2050,wallonia,1,0.019980699999999157,0.0,0.05,0.93,0.0
2050,wallonia,2,0.1998006999999913,0.0,0.15,0.959886516380613,0.0
2050,wallonia,3,0.7292706999999682,0.0,0.4,0.9998452496099268,0.0
2050,wallonia,4,0.9990006999999564,0.0,1.0,0.9998452496099268,0.0
