Years,Country,lever_energy-net-import,fts_elc_energy-net-import_heat[%],fts_ref_energy-net-import_electricity[%],fts_ref_energy-net-import_fossil_coal[%],fts_ref_energy-net-import_fossil_gas[%],fts_ref_energy-net-import_fossil_oil[%],fts_ref_energy-net-import_gas-efuels[%],fts_ref_energy-net-import_hydrogen[%],fts_ref_energy-net-import_liquid-efuels[%]
2016,belgium,1,0.0,0.22,0.31,1.0,-0.17,0.0,0.0,0.0
2016,belgium,2,0.0,0.22,0.31,1.0,-0.17,0.0,0.0,0.0
2016,belgium,3,0.0,0.22,0.31,1.0,-0.17,0.0,0.0,0.0
2016,belgium,4,0.0,0.22,0.31,1.0,-0.17,0.0,0.0,0.0
2016,brussels,1,0.0,0.22,0.31,1.0,-0.17,0.0,0.0,0.0
2016,brussels,2,0.0,0.22,0.31,1.0,-0.17,0.0,0.0,0.0
2016,brussels,3,0.0,0.22,0.31,1.0,-0.17,0.0,0.0,0.0
2016,brussels,4,0.0,0.22,0.31,1.0,-0.17,0.0,0.0,0.0
2016,flanders,1,0.0,0.22,0.31,1.0,-0.17,0.0,0.0,0.0
2016,flanders,2,0.0,0.22,0.31,1.0,-0.17,0.0,0.0,0.0
2016,flanders,3,0.0,0.22,0.31,1.0,-0.17,0.0,0.0,0.0
2016,flanders,4,0.0,0.22,0.31,1.0,-0.17,0.0,0.0,0.0
2016,wallonia,1,0.0,0.22,0.31,1.0,-0.17,0.0,0.0,0.0
2016,wallonia,2,0.0,0.22,0.31,1.0,-0.17,0.0,0.0,0.0
2016,wallonia,3,0.0,0.22,0.31,1.0,-0.17,0.0,0.0,0.0
2016,wallonia,4,0.0,0.22,0.31,1.0,-0.17,0.0,0.0,0.0
2017,belgium,1,0.0,0.22,0.31,1.0,-0.17,0.0,0.0,0.0
2017,belgium,2,0.0,0.22,0.31,1.0,-0.17,0.0,0.0,0.0
2017,belgium,3,0.0,0.22,0.31,1.0,-0.17,0.0,0.0,0.0
2017,belgium,4,0.0,0.22,0.31,1.0,-0.17,0.0,0.0,0.0
2017,brussels,1,0.0,0.22,0.31,1.0,-0.17,0.0,0.0,0.0
2017,brussels,2,0.0,0.22,0.31,1.0,-0.17,0.0,0.0,0.0
2017,brussels,3,0.0,0.22,0.31,1.0,-0.17,0.0,0.0,0.0
2017,brussels,4,0.0,0.22,0.31,1.0,-0.17,0.0,0.0,0.0
2017,flanders,1,0.0,0.22,0.31,1.0,-0.17,0.0,0.0,0.0
2017,flanders,2,0.0,0.22,0.31,1.0,-0.17,0.0,0.0,0.0
2017,flanders,3,0.0,0.22,0.31,1.0,-0.17,0.0,0.0,0.0
2017,flanders,4,0.0,0.22,0.31,1.0,-0.17,0.0,0.0,0.0
2017,wallonia,1,0.0,0.22,0.31,1.0,-0.17,0.0,0.0,0.0
2017,wallonia,2,0.0,0.22,0.31,1.0,-0.17,0.0,0.0,0.0
2017,wallonia,3,0.0,0.22,0.31,1.0,-0.17,0.0,0.0,0.0
2017,wallonia,4,0.0,0.22,0.31,1.0,-0.17,0.0,0.0,0.0
2018,belgium,1,0.0,0.22,0.31,1.0,-0.17,0.0,0.0,0.0
2018,belgium,2,0.0,0.22,0.31,1.0,-0.17,0.0,0.0,0.0
2018,belgium,3,0.0,0.22,0.31,1.0,-0.17,0.0,0.0,0.0
2018,belgium,4,0.0,0.22,0.31,1.0,-0.17,0.0,0.0,0.0
2018,brussels,1,0.0,0.22,0.31,1.0,-0.17,0.0,0.0,0.0
2018,brussels,2,0.0,0.22,0.31,1.0,-0.17,0.0,0.0,0.0
2018,brussels,3,0.0,0.22,0.31,1.0,-0.17,0.0,0.0,0.0
2018,brussels,4,0.0,0.22,0.31,1.0,-0.17,0.0,0.0,0.0
2018,flanders,1,0.0,0.22,0.31,1.0,-0.17,0.0,0.0,0.0
2018,flanders,2,0.0,0.22,0.31,1.0,-0.17,0.0,0.0,0.0
2018,flanders,3,0.0,0.22,0.31,1.0,-0.17,0.0,0.0,0.0
2018,flanders,4,0.0,0.22,0.31,1.0,-0.17,0.0,0.0,0.0
2018,wallonia,1,0.0,0.22,0.31,1.0,-0.17,0.0,0.0,0.0
2018,wallonia,2,0.0,0.22,0.31,1.0,-0.17,0.0,0.0,0.0
2018,wallonia,3,0.0,0.22,0.31,1.0,-0.17,0.0,0.0,0.0
2018,wallonia,4,0.0,0.22,0.31,1.0,-0.17,0.0,0.0,0.0
2019,belgium,1,0.0,0.22562499999999908,0.331562500000004,1.0,-0.18031249999999943,0.0,0.0,0.0
2019,belgium,2,0.0,0.22562499999999908,0.331562500000004,1.0,-0.18031249999999943,0.0,0.0,0.0
2019,belgium,3,0.0,0.22562499999999908,0.331562500000004,1.0,-0.18031249999999943,0.0,0.0,0.0
2019,belgium,4,0.0,0.22562499999999908,0.331562500000004,1.0,-0.18031249999999943,0.0,0.0,0.0
2019,brussels,1,0.0,0.22562499999999908,0.331562500000004,1.0,-0.18031249999999943,0.0,0.0,0.0
2019,brussels,2,0.0,0.22562499999999908,0.331562500000004,1.0,-0.18031249999999943,0.0,0.0,0.0
2019,brussels,3,0.0,0.22562499999999908,0.331562500000004,1.0,-0.18031249999999943,0.0,0.0,0.0
2019,brussels,4,0.0,0.22562499999999908,0.331562500000004,1.0,-0.18031249999999943,0.0,0.0,0.0
2019,flanders,1,0.0,0.22562499999999908,0.331562500000004,1.0,-0.18031249999999943,0.0,0.0,0.0
2019,flanders,2,0.0,0.22562499999999908,0.331562500000004,1.0,-0.18031249999999943,0.0,0.0,0.0
2019,flanders,3,0.0,0.22562499999999908,0.331562500000004,1.0,-0.18031249999999943,0.0,0.0,0.0
2019,flanders,4,0.0,0.22562499999999908,0.331562500000004,1.0,-0.18031249999999943,0.0,0.0,0.0
2019,wallonia,1,0.0,0.22562499999999908,0.331562500000004,1.0,-0.18031249999999943,0.0,0.0,0.0
2019,wallonia,2,0.0,0.22562499999999908,0.331562500000004,1.0,-0.18031249999999943,0.0,0.0,0.0
2019,wallonia,3,0.0,0.22562499999999908,0.331562500000004,1.0,-0.18031249999999943,0.0,0.0,0.0
2019,wallonia,4,0.0,0.22562499999999908,0.331562500000004,1.0,-0.18031249999999943,0.0,0.0,0.0
2020,belgium,1,0.0,0.2312499999999993,0.3531250000000057,1.0,-0.1906250000000007,0.0,0.0,0.0
2020,belgium,2,0.0,0.2312499999999993,0.3531250000000057,1.0,-0.1906250000000007,0.0,0.0,0.0
2020,belgium,3,0.0,0.2312499999999993,0.3531250000000057,1.0,-0.1906250000000007,0.0,0.0,0.0
2020,belgium,4,0.0,0.2312499999999993,0.3531250000000057,1.0,-0.1906250000000007,0.0,0.0,0.0
2020,brussels,1,0.0,0.2312499999999993,0.3531250000000057,1.0,-0.1906250000000007,0.0,0.0,0.0
2020,brussels,2,0.0,0.2312499999999993,0.3531250000000057,1.0,-0.1906250000000007,0.0,0.0,0.0
2020,brussels,3,0.0,0.2312499999999993,0.3531250000000057,1.0,-0.1906250000000007,0.0,0.0,0.0
2020,brussels,4,0.0,0.2312499999999993,0.3531250000000057,1.0,-0.1906250000000007,0.0,0.0,0.0
2020,flanders,1,0.0,0.2312499999999993,0.3531250000000057,1.0,-0.1906250000000007,0.0,0.0,0.0
2020,flanders,2,0.0,0.2312499999999993,0.3531250000000057,1.0,-0.1906250000000007,0.0,0.0,0.0
2020,flanders,3,0.0,0.2312499999999993,0.3531250000000057,1.0,-0.1906250000000007,0.0,0.0,0.0
2020,flanders,4,0.0,0.2312499999999993,0.3531250000000057,1.0,-0.1906250000000007,0.0,0.0,0.0
2020,wallonia,1,0.0,0.2312499999999993,0.3531250000000057,1.0,-0.1906250000000007,0.0,0.0,0.0
2020,wallonia,2,0.0,0.2312499999999993,0.3531250000000057,1.0,-0.1906250000000007,0.0,0.0,0.0
2020,wallonia,3,0.0,0.2312499999999993,0.3531250000000057,1.0,-0.1906250000000007,0.0,0.0,0.0
2020,wallonia,4,0.0,0.2312499999999993,0.3531250000000057,1.0,-0.1906250000000007,0.0,0.0,0.0
2021,belgium,1,0.0,0.2368749999999995,0.3746875000000003,1.0,-0.200937500000002,0.0,0.0,0.0
2021,belgium,2,0.0,0.2308749999999994,0.3413541666666724,0.9666666666666686,-0.1842708333333345,0.2999999999999545,0.2999999999999545,0.2999999999999545
2021,belgium,3,0.0,0.22720833333333168,0.34968750000000526,1.0,-0.18760416666666746,0.599999999999909,0.599999999999909,0.599999999999909
2021,belgium,4,0.0,0.22354166666666586,0.3413541666666724,1.0,-0.1842708333333345,1.0,1.0,1.0
2021,brussels,1,0.0,0.2368749999999995,0.3746875000000003,1.0,-0.200937500000002,0.0,0.0,0.0
2021,brussels,2,0.0,0.2308749999999994,0.3413541666666724,0.9666666666666686,-0.1842708333333345,0.2999999999999545,0.2999999999999545,0.2999999999999545
2021,brussels,3,0.0,0.22720833333333168,0.34968750000000526,1.0,-0.18760416666666746,0.599999999999909,0.599999999999909,0.599999999999909
2021,brussels,4,0.0,0.22354166666666586,0.3413541666666724,1.0,-0.1842708333333345,1.0,1.0,1.0
2021,flanders,1,0.0,0.2368749999999995,0.3746875000000003,1.0,-0.200937500000002,0.0,0.0,0.0
2021,flanders,2,0.0,0.2308749999999994,0.3413541666666724,0.9666666666666686,-0.1842708333333345,0.2999999999999545,0.2999999999999545,0.2999999999999545
2021,flanders,3,0.0,0.22720833333333168,0.34968750000000526,1.0,-0.18760416666666746,0.599999999999909,0.599999999999909,0.599999999999909
2021,flanders,4,0.0,0.22354166666666586,0.3413541666666724,1.0,-0.1842708333333345,1.0,1.0,1.0
2021,wallonia,1,0.0,0.2368749999999995,0.3746875000000003,1.0,-0.200937500000002,0.0,0.0,0.0
2021,wallonia,2,0.0,0.2308749999999994,0.3413541666666724,0.9666666666666686,-0.1842708333333345,0.2999999999999545,0.2999999999999545,0.2999999999999545
2021,wallonia,3,0.0,0.22720833333333168,0.34968750000000526,1.0,-0.18760416666666746,0.599999999999909,0.599999999999909,0.599999999999909
2021,wallonia,4,0.0,0.22354166666666586,0.3413541666666724,1.0,-0.1842708333333345,1.0,1.0,1.0
2022,belgium,1,0.0,0.24249999999999972,0.396250000000002,1.0,-0.21124999999999972,0.0,0.0,0.0
2022,belgium,2,0.0,0.23049999999999937,0.3295833333333391,0.9333333333333229,-0.17791666666666828,0.2999999999999545,0.2999999999999545,0.2999999999999545
2022,belgium,3,0.0,0.22316666666666585,0.34625000000000483,1.0,-0.1845833333333342,0.599999999999909,0.599999999999909,0.599999999999909
2022,belgium,4,0.0,0.21583333333333243,0.3295833333333391,1.0,-0.17791666666666828,1.0,1.0,1.0
2022,brussels,1,0.0,0.24249999999999972,0.396250000000002,1.0,-0.21124999999999972,0.0,0.0,0.0
2022,brussels,2,0.0,0.23049999999999937,0.3295833333333391,0.9333333333333229,-0.17791666666666828,0.2999999999999545,0.2999999999999545,0.2999999999999545
2022,brussels,3,0.0,0.22316666666666585,0.34625000000000483,1.0,-0.1845833333333342,0.599999999999909,0.599999999999909,0.599999999999909
2022,brussels,4,0.0,0.21583333333333243,0.3295833333333391,1.0,-0.17791666666666828,1.0,1.0,1.0
2022,flanders,1,0.0,0.24249999999999972,0.396250000000002,1.0,-0.21124999999999972,0.0,0.0,0.0
2022,flanders,2,0.0,0.23049999999999937,0.3295833333333391,0.9333333333333229,-0.17791666666666828,0.2999999999999545,0.2999999999999545,0.2999999999999545
2022,flanders,3,0.0,0.22316666666666585,0.34625000000000483,1.0,-0.1845833333333342,0.599999999999909,0.599999999999909,0.599999999999909
2022,flanders,4,0.0,0.21583333333333243,0.3295833333333391,1.0,-0.17791666666666828,1.0,1.0,1.0
2022,wallonia,1,0.0,0.24249999999999972,0.396250000000002,1.0,-0.21124999999999972,0.0,0.0,0.0
2022,wallonia,2,0.0,0.23049999999999937,0.3295833333333391,0.9333333333333229,-0.17791666666666828,0.2999999999999545,0.2999999999999545,0.2999999999999545
2022,wallonia,3,0.0,0.22316666666666585,0.34625000000000483,1.0,-0.1845833333333342,0.599999999999909,0.599999999999909,0.599999999999909
2022,wallonia,4,0.0,0.21583333333333243,0.3295833333333391,1.0,-0.17791666666666828,1.0,1.0,1.0
2023,belgium,1,0.0,0.24812499999999993,0.4178125000000037,1.0,-0.221562500000001,0.0,0.0,0.0
2023,belgium,2,0.0,0.23012499999999936,0.3178125000000058,0.8999999999999915,-0.17156250000000206,0.2999999999999545,0.2999999999999545,0.2999999999999545
2023,belgium,3,0.0,0.21912499999999824,0.3428125000000044,1.0,-0.18156250000000096,0.599999999999909,0.599999999999909,0.599999999999909
2023,belgium,4,0.0,0.208124999999999,0.3178125000000058,1.0,-0.17156250000000206,1.0,1.0,1.0
2023,brussels,1,0.0,0.24812499999999993,0.4178125000000037,1.0,-0.221562500000001,0.0,0.0,0.0
2023,brussels,2,0.0,0.23012499999999936,0.3178125000000058,0.8999999999999915,-0.17156250000000206,0.2999999999999545,0.2999999999999545,0.2999999999999545
2023,brussels,3,0.0,0.21912499999999824,0.3428125000000044,1.0,-0.18156250000000096,0.599999999999909,0.599999999999909,0.599999999999909
2023,brussels,4,0.0,0.208124999999999,0.3178125000000058,1.0,-0.17156250000000206,1.0,1.0,1.0
2023,flanders,1,0.0,0.24812499999999993,0.4178125000000037,1.0,-0.221562500000001,0.0,0.0,0.0
2023,flanders,2,0.0,0.23012499999999936,0.3178125000000058,0.8999999999999915,-0.17156250000000206,0.2999999999999545,0.2999999999999545,0.2999999999999545
2023,flanders,3,0.0,0.21912499999999824,0.3428125000000044,1.0,-0.18156250000000096,0.599999999999909,0.599999999999909,0.599999999999909
2023,flanders,4,0.0,0.208124999999999,0.3178125000000058,1.0,-0.17156250000000206,1.0,1.0,1.0
2023,wallonia,1,0.0,0.24812499999999993,0.4178125000000037,1.0,-0.221562500000001,0.0,0.0,0.0
2023,wallonia,2,0.0,0.23012499999999936,0.3178125000000058,0.8999999999999915,-0.17156250000000206,0.2999999999999545,0.2999999999999545,0.2999999999999545
2023,wallonia,3,0.0,0.21912499999999824,0.3428125000000044,1.0,-0.18156250000000096,0.599999999999909,0.599999999999909,0.599999999999909
2023,wallonia,4,0.0,0.208124999999999,0.3178125000000058,1.0,-0.17156250000000206,1.0,1.0,1.0
2024,belgium,1,0.0,0.25375000000000014,0.4393750000000054,1.0,-0.23187500000000227,0.0,0.0,0.0
2024,belgium,2,0.0,0.22974999999999945,0.30604166666667254,0.86666666666666,-0.16520833333333407,0.2999999999999545,0.2999999999999545,0.2999999999999545
2024,belgium,3,0.0,0.2150833333333324,0.33937500000000487,1.0,-0.1785416666666677,0.599999999999909,0.599999999999909,0.599999999999909
2024,belgium,4,0.0,0.20041666666666558,0.30604166666667254,1.0,-0.16520833333333407,1.0,1.0,1.0
2024,brussels,1,0.0,0.25375000000000014,0.4393750000000054,1.0,-0.23187500000000227,0.0,0.0,0.0
2024,brussels,2,0.0,0.22974999999999945,0.30604166666667254,0.86666666666666,-0.16520833333333407,0.2999999999999545,0.2999999999999545,0.2999999999999545
2024,brussels,3,0.0,0.2150833333333324,0.33937500000000487,1.0,-0.1785416666666677,0.599999999999909,0.599999999999909,0.599999999999909
2024,brussels,4,0.0,0.20041666666666558,0.30604166666667254,1.0,-0.16520833333333407,1.0,1.0,1.0
2024,flanders,1,0.0,0.25375000000000014,0.4393750000000054,1.0,-0.23187500000000227,0.0,0.0,0.0
2024,flanders,2,0.0,0.22974999999999945,0.30604166666667254,0.86666666666666,-0.16520833333333407,0.2999999999999545,0.2999999999999545,0.2999999999999545
2024,flanders,3,0.0,0.2150833333333324,0.33937500000000487,1.0,-0.1785416666666677,0.599999999999909,0.599999999999909,0.599999999999909
2024,flanders,4,0.0,0.20041666666666558,0.30604166666667254,1.0,-0.16520833333333407,1.0,1.0,1.0
2024,wallonia,1,0.0,0.25375000000000014,0.4393750000000054,1.0,-0.23187500000000227,0.0,0.0,0.0
2024,wallonia,2,0.0,0.22974999999999945,0.30604166666667254,0.86666666666666,-0.16520833333333407,0.2999999999999545,0.2999999999999545,0.2999999999999545
2024,wallonia,3,0.0,0.2150833333333324,0.33937500000000487,1.0,-0.1785416666666677,0.599999999999909,0.599999999999909,0.599999999999909
2024,wallonia,4,0.0,0.20041666666666558,0.30604166666667254,1.0,-0.16520833333333407,1.0,1.0,1.0
2025,belgium,1,0.0,0.25937500000000036,0.4609375000000071,1.0,-0.2421875,0.0,0.0,0.0
2025,belgium,2,0.0,0.22937499999999944,0.29427083333333925,0.8333333333333286,-0.15885416666666785,0.2999999999999545,0.2999999999999545,0.2999999999999545
2025,belgium,3,0.0,0.2110416666666648,0.33593750000000444,1.0,-0.17552083333333446,0.599999999999909,0.599999999999909,0.599999999999909
2025,belgium,4,0.0,0.19270833333333215,0.29427083333333925,1.0,-0.15885416666666785,1.0,1.0,1.0
2025,brussels,1,0.0,0.25937500000000036,0.4609375000000071,1.0,-0.2421875,0.0,0.0,0.0
2025,brussels,2,0.0,0.22937499999999944,0.29427083333333925,0.8333333333333286,-0.15885416666666785,0.2999999999999545,0.2999999999999545,0.2999999999999545
2025,brussels,3,0.0,0.2110416666666648,0.33593750000000444,1.0,-0.17552083333333446,0.599999999999909,0.599999999999909,0.599999999999909
2025,brussels,4,0.0,0.19270833333333215,0.29427083333333925,1.0,-0.15885416666666785,1.0,1.0,1.0
2025,flanders,1,0.0,0.25937500000000036,0.4609375000000071,1.0,-0.2421875,0.0,0.0,0.0
2025,flanders,2,0.0,0.22937499999999944,0.29427083333333925,0.8333333333333286,-0.15885416666666785,0.2999999999999545,0.2999999999999545,0.2999999999999545
2025,flanders,3,0.0,0.2110416666666648,0.33593750000000444,1.0,-0.17552083333333446,0.599999999999909,0.599999999999909,0.599999999999909
2025,flanders,4,0.0,0.19270833333333215,0.29427083333333925,1.0,-0.15885416666666785,1.0,1.0,1.0
2025,wallonia,1,0.0,0.25937500000000036,0.4609375000000071,1.0,-0.2421875,0.0,0.0,0.0
2025,wallonia,2,0.0,0.22937499999999944,0.29427083333333925,0.8333333333333286,-0.15885416666666785,0.2999999999999545,0.2999999999999545,0.2999999999999545
2025,wallonia,3,0.0,0.2110416666666648,0.33593750000000444,1.0,-0.17552083333333446,0.599999999999909,0.599999999999909,0.599999999999909
2025,wallonia,4,0.0,0.19270833333333215,0.29427083333333925,1.0,-0.15885416666666785,1.0,1.0,1.0
2026,belgium,1,0.0,0.26500000000000057,0.4825000000000017,1.0,-0.2525000000000013,0.0,0.0,0.0
2026,belgium,2,0.0,0.22899999999999943,0.2825000000000024,0.7999999999999972,-0.15250000000000163,0.2999999999999545,0.2999999999999545,0.2999999999999545
2026,belgium,3,0.0,0.20699999999999896,0.332500000000004,1.0,-0.1725000000000012,0.599999999999909,0.599999999999909,0.599999999999909
2026,belgium,4,0.0,0.1850000000000005,0.2825000000000024,1.0,-0.15250000000000163,1.0,1.0,1.0
2026,brussels,1,0.0,0.26500000000000057,0.4825000000000017,1.0,-0.2525000000000013,0.0,0.0,0.0
2026,brussels,2,0.0,0.22899999999999943,0.2825000000000024,0.7999999999999972,-0.15250000000000163,0.2999999999999545,0.2999999999999545,0.2999999999999545
2026,brussels,3,0.0,0.20699999999999896,0.332500000000004,1.0,-0.1725000000000012,0.599999999999909,0.599999999999909,0.599999999999909
2026,brussels,4,0.0,0.1850000000000005,0.2825000000000024,1.0,-0.15250000000000163,1.0,1.0,1.0
2026,flanders,1,0.0,0.26500000000000057,0.4825000000000017,1.0,-0.2525000000000013,0.0,0.0,0.0
2026,flanders,2,0.0,0.22899999999999943,0.2825000000000024,0.7999999999999972,-0.15250000000000163,0.2999999999999545,0.2999999999999545,0.2999999999999545
2026,flanders,3,0.0,0.20699999999999896,0.332500000000004,1.0,-0.1725000000000012,0.599999999999909,0.599999999999909,0.599999999999909
2026,flanders,4,0.0,0.1850000000000005,0.2825000000000024,1.0,-0.15250000000000163,1.0,1.0,1.0
2026,wallonia,1,0.0,0.26500000000000057,0.4825000000000017,1.0,-0.2525000000000013,0.0,0.0,0.0
2026,wallonia,2,0.0,0.22899999999999943,0.2825000000000024,0.7999999999999972,-0.15250000000000163,0.2999999999999545,0.2999999999999545,0.2999999999999545
2026,wallonia,3,0.0,0.20699999999999896,0.332500000000004,1.0,-0.1725000000000012,0.599999999999909,0.599999999999909,0.599999999999909
2026,wallonia,4,0.0,0.1850000000000005,0.2825000000000024,1.0,-0.15250000000000163,1.0,1.0,1.0
2027,belgium,1,0.0,0.2706250000000008,0.5040625000000034,1.0,-0.26281250000000256,0.0,0.0,0.0
2027,belgium,2,0.0,0.22862499999999952,0.27072916666666913,0.7666666666666657,-0.14614583333333542,0.2999999999999545,0.2999999999999545,0.2999999999999545
2027,belgium,3,0.0,0.20295833333333313,0.3290625000000036,1.0,-0.16947916666666796,0.599999999999909,0.599999999999909,0.599999999999909
2027,belgium,4,0.0,0.17729166666666707,0.27072916666666913,1.0,-0.14614583333333542,1.0,1.0,1.0
2027,brussels,1,0.0,0.2706250000000008,0.5040625000000034,1.0,-0.26281250000000256,0.0,0.0,0.0
2027,brussels,2,0.0,0.22862499999999952,0.27072916666666913,0.7666666666666657,-0.14614583333333542,0.2999999999999545,0.2999999999999545,0.2999999999999545
2027,brussels,3,0.0,0.20295833333333313,0.3290625000000036,1.0,-0.16947916666666796,0.599999999999909,0.599999999999909,0.599999999999909
2027,brussels,4,0.0,0.17729166666666707,0.27072916666666913,1.0,-0.14614583333333542,1.0,1.0,1.0
2027,flanders,1,0.0,0.2706250000000008,0.5040625000000034,1.0,-0.26281250000000256,0.0,0.0,0.0
2027,flanders,2,0.0,0.22862499999999952,0.27072916666666913,0.7666666666666657,-0.14614583333333542,0.2999999999999545,0.2999999999999545,0.2999999999999545
2027,flanders,3,0.0,0.20295833333333313,0.3290625000000036,1.0,-0.16947916666666796,0.599999999999909,0.599999999999909,0.599999999999909
2027,flanders,4,0.0,0.17729166666666707,0.27072916666666913,1.0,-0.14614583333333542,1.0,1.0,1.0
2027,wallonia,1,0.0,0.2706250000000008,0.5040625000000034,1.0,-0.26281250000000256,0.0,0.0,0.0
2027,wallonia,2,0.0,0.22862499999999952,0.27072916666666913,0.7666666666666657,-0.14614583333333542,0.2999999999999545,0.2999999999999545,0.2999999999999545
2027,wallonia,3,0.0,0.20295833333333313,0.3290625000000036,1.0,-0.16947916666666796,0.599999999999909,0.599999999999909,0.599999999999909
2027,wallonia,4,0.0,0.17729166666666707,0.27072916666666913,1.0,-0.14614583333333542,1.0,1.0,1.0
2028,belgium,1,0.0,0.2762499999999992,0.5256250000000051,1.0,-0.2731250000000003,0.0,0.0,0.0
2028,belgium,2,0.0,0.2282499999999995,0.25895833333333584,0.7333333333333343,-0.13979166666666742,0.2999999999999545,0.2999999999999545,0.2999999999999545
2028,belgium,3,0.0,0.19891666666666552,0.32562500000000405,1.0,-0.16645833333333382,0.599999999999909,0.599999999999909,0.599999999999909
2028,belgium,4,0.0,0.16958333333333364,0.25895833333333584,1.0,-0.13979166666666742,1.0,1.0,1.0
2028,brussels,1,0.0,0.2762499999999992,0.5256250000000051,1.0,-0.2731250000000003,0.0,0.0,0.0
2028,brussels,2,0.0,0.2282499999999995,0.25895833333333584,0.7333333333333343,-0.13979166666666742,0.2999999999999545,0.2999999999999545,0.2999999999999545
2028,brussels,3,0.0,0.19891666666666552,0.32562500000000405,1.0,-0.16645833333333382,0.599999999999909,0.599999999999909,0.599999999999909
2028,brussels,4,0.0,0.16958333333333364,0.25895833333333584,1.0,-0.13979166666666742,1.0,1.0,1.0
2028,flanders,1,0.0,0.2762499999999992,0.5256250000000051,1.0,-0.2731250000000003,0.0,0.0,0.0
2028,flanders,2,0.0,0.2282499999999995,0.25895833333333584,0.7333333333333343,-0.13979166666666742,0.2999999999999545,0.2999999999999545,0.2999999999999545
2028,flanders,3,0.0,0.19891666666666552,0.32562500000000405,1.0,-0.16645833333333382,0.599999999999909,0.599999999999909,0.599999999999909
2028,flanders,4,0.0,0.16958333333333364,0.25895833333333584,1.0,-0.13979166666666742,1.0,1.0,1.0
2028,wallonia,1,0.0,0.2762499999999992,0.5256250000000051,1.0,-0.2731250000000003,0.0,0.0,0.0
2028,wallonia,2,0.0,0.2282499999999995,0.25895833333333584,0.7333333333333343,-0.13979166666666742,0.2999999999999545,0.2999999999999545,0.2999999999999545
2028,wallonia,3,0.0,0.19891666666666552,0.32562500000000405,1.0,-0.16645833333333382,0.599999999999909,0.599999999999909,0.599999999999909
2028,wallonia,4,0.0,0.16958333333333364,0.25895833333333584,1.0,-0.13979166666666742,1.0,1.0,1.0
2029,belgium,1,0.0,0.28187499999999943,0.5471875000000068,1.0,-0.28343750000000156,0.0,0.0,0.0
2029,belgium,2,0.0,0.2278749999999996,0.24718750000000256,0.7000000000000028,-0.1334375000000012,0.2999999999999545,0.2999999999999545,0.2999999999999545
2029,belgium,3,0.0,0.1948749999999997,0.3221875000000036,1.0,-0.16343750000000057,0.599999999999909,0.599999999999909,0.599999999999909
2029,belgium,4,0.0,0.1618750000000002,0.24718750000000256,1.0,-0.1334375000000012,1.0,1.0,1.0
2029,brussels,1,0.0,0.28187499999999943,0.5471875000000068,1.0,-0.28343750000000156,0.0,0.0,0.0
2029,brussels,2,0.0,0.2278749999999996,0.24718750000000256,0.7000000000000028,-0.1334375000000012,0.2999999999999545,0.2999999999999545,0.2999999999999545
2029,brussels,3,0.0,0.1948749999999997,0.3221875000000036,1.0,-0.16343750000000057,0.599999999999909,0.599999999999909,0.599999999999909
2029,brussels,4,0.0,0.1618750000000002,0.24718750000000256,1.0,-0.1334375000000012,1.0,1.0,1.0
2029,flanders,1,0.0,0.28187499999999943,0.5471875000000068,1.0,-0.28343750000000156,0.0,0.0,0.0
2029,flanders,2,0.0,0.2278749999999996,0.24718750000000256,0.7000000000000028,-0.1334375000000012,0.2999999999999545,0.2999999999999545,0.2999999999999545
2029,flanders,3,0.0,0.1948749999999997,0.3221875000000036,1.0,-0.16343750000000057,0.599999999999909,0.599999999999909,0.599999999999909
2029,flanders,4,0.0,0.1618750000000002,0.24718750000000256,1.0,-0.1334375000000012,1.0,1.0,1.0
2029,wallonia,1,0.0,0.28187499999999943,0.5471875000000068,1.0,-0.28343750000000156,0.0,0.0,0.0
2029,wallonia,2,0.0,0.2278749999999996,0.24718750000000256,0.7000000000000028,-0.1334375000000012,0.2999999999999545,0.2999999999999545,0.2999999999999545
2029,wallonia,3,0.0,0.1948749999999997,0.3221875000000036,1.0,-0.16343750000000057,0.599999999999909,0.599999999999909,0.599999999999909
2029,wallonia,4,0.0,0.1618750000000002,0.24718750000000256,1.0,-0.1334375000000012,1.0,1.0,1.0
2030,belgium,1,0.0,0.28749999999999964,0.5687500000000014,1.0,-0.2937499999999993,0.0,0.0,0.0
2030,belgium,2,0.0,0.2274999999999996,0.23541666666666927,0.6666666666666572,-0.127083333333335,0.2999999999999545,0.2999999999999545,0.2999999999999545
2030,belgium,3,0.0,0.19083333333333208,0.3187500000000032,1.0,-0.16041666666666732,0.599999999999909,0.599999999999909,0.599999999999909
2030,belgium,4,0.0,0.15416666666666679,0.23541666666666927,1.0,-0.127083333333335,1.0,1.0,1.0
2030,brussels,1,0.0,0.28749999999999964,0.5687500000000014,1.0,-0.2937499999999993,0.0,0.0,0.0
2030,brussels,2,0.0,0.2274999999999996,0.23541666666666927,0.6666666666666572,-0.127083333333335,0.2999999999999545,0.2999999999999545,0.2999999999999545
2030,brussels,3,0.0,0.19083333333333208,0.3187500000000032,1.0,-0.16041666666666732,0.599999999999909,0.599999999999909,0.599999999999909
2030,brussels,4,0.0,0.15416666666666679,0.23541666666666927,1.0,-0.127083333333335,1.0,1.0,1.0
2030,flanders,1,0.0,0.28749999999999964,0.5687500000000014,1.0,-0.2937499999999993,0.0,0.0,0.0
2030,flanders,2,0.0,0.2274999999999996,0.23541666666666927,0.6666666666666572,-0.127083333333335,0.2999999999999545,0.2999999999999545,0.2999999999999545
2030,flanders,3,0.0,0.19083333333333208,0.3187500000000032,1.0,-0.16041666666666732,0.599999999999909,0.599999999999909,0.599999999999909
2030,flanders,4,0.0,0.15416666666666679,0.23541666666666927,1.0,-0.127083333333335,1.0,1.0,1.0
2030,wallonia,1,0.0,0.28749999999999964,0.5687500000000014,1.0,-0.2937499999999993,0.0,0.0,0.0
2030,wallonia,2,0.0,0.2274999999999996,0.23541666666666927,0.6666666666666572,-0.127083333333335,0.2999999999999545,0.2999999999999545,0.2999999999999545
2030,wallonia,3,0.0,0.19083333333333208,0.3187500000000032,1.0,-0.16041666666666732,0.599999999999909,0.599999999999909,0.599999999999909
2030,wallonia,4,0.0,0.15416666666666679,0.23541666666666927,1.0,-0.127083333333335,1.0,1.0,1.0
2031,belgium,1,0.0,0.29312499999999986,0.5903125000000031,1.0,-0.30406250000000057,0.0,0.0,0.0
2031,belgium,2,0.0,0.22712499999999958,0.22364583333333599,0.6333333333333258,-0.12072916666666877,0.2999999999999545,0.2999999999999545,0.2999999999999545
2031,belgium,3,0.0,0.18679166666666625,0.31531250000000277,1.0,-0.15739583333333407,0.599999999999909,0.599999999999909,0.599999999999909
2031,belgium,4,0.0,0.14645833333333336,0.22364583333333599,1.0,-0.12072916666666877,1.0,1.0,1.0
2031,brussels,1,0.0,0.29312499999999986,0.5903125000000031,1.0,-0.30406250000000057,0.0,0.0,0.0
2031,brussels,2,0.0,0.22712499999999958,0.22364583333333599,0.6333333333333258,-0.12072916666666877,0.2999999999999545,0.2999999999999545,0.2999999999999545
2031,brussels,3,0.0,0.18679166666666625,0.31531250000000277,1.0,-0.15739583333333407,0.599999999999909,0.599999999999909,0.599999999999909
2031,brussels,4,0.0,0.14645833333333336,0.22364583333333599,1.0,-0.12072916666666877,1.0,1.0,1.0
2031,flanders,1,0.0,0.29312499999999986,0.5903125000000031,1.0,-0.30406250000000057,0.0,0.0,0.0
2031,flanders,2,0.0,0.22712499999999958,0.22364583333333599,0.6333333333333258,-0.12072916666666877,0.2999999999999545,0.2999999999999545,0.2999999999999545
2031,flanders,3,0.0,0.18679166666666625,0.31531250000000277,1.0,-0.15739583333333407,0.599999999999909,0.599999999999909,0.599999999999909
2031,flanders,4,0.0,0.14645833333333336,0.22364583333333599,1.0,-0.12072916666666877,1.0,1.0,1.0
2031,wallonia,1,0.0,0.29312499999999986,0.5903125000000031,1.0,-0.30406250000000057,0.0,0.0,0.0
2031,wallonia,2,0.0,0.22712499999999958,0.22364583333333599,0.6333333333333258,-0.12072916666666877,0.2999999999999545,0.2999999999999545,0.2999999999999545
2031,wallonia,3,0.0,0.18679166666666625,0.31531250000000277,1.0,-0.15739583333333407,0.599999999999909,0.599999999999909,0.599999999999909
2031,wallonia,4,0.0,0.14645833333333336,0.22364583333333599,1.0,-0.12072916666666877,1.0,1.0,1.0
2032,belgium,1,0.0,0.29875000000000007,0.6118750000000048,1.0,-0.31437500000000185,0.0,0.0,0.0
2032,belgium,2,0.0,0.22674999999999967,0.2118750000000027,0.5999999999999943,-0.11437500000000078,0.2999999999999545,0.2999999999999545,0.2999999999999545
2032,belgium,3,0.0,0.18274999999999864,0.31187500000000323,1.0,-0.15437500000000082,0.599999999999909,0.599999999999909,0.599999999999909
2032,belgium,4,0.0,0.13874999999999993,0.2118750000000027,1.0,-0.11437500000000078,1.0,1.0,1.0
2032,brussels,1,0.0,0.29875000000000007,0.6118750000000048,1.0,-0.31437500000000185,0.0,0.0,0.0
2032,brussels,2,0.0,0.22674999999999967,0.2118750000000027,0.5999999999999943,-0.11437500000000078,0.2999999999999545,0.2999999999999545,0.2999999999999545
2032,brussels,3,0.0,0.18274999999999864,0.31187500000000323,1.0,-0.15437500000000082,0.599999999999909,0.599999999999909,0.599999999999909
2032,brussels,4,0.0,0.13874999999999993,0.2118750000000027,1.0,-0.11437500000000078,1.0,1.0,1.0
2032,flanders,1,0.0,0.29875000000000007,0.6118750000000048,1.0,-0.31437500000000185,0.0,0.0,0.0
2032,flanders,2,0.0,0.22674999999999967,0.2118750000000027,0.5999999999999943,-0.11437500000000078,0.2999999999999545,0.2999999999999545,0.2999999999999545
2032,flanders,3,0.0,0.18274999999999864,0.31187500000000323,1.0,-0.15437500000000082,0.599999999999909,0.599999999999909,0.599999999999909
2032,flanders,4,0.0,0.13874999999999993,0.2118750000000027,1.0,-0.11437500000000078,1.0,1.0,1.0
2032,wallonia,1,0.0,0.29875000000000007,0.6118750000000048,1.0,-0.31437500000000185,0.0,0.0,0.0
2032,wallonia,2,0.0,0.22674999999999967,0.2118750000000027,0.5999999999999943,-0.11437500000000078,0.2999999999999545,0.2999999999999545,0.2999999999999545
2032,wallonia,3,0.0,0.18274999999999864,0.31187500000000323,1.0,-0.15437500000000082,0.599999999999909,0.599999999999909,0.599999999999909
2032,wallonia,4,0.0,0.13874999999999993,0.2118750000000027,1.0,-0.11437500000000078,1.0,1.0,1.0
2033,belgium,1,0.0,0.3043750000000003,0.6334375000000065,1.0,-0.3246874999999996,0.0,0.0,0.0
2033,belgium,2,0.0,0.22637499999999966,0.20010416666666941,0.5666666666666629,-0.10802083333333456,0.2999999999999545,0.2999999999999545,0.2999999999999545
2033,belgium,3,0.0,0.1787083333333328,0.3084375000000028,1.0,-0.15135416666666757,0.599999999999909,0.599999999999909,0.599999999999909
2033,belgium,4,0.0,0.1310416666666665,0.20010416666666941,1.0,-0.10802083333333456,1.0,1.0,1.0
2033,brussels,1,0.0,0.3043750000000003,0.6334375000000065,1.0,-0.3246874999999996,0.0,0.0,0.0
2033,brussels,2,0.0,0.22637499999999966,0.20010416666666941,0.5666666666666629,-0.10802083333333456,0.2999999999999545,0.2999999999999545,0.2999999999999545
2033,brussels,3,0.0,0.1787083333333328,0.3084375000000028,1.0,-0.15135416666666757,0.599999999999909,0.599999999999909,0.599999999999909
2033,brussels,4,0.0,0.1310416666666665,0.20010416666666941,1.0,-0.10802083333333456,1.0,1.0,1.0
2033,flanders,1,0.0,0.3043750000000003,0.6334375000000065,1.0,-0.3246874999999996,0.0,0.0,0.0
2033,flanders,2,0.0,0.22637499999999966,0.20010416666666941,0.5666666666666629,-0.10802083333333456,0.2999999999999545,0.2999999999999545,0.2999999999999545
2033,flanders,3,0.0,0.1787083333333328,0.3084375000000028,1.0,-0.15135416666666757,0.599999999999909,0.599999999999909,0.599999999999909
2033,flanders,4,0.0,0.1310416666666665,0.20010416666666941,1.0,-0.10802083333333456,1.0,1.0,1.0
2033,wallonia,1,0.0,0.3043750000000003,0.6334375000000065,1.0,-0.3246874999999996,0.0,0.0,0.0
2033,wallonia,2,0.0,0.22637499999999966,0.20010416666666941,0.5666666666666629,-0.10802083333333456,0.2999999999999545,0.2999999999999545,0.2999999999999545
2033,wallonia,3,0.0,0.1787083333333328,0.3084375000000028,1.0,-0.15135416666666757,0.599999999999909,0.599999999999909,0.599999999999909
2033,wallonia,4,0.0,0.1310416666666665,0.20010416666666941,1.0,-0.10802083333333456,1.0,1.0,1.0
2034,belgium,1,0.0,0.3100000000000005,0.6550000000000011,1.0,-0.33500000000000085,0.0,0.0,0.0
2034,belgium,2,0.0,0.22599999999999965,0.18833333333333613,0.5333333333333314,-0.10166666666666835,0.2999999999999545,0.2999999999999545,0.2999999999999545
2034,belgium,3,0.0,0.1746666666666652,0.3050000000000024,1.0,-0.14833333333333432,0.599999999999909,0.599999999999909,0.599999999999909
2034,belgium,4,0.0,0.12333333333333307,0.18833333333333613,1.0,-0.10166666666666835,1.0,1.0,1.0
2034,brussels,1,0.0,0.3100000000000005,0.6550000000000011,1.0,-0.33500000000000085,0.0,0.0,0.0
2034,brussels,2,0.0,0.22599999999999965,0.18833333333333613,0.5333333333333314,-0.10166666666666835,0.2999999999999545,0.2999999999999545,0.2999999999999545
2034,brussels,3,0.0,0.1746666666666652,0.3050000000000024,1.0,-0.14833333333333432,0.599999999999909,0.599999999999909,0.599999999999909
2034,brussels,4,0.0,0.12333333333333307,0.18833333333333613,1.0,-0.10166666666666835,1.0,1.0,1.0
2034,flanders,1,0.0,0.3100000000000005,0.6550000000000011,1.0,-0.33500000000000085,0.0,0.0,0.0
2034,flanders,2,0.0,0.22599999999999965,0.18833333333333613,0.5333333333333314,-0.10166666666666835,0.2999999999999545,0.2999999999999545,0.2999999999999545
2034,flanders,3,0.0,0.1746666666666652,0.3050000000000024,1.0,-0.14833333333333432,0.599999999999909,0.599999999999909,0.599999999999909
2034,flanders,4,0.0,0.12333333333333307,0.18833333333333613,1.0,-0.10166666666666835,1.0,1.0,1.0
2034,wallonia,1,0.0,0.3100000000000005,0.6550000000000011,1.0,-0.33500000000000085,0.0,0.0,0.0
2034,wallonia,2,0.0,0.22599999999999965,0.18833333333333613,0.5333333333333314,-0.10166666666666835,0.2999999999999545,0.2999999999999545,0.2999999999999545
2034,wallonia,3,0.0,0.1746666666666652,0.3050000000000024,1.0,-0.14833333333333432,0.599999999999909,0.599999999999909,0.599999999999909
2034,wallonia,4,0.0,0.12333333333333307,0.18833333333333613,1.0,-0.10166666666666835,1.0,1.0,1.0
2035,belgium,1,0.0,0.3156250000000007,0.6765625000000028,1.0,-0.34531250000000213,0.0,0.0,0.0
2035,belgium,2,0.0,0.22562499999999974,0.17656250000000284,0.5,-0.09531250000000036,0.2999999999999545,0.2999999999999545,0.2999999999999545
2035,belgium,3,0.0,0.17062499999999936,0.30156250000000284,1.0,-0.14531250000000107,0.599999999999909,0.599999999999909,0.599999999999909
2035,belgium,4,0.0,0.11562499999999964,0.17656250000000284,1.0,-0.09531250000000036,1.0,1.0,1.0
2035,brussels,1,0.0,0.3156250000000007,0.6765625000000028,1.0,-0.34531250000000213,0.0,0.0,0.0
2035,brussels,2,0.0,0.22562499999999974,0.17656250000000284,0.5,-0.09531250000000036,0.2999999999999545,0.2999999999999545,0.2999999999999545
2035,brussels,3,0.0,0.17062499999999936,0.30156250000000284,1.0,-0.14531250000000107,0.599999999999909,0.599999999999909,0.599999999999909
2035,brussels,4,0.0,0.11562499999999964,0.17656250000000284,1.0,-0.09531250000000036,1.0,1.0,1.0
2035,flanders,1,0.0,0.3156250000000007,0.6765625000000028,1.0,-0.34531250000000213,0.0,0.0,0.0
2035,flanders,2,0.0,0.22562499999999974,0.17656250000000284,0.5,-0.09531250000000036,0.2999999999999545,0.2999999999999545,0.2999999999999545
2035,flanders,3,0.0,0.17062499999999936,0.30156250000000284,1.0,-0.14531250000000107,0.599999999999909,0.599999999999909,0.599999999999909
2035,flanders,4,0.0,0.11562499999999964,0.17656250000000284,1.0,-0.09531250000000036,1.0,1.0,1.0
2035,wallonia,1,0.0,0.3156250000000007,0.6765625000000028,1.0,-0.34531250000000213,0.0,0.0,0.0
2035,wallonia,2,0.0,0.22562499999999974,0.17656250000000284,0.5,-0.09531250000000036,0.2999999999999545,0.2999999999999545,0.2999999999999545
2035,wallonia,3,0.0,0.17062499999999936,0.30156250000000284,1.0,-0.14531250000000107,0.599999999999909,0.599999999999909,0.599999999999909
2035,wallonia,4,0.0,0.11562499999999964,0.17656250000000284,1.0,-0.09531250000000036,1.0,1.0,1.0
2036,belgium,1,0.0,0.32124999999999915,0.6981250000000045,1.0,-0.35562499999999986,0.0,0.0,0.0
2036,belgium,2,0.0,0.22524999999999973,0.16479166666666956,0.46666666666666856,-0.08895833333333414,0.2999999999999545,0.2999999999999545,0.2999999999999545
2036,belgium,3,0.0,0.16658333333333175,0.2981250000000024,1.0,-0.14229166666666693,0.599999999999909,0.599999999999909,0.599999999999909
2036,belgium,4,0.0,0.10791666666666622,0.16479166666666956,1.0,-0.08895833333333414,1.0,1.0,1.0
2036,brussels,1,0.0,0.32124999999999915,0.6981250000000045,1.0,-0.35562499999999986,0.0,0.0,0.0
2036,brussels,2,0.0,0.22524999999999973,0.16479166666666956,0.46666666666666856,-0.08895833333333414,0.2999999999999545,0.2999999999999545,0.2999999999999545
2036,brussels,3,0.0,0.16658333333333175,0.2981250000000024,1.0,-0.14229166666666693,0.599999999999909,0.599999999999909,0.599999999999909
2036,brussels,4,0.0,0.10791666666666622,0.16479166666666956,1.0,-0.08895833333333414,1.0,1.0,1.0
2036,flanders,1,0.0,0.32124999999999915,0.6981250000000045,1.0,-0.35562499999999986,0.0,0.0,0.0
2036,flanders,2,0.0,0.22524999999999973,0.16479166666666956,0.46666666666666856,-0.08895833333333414,0.2999999999999545,0.2999999999999545,0.2999999999999545
2036,flanders,3,0.0,0.16658333333333175,0.2981250000000024,1.0,-0.14229166666666693,0.599999999999909,0.599999999999909,0.599999999999909
2036,flanders,4,0.0,0.10791666666666622,0.16479166666666956,1.0,-0.08895833333333414,1.0,1.0,1.0
2036,wallonia,1,0.0,0.32124999999999915,0.6981250000000045,1.0,-0.35562499999999986,0.0,0.0,0.0
2036,wallonia,2,0.0,0.22524999999999973,0.16479166666666956,0.46666666666666856,-0.08895833333333414,0.2999999999999545,0.2999999999999545,0.2999999999999545
2036,wallonia,3,0.0,0.16658333333333175,0.2981250000000024,1.0,-0.14229166666666693,0.599999999999909,0.599999999999909,0.599999999999909
2036,wallonia,4,0.0,0.10791666666666622,0.16479166666666956,1.0,-0.08895833333333414,1.0,1.0,1.0
2037,belgium,1,0.0,0.32687499999999936,0.7196875000000063,1.0,-0.36593750000000114,0.0,0.0,0.0
2037,belgium,2,0.0,0.22487499999999971,0.15302083333333627,0.4333333333333229,-0.08260416666666792,0.2999999999999545,0.2999999999999545,0.2999999999999545
2037,belgium,3,0.0,0.16254166666666592,0.294687500000002,1.0,-0.13927083333333368,0.599999999999909,0.599999999999909,0.599999999999909
2037,belgium,4,0.0,0.10020833333333279,0.15302083333333627,1.0,-0.08260416666666792,1.0,1.0,1.0
2037,brussels,1,0.0,0.32687499999999936,0.7196875000000063,1.0,-0.36593750000000114,0.0,0.0,0.0
2037,brussels,2,0.0,0.22487499999999971,0.15302083333333627,0.4333333333333229,-0.08260416666666792,0.2999999999999545,0.2999999999999545,0.2999999999999545
2037,brussels,3,0.0,0.16254166666666592,0.294687500000002,1.0,-0.13927083333333368,0.599999999999909,0.599999999999909,0.599999999999909
2037,brussels,4,0.0,0.10020833333333279,0.15302083333333627,1.0,-0.08260416666666792,1.0,1.0,1.0
2037,flanders,1,0.0,0.32687499999999936,0.7196875000000063,1.0,-0.36593750000000114,0.0,0.0,0.0
2037,flanders,2,0.0,0.22487499999999971,0.15302083333333627,0.4333333333333229,-0.08260416666666792,0.2999999999999545,0.2999999999999545,0.2999999999999545
2037,flanders,3,0.0,0.16254166666666592,0.294687500000002,1.0,-0.13927083333333368,0.599999999999909,0.599999999999909,0.599999999999909
2037,flanders,4,0.0,0.10020833333333279,0.15302083333333627,1.0,-0.08260416666666792,1.0,1.0,1.0
2037,wallonia,1,0.0,0.32687499999999936,0.7196875000000063,1.0,-0.36593750000000114,0.0,0.0,0.0
2037,wallonia,2,0.0,0.22487499999999971,0.15302083333333627,0.4333333333333229,-0.08260416666666792,0.2999999999999545,0.2999999999999545,0.2999999999999545
2037,wallonia,3,0.0,0.16254166666666592,0.294687500000002,1.0,-0.13927083333333368,0.599999999999909,0.599999999999909,0.599999999999909
2037,wallonia,4,0.0,0.10020833333333279,0.15302083333333627,1.0,-0.08260416666666792,1.0,1.0,1.0
2038,belgium,1,0.0,0.3324999999999996,0.7412500000000009,1.0,-0.3762500000000024,0.0,0.0,0.0
2038,belgium,2,0.0,0.2244999999999998,0.14125000000000298,0.3999999999999915,-0.0762500000000017,0.2999999999999545,0.2999999999999545,0.2999999999999545
2038,belgium,3,0.0,0.15850000000000009,0.29125000000000156,1.0,-0.13625000000000043,0.599999999999909,0.599999999999909,0.599999999999909
2038,belgium,4,0.0,0.09249999999999936,0.14125000000000298,1.0,-0.0762500000000017,1.0,1.0,1.0
2038,brussels,1,0.0,0.3324999999999996,0.7412500000000009,1.0,-0.3762500000000024,0.0,0.0,0.0
2038,brussels,2,0.0,0.2244999999999998,0.14125000000000298,0.3999999999999915,-0.0762500000000017,0.2999999999999545,0.2999999999999545,0.2999999999999545
2038,brussels,3,0.0,0.15850000000000009,0.29125000000000156,1.0,-0.13625000000000043,0.599999999999909,0.599999999999909,0.599999999999909
2038,brussels,4,0.0,0.09249999999999936,0.14125000000000298,1.0,-0.0762500000000017,1.0,1.0,1.0
2038,flanders,1,0.0,0.3324999999999996,0.7412500000000009,1.0,-0.3762500000000024,0.0,0.0,0.0
2038,flanders,2,0.0,0.2244999999999998,0.14125000000000298,0.3999999999999915,-0.0762500000000017,0.2999999999999545,0.2999999999999545,0.2999999999999545
2038,flanders,3,0.0,0.15850000000000009,0.29125000000000156,1.0,-0.13625000000000043,0.599999999999909,0.599999999999909,0.599999999999909
2038,flanders,4,0.0,0.09249999999999936,0.14125000000000298,1.0,-0.0762500000000017,1.0,1.0,1.0
2038,wallonia,1,0.0,0.3324999999999996,0.7412500000000009,1.0,-0.3762500000000024,0.0,0.0,0.0
2038,wallonia,2,0.0,0.2244999999999998,0.14125000000000298,0.3999999999999915,-0.0762500000000017,0.2999999999999545,0.2999999999999545,0.2999999999999545
2038,wallonia,3,0.0,0.15850000000000009,0.29125000000000156,1.0,-0.13625000000000043,0.599999999999909,0.599999999999909,0.599999999999909
2038,wallonia,4,0.0,0.09249999999999936,0.14125000000000298,1.0,-0.0762500000000017,1.0,1.0,1.0
2039,belgium,1,0.0,0.3381249999999998,0.7628125000000026,1.0,-0.38656250000000014,0.0,0.0,0.0
2039,belgium,2,0.0,0.2241249999999998,0.1294791666666697,0.36666666666666003,-0.06989583333333371,0.2999999999999545,0.2999999999999545,0.2999999999999545
2039,belgium,3,0.0,0.15445833333333248,0.287812500000002,1.0,-0.13322916666666718,0.599999999999909,0.599999999999909,0.599999999999909
2039,belgium,4,0.0,0.08479166666666593,0.1294791666666697,1.0,-0.06989583333333371,1.0,1.0,1.0
2039,brussels,1,0.0,0.3381249999999998,0.7628125000000026,1.0,-0.38656250000000014,0.0,0.0,0.0
2039,brussels,2,0.0,0.2241249999999998,0.1294791666666697,0.36666666666666003,-0.06989583333333371,0.2999999999999545,0.2999999999999545,0.2999999999999545
2039,brussels,3,0.0,0.15445833333333248,0.287812500000002,1.0,-0.13322916666666718,0.599999999999909,0.599999999999909,0.599999999999909
2039,brussels,4,0.0,0.08479166666666593,0.1294791666666697,1.0,-0.06989583333333371,1.0,1.0,1.0
2039,flanders,1,0.0,0.3381249999999998,0.7628125000000026,1.0,-0.38656250000000014,0.0,0.0,0.0
2039,flanders,2,0.0,0.2241249999999998,0.1294791666666697,0.36666666666666003,-0.06989583333333371,0.2999999999999545,0.2999999999999545,0.2999999999999545
2039,flanders,3,0.0,0.15445833333333248,0.287812500000002,1.0,-0.13322916666666718,0.599999999999909,0.599999999999909,0.599999999999909
2039,flanders,4,0.0,0.08479166666666593,0.1294791666666697,1.0,-0.06989583333333371,1.0,1.0,1.0
2039,wallonia,1,0.0,0.3381249999999998,0.7628125000000026,1.0,-0.38656250000000014,0.0,0.0,0.0
2039,wallonia,2,0.0,0.2241249999999998,0.1294791666666697,0.36666666666666003,-0.06989583333333371,0.2999999999999545,0.2999999999999545,0.2999999999999545
2039,wallonia,3,0.0,0.15445833333333248,0.287812500000002,1.0,-0.13322916666666718,0.599999999999909,0.599999999999909,0.599999999999909
2039,wallonia,4,0.0,0.08479166666666593,0.1294791666666697,1.0,-0.06989583333333371,1.0,1.0,1.0
2040,belgium,1,0.0,0.34375,0.7843750000000043,1.0,-0.3968750000000014,0.0,0.0,0.0
2040,belgium,2,0.0,0.22374999999999978,0.11770833333333641,0.3333333333333286,-0.0635416666666675,0.2999999999999545,0.2999999999999545,0.2999999999999545
2040,belgium,3,0.0,0.15041666666666664,0.2843750000000016,1.0,-0.13020833333333393,0.599999999999909,0.599999999999909,0.599999999999909
2040,belgium,4,0.0,0.0770833333333325,0.11770833333333641,1.0,-0.0635416666666675,1.0,1.0,1.0
2040,brussels,1,0.0,0.34375,0.7843750000000043,1.0,-0.3968750000000014,0.0,0.0,0.0
2040,brussels,2,0.0,0.22374999999999978,0.11770833333333641,0.3333333333333286,-0.0635416666666675,0.2999999999999545,0.2999999999999545,0.2999999999999545
2040,brussels,3,0.0,0.15041666666666664,0.2843750000000016,1.0,-0.13020833333333393,0.599999999999909,0.599999999999909,0.599999999999909
2040,brussels,4,0.0,0.0770833333333325,0.11770833333333641,1.0,-0.0635416666666675,1.0,1.0,1.0
2040,flanders,1,0.0,0.34375,0.7843750000000043,1.0,-0.3968750000000014,0.0,0.0,0.0
2040,flanders,2,0.0,0.22374999999999978,0.11770833333333641,0.3333333333333286,-0.0635416666666675,0.2999999999999545,0.2999999999999545,0.2999999999999545
2040,flanders,3,0.0,0.15041666666666664,0.2843750000000016,1.0,-0.13020833333333393,0.599999999999909,0.599999999999909,0.599999999999909
2040,flanders,4,0.0,0.0770833333333325,0.11770833333333641,1.0,-0.0635416666666675,1.0,1.0,1.0
2040,wallonia,1,0.0,0.34375,0.7843750000000043,1.0,-0.3968750000000014,0.0,0.0,0.0
2040,wallonia,2,0.0,0.22374999999999978,0.11770833333333641,0.3333333333333286,-0.0635416666666675,0.2999999999999545,0.2999999999999545,0.2999999999999545
2040,wallonia,3,0.0,0.15041666666666664,0.2843750000000016,1.0,-0.13020833333333393,0.599999999999909,0.599999999999909,0.599999999999909
2040,wallonia,4,0.0,0.0770833333333325,0.11770833333333641,1.0,-0.0635416666666675,1.0,1.0,1.0
2041,belgium,1,0.0,0.3493750000000002,0.805937500000006,1.0,-0.4071875000000027,0.0,0.0,0.0
2041,belgium,2,0.0,0.22337499999999988,0.10593749999999957,0.29999999999999716,-0.05718750000000128,0.2999999999999545,0.2999999999999545,0.2999999999999545
2041,belgium,3,0.0,0.14637499999999903,0.2809375000000012,1.0,-0.12718750000000068,0.599999999999909,0.599999999999909,0.599999999999909
2041,belgium,4,0.0,0.06937500000000085,0.10593749999999957,1.0,-0.05718750000000128,1.0,1.0,1.0
2041,brussels,1,0.0,0.3493750000000002,0.805937500000006,1.0,-0.4071875000000027,0.0,0.0,0.0
2041,brussels,2,0.0,0.22337499999999988,0.10593749999999957,0.29999999999999716,-0.05718750000000128,0.2999999999999545,0.2999999999999545,0.2999999999999545
2041,brussels,3,0.0,0.14637499999999903,0.2809375000000012,1.0,-0.12718750000000068,0.599999999999909,0.599999999999909,0.599999999999909
2041,brussels,4,0.0,0.06937500000000085,0.10593749999999957,1.0,-0.05718750000000128,1.0,1.0,1.0
2041,flanders,1,0.0,0.3493750000000002,0.805937500000006,1.0,-0.4071875000000027,0.0,0.0,0.0
2041,flanders,2,0.0,0.22337499999999988,0.10593749999999957,0.29999999999999716,-0.05718750000000128,0.2999999999999545,0.2999999999999545,0.2999999999999545
2041,flanders,3,0.0,0.14637499999999903,0.2809375000000012,1.0,-0.12718750000000068,0.599999999999909,0.599999999999909,0.599999999999909
2041,flanders,4,0.0,0.06937500000000085,0.10593749999999957,1.0,-0.05718750000000128,1.0,1.0,1.0
2041,wallonia,1,0.0,0.3493750000000002,0.805937500000006,1.0,-0.4071875000000027,0.0,0.0,0.0
2041,wallonia,2,0.0,0.22337499999999988,0.10593749999999957,0.29999999999999716,-0.05718750000000128,0.2999999999999545,0.2999999999999545,0.2999999999999545
2041,wallonia,3,0.0,0.14637499999999903,0.2809375000000012,1.0,-0.12718750000000068,0.599999999999909,0.599999999999909,0.599999999999909
2041,wallonia,4,0.0,0.06937500000000085,0.10593749999999957,1.0,-0.05718750000000128,1.0,1.0,1.0
2042,belgium,1,0.0,0.3550000000000004,0.8275000000000006,1.0,-0.4175000000000004,0.0,0.0,0.0
2042,belgium,2,0.0,0.22299999999999986,0.09416666666666629,0.2666666666666657,-0.05083333333333506,0.2999999999999545,0.2999999999999545,0.2999999999999545
2042,belgium,3,0.0,0.1423333333333332,0.27750000000000075,1.0,-0.12416666666666742,0.599999999999909,0.599999999999909,0.599999999999909
2042,belgium,4,0.0,0.061666666666667425,0.09416666666666629,1.0,-0.05083333333333506,1.0,1.0,1.0
2042,brussels,1,0.0,0.3550000000000004,0.8275000000000006,1.0,-0.4175000000000004,0.0,0.0,0.0
2042,brussels,2,0.0,0.22299999999999986,0.09416666666666629,0.2666666666666657,-0.05083333333333506,0.2999999999999545,0.2999999999999545,0.2999999999999545
2042,brussels,3,0.0,0.1423333333333332,0.27750000000000075,1.0,-0.12416666666666742,0.599999999999909,0.599999999999909,0.599999999999909
2042,brussels,4,0.0,0.061666666666667425,0.09416666666666629,1.0,-0.05083333333333506,1.0,1.0,1.0
2042,flanders,1,0.0,0.3550000000000004,0.8275000000000006,1.0,-0.4175000000000004,0.0,0.0,0.0
2042,flanders,2,0.0,0.22299999999999986,0.09416666666666629,0.2666666666666657,-0.05083333333333506,0.2999999999999545,0.2999999999999545,0.2999999999999545
2042,flanders,3,0.0,0.1423333333333332,0.27750000000000075,1.0,-0.12416666666666742,0.599999999999909,0.599999999999909,0.599999999999909
2042,flanders,4,0.0,0.061666666666667425,0.09416666666666629,1.0,-0.05083333333333506,1.0,1.0,1.0
2042,wallonia,1,0.0,0.3550000000000004,0.8275000000000006,1.0,-0.4175000000000004,0.0,0.0,0.0
2042,wallonia,2,0.0,0.22299999999999986,0.09416666666666629,0.2666666666666657,-0.05083333333333506,0.2999999999999545,0.2999999999999545,0.2999999999999545
2042,wallonia,3,0.0,0.1423333333333332,0.27750000000000075,1.0,-0.12416666666666742,0.599999999999909,0.599999999999909,0.599999999999909
2042,wallonia,4,0.0,0.061666666666667425,0.09416666666666629,1.0,-0.05083333333333506,1.0,1.0,1.0
2043,belgium,1,0.0,0.36062500000000064,0.8490625000000023,1.0,-0.4278125000000017,0.0,0.0,0.0
2043,belgium,2,0.0,0.22262499999999985,0.082395833333333,0.23333333333333428,-0.04447916666666707,0.2999999999999545,0.2999999999999545,0.2999999999999545
2043,belgium,3,0.0,0.1382916666666656,0.2740625000000012,1.0,-0.12114583333333417,0.599999999999909,0.599999999999909,0.599999999999909
2043,belgium,4,0.0,0.053958333333333997,0.082395833333333,1.0,-0.04447916666666707,1.0,1.0,1.0
2043,brussels,1,0.0,0.36062500000000064,0.8490625000000023,1.0,-0.4278125000000017,0.0,0.0,0.0
2043,brussels,2,0.0,0.22262499999999985,0.082395833333333,0.23333333333333428,-0.04447916666666707,0.2999999999999545,0.2999999999999545,0.2999999999999545
2043,brussels,3,0.0,0.1382916666666656,0.2740625000000012,1.0,-0.12114583333333417,0.599999999999909,0.599999999999909,0.599999999999909
2043,brussels,4,0.0,0.053958333333333997,0.082395833333333,1.0,-0.04447916666666707,1.0,1.0,1.0
2043,flanders,1,0.0,0.36062500000000064,0.8490625000000023,1.0,-0.4278125000000017,0.0,0.0,0.0
2043,flanders,2,0.0,0.22262499999999985,0.082395833333333,0.23333333333333428,-0.04447916666666707,0.2999999999999545,0.2999999999999545,0.2999999999999545
2043,flanders,3,0.0,0.1382916666666656,0.2740625000000012,1.0,-0.12114583333333417,0.599999999999909,0.599999999999909,0.599999999999909
2043,flanders,4,0.0,0.053958333333333997,0.082395833333333,1.0,-0.04447916666666707,1.0,1.0,1.0
2043,wallonia,1,0.0,0.36062500000000064,0.8490625000000023,1.0,-0.4278125000000017,0.0,0.0,0.0
2043,wallonia,2,0.0,0.22262499999999985,0.082395833333333,0.23333333333333428,-0.04447916666666707,0.2999999999999545,0.2999999999999545,0.2999999999999545
2043,wallonia,3,0.0,0.1382916666666656,0.2740625000000012,1.0,-0.12114583333333417,0.599999999999909,0.599999999999909,0.599999999999909
2043,wallonia,4,0.0,0.053958333333333997,0.082395833333333,1.0,-0.04447916666666707,1.0,1.0,1.0
2044,belgium,1,0.0,0.3662499999999991,0.870625000000004,1.0,-0.43812499999999943,0.0,0.0,0.0
2044,belgium,2,0.0,0.22224999999999995,0.07062499999999972,0.20000000000000284,-0.03812500000000085,0.2999999999999545,0.2999999999999545,0.2999999999999545
2044,belgium,3,0.0,0.13424999999999976,0.2706250000000008,1.0,-0.11812500000000004,0.599999999999909,0.599999999999909,0.599999999999909
2044,belgium,4,0.0,0.04625000000000057,0.07062499999999972,1.0,-0.03812500000000085,1.0,1.0,1.0
2044,brussels,1,0.0,0.3662499999999991,0.870625000000004,1.0,-0.43812499999999943,0.0,0.0,0.0
2044,brussels,2,0.0,0.22224999999999995,0.07062499999999972,0.20000000000000284,-0.03812500000000085,0.2999999999999545,0.2999999999999545,0.2999999999999545
2044,brussels,3,0.0,0.13424999999999976,0.2706250000000008,1.0,-0.11812500000000004,0.599999999999909,0.599999999999909,0.599999999999909
2044,brussels,4,0.0,0.04625000000000057,0.07062499999999972,1.0,-0.03812500000000085,1.0,1.0,1.0
2044,flanders,1,0.0,0.3662499999999991,0.870625000000004,1.0,-0.43812499999999943,0.0,0.0,0.0
2044,flanders,2,0.0,0.22224999999999995,0.07062499999999972,0.20000000000000284,-0.03812500000000085,0.2999999999999545,0.2999999999999545,0.2999999999999545
2044,flanders,3,0.0,0.13424999999999976,0.2706250000000008,1.0,-0.11812500000000004,0.599999999999909,0.599999999999909,0.599999999999909
2044,flanders,4,0.0,0.04625000000000057,0.07062499999999972,1.0,-0.03812500000000085,1.0,1.0,1.0
2044,wallonia,1,0.0,0.3662499999999991,0.870625000000004,1.0,-0.43812499999999943,0.0,0.0,0.0
2044,wallonia,2,0.0,0.22224999999999995,0.07062499999999972,0.20000000000000284,-0.03812500000000085,0.2999999999999545,0.2999999999999545,0.2999999999999545
2044,wallonia,3,0.0,0.13424999999999976,0.2706250000000008,1.0,-0.11812500000000004,0.599999999999909,0.599999999999909,0.599999999999909
2044,wallonia,4,0.0,0.04625000000000057,0.07062499999999972,1.0,-0.03812500000000085,1.0,1.0,1.0
2045,belgium,1,0.0,0.3718749999999993,0.8921875000000057,1.0,-0.4484375000000007,0.0,0.0,0.0
2045,belgium,2,0.0,0.22187499999999993,0.05885416666666643,0.1666666666666572,-0.031770833333334636,0.2999999999999545,0.2999999999999545,0.2999999999999545
2045,belgium,3,0.0,0.13020833333333215,0.26718750000000036,1.0,-0.11510416666666679,0.599999999999909,0.599999999999909,0.599999999999909
2045,belgium,4,0.0,0.03854166666666714,0.05885416666666643,1.0,-0.031770833333334636,1.0,1.0,1.0
2045,brussels,1,0.0,0.3718749999999993,0.8921875000000057,1.0,-0.4484375000000007,0.0,0.0,0.0
2045,brussels,2,0.0,0.22187499999999993,0.05885416666666643,0.1666666666666572,-0.031770833333334636,0.2999999999999545,0.2999999999999545,0.2999999999999545
2045,brussels,3,0.0,0.13020833333333215,0.26718750000000036,1.0,-0.11510416666666679,0.599999999999909,0.599999999999909,0.599999999999909
2045,brussels,4,0.0,0.03854166666666714,0.05885416666666643,1.0,-0.031770833333334636,1.0,1.0,1.0
2045,flanders,1,0.0,0.3718749999999993,0.8921875000000057,1.0,-0.4484375000000007,0.0,0.0,0.0
2045,flanders,2,0.0,0.22187499999999993,0.05885416666666643,0.1666666666666572,-0.031770833333334636,0.2999999999999545,0.2999999999999545,0.2999999999999545
2045,flanders,3,0.0,0.13020833333333215,0.26718750000000036,1.0,-0.11510416666666679,0.599999999999909,0.599999999999909,0.599999999999909
2045,flanders,4,0.0,0.03854166666666714,0.05885416666666643,1.0,-0.031770833333334636,1.0,1.0,1.0
2045,wallonia,1,0.0,0.3718749999999993,0.8921875000000057,1.0,-0.4484375000000007,0.0,0.0,0.0
2045,wallonia,2,0.0,0.22187499999999993,0.05885416666666643,0.1666666666666572,-0.031770833333334636,0.2999999999999545,0.2999999999999545,0.2999999999999545
2045,wallonia,3,0.0,0.13020833333333215,0.26718750000000036,1.0,-0.11510416666666679,0.599999999999909,0.599999999999909,0.599999999999909
2045,wallonia,4,0.0,0.03854166666666714,0.05885416666666643,1.0,-0.031770833333334636,1.0,1.0,1.0
2046,belgium,1,0.0,0.3774999999999995,0.9137500000000003,1.0,-0.458750000000002,0.0,0.0,0.0
2046,belgium,2,0.0,0.22149999999999992,0.047083333333333144,0.13333333333332575,-0.02541666666666842,0.2999999999999545,0.2999999999999545,0.2999999999999545
2046,belgium,3,0.0,0.12616666666666632,0.26374999999999993,1.0,-0.11208333333333353,0.599999999999909,0.599999999999909,0.599999999999909
2046,belgium,4,0.0,0.030833333333333712,0.047083333333333144,1.0,-0.02541666666666842,1.0,1.0,1.0
2046,brussels,1,0.0,0.3774999999999995,0.9137500000000003,1.0,-0.458750000000002,0.0,0.0,0.0
2046,brussels,2,0.0,0.22149999999999992,0.047083333333333144,0.13333333333332575,-0.02541666666666842,0.2999999999999545,0.2999999999999545,0.2999999999999545
2046,brussels,3,0.0,0.12616666666666632,0.26374999999999993,1.0,-0.11208333333333353,0.599999999999909,0.599999999999909,0.599999999999909
2046,brussels,4,0.0,0.030833333333333712,0.047083333333333144,1.0,-0.02541666666666842,1.0,1.0,1.0
2046,flanders,1,0.0,0.3774999999999995,0.9137500000000003,1.0,-0.458750000000002,0.0,0.0,0.0
2046,flanders,2,0.0,0.22149999999999992,0.047083333333333144,0.13333333333332575,-0.02541666666666842,0.2999999999999545,0.2999999999999545,0.2999999999999545
2046,flanders,3,0.0,0.12616666666666632,0.26374999999999993,1.0,-0.11208333333333353,0.599999999999909,0.599999999999909,0.599999999999909
2046,flanders,4,0.0,0.030833333333333712,0.047083333333333144,1.0,-0.02541666666666842,1.0,1.0,1.0
2046,wallonia,1,0.0,0.3774999999999995,0.9137500000000003,1.0,-0.458750000000002,0.0,0.0,0.0
2046,wallonia,2,0.0,0.22149999999999992,0.047083333333333144,0.13333333333332575,-0.02541666666666842,0.2999999999999545,0.2999999999999545,0.2999999999999545
2046,wallonia,3,0.0,0.12616666666666632,0.26374999999999993,1.0,-0.11208333333333353,0.599999999999909,0.599999999999909,0.599999999999909
2046,wallonia,4,0.0,0.030833333333333712,0.047083333333333144,1.0,-0.02541666666666842,1.0,1.0,1.0
2047,belgium,1,0.0,0.3831249999999997,0.935312500000002,1.0,-0.4690624999999997,0.0,0.0,0.0
2047,belgium,2,0.0,0.22112500000000002,0.03531249999999986,0.09999999999999432,-0.019062500000000426,0.2999999999999545,0.2999999999999545,0.2999999999999545
2047,belgium,3,0.0,0.1221249999999987,0.2603125000000004,1.0,-0.10906250000000028,0.599999999999909,0.599999999999909,0.599999999999909
2047,belgium,4,0.0,0.023125000000000284,0.03531249999999986,1.0,-0.019062500000000426,1.0,1.0,1.0
2047,brussels,1,0.0,0.3831249999999997,0.935312500000002,1.0,-0.4690624999999997,0.0,0.0,0.0
2047,brussels,2,0.0,0.22112500000000002,0.03531249999999986,0.09999999999999432,-0.019062500000000426,0.2999999999999545,0.2999999999999545,0.2999999999999545
2047,brussels,3,0.0,0.1221249999999987,0.2603125000000004,1.0,-0.10906250000000028,0.599999999999909,0.599999999999909,0.599999999999909
2047,brussels,4,0.0,0.023125000000000284,0.03531249999999986,1.0,-0.019062500000000426,1.0,1.0,1.0
2047,flanders,1,0.0,0.3831249999999997,0.935312500000002,1.0,-0.4690624999999997,0.0,0.0,0.0
2047,flanders,2,0.0,0.22112500000000002,0.03531249999999986,0.09999999999999432,-0.019062500000000426,0.2999999999999545,0.2999999999999545,0.2999999999999545
2047,flanders,3,0.0,0.1221249999999987,0.2603125000000004,1.0,-0.10906250000000028,0.599999999999909,0.599999999999909,0.599999999999909
2047,flanders,4,0.0,0.023125000000000284,0.03531249999999986,1.0,-0.019062500000000426,1.0,1.0,1.0
2047,wallonia,1,0.0,0.3831249999999997,0.935312500000002,1.0,-0.4690624999999997,0.0,0.0,0.0
2047,wallonia,2,0.0,0.22112500000000002,0.03531249999999986,0.09999999999999432,-0.019062500000000426,0.2999999999999545,0.2999999999999545,0.2999999999999545
2047,wallonia,3,0.0,0.1221249999999987,0.2603125000000004,1.0,-0.10906250000000028,0.599999999999909,0.599999999999909,0.599999999999909
2047,wallonia,4,0.0,0.023125000000000284,0.03531249999999986,1.0,-0.019062500000000426,1.0,1.0,1.0
2048,belgium,1,0.0,0.38874999999999993,0.9568750000000037,1.0,-0.479375000000001,0.0,0.0,0.0
2048,belgium,2,0.0,0.22075,0.023541666666666572,0.06666666666666288,-0.01270833333333421,0.2999999999999545,0.2999999999999545,0.2999999999999545
2048,belgium,3,0.0,0.11808333333333287,0.25687499999999996,1.0,-0.10604166666666703,0.599999999999909,0.599999999999909,0.599999999999909
2048,belgium,4,0.0,0.015416666666666856,0.023541666666666572,1.0,-0.01270833333333421,1.0,1.0,1.0
2048,brussels,1,0.0,0.38874999999999993,0.9568750000000037,1.0,-0.479375000000001,0.0,0.0,0.0
2048,brussels,2,0.0,0.22075,0.023541666666666572,0.06666666666666288,-0.01270833333333421,0.2999999999999545,0.2999999999999545,0.2999999999999545
2048,brussels,3,0.0,0.11808333333333287,0.25687499999999996,1.0,-0.10604166666666703,0.599999999999909,0.599999999999909,0.599999999999909
2048,brussels,4,0.0,0.015416666666666856,0.023541666666666572,1.0,-0.01270833333333421,1.0,1.0,1.0
2048,flanders,1,0.0,0.38874999999999993,0.9568750000000037,1.0,-0.479375000000001,0.0,0.0,0.0
2048,flanders,2,0.0,0.22075,0.023541666666666572,0.06666666666666288,-0.01270833333333421,0.2999999999999545,0.2999999999999545,0.2999999999999545
2048,flanders,3,0.0,0.11808333333333287,0.25687499999999996,1.0,-0.10604166666666703,0.599999999999909,0.599999999999909,0.599999999999909
2048,flanders,4,0.0,0.015416666666666856,0.023541666666666572,1.0,-0.01270833333333421,1.0,1.0,1.0
2048,wallonia,1,0.0,0.38874999999999993,0.9568750000000037,1.0,-0.479375000000001,0.0,0.0,0.0
2048,wallonia,2,0.0,0.22075,0.023541666666666572,0.06666666666666288,-0.01270833333333421,0.2999999999999545,0.2999999999999545,0.2999999999999545
2048,wallonia,3,0.0,0.11808333333333287,0.25687499999999996,1.0,-0.10604166666666703,0.599999999999909,0.599999999999909,0.599999999999909
2048,wallonia,4,0.0,0.015416666666666856,0.023541666666666572,1.0,-0.01270833333333421,1.0,1.0,1.0
2049,belgium,1,0.0,0.39437500000000014,0.9784375000000054,1.0,-0.4896875000000023,0.0,0.0,0.0
2049,belgium,2,0.0,0.220375,0.011770833333333286,0.03333333333333144,-0.006354166666667993,0.2999999999999545,0.2999999999999545,0.2999999999999545
2049,belgium,3,0.0,0.11404166666666704,0.25343749999999954,1.0,-0.10302083333333378,0.599999999999909,0.599999999999909,0.599999999999909
2049,belgium,4,0.0,0.007708333333333428,0.011770833333333286,1.0,-0.006354166666667993,1.0,1.0,1.0
2049,brussels,1,0.0,0.39437500000000014,0.9784375000000054,1.0,-0.4896875000000023,0.0,0.0,0.0
2049,brussels,2,0.0,0.220375,0.011770833333333286,0.03333333333333144,-0.006354166666667993,0.2999999999999545,0.2999999999999545,0.2999999999999545
2049,brussels,3,0.0,0.11404166666666704,0.25343749999999954,1.0,-0.10302083333333378,0.599999999999909,0.599999999999909,0.599999999999909
2049,brussels,4,0.0,0.007708333333333428,0.011770833333333286,1.0,-0.006354166666667993,1.0,1.0,1.0
2049,flanders,1,0.0,0.39437500000000014,0.9784375000000054,1.0,-0.4896875000000023,0.0,0.0,0.0
2049,flanders,2,0.0,0.220375,0.011770833333333286,0.03333333333333144,-0.006354166666667993,0.2999999999999545,0.2999999999999545,0.2999999999999545
2049,flanders,3,0.0,0.11404166666666704,0.25343749999999954,1.0,-0.10302083333333378,0.599999999999909,0.599999999999909,0.599999999999909
2049,flanders,4,0.0,0.007708333333333428,0.011770833333333286,1.0,-0.006354166666667993,1.0,1.0,1.0
2049,wallonia,1,0.0,0.39437500000000014,0.9784375000000054,1.0,-0.4896875000000023,0.0,0.0,0.0
2049,wallonia,2,0.0,0.220375,0.011770833333333286,0.03333333333333144,-0.006354166666667993,0.2999999999999545,0.2999999999999545,0.2999999999999545
2049,wallonia,3,0.0,0.11404166666666704,0.25343749999999954,1.0,-0.10302083333333378,0.599999999999909,0.599999999999909,0.599999999999909
2049,wallonia,4,0.0,0.007708333333333428,0.011770833333333286,1.0,-0.006354166666667993,1.0,1.0,1.0
2050,belgium,1,0.0,0.40000000000000036,1.000000000000007,1.0,-0.5,0.0,0.0,0.0
2050,belgium,2,0.0,0.22000000000000008,0.0,0.0,0.0,0.2999999999999545,0.2999999999999545,0.2999999999999545
2050,belgium,3,0.0,0.10999999999999943,0.25,1.0,-0.10000000000000053,0.599999999999909,0.599999999999909,0.599999999999909
2050,belgium,4,0.0,0.0,0.0,1.0,0.0,1.0,1.0,1.0
2050,brussels,1,0.0,0.40000000000000036,1.000000000000007,1.0,-0.5,0.0,0.0,0.0
2050,brussels,2,0.0,0.22000000000000008,0.0,0.0,0.0,0.2999999999999545,0.2999999999999545,0.2999999999999545
2050,brussels,3,0.0,0.10999999999999943,0.25,1.0,-0.10000000000000053,0.599999999999909,0.599999999999909,0.599999999999909
2050,brussels,4,0.0,0.0,0.0,1.0,0.0,1.0,1.0,1.0
2050,flanders,1,0.0,0.40000000000000036,1.000000000000007,1.0,-0.5,0.0,0.0,0.0
2050,flanders,2,0.0,0.22000000000000008,0.0,0.0,0.0,0.2999999999999545,0.2999999999999545,0.2999999999999545
2050,flanders,3,0.0,0.10999999999999943,0.25,1.0,-0.10000000000000053,0.599999999999909,0.599999999999909,0.599999999999909
2050,flanders,4,0.0,0.0,0.0,1.0,0.0,1.0,1.0,1.0
2050,wallonia,1,0.0,0.40000000000000036,1.000000000000007,1.0,-0.5,0.0,0.0,0.0
2050,wallonia,2,0.0,0.22000000000000008,0.0,0.0,0.0,0.2999999999999545,0.2999999999999545,0.2999999999999545
2050,wallonia,3,0.0,0.10999999999999943,0.25,1.0,-0.10000000000000053,0.599999999999909,0.599999999999909,0.599999999999909
2050,wallonia,4,0.0,0.0,0.0,1.0,0.0,1.0,1.0,1.0
