Years,Country,lever_capacity_RES_other,fts_elc_capacity_RES_other_geothermal[GW],fts_elc_capacity_RES_other_hydroelectric[GW],fts_elc_capacity_RES_other_marine[GW],fts_elc_capacity_RES_other_solar-csp[GW]
2016,belgium,1,0.0,0.12,0.0,0.0
2016,belgium,2,0.0,0.12,0.0,0.0
2016,belgium,3,0.0,0.12,0.0,0.0
2016,belgium,4,0.0,0.12,0.0,0.0
2016,brussels,1,0.0,0.0,0.0,0.0
2016,brussels,2,0.0,0.0,0.0,0.0
2016,brussels,3,0.0,0.0,0.0,0.0
2016,brussels,4,0.0,0.0,0.0,0.0
2016,flanders,1,0.0,0.0,0.0,0.0
2016,flanders,2,0.0,0.0,0.0,0.0
2016,flanders,3,0.0,0.0,0.0,0.0
2016,flanders,4,0.0,0.0,0.0,0.0
2016,wallonia,1,0.0,0.12,0.0,0.0
2016,wallonia,2,0.0,0.12,0.0,0.0
2016,wallonia,3,0.0,0.12,0.0,0.0
2016,wallonia,4,0.0,0.12,0.0,0.0
2017,belgium,1,0.0,0.12,0.0,0.0
2017,belgium,2,0.0,0.12,0.0,0.0
2017,belgium,3,0.0,0.12,0.0,0.0
2017,belgium,4,0.0,0.12,0.0,0.0
2017,brussels,1,0.0,0.0,0.0,0.0
2017,brussels,2,0.0,0.0,0.0,0.0
2017,brussels,3,0.0,0.0,0.0,0.0
2017,brussels,4,0.0,0.0,0.0,0.0
2017,flanders,1,0.0,0.0,0.0,0.0
2017,flanders,2,0.0,0.0,0.0,0.0
2017,flanders,3,0.0,0.0,0.0,0.0
2017,flanders,4,0.0,0.0,0.0,0.0
2017,wallonia,1,0.0,0.12,0.0,0.0
2017,wallonia,2,0.0,0.12,0.0,0.0
2017,wallonia,3,0.0,0.12,0.0,0.0
2017,wallonia,4,0.0,0.12,0.0,0.0
2018,belgium,1,0.0,0.13,0.0,0.0
2018,belgium,2,0.0,0.13,0.0,0.0
2018,belgium,3,0.0,0.13,0.0,0.0
2018,belgium,4,0.0,0.13,0.0,0.0
2018,brussels,1,0.0,0.0,0.0,0.0
2018,brussels,2,0.0,0.0,0.0,0.0
2018,brussels,3,0.0,0.0,0.0,0.0
2018,brussels,4,0.0,0.0,0.0,0.0
2018,flanders,1,0.0,0.0,0.0,0.0
2018,flanders,2,0.0,0.0,0.0,0.0
2018,flanders,3,0.0,0.0,0.0,0.0
2018,flanders,4,0.0,0.0,0.0,0.0
2018,wallonia,1,0.0,0.13,0.0,0.0
2018,wallonia,2,0.0,0.13,0.0,0.0
2018,wallonia,3,0.0,0.13,0.0,0.0
2018,wallonia,4,0.0,0.13,0.0,0.0
2019,belgium,1,0.0,0.12937500000000002,0.0,0.0
2019,belgium,2,0.0,0.12937500000000002,0.0,0.0
2019,belgium,3,0.0,0.12937500000000002,0.0,0.0
2019,belgium,4,0.0,0.12937500000000002,0.0,0.0
2019,brussels,1,0.0,0.0,0.0,0.0
2019,brussels,2,0.0,0.0,0.0,0.0
2019,brussels,3,0.0,0.0,0.0,0.0
2019,brussels,4,0.0,0.0,0.0,0.0
2019,flanders,1,0.0,0.00031250000000004885,0.0,0.0
2019,flanders,2,0.0,0.00031250000000004885,0.0,0.0
2019,flanders,3,0.0,0.00031250000000004885,0.0,0.0
2019,flanders,4,0.0,0.00031250000000004885,0.0,0.0
2019,wallonia,1,0.0,0.12906250000000008,0.0,0.0
2019,wallonia,2,0.0,0.12906250000000008,0.0,0.0
2019,wallonia,3,0.0,0.12906250000000008,0.0,0.0
2019,wallonia,4,0.0,0.12906250000000008,0.0,0.0
2020,belgium,1,0.0,0.12875000000000014,0.0,0.0
2020,belgium,2,0.0,0.12875000000000014,0.0,0.0
2020,belgium,3,0.0,0.12875000000000014,0.0,0.0
2020,belgium,4,0.0,0.12875000000000014,0.0,0.0
2020,brussels,1,0.0,0.0,0.0,0.0
2020,brussels,2,0.0,0.0,0.0,0.0
2020,brussels,3,0.0,0.0,0.0,0.0
2020,brussels,4,0.0,0.0,0.0,0.0
2020,flanders,1,0.0,0.0006249999999999867,0.0,0.0
2020,flanders,2,0.0,0.0006249999999999867,0.0,0.0
2020,flanders,3,0.0,0.0006249999999999867,0.0,0.0
2020,flanders,4,0.0,0.0006249999999999867,0.0,0.0
2020,wallonia,1,0.0,0.12812500000000027,0.0,0.0
2020,wallonia,2,0.0,0.12812500000000027,0.0,0.0
2020,wallonia,3,0.0,0.12812500000000027,0.0,0.0
2020,wallonia,4,0.0,0.12812500000000027,0.0,0.0
2021,belgium,1,0.0,0.12812500000000004,0.0,0.0
2021,belgium,2,0.015999999999998238,0.12845833333333356,0.0,0.0
2021,belgium,3,0.06666666666666288,0.1287916666666668,0.0,0.0
2021,belgium,4,0.13333333333332575,0.12945833333333345,0.0,0.0
2021,brussels,1,0.0,0.0,0.0,0.0
2021,brussels,2,0.0015999999999998238,0.0,0.0,0.0
2021,brussels,3,0.006666666666667709,0.0,0.0,0.0
2021,brussels,4,0.013333333333335418,0.0,0.0,0.0
2021,flanders,1,0.0,0.0013715625000000342,0.0,0.0
2021,flanders,2,0.007199999999999207,0.0011361666666667158,0.0,0.0
2021,flanders,3,0.030000000000001137,0.0011805000000002508,0.0,0.0
2021,flanders,4,0.060000000000002274,0.0012691666666668766,0.0,0.0
2021,wallonia,1,0.0,0.12675343750000012,0.0,0.0
2021,wallonia,2,0.007199999999999207,0.12732216666666707,0.0,0.0
2021,wallonia,3,0.030000000000001137,0.12761116666666705,0.0,0.0
2021,wallonia,4,0.060000000000002274,0.12818916666666694,0.0,0.0
2022,belgium,1,0.0,0.12750000000000017,0.0,0.0
2022,belgium,2,0.03200000000000358,0.12816666666666687,0.0,0.0
2022,belgium,3,0.13333333333335418,0.12883333333333347,0.0,0.0
2022,belgium,4,0.26666666666670835,0.13016666666666676,0.0,0.0
2022,brussels,1,0.0,0.0,0.0,0.0
2022,brussels,2,0.0032000000000000917,0.0,0.0,0.0
2022,brussels,3,0.013333333333333641,0.0,0.0,0.0
2022,brussels,4,0.026666666666667282,0.0,0.0,0.0
2022,flanders,1,0.0,0.0018287500000000456,0.0,0.0
2022,flanders,2,0.014399999999998414,0.001647333333333334,0.0,0.0
2022,flanders,3,0.060000000000002274,0.0017360000000001818,0.0,0.0
2022,flanders,4,0.12000000000000455,0.0019133333333334335,0.0,0.0
2022,wallonia,1,0.0,0.1256712499999999,0.0,0.0
2022,wallonia,2,0.014399999999998414,0.12651933333333365,0.0,0.0
2022,wallonia,3,0.060000000000002274,0.12709733333333362,0.0,0.0
2022,wallonia,4,0.12000000000000455,0.12825333333333358,0.0,0.0
2023,belgium,1,0.0,0.12687500000000007,0.0,0.0
2023,belgium,2,0.04800000000000182,0.12787500000000018,0.0,0.0
2023,belgium,3,0.20000000000001705,0.12887500000000013,0.0,0.0
2023,belgium,4,0.4000000000000341,0.13087500000000007,0.0,0.0
2023,brussels,1,0.0,0.0,0.0,0.0
2023,brussels,2,0.0047999999999999154,0.0,0.0,0.0
2023,brussels,3,0.02000000000000135,0.0,0.0,0.0
2023,brussels,4,0.0400000000000027,0.0,0.0,0.0
2023,flanders,1,0.0,0.002285937500000057,0.0,0.0
2023,flanders,2,0.021599999999999397,0.002158499999999952,0.0,0.0
2023,flanders,3,0.09000000000000341,0.002291500000000113,0.0,0.0
2023,flanders,4,0.18000000000000682,0.0025575000000002124,0.0,0.0
2023,wallonia,1,0.0,0.12458906250000013,0.0,0.0
2023,wallonia,2,0.021599999999999397,0.12571650000000023,0.0,0.0
2023,wallonia,3,0.09000000000000341,0.12658350000000018,0.0,0.0
2023,wallonia,4,0.18000000000000682,0.12831750000000025,0.0,0.0
2024,belgium,1,0.0,0.12624999999999997,0.0,0.0
2024,belgium,2,0.06400000000000006,0.1275833333333335,0.0,0.0
2024,belgium,3,0.26666666666667993,0.1289166666666668,0.0,0.0
2024,belgium,4,0.5333333333333599,0.13158333333333339,0.0,0.0
2024,brussels,1,0.0,0.0,0.0,0.0
2024,brussels,2,0.006399999999999739,0.0,0.0,0.0
2024,brussels,3,0.026666666666667282,0.0,0.0,0.0
2024,brussels,4,0.053333333333334565,0.0,0.0,0.0
2024,flanders,1,0.0,0.0027431249999999574,0.0,0.0
2024,flanders,2,0.028799999999998604,0.0026696666666667923,0.0,0.0
2024,flanders,3,0.12000000000000455,0.002847000000000044,0.0,0.0
2024,flanders,4,0.2400000000000091,0.0032016666666667692,0.0,0.0
2024,wallonia,1,0.0,0.1235068749999999,0.0,0.0
2024,wallonia,2,0.028799999999998604,0.12491366666666703,0.0,0.0
2024,wallonia,3,0.12000000000000455,0.12606966666666697,0.0,0.0
2024,wallonia,4,0.2400000000000091,0.1283816666666669,0.0,0.0
2025,belgium,1,0.0,0.1256250000000001,0.0,0.0
2025,belgium,2,0.0799999999999983,0.1272916666666668,0.0,0.0
2025,belgium,3,0.3333333333333428,0.12895833333333345,0.0,0.0
2025,belgium,4,0.6666666666666856,0.1322916666666667,0.0,0.0
2025,brussels,1,0.0,0.0,0.0,0.0
2025,brussels,2,0.008000000000000007,0.0,0.0,0.0
2025,brussels,3,0.033333333333333215,0.0,0.0,0.0
2025,brussels,4,0.06666666666666643,0.0,0.0,0.0
2025,flanders,1,0.0,0.003200312499999969,0.0,0.0
2025,flanders,2,0.03599999999999959,0.0031808333333334105,0.0,0.0
2025,flanders,3,0.15000000000000568,0.003402500000000197,0.0,0.0
2025,flanders,4,0.30000000000001137,0.003845833333333548,0.0,0.0
2025,wallonia,1,0.0,0.12242468750000013,0.0,0.0
2025,wallonia,2,0.03599999999999959,0.12411083333333361,0.0,0.0
2025,wallonia,3,0.15000000000000568,0.12555583333333353,0.0,0.0
2025,wallonia,4,0.30000000000001137,0.12844583333333356,0.0,0.0
2026,belgium,1,0.0,0.125,0.0,0.0
2026,belgium,2,0.09600000000000364,0.1270000000000001,0.0,0.0
2026,belgium,3,0.4000000000000057,0.12900000000000011,0.0,0.0
2026,belgium,4,0.8000000000000114,0.133,0.0,0.0
2026,brussels,1,0.0,0.0,0.0,0.0
2026,brussels,2,0.009599999999999831,0.0,0.0,0.0
2026,brussels,3,0.040000000000000924,0.0,0.0,0.0
2026,brussels,4,0.08000000000000185,0.0,0.0,0.0
2026,flanders,1,0.0,0.00365749999999998,0.0,0.0
2026,flanders,2,0.043199999999998795,0.0036920000000000286,0.0,0.0
2026,flanders,3,0.18000000000000682,0.003958000000000128,0.0,0.0
2026,flanders,4,0.36000000000001364,0.004490000000000105,0.0,0.0
2026,wallonia,1,0.0,0.12134249999999991,0.0,0.0
2026,wallonia,2,0.043199999999998795,0.1233080000000002,0.0,0.0
2026,wallonia,3,0.18000000000000682,0.12504200000000032,0.0,0.0
2026,wallonia,4,0.36000000000001364,0.1285100000000002,0.0,0.0
2027,belgium,1,0.0,0.12437500000000012,0.0,0.0
2027,belgium,2,0.11200000000000188,0.12670833333333353,0.0,0.0
2027,belgium,3,0.46666666666666856,0.12904166666666678,0.0,0.0
2027,belgium,4,0.9333333333333371,0.13370833333333332,0.0,0.0
2027,brussels,1,0.0,0.0,0.0,0.0
2027,brussels,2,0.011200000000000099,0.0,0.0,0.0
2027,brussels,3,0.046666666666666856,0.0,0.0,0.0
2027,brussels,4,0.09333333333333371,0.0,0.0,0.0
2027,flanders,1,0.0,0.004114687499999992,0.0,0.0
2027,flanders,2,0.05039999999999978,0.004203166666666647,0.0,0.0
2027,flanders,3,0.21000000000000085,0.004513500000000059,0.0,0.0
2027,flanders,4,0.4200000000000017,0.005134166666666884,0.0,0.0
2027,wallonia,1,0.0,0.12026031250000013,0.0,0.0
2027,wallonia,2,0.05039999999999978,0.122505166666667,0.0,0.0
2027,wallonia,3,0.21000000000000085,0.12452816666666688,0.0,0.0
2027,wallonia,4,0.4200000000000017,0.12857416666666688,0.0,0.0
2028,belgium,1,0.0,0.12375000000000003,0.0,0.0
2028,belgium,2,0.1280000000000001,0.12641666666666684,0.0,0.0
2028,belgium,3,0.5333333333333314,0.12908333333333344,0.0,0.0
2028,belgium,4,1.0666666666666629,0.13441666666666663,0.0,0.0
2028,brussels,1,0.0,0.0,0.0,0.0
2028,brussels,2,0.012799999999999923,0.0,0.0,0.0
2028,brussels,3,0.053333333333334565,0.0,0.0,0.0
2028,brussels,4,0.10666666666666913,0.0,0.0,0.0
2028,flanders,1,0.0,0.004571875000000003,0.0,0.0
2028,flanders,2,0.057599999999998985,0.004714333333333487,0.0,0.0
2028,flanders,3,0.240000000000002,0.005069000000000212,0.0,0.0
2028,flanders,4,0.480000000000004,0.005778333333333441,0.0,0.0
2028,wallonia,1,0.0,0.11917812499999991,0.0,0.0
2028,wallonia,2,0.057599999999998985,0.12170233333333358,0.0,0.0
2028,wallonia,3,0.240000000000002,0.12401433333333367,0.0,0.0
2028,wallonia,4,0.480000000000004,0.12863833333333352,0.0,0.0
2029,belgium,1,0.0,0.12312500000000015,0.0,0.0
2029,belgium,2,0.14399999999999835,0.12612500000000015,0.0,0.0
2029,belgium,3,0.5999999999999943,0.1291250000000001,0.0,0.0
2029,belgium,4,1.1999999999999886,0.13512499999999994,0.0,0.0
2029,brussels,1,0.0,0.0,0.0,0.0
2029,brussels,2,0.014399999999999746,0.0,0.0,0.0
2029,brussels,3,0.0600000000000005,0.0,0.0,0.0
2029,brussels,4,0.120000000000001,0.0,0.0,0.0
2029,flanders,1,0.0,0.005029062500000014,0.0,0.0
2029,flanders,2,0.06479999999999997,0.005225500000000105,0.0,0.0
2029,flanders,3,0.2700000000000031,0.005624500000000143,0.0,0.0
2029,flanders,4,0.5400000000000063,0.00642250000000022,0.0,0.0
2029,wallonia,1,0.0,0.11809593750000014,0.0,0.0
2029,wallonia,2,0.06479999999999997,0.12089950000000016,0.0,0.0
2029,wallonia,3,0.2700000000000031,0.12350050000000024,0.0,0.0
2029,wallonia,4,0.5400000000000063,0.1287025000000002,0.0,0.0
2030,belgium,1,0.0,0.12250000000000005,0.0,0.0
2030,belgium,2,0.1600000000000037,0.12583333333333346,0.0,0.0
2030,belgium,3,0.6666666666666856,0.12916666666666676,0.0,0.0
2030,belgium,4,1.3333333333333712,0.13583333333333347,0.0,0.0
2030,brussels,1,0.0,0.0,0.0,0.0
2030,brussels,2,0.016000000000000014,0.0,0.0,0.0
2030,brussels,3,0.0666666666666682,0.0,0.0,0.0
2030,brussels,4,0.1333333333333364,0.0,0.0,0.0
2030,flanders,1,0.0,0.005486250000000026,0.0,0.0
2030,flanders,2,0.07199999999999918,0.005736666666666723,0.0,0.0
2030,flanders,3,0.30000000000000426,0.006180000000000074,0.0,0.0
2030,flanders,4,0.6000000000000085,0.0070666666666667766,0.0,0.0
2030,wallonia,1,0.0,0.11701374999999992,0.0,0.0
2030,wallonia,2,0.07199999999999918,0.12009666666666696,0.0,0.0
2030,wallonia,3,0.30000000000000426,0.1229866666666668,0.0,0.0
2030,wallonia,4,0.6000000000000085,0.12876666666666683,0.0,0.0
2031,belgium,1,0.0,0.12187500000000018,0.0,0.0
2031,belgium,2,0.17600000000000193,0.12554166666666677,0.0,0.0
2031,belgium,3,0.7333333333333485,0.12920833333333342,0.0,0.0
2031,belgium,4,1.466666666666697,0.13654166666666678,0.0,0.0
2031,brussels,1,0.0,0.0,0.0,0.0
2031,brussels,2,0.017599999999999838,0.0,0.0,0.0
2031,brussels,3,0.07333333333333414,0.0,0.0,0.0
2031,brussels,4,0.14666666666666828,0.0,0.0,0.0
2031,flanders,1,0.0,0.005943437500000037,0.0,0.0
2031,flanders,2,0.07919999999999838,0.006247833333333341,0.0,0.0
2031,flanders,3,0.3300000000000054,0.006735500000000227,0.0,0.0
2031,flanders,4,0.6600000000000108,0.0077108333333335555,0.0,0.0
2031,wallonia,1,0.0,0.11593156250000014,0.0,0.0
2031,wallonia,2,0.07919999999999838,0.11929383333333354,0.0,0.0
2031,wallonia,3,0.3300000000000054,0.12247283333333359,0.0,0.0
2031,wallonia,4,0.6600000000000108,0.1288308333333335,0.0,0.0
2032,belgium,1,0.0,0.12125000000000008,0.0,0.0
2032,belgium,2,0.19200000000000017,0.12525000000000008,0.0,0.0
2032,belgium,3,0.8000000000000114,0.1292500000000001,0.0,0.0
2032,belgium,4,1.6000000000000227,0.1372500000000001,0.0,0.0
2032,brussels,1,0.0,0.0,0.0,0.0
2032,brussels,2,0.019200000000000106,0.0,0.0,0.0
2032,brussels,3,0.08000000000000007,0.0,0.0,0.0
2032,brussels,4,0.16000000000000014,0.0,0.0,0.0
2032,flanders,1,0.0,0.006400625000000049,0.0,0.0
2032,flanders,2,0.08639999999999937,0.0067589999999999595,0.0,0.0
2032,flanders,3,0.36000000000000654,0.0072910000000001585,0.0,0.0
2032,flanders,4,0.7200000000000131,0.008355000000000112,0.0,0.0
2032,wallonia,1,0.0,0.11484937499999992,0.0,0.0
2032,wallonia,2,0.08639999999999937,0.11849100000000012,0.0,0.0
2032,wallonia,3,0.36000000000000654,0.12195900000000015,0.0,0.0
2032,wallonia,4,0.7200000000000131,0.12889500000000015,0.0,0.0
2033,belgium,1,0.0,0.12062499999999998,0.0,0.0
2033,belgium,2,0.2079999999999984,0.1249583333333335,0.0,0.0
2033,belgium,3,0.8666666666666742,0.12929166666666675,0.0,0.0
2033,belgium,4,1.7333333333333485,0.1379583333333334,0.0,0.0
2033,brussels,1,0.0,0.0,0.0,0.0
2033,brussels,2,0.02079999999999993,0.0,0.0,0.0
2033,brussels,3,0.08666666666666778,0.0,0.0,0.0
2033,brussels,4,0.17333333333333556,0.0,0.0,0.0
2033,flanders,1,0.0,0.00685781250000006,0.0,0.0
2033,flanders,2,0.09359999999999857,0.0072701666666668,0.0,0.0
2033,flanders,3,0.39000000000000057,0.00784650000000009,0.0,0.0
2033,flanders,4,0.7800000000000011,0.008999166666666891,0.0,0.0
2033,wallonia,1,0.0,0.11376718750000014,0.0,0.0
2033,wallonia,2,0.09359999999999857,0.11768816666666693,0.0,0.0
2033,wallonia,3,0.39000000000000057,0.12144516666666694,0.0,0.0
2033,wallonia,4,0.7800000000000011,0.12895916666666682,0.0,0.0
2034,belgium,1,0.0,0.1200000000000001,0.0,0.0
2034,belgium,2,0.22400000000000375,0.12466666666666681,0.0,0.0
2034,belgium,3,0.9333333333333371,0.1293333333333334,0.0,0.0
2034,belgium,4,1.8666666666666742,0.13866666666666672,0.0,0.0
2034,brussels,1,0.0,0.0,0.0,0.0
2034,brussels,2,0.022399999999999753,0.0,0.0,0.0
2034,brussels,3,0.09333333333333371,0.0,0.0,0.0
2034,brussels,4,0.18666666666666742,0.0,0.0,0.0
2034,flanders,1,0.0,0.00731499999999996,0.0,0.0
2034,flanders,2,0.10079999999999956,0.007781333333333418,0.0,0.0
2034,flanders,3,0.4200000000000017,0.008402000000000243,0.0,0.0
2034,flanders,4,0.8400000000000034,0.009643333333333448,0.0,0.0
2034,wallonia,1,0.0,0.11268499999999992,0.0,0.0
2034,wallonia,2,0.10079999999999956,0.11688533333333351,0.0,0.0
2034,wallonia,3,0.4200000000000017,0.1209313333333335,0.0,0.0
2034,wallonia,4,0.8400000000000034,0.1290233333333335,0.0,0.0
2035,belgium,1,0.0,0.11937500000000001,0.0,0.0
2035,belgium,2,0.240000000000002,0.12437500000000012,0.0,0.0
2035,belgium,3,1.0,0.12937500000000007,0.0,0.0
2035,belgium,4,2.0,0.13937500000000003,0.0,0.0
2035,brussels,1,0.0,0.0,0.0,0.0
2035,brussels,2,0.02400000000000002,0.0,0.0,0.0
2035,brussels,3,0.10000000000000142,0.0,0.0,0.0
2035,brussels,4,0.20000000000000284,0.0,0.0,0.0
2035,flanders,1,0.0,0.007772187499999972,0.0,0.0
2035,flanders,2,0.10799999999999876,0.008292500000000036,0.0,0.0
2035,flanders,3,0.45000000000000284,0.008957500000000174,0.0,0.0
2035,flanders,4,0.9000000000000057,0.010287500000000227,0.0,0.0
2035,wallonia,1,0.0,0.11160281250000015,0.0,0.0
2035,wallonia,2,0.10799999999999876,0.11608250000000031,0.0,0.0
2035,wallonia,3,0.45000000000000284,0.12041750000000029,0.0,0.0
2035,wallonia,4,0.9000000000000057,0.12908750000000013,0.0,0.0
2036,belgium,1,0.0,0.11875000000000013,0.0,0.0
2036,belgium,2,0.2560000000000002,0.12408333333333343,0.0,0.0
2036,belgium,3,1.0666666666666629,0.12941666666666674,0.0,0.0
2036,belgium,4,2.1333333333333258,0.14008333333333334,0.0,0.0
2036,brussels,1,0.0,0.0,0.0,0.0
2036,brussels,2,0.025599999999999845,0.0,0.0,0.0
2036,brussels,3,0.10666666666666735,0.0,0.0,0.0
2036,brussels,4,0.2133333333333347,0.0,0.0,0.0
2036,flanders,1,0.0,0.008229374999999983,0.0,0.0
2036,flanders,2,0.11519999999999975,0.008803666666666654,0.0,0.0
2036,flanders,3,0.480000000000004,0.009513000000000105,0.0,0.0
2036,flanders,4,0.960000000000008,0.010931666666666784,0.0,0.0
2036,wallonia,1,0.0,0.11052062499999993,0.0,0.0
2036,wallonia,2,0.11519999999999975,0.11527966666666689,0.0,0.0
2036,wallonia,3,0.480000000000004,0.11990366666666685,0.0,0.0
2036,wallonia,4,0.960000000000008,0.1291516666666668,0.0,0.0
2037,belgium,1,0.0,0.11812500000000004,0.0,0.0
2037,belgium,2,0.27199999999999847,0.12379166666666674,0.0,0.0
2037,belgium,3,1.1333333333333542,0.1294583333333334,0.0,0.0
2037,belgium,4,2.2666666666667084,0.14079166666666665,0.0,0.0
2037,brussels,1,0.0,0.0,0.0,0.0
2037,brussels,2,0.027200000000000113,0.0,0.0,0.0
2037,brussels,3,0.11333333333333329,0.0,0.0,0.0
2037,brussels,4,0.22666666666666657,0.0,0.0,0.0
2037,flanders,1,0.0,0.008686562499999995,0.0,0.0
2037,flanders,2,0.12239999999999895,0.009314833333333494,0.0,0.0
2037,flanders,3,0.5100000000000051,0.010068500000000258,0.0,0.0
2037,flanders,4,1.0200000000000102,0.011575833333333563,0.0,0.0
2037,wallonia,1,0.0,0.10943843750000015,0.0,0.0
2037,wallonia,2,0.12239999999999895,0.11447683333333347,0.0,0.0
2037,wallonia,3,0.5100000000000051,0.11938983333333342,0.0,0.0
2037,wallonia,4,1.0200000000000102,0.12921583333333345,0.0,0.0
2038,belgium,1,0.0,0.11750000000000016,0.0,0.0
2038,belgium,2,0.2880000000000038,0.12350000000000005,0.0,0.0
2038,belgium,3,1.200000000000017,0.12950000000000006,0.0,0.0
2038,belgium,4,2.400000000000034,0.14149999999999996,0.0,0.0
2038,brussels,1,0.0,0.0,0.0,0.0
2038,brussels,2,0.028799999999999937,0.0,0.0,0.0
2038,brussels,3,0.120000000000001,0.0,0.0,0.0
2038,brussels,4,0.240000000000002,0.0,0.0,0.0
2038,flanders,1,0.0,0.009143750000000006,0.0,0.0
2038,flanders,2,0.12959999999999994,0.009826000000000112,0.0,0.0
2038,flanders,3,0.5400000000000063,0.010624000000000189,0.0,0.0
2038,flanders,4,1.0800000000000125,0.01222000000000012,0.0,0.0
2038,wallonia,1,0.0,0.10835624999999993,0.0,0.0
2038,wallonia,2,0.12959999999999994,0.11367400000000027,0.0,0.0
2038,wallonia,3,0.5400000000000063,0.1188760000000002,0.0,0.0
2038,wallonia,4,1.0800000000000125,0.12928000000000012,0.0,0.0
2039,belgium,1,0.0,0.11687500000000006,0.0,0.0
2039,belgium,2,0.30400000000000205,0.12320833333333348,0.0,0.0
2039,belgium,3,1.26666666666668,0.12954166666666672,0.0,0.0
2039,belgium,4,2.53333333333336,0.14220833333333327,0.0,0.0
2039,brussels,1,0.0,0.0,0.0,0.0
2039,brussels,2,0.03039999999999976,0.0,0.0,0.0
2039,brussels,3,0.12666666666666693,0.0,0.0,0.0
2039,brussels,4,0.25333333333333385,0.0,0.0,0.0
2039,flanders,1,0.0,0.009600937500000017,0.0,0.0
2039,flanders,2,0.13679999999999914,0.01033716666666673,0.0,0.0
2039,flanders,3,0.5700000000000003,0.01117950000000012,0.0,0.0
2039,flanders,4,1.1400000000000006,0.012864166666666899,0.0,0.0
2039,wallonia,1,0.0,0.10727406250000016,0.0,0.0
2039,wallonia,2,0.13679999999999914,0.11287116666666686,0.0,0.0
2039,wallonia,3,0.5700000000000003,0.11836216666666677,0.0,0.0
2039,wallonia,4,1.1400000000000006,0.12934416666666676,0.0,0.0
2040,belgium,1,0.0,0.11624999999999996,0.0,0.0
2040,belgium,2,0.3200000000000003,0.12291666666666679,0.0,0.0
2040,belgium,3,1.3333333333333428,0.12958333333333338,0.0,0.0
2040,belgium,4,2.6666666666666856,0.14291666666666658,0.0,0.0
2040,brussels,1,0.0,0.0,0.0,0.0
2040,brussels,2,0.03200000000000003,0.0,0.0,0.0
2040,brussels,3,0.13333333333333464,0.0,0.0,0.0
2040,brussels,4,0.26666666666666927,0.0,0.0,0.0
2040,flanders,1,0.0,0.010058125000000029,0.0,0.0
2040,flanders,2,0.14399999999999835,0.010848333333333349,0.0,0.0
2040,flanders,3,0.6000000000000014,0.011735000000000273,0.0,0.0
2040,flanders,4,1.2000000000000028,0.013508333333333455,0.0,0.0
2040,wallonia,1,0.0,0.10619187499999994,0.0,0.0
2040,wallonia,2,0.14399999999999835,0.11206833333333344,0.0,0.0
2040,wallonia,3,0.6000000000000014,0.11784833333333355,0.0,0.0
2040,wallonia,4,1.2000000000000028,0.12940833333333343,0.0,0.0
2041,belgium,1,0.0,0.11562500000000009,0.0,0.0
2041,belgium,2,0.3359999999999985,0.1226250000000001,0.0,0.0
2041,belgium,3,1.4000000000000057,0.12962500000000005,0.0,0.0
2041,belgium,4,2.8000000000000114,0.1436249999999999,0.0,0.0
2041,brussels,1,0.0,0.0,0.0,0.0
2041,brussels,2,0.03359999999999985,0.0,0.0,0.0
2041,brussels,3,0.14000000000000057,0.0,0.0,0.0
2041,brussels,4,0.28000000000000114,0.0,0.0,0.0
2041,flanders,1,0.0,0.01051531250000004,0.0,0.0
2041,flanders,2,0.15119999999999933,0.011359499999999967,0.0,0.0
2041,flanders,3,0.6300000000000026,0.012290500000000204,0.0,0.0
2041,flanders,4,1.2600000000000051,0.014152500000000234,0.0,0.0
2041,wallonia,1,0.0,0.10510968750000016,0.0,0.0
2041,wallonia,2,0.15119999999999933,0.11126550000000024,0.0,0.0
2041,wallonia,3,0.6300000000000026,0.11733450000000012,0.0,0.0
2041,wallonia,4,1.2600000000000051,0.12947250000000007,0.0,0.0
2042,belgium,1,0.0,0.11499999999999999,0.0,0.0
2042,belgium,2,0.35200000000000387,0.1223333333333334,0.0,0.0
2042,belgium,3,1.4666666666666686,0.1296666666666667,0.0,0.0
2042,belgium,4,2.933333333333337,0.14433333333333342,0.0,0.0
2042,brussels,1,0.0,0.0,0.0,0.0
2042,brussels,2,0.03520000000000012,0.0,0.0,0.0
2042,brussels,3,0.14666666666666828,0.0,0.0,0.0
2042,brussels,4,0.29333333333333655,0.0,0.0,0.0
2042,flanders,1,0.0,0.010972500000000052,0.0,0.0
2042,flanders,2,0.15839999999999854,0.011870666666666807,0.0,0.0
2042,flanders,3,0.6600000000000037,0.012846000000000135,0.0,0.0
2042,flanders,4,1.3200000000000074,0.014796666666666791,0.0,0.0
2042,wallonia,1,0.0,0.10402749999999994,0.0,0.0
2042,wallonia,2,0.15839999999999854,0.11046266666666682,0.0,0.0
2042,wallonia,3,0.6600000000000037,0.11682066666666668,0.0,0.0
2042,wallonia,4,1.3200000000000074,0.12953666666666674,0.0,0.0
2043,belgium,1,0.0,0.11437500000000012,0.0,0.0
2043,belgium,2,0.3680000000000021,0.12204166666666671,0.0,0.0
2043,belgium,3,1.5333333333333314,0.12970833333333337,0.0,0.0
2043,belgium,4,3.066666666666663,0.14504166666666674,0.0,0.0
2043,brussels,1,0.0,0.0,0.0,0.0
2043,brussels,2,0.036799999999999944,0.0,0.0,0.0
2043,brussels,3,0.1533333333333342,0.0,0.0,0.0
2043,brussels,4,0.3066666666666684,0.0,0.0,0.0
2043,flanders,1,0.0,0.011429687500000063,0.0,0.0
2043,flanders,2,0.16559999999999953,0.012381833333333425,0.0,0.0
2043,flanders,3,0.6900000000000048,0.013401500000000066,0.0,0.0
2043,flanders,4,1.3800000000000097,0.01544083333333357,0.0,0.0
2043,wallonia,1,0.0,0.10294531250000016,0.0,0.0
2043,wallonia,2,0.16559999999999953,0.1096598333333334,0.0,0.0
2043,wallonia,3,0.6900000000000048,0.11630683333333347,0.0,0.0
2043,wallonia,4,1.3800000000000097,0.1296008333333334,0.0,0.0
2044,belgium,1,0.0,0.11375000000000002,0.0,0.0
2044,belgium,2,0.38400000000000034,0.12175000000000002,0.0,0.0
2044,belgium,3,1.5999999999999943,0.12975000000000003,0.0,0.0
2044,belgium,4,3.1999999999999886,0.14575000000000005,0.0,0.0
2044,brussels,1,0.0,0.0,0.0,0.0
2044,brussels,2,0.03839999999999977,0.0,0.0,0.0
2044,brussels,3,0.16000000000000014,0.0,0.0,0.0
2044,brussels,4,0.3200000000000003,0.0,0.0,0.0
2044,flanders,1,0.0,0.011886874999999963,0.0,0.0
2044,flanders,2,0.17279999999999873,0.012893000000000043,0.0,0.0
2044,flanders,3,0.720000000000006,0.01395700000000022,0.0,0.0
2044,flanders,4,1.440000000000012,0.016085000000000127,0.0,0.0
2044,wallonia,1,0.0,0.10186312499999994,0.0,0.0
2044,wallonia,2,0.17279999999999873,0.1088570000000002,0.0,0.0
2044,wallonia,3,0.720000000000006,0.11579300000000003,0.0,0.0
2044,wallonia,4,1.440000000000012,0.12966500000000006,0.0,0.0
2045,belgium,1,0.0,0.11312500000000014,0.0,0.0
2045,belgium,2,0.3999999999999986,0.12145833333333345,0.0,0.0
2045,belgium,3,1.6666666666666856,0.1297916666666667,0.0,0.0
2045,belgium,4,3.3333333333333712,0.14645833333333336,0.0,0.0
2045,brussels,1,0.0,0.0,0.0,0.0
2045,brussels,2,0.040000000000000036,0.0,0.0,0.0
2045,brussels,3,0.16666666666666785,0.0,0.0,0.0
2045,brussels,4,0.3333333333333357,0.0,0.0,0.0
2045,flanders,1,0.0,0.012344062499999975,0.0,0.0
2045,flanders,2,0.17999999999999972,0.013404166666666661,0.0,0.0
2045,flanders,3,0.75,0.01451250000000015,0.0,0.0
2045,flanders,4,1.5,0.016729166666666906,0.0,0.0
2045,wallonia,1,0.0,0.10078093750000017,0.0,0.0
2045,wallonia,2,0.17999999999999972,0.10805416666666678,0.0,0.0
2045,wallonia,3,0.75,0.11527916666666682,0.0,0.0
2045,wallonia,4,1.5,0.1297291666666667,0.0,0.0
2046,belgium,1,0.0,0.11250000000000004,0.0,0.0
2046,belgium,2,0.4160000000000039,0.12116666666666676,0.0,0.0
2046,belgium,3,1.7333333333333485,0.12983333333333336,0.0,0.0
2046,belgium,4,3.466666666666697,0.14716666666666667,0.0,0.0
2046,brussels,1,0.0,0.0,0.0,0.0
2046,brussels,2,0.04159999999999986,0.0,0.0,0.0
2046,brussels,3,0.17333333333333378,0.0,0.0,0.0
2046,brussels,4,0.34666666666666757,0.0,0.0,0.0
2046,flanders,1,0.0,0.012801249999999986,0.0,0.0
2046,flanders,2,0.18719999999999892,0.013915333333333502,0.0,0.0
2046,flanders,3,0.7800000000000011,0.015068000000000081,0.0,0.0
2046,flanders,4,1.5600000000000023,0.017373333333333463,0.0,0.0
2046,wallonia,1,0.0,0.09969874999999995,0.0,0.0
2046,wallonia,2,0.18719999999999892,0.10725133333333337,0.0,0.0
2046,wallonia,3,0.7800000000000011,0.11476533333333339,0.0,0.0
2046,wallonia,4,1.5600000000000023,0.12979333333333337,0.0,0.0
2047,belgium,1,0.0,0.11187500000000017,0.0,0.0
2047,belgium,2,0.43200000000000216,0.12087500000000007,0.0,0.0
2047,belgium,3,1.8000000000000114,0.12987500000000002,0.0,0.0
2047,belgium,4,3.6000000000000227,0.14787499999999998,0.0,0.0
2047,brussels,1,0.0,0.0,0.0,0.0
2047,brussels,2,0.04320000000000013,0.0,0.0,0.0
2047,brussels,3,0.1800000000000015,0.0,0.0,0.0
2047,brussels,4,0.360000000000003,0.0,0.0,0.0
2047,flanders,1,0.0,0.013258437499999998,0.0,0.0
2047,flanders,2,0.1943999999999999,0.01442650000000012,0.0,0.0
2047,flanders,3,0.8100000000000023,0.015623500000000234,0.0,0.0
2047,flanders,4,1.6200000000000045,0.01801750000000024,0.0,0.0
2047,wallonia,1,0.0,0.09861656250000017,0.0,0.0
2047,wallonia,2,0.1943999999999999,0.10644850000000017,0.0,0.0
2047,wallonia,3,0.8100000000000023,0.11425150000000017,0.0,0.0
2047,wallonia,4,1.6200000000000045,0.12985750000000001,0.0,0.0
2048,belgium,1,0.0,0.11125000000000007,0.0,0.0
2048,belgium,2,0.4480000000000004,0.12058333333333338,0.0,0.0
2048,belgium,3,1.8666666666666742,0.12991666666666668,0.0,0.0
2048,belgium,4,3.7333333333333485,0.1485833333333333,0.0,0.0
2048,brussels,1,0.0,0.0,0.0,0.0
2048,brussels,2,0.04479999999999995,0.0,0.0,0.0
2048,brussels,3,0.18666666666666742,0.0,0.0,0.0
2048,brussels,4,0.37333333333333485,0.0,0.0,0.0
2048,flanders,1,0.0,0.013715625000000009,0.0,0.0
2048,flanders,2,0.2015999999999991,0.014937666666666738,0.0,0.0
2048,flanders,3,0.8400000000000034,0.016179000000000165,0.0,0.0
2048,flanders,4,1.6800000000000068,0.0186616666666668,0.0,0.0
2048,wallonia,1,0.0,0.09753437499999995,0.0,0.0
2048,wallonia,2,0.2015999999999991,0.10564566666666675,0.0,0.0
2048,wallonia,3,0.8400000000000034,0.11373766666666674,0.0,0.0
2048,wallonia,4,1.6800000000000068,0.12992166666666669,0.0,0.0
2049,belgium,1,0.0,0.11062499999999997,0.0,0.0
2049,belgium,2,0.46399999999999864,0.12029166666666669,0.0,0.0
2049,belgium,3,1.9333333333333371,0.12995833333333334,0.0,0.0
2049,belgium,4,3.8666666666666742,0.1492916666666666,0.0,0.0
2049,brussels,1,0.0,0.0,0.0,0.0
2049,brussels,2,0.046399999999999775,0.0,0.0,0.0
2049,brussels,3,0.19333333333333336,0.0,0.0,0.0
2049,brussels,4,0.3866666666666667,0.0,0.0,0.0
2049,flanders,1,0.0,0.01417281250000002,0.0,0.0
2049,flanders,2,0.20879999999999832,0.015448833333333356,0.0,0.0
2049,flanders,3,0.8700000000000045,0.016734500000000097,0.0,0.0
2049,flanders,4,1.740000000000009,0.019305833333333355,0.0,0.0
2049,wallonia,1,0.0,0.09645218749999973,0.0,0.0
2049,wallonia,2,0.20879999999999832,0.10484283333333333,0.0,0.0
2049,wallonia,3,0.8700000000000045,0.1132238333333333,0.0,0.0
2049,wallonia,4,1.740000000000009,0.12998583333333336,0.0,0.0
2050,belgium,1,0.0,0.1100000000000001,0.0,0.0
2050,belgium,2,0.4799999999999969,0.12,0.0,0.0
2050,belgium,3,2.0,0.13,0.0,0.0
2050,belgium,4,4.0,0.1499999999999999,0.0,0.0
2050,brussels,1,0.0,0.0,0.0,0.0
2050,brussels,2,0.04800000000000004,0.0,0.0,0.0
2050,brussels,3,0.20000000000000107,0.0,0.0,0.0
2050,brussels,4,0.40000000000000213,0.0,0.0,0.0
2050,flanders,1,0.0,0.014630000000000032,0.0,0.0
2050,flanders,2,0.2159999999999993,0.015959999999999974,0.0,0.0
2050,flanders,3,0.9000000000000057,0.01729000000000025,0.0,0.0
2050,flanders,4,1.8000000000000114,0.019950000000000134,0.0,0.0
2050,wallonia,1,0.0,0.09536999999999995,0.0,0.0
2050,wallonia,2,0.2159999999999993,0.10404000000000013,0.0,0.0
2050,wallonia,3,0.9000000000000057,0.11271000000000009,0.0,0.0
2050,wallonia,4,1.8000000000000114,0.13005,0.0,0.0
