Years,Country,cal_lus_calibration_MtCO2[MtCO2],cal_lus_land_agriculture[ha],cal_lus_land_cropland[ha],cal_lus_land_grassland[ha]
1990,belgium,-2.43369,1389600.0,882600.0,649630.1
1991,belgium,-2.45762,1389600.0,882600.0,649630.1
1992,belgium,-2.44308,1389600.0,882600.0,649630.1
1993,belgium,-2.40488,1389600.0,882600.0,649630.1
1994,belgium,-2.37345,1389600.0,882600.0,649630.1
1995,belgium,-2.35024,1389600.0,882600.0,649630.1
1996,belgium,-1.82788,1389600.0,882600.0,649630.1
1997,belgium,-2.31145,1389600.0,882600.0,649630.1
1998,belgium,-2.31793,1389600.0,882600.0,649630.1
1999,belgium,-2.25129,1389600.0,882600.0,649630.1
2000,belgium,-1.88989,1389600.0,882600.0,649630.1
2001,belgium,-1.78009,1386800.0,865800.0,651887.8
2002,belgium,-3.29062,1389100.0,853100.0,653705.2
2003,belgium,-3.21511,1392200.0,856200.0,654214.0
2004,belgium,-3.12341,1391300.0,861300.0,655147.8
2005,belgium,-2.98642,1383000.0,864000.0,655499.2
2006,belgium,-3.03964,1380000.0,863000.0,656984.3
2007,belgium,-2.75806,1366900.0,859900.0,659049.8
2008,belgium,-2.50545,1365300.0,865300.0,659568.6
2009,belgium,-2.59749,1363600.0,861600.0,659878.9
2010,belgium,-1.5365,1355700.0,855700.0,661136.3
2011,belgium,-1.31211,1335700.0,846700.0,662138.1
2012,belgium,-1.09018,1332000.0,825000.0,662850.9
2013,belgium,-1.2098,1336500.0,838300.0,662925.3
2014,belgium,-1.20164,1331300.0,839300.0,662257.7
2015,belgium,-1.18224,1328000.0,852000.0,662238.0
2016,belgium,,,,
2017,belgium,,,,
2018,belgium,,,,
