Country,frac-cool,share_afats[%],share_beer[%],share_bev-alc[%],share_bev-fer[%],share_cereals[%],share_coffee[%],share_egg[%],share_milk[%],share_offal[%],share_oilcrops[%],share_pulses[%],share_starch[%],share_stm[%],share_voil[%],share_wine[%],share_rice[%],factor_a,factor_b,nshift-share,urb-share,urb-current
flanders,0.0249,0.0782,0.0369,0.0051,0.0007,0.3306,0.0037,0.0179,0.2079,0.0037,0.0077,0.0084,0.0628,0.0015,0.1812,0.0197,0.034,0.0003,0.6721,0.0,0.362,96.876
brussels,0.0249,0.0782,0.0369,0.0051,0.0007,0.3306,0.0037,0.0179,0.2079,0.0037,0.0077,0.0084,0.0628,0.0015,0.1812,0.0197,0.034,0.0003,0.6721,0.0,0.362,96.876
wallonia,0.0249,0.0782,0.0369,0.0051,0.0007,0.3306,0.0037,0.0179,0.2079,0.0037,0.0077,0.0084,0.0628,0.0015,0.1812,0.0197,0.034,0.0003,0.6721,0.0,0.362,96.876
belgium,0.0249,0.0782,0.0369,0.0051,0.0007,0.3306,0.0037,0.0179,0.2079,0.0037,0.0077,0.0084,0.0628,0.0015,0.1812,0.0197,0.034,0.0003,0.6721,0.0,0.362,96.876
