Years,Country,lever_pkm,fts_lfs_pkm[pkm/cap/year],fts_lfs_pkm_active[pkm/cap/year],fts_lfs_pkm_international[pkm/cap/year]
2016,belgium,1,12911.833597171499,557.0878149890314,2378.3840708387506
2016,belgium,2,12911.833597171499,557.0878149890314,2378.3840708387506
2016,belgium,3,12911.833597171499,557.0878149890314,2378.3840708387506
2016,belgium,4,12911.833597171499,557.0878149890314,2378.3840708387506
2016,belgium_2,1,,,
2016,belgium_2,2,,,
2016,belgium_2,3,,,
2016,belgium_2,4,,,
2016,brussels,1,12911.833597171499,557.0878149890314,2378.3840708387506
2016,brussels,2,12911.833597171499,557.0878149890314,2378.3840708387506
2016,brussels,3,12911.833597171499,557.0878149890314,2378.3840708387506
2016,brussels,4,12911.833597171499,557.0878149890314,2378.3840708387506
2016,flanders,1,12911.833597171499,557.0878149890314,2378.3840708387506
2016,flanders,2,12911.833597171499,557.0878149890314,2378.3840708387506
2016,flanders,3,12911.833597171499,557.0878149890314,2378.3840708387506
2016,flanders,4,12911.833597171499,557.0878149890314,2378.3840708387506
2016,rest_of_europe,1,,,
2016,rest_of_europe,2,,,
2016,rest_of_europe,3,,,
2016,rest_of_europe,4,,,
2016,wallonia,1,12911.833597171499,557.0878149890314,2378.3840708387506
2016,wallonia,2,12911.833597171499,557.0878149890314,2378.3840708387506
2016,wallonia,3,12911.833597171499,557.0878149890314,2378.3840708387506
2016,wallonia,4,12911.833597171499,557.0878149890314,2378.3840708387506
2017,belgium,1,13003.66220434301,561.0508496780621,2395.2981416775074
2017,belgium,2,13003.66220434301,561.0508496780621,2395.2981416775074
2017,belgium,3,13003.66220434301,561.0508496780621,2395.2981416775074
2017,belgium,4,13003.66220434301,561.0508496780621,2395.2981416775074
2017,belgium_2,1,,,
2017,belgium_2,2,,,
2017,belgium_2,3,,,
2017,belgium_2,4,,,
2017,brussels,1,13003.66220434301,561.0508496780621,2395.2981416775074
2017,brussels,2,13003.66220434301,561.0508496780621,2395.2981416775074
2017,brussels,3,13003.66220434301,561.0508496780621,2395.2981416775074
2017,brussels,4,13003.66220434301,561.0508496780621,2395.2981416775074
2017,flanders,1,13003.66220434301,561.0508496780621,2395.2981416775074
2017,flanders,2,13003.66220434301,561.0508496780621,2395.2981416775074
2017,flanders,3,13003.66220434301,561.0508496780621,2395.2981416775074
2017,flanders,4,13003.66220434301,561.0508496780621,2395.2981416775074
2017,rest_of_europe,1,,,
2017,rest_of_europe,2,,,
2017,rest_of_europe,3,,,
2017,rest_of_europe,4,,,
2017,wallonia,1,13003.66220434301,561.0508496780621,2395.2981416775074
2017,wallonia,2,13003.66220434301,561.0508496780621,2395.2981416775074
2017,wallonia,3,13003.66220434301,561.0508496780621,2395.2981416775074
2017,wallonia,4,13003.66220434301,561.0508496780621,2395.2981416775074
2018,belgium,1,13095.490811514523,565.0138843670929,2412.212212516257
2018,belgium,2,13095.490811514523,565.0138843670929,2412.212212516257
2018,belgium,3,13095.490811514523,565.0138843670929,2412.212212516257
2018,belgium,4,13095.490811514523,565.0138843670929,2412.212212516257
2018,belgium_2,1,,,
2018,belgium_2,2,,,
2018,belgium_2,3,,,
2018,belgium_2,4,,,
2018,brussels,1,13095.490811514523,565.0138843670929,2412.212212516257
2018,brussels,2,13095.490811514523,565.0138843670929,2412.212212516257
2018,brussels,3,13095.490811514523,565.0138843670929,2412.212212516257
2018,brussels,4,13095.490811514523,565.0138843670929,2412.212212516257
2018,flanders,1,13095.490811514523,565.0138843670929,2412.212212516257
2018,flanders,2,13095.490811514523,565.0138843670929,2412.212212516257
2018,flanders,3,13095.490811514523,565.0138843670929,2412.212212516257
2018,flanders,4,13095.490811514523,565.0138843670929,2412.212212516257
2018,rest_of_europe,1,,,
2018,rest_of_europe,2,,,
2018,rest_of_europe,3,,,
2018,rest_of_europe,4,,,
2018,wallonia,1,13095.490811514523,565.0138843670929,2412.212212516257
2018,wallonia,2,13095.490811514523,565.0138843670929,2412.212212516257
2018,wallonia,3,13095.490811514523,565.0138843670929,2412.212212516257
2018,wallonia,4,13095.490811514523,565.0138843670929,2412.212212516257
2019,belgium,1,13187.319418686035,568.9769190561246,2429.1262833550063
2019,belgium,2,13187.319418686035,568.9769190561246,2429.1262833550063
2019,belgium,3,13187.319418686035,568.9769190561246,2429.1262833550063
2019,belgium,4,13187.319418686035,568.9769190561246,2429.1262833550063
2019,belgium_2,1,,,
2019,belgium_2,2,,,
2019,belgium_2,3,,,
2019,belgium_2,4,,,
2019,brussels,1,13187.319418686035,568.9769190561246,2429.1262833550063
2019,brussels,2,13187.319418686035,568.9769190561246,2429.1262833550063
2019,brussels,3,13187.319418686035,568.9769190561246,2429.1262833550063
2019,brussels,4,13187.319418686035,568.9769190561246,2429.1262833550063
2019,flanders,1,13187.319418686035,568.9769190561246,2429.1262833550063
2019,flanders,2,13187.319418686035,568.9769190561246,2429.1262833550063
2019,flanders,3,13187.319418686035,568.9769190561246,2429.1262833550063
2019,flanders,4,13187.319418686035,568.9769190561246,2429.1262833550063
2019,rest_of_europe,1,,,
2019,rest_of_europe,2,,,
2019,rest_of_europe,3,,,
2019,rest_of_europe,4,,,
2019,wallonia,1,13187.319418686035,568.9769190561246,2429.1262833550063
2019,wallonia,2,13187.319418686035,568.9769190561246,2429.1262833550063
2019,wallonia,3,13187.319418686035,568.9769190561246,2429.1262833550063
2019,wallonia,4,13187.319418686035,568.9769190561246,2429.1262833550063
2020,belgium,1,13279.148025857576,572.9399537451554,2446.040354193763
2020,belgium,2,13279.148025857576,572.9399537451554,2446.040354193763
2020,belgium,3,13279.148025857576,572.9399537451554,2446.040354193763
2020,belgium,4,13279.148025857576,572.9399537451554,2446.040354193763
2020,belgium_2,1,,,
2020,belgium_2,2,,,
2020,belgium_2,3,,,
2020,belgium_2,4,,,
2020,brussels,1,13279.148025857576,572.9399537451554,2446.040354193763
2020,brussels,2,13279.148025857576,572.9399537451554,2446.040354193763
2020,brussels,3,13279.148025857576,572.9399537451554,2446.040354193763
2020,brussels,4,13279.148025857576,572.9399537451554,2446.040354193763
2020,flanders,1,13279.148025857576,572.9399537451554,2446.040354193763
2020,flanders,2,13279.148025857576,572.9399537451554,2446.040354193763
2020,flanders,3,13279.148025857576,572.9399537451554,2446.040354193763
2020,flanders,4,13279.148025857576,572.9399537451554,2446.040354193763
2020,rest_of_europe,1,,,
2020,rest_of_europe,2,,,
2020,rest_of_europe,3,,,
2020,rest_of_europe,4,,,
2020,wallonia,1,13279.148025857576,572.9399537451554,2446.040354193763
2020,wallonia,2,13279.148025857576,572.9399537451554,2446.040354193763
2020,wallonia,3,13279.148025857576,572.9399537451554,2446.040354193763
2020,wallonia,4,13279.148025857576,572.9399537451554,2446.040354193763
2021,belgium,1,13370.950524722633,576.900835936859,2462.9486162929243
2021,belgium,2,13336.310333068846,575.4070296763211,2456.5687139985384
2021,belgium,3,13263.84325799566,572.2802668358734,2443.220311768663
2021,belgium,4,13178.376691097801,568.5926102662252,2427.4774090641295
2021,belgium_2,1,,,
2021,belgium_2,2,,,
2021,belgium_2,3,,,
2021,belgium_2,4,,,
2021,brussels,1,13370.950524722633,576.900835936859,2462.9486162929243
2021,brussels,2,13336.310333068846,575.4070296763211,2456.5687139985384
2021,brussels,3,13263.84325799566,572.2802668358734,2443.220311768663
2021,brussels,4,13178.376691097801,568.5926102662252,2427.4774090641295
2021,flanders,1,13370.950524722633,576.900835936859,2462.9486162929243
2021,flanders,2,13336.310333068846,575.4070296763211,2456.5687139985384
2021,flanders,3,13263.84325799566,572.2802668358734,2443.220311768663
2021,flanders,4,13178.376691097801,568.5926102662252,2427.4774090641295
2021,rest_of_europe,1,,,
2021,rest_of_europe,2,,,
2021,rest_of_europe,3,,,
2021,rest_of_europe,4,,,
2021,wallonia,1,13370.950524722633,576.900835936859,2462.9486162929243
2021,wallonia,2,13336.310333068846,575.4070296763211,2456.5687139985384
2021,wallonia,3,13263.84325799566,572.2802668358734,2443.220311768663
2021,wallonia,4,13178.376691097801,568.5926102662252,2427.4774090641295
2022,belgium,1,13462.774780509731,580.8635118763359,2479.8617190084115
2022,belgium,2,13393.472640280117,577.874105607486,2467.097073803314
2022,belgium,3,13248.538490133742,571.6205799265911,2440.400269343564
2022,belgium,4,13077.605356338056,564.2452667872949,2408.914463934503
2022,belgium_2,1,,,
2022,belgium_2,2,,,
2022,belgium_2,3,,,
2022,belgium_2,4,,,
2022,brussels,1,13462.774780509731,580.8635118763359,2479.8617190084115
2022,brussels,2,13393.472640280117,577.874105607486,2467.097073803314
2022,brussels,3,13248.538490133742,571.6205799265911,2440.400269343564
2022,brussels,4,13077.605356338056,564.2452667872949,2408.914463934503
2022,flanders,1,13462.774780509731,580.8635118763359,2479.8617190084115
2022,flanders,2,13393.472640280117,577.874105607486,2467.097073803314
2022,flanders,3,13248.538490133742,571.6205799265911,2440.400269343564
2022,flanders,4,13077.605356338056,564.2452667872949,2408.914463934503
2022,rest_of_europe,1,,,
2022,rest_of_europe,2,,,
2022,rest_of_europe,3,,,
2022,rest_of_europe,4,,,
2022,wallonia,1,13462.774780509731,580.8635118763359,2479.8617190084115
2022,wallonia,2,13393.472640280117,577.874105607486,2467.097073803314
2022,wallonia,3,13248.538490133742,571.6205799265911,2440.400269343564
2022,wallonia,4,13077.605356338056,564.2452667872949,2408.914463934503
2023,belgium,1,13554.59903629683,584.8261878158128,2496.774821723906
2023,belgium,2,13450.634947491373,580.3411815386517,2477.625433608093
2023,belgium,3,13233.233722271823,570.9608930173088,2437.580226918465
2023,belgium,4,12976.834021578281,559.8979233083646,2390.351518804877
2023,belgium_2,1,,,
2023,belgium_2,2,,,
2023,belgium_2,3,,,
2023,belgium_2,4,,,
2023,brussels,1,13554.59903629683,584.8261878158128,2496.774821723906
2023,brussels,2,13450.634947491373,580.3411815386517,2477.625433608093
2023,brussels,3,13233.233722271823,570.9608930173088,2437.580226918465
2023,brussels,4,12976.834021578281,559.8979233083646,2390.351518804877
2023,flanders,1,13554.59903629683,584.8261878158128,2496.774821723906
2023,flanders,2,13450.634947491373,580.3411815386517,2477.625433608093
2023,flanders,3,13233.233722271823,570.9608930173088,2437.580226918465
2023,flanders,4,12976.834021578281,559.8979233083646,2390.351518804877
2023,rest_of_europe,1,,,
2023,rest_of_europe,2,,,
2023,rest_of_europe,3,,,
2023,rest_of_europe,4,,,
2023,wallonia,1,13554.59903629683,584.8261878158128,2496.774821723906
2023,wallonia,2,13450.634947491373,580.3411815386517,2477.625433608093
2023,wallonia,3,13233.233722271823,570.9608930173088,2437.580226918465
2023,wallonia,4,12976.834021578281,559.8979233083646,2390.351518804877
2024,belgium,1,13646.423292083957,588.7888637552896,2513.687924439393
2024,belgium,2,13507.797254702644,582.8082574698174,2488.1537934128683
2024,belgium,3,13217.928954409905,570.3012061080265,2434.760184493366
2024,belgium,4,12876.062686818506,555.5505798294344,2371.7885736752432
2024,belgium_2,1,,,
2024,belgium_2,2,,,
2024,belgium_2,3,,,
2024,belgium_2,4,,,
2024,brussels,1,13646.423292083957,588.7888637552896,2513.687924439393
2024,brussels,2,13507.797254702644,582.8082574698174,2488.1537934128683
2024,brussels,3,13217.928954409905,570.3012061080265,2434.760184493366
2024,brussels,4,12876.062686818506,555.5505798294344,2371.7885736752432
2024,flanders,1,13646.423292083957,588.7888637552896,2513.687924439393
2024,flanders,2,13507.797254702644,582.8082574698174,2488.1537934128683
2024,flanders,3,13217.928954409905,570.3012061080265,2434.760184493366
2024,flanders,4,12876.062686818506,555.5505798294344,2371.7885736752432
2024,rest_of_europe,1,,,
2024,rest_of_europe,2,,,
2024,rest_of_europe,3,,,
2024,rest_of_europe,4,,,
2024,wallonia,1,13646.423292083957,588.7888637552896,2513.687924439393
2024,wallonia,2,13507.797254702644,582.8082574698174,2488.1537934128683
2024,wallonia,3,13217.928954409905,570.3012061080265,2434.760184493366
2024,wallonia,4,12876.062686818506,555.5505798294344,2371.7885736752432
2025,belgium,1,13738.247547871055,592.7515396947656,2530.6010271548803
2025,belgium,2,13564.959561913915,585.2753334009822,2498.6821532176436
2025,belgium,3,13202.624186547982,569.6415191987444,2431.940142068267
2025,belgium,4,12775.291352058732,551.2032363505023,2353.225628545617
2025,belgium_2,1,,,
2025,belgium_2,2,,,
2025,belgium_2,3,,,
2025,belgium_2,4,,,
2025,brussels,1,13738.247547871055,592.7515396947656,2530.6010271548803
2025,brussels,2,13564.959561913915,585.2753334009822,2498.6821532176436
2025,brussels,3,13202.624186547982,569.6415191987444,2431.940142068267
2025,brussels,4,12775.291352058732,551.2032363505023,2353.225628545617
2025,flanders,1,13738.247547871055,592.7515396947656,2530.6010271548803
2025,flanders,2,13564.959561913915,585.2753334009822,2498.6821532176436
2025,flanders,3,13202.624186547982,569.6415191987444,2431.940142068267
2025,flanders,4,12775.291352058732,551.2032363505023,2353.225628545617
2025,rest_of_europe,1,,,
2025,rest_of_europe,2,,,
2025,rest_of_europe,3,,,
2025,rest_of_europe,4,,,
2025,wallonia,1,13738.247547871055,592.7515396947656,2530.6010271548803
2025,wallonia,2,13564.959561913915,585.2753334009822,2498.6821532176436
2025,wallonia,3,13202.624186547982,569.6415191987444,2431.940142068267
2025,wallonia,4,12775.291352058732,551.2032363505023,2353.225628545617
2026,belgium,1,13830.071803658153,596.7142156342425,2547.5141298703675
2026,belgium,2,13622.121869125185,587.7424093321479,2509.210513022419
2026,belgium,3,13187.319418686064,568.9818322894621,2429.120099643168
2026,belgium,4,12674.520017298957,546.855892871572,2334.6626834159833
2026,belgium_2,1,,,
2026,belgium_2,2,,,
2026,belgium_2,3,,,
2026,belgium_2,4,,,
2026,brussels,1,13830.071803658153,596.7142156342425,2547.5141298703675
2026,brussels,2,13622.121869125185,587.7424093321479,2509.210513022419
2026,brussels,3,13187.319418686064,568.9818322894621,2429.120099643168
2026,brussels,4,12674.520017298957,546.855892871572,2334.6626834159833
2026,flanders,1,13830.071803658153,596.7142156342425,2547.5141298703675
2026,flanders,2,13622.121869125185,587.7424093321479,2509.210513022419
2026,flanders,3,13187.319418686064,568.9818322894621,2429.120099643168
2026,flanders,4,12674.520017298957,546.855892871572,2334.6626834159833
2026,rest_of_europe,1,,,
2026,rest_of_europe,2,,,
2026,rest_of_europe,3,,,
2026,rest_of_europe,4,,,
2026,wallonia,1,13830.071803658153,596.7142156342425,2547.5141298703675
2026,wallonia,2,13622.121869125185,587.7424093321479,2509.210513022419
2026,wallonia,3,13187.319418686064,568.9818322894621,2429.120099643168
2026,wallonia,4,12674.520017298957,546.855892871572,2334.6626834159833
2027,belgium,1,13921.89605944528,600.6768915737193,2564.4272325858547
2027,belgium,2,13679.284176336441,590.2094852633127,2519.7388728271944
2027,belgium,3,13172.014650824145,568.3221453801798,2426.300057218068
2027,belgium,4,12573.748682539182,542.5085493926417,2316.099738286357
2027,belgium_2,1,,,
2027,belgium_2,2,,,
2027,belgium_2,3,,,
2027,belgium_2,4,,,
2027,brussels,1,13921.89605944528,600.6768915737193,2564.4272325858547
2027,brussels,2,13679.284176336441,590.2094852633127,2519.7388728271944
2027,brussels,3,13172.014650824145,568.3221453801798,2426.300057218068
2027,brussels,4,12573.748682539182,542.5085493926417,2316.099738286357
2027,flanders,1,13921.89605944528,600.6768915737193,2564.4272325858547
2027,flanders,2,13679.284176336441,590.2094852633127,2519.7388728271944
2027,flanders,3,13172.014650824145,568.3221453801798,2426.300057218068
2027,flanders,4,12573.748682539182,542.5085493926417,2316.099738286357
2027,rest_of_europe,1,,,
2027,rest_of_europe,2,,,
2027,rest_of_europe,3,,,
2027,rest_of_europe,4,,,
2027,wallonia,1,13921.89605944528,600.6768915737193,2564.4272325858547
2027,wallonia,2,13679.284176336441,590.2094852633127,2519.7388728271944
2027,wallonia,3,13172.014650824145,568.3221453801798,2426.300057218068
2027,wallonia,4,12573.748682539182,542.5085493926417,2316.099738286357
2028,belgium,1,14013.720315232378,604.6395675131953,2581.340335301342
2028,belgium,2,13736.446483547712,592.6765611944784,2530.26723263197
2028,belgium,3,13156.709882962226,567.6624584708975,2423.480014792969
2028,belgium,4,12472.977347779408,538.1612059137115,2297.5367931567307
2028,belgium_2,1,,,
2028,belgium_2,2,,,
2028,belgium_2,3,,,
2028,belgium_2,4,,,
2028,brussels,1,14013.720315232378,604.6395675131953,2581.340335301342
2028,brussels,2,13736.446483547712,592.6765611944784,2530.26723263197
2028,brussels,3,13156.709882962226,567.6624584708975,2423.480014792969
2028,brussels,4,12472.977347779408,538.1612059137115,2297.5367931567307
2028,flanders,1,14013.720315232378,604.6395675131953,2581.340335301342
2028,flanders,2,13736.446483547712,592.6765611944784,2530.26723263197
2028,flanders,3,13156.709882962226,567.6624584708975,2423.480014792969
2028,flanders,4,12472.977347779408,538.1612059137115,2297.5367931567307
2028,rest_of_europe,1,,,
2028,rest_of_europe,2,,,
2028,rest_of_europe,3,,,
2028,rest_of_europe,4,,,
2028,wallonia,1,14013.720315232378,604.6395675131953,2581.340335301342
2028,wallonia,2,13736.446483547712,592.6765611944784,2530.26723263197
2028,wallonia,3,13156.709882962226,567.6624584708975,2423.480014792969
2028,wallonia,4,12472.977347779408,538.1612059137115,2297.5367931567307
2029,belgium,1,14105.544571019476,608.6022434526722,2598.253438016829
2029,belgium,2,13793.608790758983,595.1436371256441,2540.795592436745
2029,belgium,3,13141.405115100308,567.0027715616154,2420.65997236787
2029,belgium,4,12372.206013019633,533.8138624347812,2278.973848027097
2029,belgium_2,1,,,
2029,belgium_2,2,,,
2029,belgium_2,3,,,
2029,belgium_2,4,,,
2029,brussels,1,14105.544571019476,608.6022434526722,2598.253438016829
2029,brussels,2,13793.608790758983,595.1436371256441,2540.795592436745
2029,brussels,3,13141.405115100308,567.0027715616154,2420.65997236787
2029,brussels,4,12372.206013019633,533.8138624347812,2278.973848027097
2029,flanders,1,14105.544571019476,608.6022434526722,2598.253438016829
2029,flanders,2,13793.608790758983,595.1436371256441,2540.795592436745
2029,flanders,3,13141.405115100308,567.0027715616154,2420.65997236787
2029,flanders,4,12372.206013019633,533.8138624347812,2278.973848027097
2029,rest_of_europe,1,,,
2029,rest_of_europe,2,,,
2029,rest_of_europe,3,,,
2029,rest_of_europe,4,,,
2029,wallonia,1,14105.544571019476,608.6022434526722,2598.253438016829
2029,wallonia,2,13793.608790758983,595.1436371256441,2540.795592436745
2029,wallonia,3,13141.405115100308,567.0027715616154,2420.65997236787
2029,wallonia,4,12372.206013019633,533.8138624347812,2278.973848027097
2030,belgium,1,14197.368826806603,612.564919392149,2615.166540732316
2030,belgium,2,13850.771097970239,597.6107130568089,2551.3239522415206
2030,belgium,3,13126.100347238389,566.3430846523331,2417.839929942771
2030,belgium,4,12271.434678259888,529.4665189558509,2260.410902897471
2030,belgium_2,1,,,
2030,belgium_2,2,,,
2030,belgium_2,3,,,
2030,belgium_2,4,,,
2030,brussels,1,14197.368826806603,612.564919392149,2615.166540732316
2030,brussels,2,13850.771097970239,597.6107130568089,2551.3239522415206
2030,brussels,3,13126.100347238389,566.3430846523331,2417.839929942771
2030,brussels,4,12271.434678259888,529.4665189558509,2260.410902897471
2030,flanders,1,14197.368826806603,612.564919392149,2615.166540732316
2030,flanders,2,13850.771097970239,597.6107130568089,2551.3239522415206
2030,flanders,3,13126.100347238389,566.3430846523331,2417.839929942771
2030,flanders,4,12271.434678259888,529.4665189558509,2260.410902897471
2030,rest_of_europe,1,,,
2030,rest_of_europe,2,,,
2030,rest_of_europe,3,,,
2030,rest_of_europe,4,,,
2030,wallonia,1,14197.368826806603,612.564919392149,2615.166540732316
2030,wallonia,2,13850.771097970239,597.6107130568089,2551.3239522415206
2030,wallonia,3,13126.100347238389,566.3430846523331,2417.839929942771
2030,wallonia,4,12271.434678259888,529.4665189558509,2260.410902897471
2031,belgium,1,14289.193082593702,616.5275953316259,2632.0796434478034
2031,belgium,2,13907.93340518151,600.0777889879746,2561.852312046296
2031,belgium,3,13110.79557937647,565.6833977430508,2415.019887517672
2031,belgium,4,12170.663343500113,525.1191754769206,2241.847957767837
2031,belgium_2,1,,,
2031,belgium_2,2,,,
2031,belgium_2,3,,,
2031,belgium_2,4,,,
2031,brussels,1,14289.193082593702,616.5275953316259,2632.0796434478034
2031,brussels,2,13907.93340518151,600.0777889879746,2561.852312046296
2031,brussels,3,13110.79557937647,565.6833977430508,2415.019887517672
2031,brussels,4,12170.663343500113,525.1191754769206,2241.847957767837
2031,flanders,1,14289.193082593702,616.5275953316259,2632.0796434478034
2031,flanders,2,13907.93340518151,600.0777889879746,2561.852312046296
2031,flanders,3,13110.79557937647,565.6833977430508,2415.019887517672
2031,flanders,4,12170.663343500113,525.1191754769206,2241.847957767837
2031,rest_of_europe,1,,,
2031,rest_of_europe,2,,,
2031,rest_of_europe,3,,,
2031,rest_of_europe,4,,,
2031,wallonia,1,14289.193082593702,616.5275953316259,2632.0796434478034
2031,wallonia,2,13907.93340518151,600.0777889879746,2561.852312046296
2031,wallonia,3,13110.79557937647,565.6833977430508,2415.019887517672
2031,wallonia,4,12170.663343500113,525.1191754769206,2241.847957767837
2032,belgium,1,14381.0173383808,620.4902712711018,2648.9927461632906
2032,belgium,2,13965.09571239278,602.5448649191394,2572.3806718510714
2032,belgium,3,13095.490811514548,565.0237108337685,2412.199845092573
2032,belgium,4,12069.892008740338,520.7718319979886,2223.285012638211
2032,belgium_2,1,,,
2032,belgium_2,2,,,
2032,belgium_2,3,,,
2032,belgium_2,4,,,
2032,brussels,1,14381.0173383808,620.4902712711018,2648.9927461632906
2032,brussels,2,13965.09571239278,602.5448649191394,2572.3806718510714
2032,brussels,3,13095.490811514548,565.0237108337685,2412.199845092573
2032,brussels,4,12069.892008740338,520.7718319979886,2223.285012638211
2032,flanders,1,14381.0173383808,620.4902712711018,2648.9927461632906
2032,flanders,2,13965.09571239278,602.5448649191394,2572.3806718510714
2032,flanders,3,13095.490811514548,565.0237108337685,2412.199845092573
2032,flanders,4,12069.892008740338,520.7718319979886,2223.285012638211
2032,rest_of_europe,1,,,
2032,rest_of_europe,2,,,
2032,rest_of_europe,3,,,
2032,rest_of_europe,4,,,
2032,wallonia,1,14381.0173383808,620.4902712711018,2648.9927461632906
2032,wallonia,2,13965.09571239278,602.5448649191394,2572.3806718510714
2032,wallonia,3,13095.490811514548,565.0237108337685,2412.199845092573
2032,wallonia,4,12069.892008740338,520.7718319979886,2223.285012638211
2033,belgium,1,14472.841594167898,624.4529472105787,2665.905848878785
2033,belgium,2,14022.258019604036,605.0119408503051,2582.909031655847
2033,belgium,3,13080.18604365263,564.3640239244862,2409.379802667473
2033,belgium,4,11969.120673980564,516.4244885190583,2204.7220675085846
2033,belgium_2,1,,,
2033,belgium_2,2,,,
2033,belgium_2,3,,,
2033,belgium_2,4,,,
2033,brussels,1,14472.841594167898,624.4529472105787,2665.905848878785
2033,brussels,2,14022.258019604036,605.0119408503051,2582.909031655847
2033,brussels,3,13080.18604365263,564.3640239244862,2409.379802667473
2033,brussels,4,11969.120673980564,516.4244885190583,2204.7220675085846
2033,flanders,1,14472.841594167898,624.4529472105787,2665.905848878785
2033,flanders,2,14022.258019604036,605.0119408503051,2582.909031655847
2033,flanders,3,13080.18604365263,564.3640239244862,2409.379802667473
2033,flanders,4,11969.120673980564,516.4244885190583,2204.7220675085846
2033,rest_of_europe,1,,,
2033,rest_of_europe,2,,,
2033,rest_of_europe,3,,,
2033,rest_of_europe,4,,,
2033,wallonia,1,14472.841594167898,624.4529472105787,2665.905848878785
2033,wallonia,2,14022.258019604036,605.0119408503051,2582.909031655847
2033,wallonia,3,13080.18604365263,564.3640239244862,2409.379802667473
2033,wallonia,4,11969.120673980564,516.4244885190583,2204.7220675085846
2034,belgium,1,14564.665849955025,628.4156231500556,2682.818951594272
2034,belgium,2,14079.420326815307,607.4790167814708,2593.437391460622
2034,belgium,3,13064.88127579071,563.7043370152041,2406.559760242374
2034,belgium,4,11868.34933922079,512.077145040128,2186.159122378951
2034,belgium_2,1,,,
2034,belgium_2,2,,,
2034,belgium_2,3,,,
2034,belgium_2,4,,,
2034,brussels,1,14564.665849955025,628.4156231500556,2682.818951594272
2034,brussels,2,14079.420326815307,607.4790167814708,2593.437391460622
2034,brussels,3,13064.88127579071,563.7043370152041,2406.559760242374
2034,brussels,4,11868.34933922079,512.077145040128,2186.159122378951
2034,flanders,1,14564.665849955025,628.4156231500556,2682.818951594272
2034,flanders,2,14079.420326815307,607.4790167814708,2593.437391460622
2034,flanders,3,13064.88127579071,563.7043370152041,2406.559760242374
2034,flanders,4,11868.34933922079,512.077145040128,2186.159122378951
2034,rest_of_europe,1,,,
2034,rest_of_europe,2,,,
2034,rest_of_europe,3,,,
2034,rest_of_europe,4,,,
2034,wallonia,1,14564.665849955025,628.4156231500556,2682.818951594272
2034,wallonia,2,14079.420326815307,607.4790167814708,2593.437391460622
2034,wallonia,3,13064.88127579071,563.7043370152041,2406.559760242374
2034,wallonia,4,11868.34933922079,512.077145040128,2186.159122378951
2035,belgium,1,14656.490105742123,632.3782990895324,2699.7320543097594
2035,belgium,2,14136.582634026578,609.9460927126356,2603.9657512653976
2035,belgium,3,13049.576507928792,563.0446501059218,2403.739717817275
2035,belgium,4,11767.578004461015,507.72980156119775,2167.5961772493247
2035,belgium_2,1,,,
2035,belgium_2,2,,,
2035,belgium_2,3,,,
2035,belgium_2,4,,,
2035,brussels,1,14656.490105742123,632.3782990895324,2699.7320543097594
2035,brussels,2,14136.582634026578,609.9460927126356,2603.9657512653976
2035,brussels,3,13049.576507928792,563.0446501059218,2403.739717817275
2035,brussels,4,11767.578004461015,507.72980156119775,2167.5961772493247
2035,flanders,1,14656.490105742123,632.3782990895324,2699.7320543097594
2035,flanders,2,14136.582634026578,609.9460927126356,2603.9657512653976
2035,flanders,3,13049.576507928792,563.0446501059218,2403.739717817275
2035,flanders,4,11767.578004461015,507.72980156119775,2167.5961772493247
2035,rest_of_europe,1,,,
2035,rest_of_europe,2,,,
2035,rest_of_europe,3,,,
2035,rest_of_europe,4,,,
2035,wallonia,1,14656.490105742123,632.3782990895324,2699.7320543097594
2035,wallonia,2,14136.582634026578,609.9460927126356,2603.9657512653976
2035,wallonia,3,13049.576507928792,563.0446501059218,2403.739717817275
2035,wallonia,4,11767.578004461015,507.72980156119775,2167.5961772493247
2036,belgium,1,14748.314361529221,636.3409750290084,2716.6451570252466
2036,belgium,2,14193.744941237848,612.4131686438013,2614.494111070173
2036,belgium,3,13034.271740066873,562.3849631966395,2400.919675392176
2036,belgium,4,11666.80666970124,503.3824580822675,2149.0332321196984
2036,belgium_2,1,,,
2036,belgium_2,2,,,
2036,belgium_2,3,,,
2036,belgium_2,4,,,
2036,brussels,1,14748.314361529221,636.3409750290084,2716.6451570252466
2036,brussels,2,14193.744941237848,612.4131686438013,2614.494111070173
2036,brussels,3,13034.271740066873,562.3849631966395,2400.919675392176
2036,brussels,4,11666.80666970124,503.3824580822675,2149.0332321196984
2036,flanders,1,14748.314361529221,636.3409750290084,2716.6451570252466
2036,flanders,2,14193.744941237848,612.4131686438013,2614.494111070173
2036,flanders,3,13034.271740066873,562.3849631966395,2400.919675392176
2036,flanders,4,11666.80666970124,503.3824580822675,2149.0332321196984
2036,rest_of_europe,1,,,
2036,rest_of_europe,2,,,
2036,rest_of_europe,3,,,
2036,rest_of_europe,4,,,
2036,wallonia,1,14748.314361529221,636.3409750290084,2716.6451570252466
2036,wallonia,2,14193.744941237848,612.4131686438013,2614.494111070173
2036,wallonia,3,13034.271740066873,562.3849631966395,2400.919675392176
2036,wallonia,4,11666.80666970124,503.3824580822675,2149.0332321196984
2037,belgium,1,14840.138617316348,640.3036509684853,2733.558259740734
2037,belgium,2,14250.907248449104,614.8802445749661,2625.0224708749483
2037,belgium,3,13018.966972204955,561.7252762873572,2398.099632967077
2037,belgium,4,11566.035334941495,499.0351146033372,2130.470286990065
2037,belgium_2,1,,,
2037,belgium_2,2,,,
2037,belgium_2,3,,,
2037,belgium_2,4,,,
2037,brussels,1,14840.138617316348,640.3036509684853,2733.558259740734
2037,brussels,2,14250.907248449104,614.8802445749661,2625.0224708749483
2037,brussels,3,13018.966972204955,561.7252762873572,2398.099632967077
2037,brussels,4,11566.035334941495,499.0351146033372,2130.470286990065
2037,flanders,1,14840.138617316348,640.3036509684853,2733.558259740734
2037,flanders,2,14250.907248449104,614.8802445749661,2625.0224708749483
2037,flanders,3,13018.966972204955,561.7252762873572,2398.099632967077
2037,flanders,4,11566.035334941495,499.0351146033372,2130.470286990065
2037,rest_of_europe,1,,,
2037,rest_of_europe,2,,,
2037,rest_of_europe,3,,,
2037,rest_of_europe,4,,,
2037,wallonia,1,14840.138617316348,640.3036509684853,2733.558259740734
2037,wallonia,2,14250.907248449104,614.8802445749661,2625.0224708749483
2037,wallonia,3,13018.966972204955,561.7252762873572,2398.099632967077
2037,wallonia,4,11566.035334941495,499.0351146033372,2130.470286990065
2038,belgium,1,14931.962873103446,644.2663269079621,2750.471362456221
2038,belgium,2,14308.069555660375,617.3473205061318,2635.5508306797237
2038,belgium,3,13003.662204343032,561.0655893780752,2395.279590541978
2038,belgium,4,11465.26400018172,494.6877711244051,2111.9073418604385
2038,belgium_2,1,,,
2038,belgium_2,2,,,
2038,belgium_2,3,,,
2038,belgium_2,4,,,
2038,brussels,1,14931.962873103446,644.2663269079621,2750.471362456221
2038,brussels,2,14308.069555660375,617.3473205061318,2635.5508306797237
2038,brussels,3,13003.662204343032,561.0655893780752,2395.279590541978
2038,brussels,4,11465.26400018172,494.6877711244051,2111.9073418604385
2038,flanders,1,14931.962873103446,644.2663269079621,2750.471362456221
2038,flanders,2,14308.069555660375,617.3473205061318,2635.5508306797237
2038,flanders,3,13003.662204343032,561.0655893780752,2395.279590541978
2038,flanders,4,11465.26400018172,494.6877711244051,2111.9073418604385
2038,rest_of_europe,1,,,
2038,rest_of_europe,2,,,
2038,rest_of_europe,3,,,
2038,rest_of_europe,4,,,
2038,wallonia,1,14931.962873103446,644.2663269079621,2750.471362456221
2038,wallonia,2,14308.069555660375,617.3473205061318,2635.5508306797237
2038,wallonia,3,13003.662204343032,561.0655893780752,2395.279590541978
2038,wallonia,4,11465.26400018172,494.6877711244051,2111.9073418604385
2039,belgium,1,15023.787128890544,648.2290028474381,2767.384465171708
2039,belgium,2,14365.231862871646,619.8143964372975,2646.079190484499
2039,belgium,3,12988.357436481114,560.4059024687929,2392.459548116878
2039,belgium,4,11364.492665421945,490.34042764547485,2093.344396730805
2039,belgium_2,1,,,
2039,belgium_2,2,,,
2039,belgium_2,3,,,
2039,belgium_2,4,,,
2039,brussels,1,15023.787128890544,648.2290028474381,2767.384465171708
2039,brussels,2,14365.231862871646,619.8143964372975,2646.079190484499
2039,brussels,3,12988.357436481114,560.4059024687929,2392.459548116878
2039,brussels,4,11364.492665421945,490.34042764547485,2093.344396730805
2039,flanders,1,15023.787128890544,648.2290028474381,2767.384465171708
2039,flanders,2,14365.231862871646,619.8143964372975,2646.079190484499
2039,flanders,3,12988.357436481114,560.4059024687929,2392.459548116878
2039,flanders,4,11364.492665421945,490.34042764547485,2093.344396730805
2039,rest_of_europe,1,,,
2039,rest_of_europe,2,,,
2039,rest_of_europe,3,,,
2039,rest_of_europe,4,,,
2039,wallonia,1,15023.787128890544,648.2290028474381,2767.384465171708
2039,wallonia,2,14365.231862871646,619.8143964372975,2646.079190484499
2039,wallonia,3,12988.357436481114,560.4059024687929,2392.459548116878
2039,wallonia,4,11364.492665421945,490.34042764547485,2093.344396730805
2040,belgium,1,15115.611384677672,652.191678786915,2784.2975678871953
2040,belgium,2,14422.394170082902,622.2814723684623,2656.607550289278
2040,belgium,3,12973.052668619195,559.7462155595106,2389.639505691779
2040,belgium,4,11263.72133066217,485.9930841665446,2074.7814516011786
2040,belgium_2,1,,,
2040,belgium_2,2,,,
2040,belgium_2,3,,,
2040,belgium_2,4,,,
2040,brussels,1,15115.611384677672,652.191678786915,2784.2975678871953
2040,brussels,2,14422.394170082902,622.2814723684623,2656.607550289278
2040,brussels,3,12973.052668619195,559.7462155595106,2389.639505691779
2040,brussels,4,11263.72133066217,485.9930841665446,2074.7814516011786
2040,flanders,1,15115.611384677672,652.191678786915,2784.2975678871953
2040,flanders,2,14422.394170082902,622.2814723684623,2656.607550289278
2040,flanders,3,12973.052668619195,559.7462155595106,2389.639505691779
2040,flanders,4,11263.72133066217,485.9930841665446,2074.7814516011786
2040,rest_of_europe,1,,,
2040,rest_of_europe,2,,,
2040,rest_of_europe,3,,,
2040,rest_of_europe,4,,,
2040,wallonia,1,15115.611384677672,652.191678786915,2784.2975678871953
2040,wallonia,2,14422.394170082902,622.2814723684623,2656.607550289278
2040,wallonia,3,12973.052668619195,559.7462155595106,2389.639505691779
2040,wallonia,4,11263.72133066217,485.9930841665446,2074.7814516011786
2041,belgium,1,15207.43564046477,656.1543547263918,2801.2106706026825
2041,belgium,2,14479.556477294173,624.748548299628,2667.1359100940535
2041,belgium,3,12957.747900757277,559.0865286502283,2386.81946326668
2041,belgium,4,11162.949995902396,481.6457406876143,2056.2185064715522
2041,belgium_2,1,,,
2041,belgium_2,2,,,
2041,belgium_2,3,,,
2041,belgium_2,4,,,
2041,brussels,1,15207.43564046477,656.1543547263918,2801.2106706026825
2041,brussels,2,14479.556477294173,624.748548299628,2667.1359100940535
2041,brussels,3,12957.747900757277,559.0865286502283,2386.81946326668
2041,brussels,4,11162.949995902396,481.6457406876143,2056.2185064715522
2041,flanders,1,15207.43564046477,656.1543547263918,2801.2106706026825
2041,flanders,2,14479.556477294173,624.748548299628,2667.1359100940535
2041,flanders,3,12957.747900757277,559.0865286502283,2386.81946326668
2041,flanders,4,11162.949995902396,481.6457406876143,2056.2185064715522
2041,rest_of_europe,1,,,
2041,rest_of_europe,2,,,
2041,rest_of_europe,3,,,
2041,rest_of_europe,4,,,
2041,wallonia,1,15207.43564046477,656.1543547263918,2801.2106706026825
2041,wallonia,2,14479.556477294173,624.748548299628,2667.1359100940535
2041,wallonia,3,12957.747900757277,559.0865286502283,2386.81946326668
2041,wallonia,4,11162.949995902396,481.6457406876143,2056.2185064715522
2042,belgium,1,15299.259896251868,660.1170306658687,2818.1237733181697
2042,belgium,2,14536.718784505443,627.2156242307929,2677.664269898829
2042,belgium,3,12942.443132895358,558.4268417409462,2383.999420841581
2042,belgium,4,11062.178661142621,477.29839720868404,2037.6555613419187
2042,belgium_2,1,,,
2042,belgium_2,2,,,
2042,belgium_2,3,,,
2042,belgium_2,4,,,
2042,brussels,1,15299.259896251868,660.1170306658687,2818.1237733181697
2042,brussels,2,14536.718784505443,627.2156242307929,2677.664269898829
2042,brussels,3,12942.443132895358,558.4268417409462,2383.999420841581
2042,brussels,4,11062.178661142621,477.29839720868404,2037.6555613419187
2042,flanders,1,15299.259896251868,660.1170306658687,2818.1237733181697
2042,flanders,2,14536.718784505443,627.2156242307929,2677.664269898829
2042,flanders,3,12942.443132895358,558.4268417409462,2383.999420841581
2042,flanders,4,11062.178661142621,477.29839720868404,2037.6555613419187
2042,rest_of_europe,1,,,
2042,rest_of_europe,2,,,
2042,rest_of_europe,3,,,
2042,rest_of_europe,4,,,
2042,wallonia,1,15299.259896251868,660.1170306658687,2818.1237733181697
2042,wallonia,2,14536.718784505443,627.2156242307929,2677.664269898829
2042,wallonia,3,12942.443132895358,558.4268417409462,2383.999420841581
2042,wallonia,4,11062.178661142621,477.29839720868404,2037.6555613419187
2043,belgium,1,15391.084152038966,664.0797066053447,2835.036876033664
2043,belgium,2,14593.8810917167,629.6827001619586,2688.1926297036043
2043,belgium,3,12927.13836503344,557.7671548316639,2381.179378416482
2043,belgium,4,10961.407326382847,472.95105372975377,2019.0926162122923
2043,belgium_2,1,,,
2043,belgium_2,2,,,
2043,belgium_2,3,,,
2043,belgium_2,4,,,
2043,brussels,1,15391.084152038966,664.0797066053447,2835.036876033664
2043,brussels,2,14593.8810917167,629.6827001619586,2688.1926297036043
2043,brussels,3,12927.13836503344,557.7671548316639,2381.179378416482
2043,brussels,4,10961.407326382847,472.95105372975377,2019.0926162122923
2043,flanders,1,15391.084152038966,664.0797066053447,2835.036876033664
2043,flanders,2,14593.8810917167,629.6827001619586,2688.1926297036043
2043,flanders,3,12927.13836503344,557.7671548316639,2381.179378416482
2043,flanders,4,10961.407326382847,472.95105372975377,2019.0926162122923
2043,rest_of_europe,1,,,
2043,rest_of_europe,2,,,
2043,rest_of_europe,3,,,
2043,rest_of_europe,4,,,
2043,wallonia,1,15391.084152038966,664.0797066053447,2835.036876033664
2043,wallonia,2,14593.8810917167,629.6827001619586,2688.1926297036043
2043,wallonia,3,12927.13836503344,557.7671548316639,2381.179378416482
2043,wallonia,4,10961.407326382847,472.95105372975377,2019.0926162122923
2044,belgium,1,15482.908407826093,668.0423825448215,2851.9499787491513
2044,belgium,2,14651.04339892797,632.1497760931243,2698.7209895083797
2044,belgium,3,12911.83359717152,557.1074679223816,2378.359335991383
2044,belgium,4,10860.635991623072,468.6037102508235,2000.529671082666
2044,belgium_2,1,,,
2044,belgium_2,2,,,
2044,belgium_2,3,,,
2044,belgium_2,4,,,
2044,brussels,1,15482.908407826093,668.0423825448215,2851.9499787491513
2044,brussels,2,14651.04339892797,632.1497760931243,2698.7209895083797
2044,brussels,3,12911.83359717152,557.1074679223816,2378.359335991383
2044,brussels,4,10860.635991623072,468.6037102508235,2000.529671082666
2044,flanders,1,15482.908407826093,668.0423825448215,2851.9499787491513
2044,flanders,2,14651.04339892797,632.1497760931243,2698.7209895083797
2044,flanders,3,12911.83359717152,557.1074679223816,2378.359335991383
2044,flanders,4,10860.635991623072,468.6037102508235,2000.529671082666
2044,rest_of_europe,1,,,
2044,rest_of_europe,2,,,
2044,rest_of_europe,3,,,
2044,rest_of_europe,4,,,
2044,wallonia,1,15482.908407826093,668.0423825448215,2851.9499787491513
2044,wallonia,2,14651.04339892797,632.1497760931243,2698.7209895083797
2044,wallonia,3,12911.83359717152,557.1074679223816,2378.359335991383
2044,wallonia,4,10860.635991623072,468.6037102508235,2000.529671082666
2045,belgium,1,15574.732663613191,672.0050584842984,2868.8630814646385
2045,belgium,2,14708.20570613924,634.6168520242891,2709.249349313155
2045,belgium,3,12896.528829309598,556.4477810130993,2375.539293566283
2045,belgium,4,10759.864656863327,464.2563667718914,1981.9667259530324
2045,belgium_2,1,,,
2045,belgium_2,2,,,
2045,belgium_2,3,,,
2045,belgium_2,4,,,
2045,brussels,1,15574.732663613191,672.0050584842984,2868.8630814646385
2045,brussels,2,14708.20570613924,634.6168520242891,2709.249349313155
2045,brussels,3,12896.528829309598,556.4477810130993,2375.539293566283
2045,brussels,4,10759.864656863327,464.2563667718914,1981.9667259530324
2045,flanders,1,15574.732663613191,672.0050584842984,2868.8630814646385
2045,flanders,2,14708.20570613924,634.6168520242891,2709.249349313155
2045,flanders,3,12896.528829309598,556.4477810130993,2375.539293566283
2045,flanders,4,10759.864656863327,464.2563667718914,1981.9667259530324
2045,rest_of_europe,1,,,
2045,rest_of_europe,2,,,
2045,rest_of_europe,3,,,
2045,rest_of_europe,4,,,
2045,wallonia,1,15574.732663613191,672.0050584842984,2868.8630814646385
2045,wallonia,2,14708.20570613924,634.6168520242891,2709.249349313155
2045,wallonia,3,12896.528829309598,556.4477810130993,2375.539293566283
2045,wallonia,4,10759.864656863327,464.2563667718914,1981.9667259530324
2046,belgium,1,15666.55691940029,675.9677344237753,2885.7761841801257
2046,belgium,2,14765.368013350511,637.0839279554548,2719.7777091179305
2046,belgium,3,12881.22406144768,555.7880941038172,2372.719251141184
2046,belgium,4,10659.093322103552,459.90902329296114,1963.4037808234061
2046,belgium_2,1,,,
2046,belgium_2,2,,,
2046,belgium_2,3,,,
2046,belgium_2,4,,,
2046,brussels,1,15666.55691940029,675.9677344237753,2885.7761841801257
2046,brussels,2,14765.368013350511,637.0839279554548,2719.7777091179305
2046,brussels,3,12881.22406144768,555.7880941038172,2372.719251141184
2046,brussels,4,10659.093322103552,459.90902329296114,1963.4037808234061
2046,flanders,1,15666.55691940029,675.9677344237753,2885.7761841801257
2046,flanders,2,14765.368013350511,637.0839279554548,2719.7777091179305
2046,flanders,3,12881.22406144768,555.7880941038172,2372.719251141184
2046,flanders,4,10659.093322103552,459.90902329296114,1963.4037808234061
2046,rest_of_europe,1,,,
2046,rest_of_europe,2,,,
2046,rest_of_europe,3,,,
2046,rest_of_europe,4,,,
2046,wallonia,1,15666.55691940029,675.9677344237753,2885.7761841801257
2046,wallonia,2,14765.368013350511,637.0839279554548,2719.7777091179305
2046,wallonia,3,12881.22406144768,555.7880941038172,2372.719251141184
2046,wallonia,4,10659.093322103552,459.90902329296114,1963.4037808234061
2047,belgium,1,15758.381175187416,679.9304103632512,2902.689286895613
2047,belgium,2,14822.530320561767,639.5510038866196,2730.306068922706
2047,belgium,3,12865.91929358576,555.1284071945349,2369.899208716085
2047,belgium,4,10558.321987343777,455.56167981403087,1944.8408356937725
2047,belgium_2,1,,,
2047,belgium_2,2,,,
2047,belgium_2,3,,,
2047,belgium_2,4,,,
2047,brussels,1,15758.381175187416,679.9304103632512,2902.689286895613
2047,brussels,2,14822.530320561767,639.5510038866196,2730.306068922706
2047,brussels,3,12865.91929358576,555.1284071945349,2369.899208716085
2047,brussels,4,10558.321987343777,455.56167981403087,1944.8408356937725
2047,flanders,1,15758.381175187416,679.9304103632512,2902.689286895613
2047,flanders,2,14822.530320561767,639.5510038866196,2730.306068922706
2047,flanders,3,12865.91929358576,555.1284071945349,2369.899208716085
2047,flanders,4,10558.321987343777,455.56167981403087,1944.8408356937725
2047,rest_of_europe,1,,,
2047,rest_of_europe,2,,,
2047,rest_of_europe,3,,,
2047,rest_of_europe,4,,,
2047,wallonia,1,15758.381175187416,679.9304103632512,2902.689286895613
2047,wallonia,2,14822.530320561767,639.5510038866196,2730.306068922706
2047,wallonia,3,12865.91929358576,555.1284071945349,2369.899208716085
2047,wallonia,4,10558.321987343777,455.56167981403087,1944.8408356937725
2048,belgium,1,15850.205430974514,683.8930863027281,2919.6023896111
2048,belgium,2,14879.692627773038,642.0180798177853,2740.8344287274813
2048,belgium,3,12850.614525723842,554.4687202852526,2367.079166290986
2048,belgium,4,10457.550652584003,451.2143363351006,1926.2778905641462
2048,belgium_2,1,,,
2048,belgium_2,2,,,
2048,belgium_2,3,,,
2048,belgium_2,4,,,
2048,brussels,1,15850.205430974514,683.8930863027281,2919.6023896111
2048,brussels,2,14879.692627773038,642.0180798177853,2740.8344287274813
2048,brussels,3,12850.614525723842,554.4687202852526,2367.079166290986
2048,brussels,4,10457.550652584003,451.2143363351006,1926.2778905641462
2048,flanders,1,15850.205430974514,683.8930863027281,2919.6023896111
2048,flanders,2,14879.692627773038,642.0180798177853,2740.8344287274813
2048,flanders,3,12850.614525723842,554.4687202852526,2367.079166290986
2048,flanders,4,10457.550652584003,451.2143363351006,1926.2778905641462
2048,rest_of_europe,1,,,
2048,rest_of_europe,2,,,
2048,rest_of_europe,3,,,
2048,rest_of_europe,4,,,
2048,wallonia,1,15850.205430974514,683.8930863027281,2919.6023896111
2048,wallonia,2,14879.692627773038,642.0180798177853,2740.8344287274813
2048,wallonia,3,12850.614525723842,554.4687202852526,2367.079166290986
2048,wallonia,4,10457.550652584003,451.2143363351006,1926.2778905641462
2049,belgium,1,15942.029686761613,687.855762242205,2936.5154923265873
2049,belgium,2,14936.854934984309,644.485155748951,2751.3627885322567
2049,belgium,3,12835.309757861924,553.8090333759703,2364.259123865887
2049,belgium,4,10356.779317824228,446.8669928561703,1907.71494543452
2049,belgium_2,1,,,
2049,belgium_2,2,,,
2049,belgium_2,3,,,
2049,belgium_2,4,,,
2049,brussels,1,15942.029686761613,687.855762242205,2936.5154923265873
2049,brussels,2,14936.854934984309,644.485155748951,2751.3627885322567
2049,brussels,3,12835.309757861924,553.8090333759703,2364.259123865887
2049,brussels,4,10356.779317824228,446.8669928561703,1907.71494543452
2049,flanders,1,15942.029686761613,687.855762242205,2936.5154923265873
2049,flanders,2,14936.854934984309,644.485155748951,2751.3627885322567
2049,flanders,3,12835.309757861924,553.8090333759703,2364.259123865887
2049,flanders,4,10356.779317824228,446.8669928561703,1907.71494543452
2049,rest_of_europe,1,,,
2049,rest_of_europe,2,,,
2049,rest_of_europe,3,,,
2049,rest_of_europe,4,,,
2049,wallonia,1,15942.029686761613,687.855762242205,2936.5154923265873
2049,wallonia,2,14936.854934984309,644.485155748951,2751.3627885322567
2049,wallonia,3,12835.309757861924,553.8090333759703,2364.259123865887
2049,wallonia,4,10356.779317824228,446.8669928561703,1907.71494543452
2050,belgium,1,16033.85394254874,691.8184381816809,2953.4285950420744
2050,belgium,2,14994.017242195565,646.9522316801158,2761.891148337032
2050,belgium,3,12820.004990000005,553.149346466688,2361.439081440788
2050,belgium,4,10256.007983064454,442.51964937724006,1889.1520003048863
2050,belgium_2,1,,,
2050,belgium_2,2,,,
2050,belgium_2,3,,,
2050,belgium_2,4,,,
2050,brussels,1,16033.85394254874,691.8184381816809,2953.4285950420744
2050,brussels,2,14994.017242195565,646.9522316801158,2761.891148337032
2050,brussels,3,12820.004990000005,553.149346466688,2361.439081440788
2050,brussels,4,10256.007983064454,442.51964937724006,1889.1520003048863
2050,flanders,1,16033.85394254874,691.8184381816809,2953.4285950420744
2050,flanders,2,14994.017242195565,646.9522316801158,2761.891148337032
2050,flanders,3,12820.004990000005,553.149346466688,2361.439081440788
2050,flanders,4,10256.007983064454,442.51964937724006,1889.1520003048863
2050,rest_of_europe,1,,,
2050,rest_of_europe,2,,,
2050,rest_of_europe,3,,,
2050,rest_of_europe,4,,,
2050,wallonia,1,16033.85394254874,691.8184381816809,2953.4285950420744
2050,wallonia,2,14994.017242195565,646.9522316801158,2761.891148337032
2050,wallonia,3,12820.004990000005,553.149346466688,2361.439081440788
2050,wallonia,4,10256.007983064454,442.51964937724006,1889.1520003048863
