Years,Country,lever_building-renovation-mix_residential,fts_bld_building-renovation-mix_mfh_dep_1800-2010[%],fts_bld_building-renovation-mix_mfh_exi_1800-2010[%],fts_bld_building-renovation-mix_mfh_med-high_1800-2010[%],fts_bld_building-renovation-mix_mfh_med-low_1800-2010[%],fts_bld_building-renovation-mix_mfh_shl_1800-2010[%],fts_bld_building-renovation-mix_sfh_dep_1800-2010[%],fts_bld_building-renovation-mix_sfh_exi_1800-2010[%],fts_bld_building-renovation-mix_sfh_med-high_1800-2010[%],fts_bld_building-renovation-mix_sfh_med-low_1800-2010[%],fts_bld_building-renovation-mix_sfh_shl_1800-2010[%]
2016,belgium,1,0.045000000000001705,0.0,0.0,0.15500000000000114,0.8,0.045000000000001705,0.0,0.0,0.15500000000000114,0.8
2016,belgium,2,0.045000000000001705,0.0,0.0,0.15500000000000114,0.8,0.045000000000001705,0.0,0.0,0.15500000000000114,0.8
2016,belgium,3,0.045000000000001705,0.0,0.0,0.15500000000000114,0.8,0.045000000000001705,0.0,0.0,0.15500000000000114,0.8
2016,belgium,4,0.045000000000001705,0.0,0.0,0.15500000000000114,0.8,0.045000000000001705,0.0,0.0,0.15500000000000114,0.8
2016,brussels,1,0.045000000000001705,0.0,0.0,0.15500000000000114,0.8,0.045000000000001705,0.0,0.0,0.15500000000000114,0.8
2016,brussels,2,0.045000000000001705,0.0,0.0,0.15500000000000114,0.8,0.045000000000001705,0.0,0.0,0.15500000000000114,0.8
2016,brussels,3,0.045000000000001705,0.0,0.0,0.15500000000000114,0.8,0.045000000000001705,0.0,0.0,0.15500000000000114,0.8
2016,brussels,4,0.045000000000001705,0.0,0.0,0.15500000000000114,0.8,0.045000000000001705,0.0,0.0,0.15500000000000114,0.8
2016,flanders,1,0.045000000000001705,0.0,0.0,0.15500000000000114,0.8,0.045000000000001705,0.0,0.0,0.15500000000000114,0.8
2016,flanders,2,0.045000000000001705,0.0,0.0,0.15500000000000114,0.8,0.045000000000001705,0.0,0.0,0.15500000000000114,0.8
2016,flanders,3,0.045000000000001705,0.0,0.0,0.15500000000000114,0.8,0.045000000000001705,0.0,0.0,0.15500000000000114,0.8
2016,flanders,4,0.045000000000001705,0.0,0.0,0.15500000000000114,0.8,0.045000000000001705,0.0,0.0,0.15500000000000114,0.8
2016,wallonia,1,0.045000000000001705,0.0,0.0,0.15500000000000114,0.8,0.045000000000001705,0.0,0.0,0.15500000000000114,0.8
2016,wallonia,2,0.045000000000001705,0.0,0.0,0.15500000000000114,0.8,0.045000000000001705,0.0,0.0,0.15500000000000114,0.8
2016,wallonia,3,0.045000000000001705,0.0,0.0,0.15500000000000114,0.8,0.045000000000001705,0.0,0.0,0.15500000000000114,0.8
2016,wallonia,4,0.045000000000001705,0.0,0.0,0.15500000000000114,0.8,0.045000000000001705,0.0,0.0,0.15500000000000114,0.8
2017,belgium,1,0.040000000000000924,0.0,0.0,0.16000000000000192,0.8,0.040000000000000924,0.0,0.0,0.16000000000000192,0.8
2017,belgium,2,0.040000000000000924,0.0,0.0,0.16000000000000192,0.8,0.040000000000000924,0.0,0.0,0.16000000000000192,0.8
2017,belgium,3,0.040000000000000924,0.0,0.0,0.16000000000000192,0.8,0.040000000000000924,0.0,0.0,0.16000000000000192,0.8
2017,belgium,4,0.040000000000000924,0.0,0.0,0.16000000000000192,0.8,0.040000000000000924,0.0,0.0,0.16000000000000192,0.8
2017,brussels,1,0.040000000000000924,0.0,0.0,0.16000000000000192,0.8,0.040000000000000924,0.0,0.0,0.16000000000000192,0.8
2017,brussels,2,0.040000000000000924,0.0,0.0,0.16000000000000192,0.8,0.040000000000000924,0.0,0.0,0.16000000000000192,0.8
2017,brussels,3,0.040000000000000924,0.0,0.0,0.16000000000000192,0.8,0.040000000000000924,0.0,0.0,0.16000000000000192,0.8
2017,brussels,4,0.040000000000000924,0.0,0.0,0.16000000000000192,0.8,0.040000000000000924,0.0,0.0,0.16000000000000192,0.8
2017,flanders,1,0.040000000000000924,0.0,0.0,0.16000000000000192,0.8,0.040000000000000924,0.0,0.0,0.16000000000000192,0.8
2017,flanders,2,0.040000000000000924,0.0,0.0,0.16000000000000192,0.8,0.040000000000000924,0.0,0.0,0.16000000000000192,0.8
2017,flanders,3,0.040000000000000924,0.0,0.0,0.16000000000000192,0.8,0.040000000000000924,0.0,0.0,0.16000000000000192,0.8
2017,flanders,4,0.040000000000000924,0.0,0.0,0.16000000000000192,0.8,0.040000000000000924,0.0,0.0,0.16000000000000192,0.8
2017,wallonia,1,0.040000000000000924,0.0,0.0,0.16000000000000192,0.8,0.040000000000000924,0.0,0.0,0.16000000000000192,0.8
2017,wallonia,2,0.040000000000000924,0.0,0.0,0.16000000000000192,0.8,0.040000000000000924,0.0,0.0,0.16000000000000192,0.8
2017,wallonia,3,0.040000000000000924,0.0,0.0,0.16000000000000192,0.8,0.040000000000000924,0.0,0.0,0.16000000000000192,0.8
2017,wallonia,4,0.040000000000000924,0.0,0.0,0.16000000000000192,0.8,0.040000000000000924,0.0,0.0,0.16000000000000192,0.8
2018,belgium,1,0.03500000000000192,0.0,0.0,0.16500000000000092,0.8,0.03500000000000192,0.0,0.0,0.16500000000000092,0.8
2018,belgium,2,0.03500000000000192,0.0,0.0,0.16500000000000092,0.8,0.03500000000000192,0.0,0.0,0.16500000000000092,0.8
2018,belgium,3,0.03500000000000192,0.0,0.0,0.16500000000000092,0.8,0.03500000000000192,0.0,0.0,0.16500000000000092,0.8
2018,belgium,4,0.03500000000000192,0.0,0.0,0.16500000000000092,0.8,0.03500000000000192,0.0,0.0,0.16500000000000092,0.8
2018,brussels,1,0.03500000000000192,0.0,0.0,0.16500000000000092,0.8,0.03500000000000192,0.0,0.0,0.16500000000000092,0.8
2018,brussels,2,0.03500000000000192,0.0,0.0,0.16500000000000092,0.8,0.03500000000000192,0.0,0.0,0.16500000000000092,0.8
2018,brussels,3,0.03500000000000192,0.0,0.0,0.16500000000000092,0.8,0.03500000000000192,0.0,0.0,0.16500000000000092,0.8
2018,brussels,4,0.03500000000000192,0.0,0.0,0.16500000000000092,0.8,0.03500000000000192,0.0,0.0,0.16500000000000092,0.8
2018,flanders,1,0.03500000000000192,0.0,0.0,0.16500000000000092,0.8,0.03500000000000192,0.0,0.0,0.16500000000000092,0.8
2018,flanders,2,0.03500000000000192,0.0,0.0,0.16500000000000092,0.8,0.03500000000000192,0.0,0.0,0.16500000000000092,0.8
2018,flanders,3,0.03500000000000192,0.0,0.0,0.16500000000000092,0.8,0.03500000000000192,0.0,0.0,0.16500000000000092,0.8
2018,flanders,4,0.03500000000000192,0.0,0.0,0.16500000000000092,0.8,0.03500000000000192,0.0,0.0,0.16500000000000092,0.8
2018,wallonia,1,0.03500000000000192,0.0,0.0,0.16500000000000092,0.8,0.03500000000000192,0.0,0.0,0.16500000000000092,0.8
2018,wallonia,2,0.03500000000000192,0.0,0.0,0.16500000000000092,0.8,0.03500000000000192,0.0,0.0,0.16500000000000092,0.8
2018,wallonia,3,0.03500000000000192,0.0,0.0,0.16500000000000092,0.8,0.03500000000000192,0.0,0.0,0.16500000000000092,0.8
2018,wallonia,4,0.03500000000000192,0.0,0.0,0.16500000000000092,0.8,0.03500000000000192,0.0,0.0,0.16500000000000092,0.8
2019,belgium,1,0.030000000000001137,0.0,0.0,0.1700000000000017,0.8,0.030000000000001137,0.0,0.0,0.1700000000000017,0.8
2019,belgium,2,0.030000000000001137,0.0,0.0,0.1700000000000017,0.8,0.030000000000001137,0.0,0.0,0.1700000000000017,0.8
2019,belgium,3,0.030000000000001137,0.0,0.0,0.1700000000000017,0.8,0.030000000000001137,0.0,0.0,0.1700000000000017,0.8
2019,belgium,4,0.030000000000001137,0.0,0.0,0.1700000000000017,0.8,0.030000000000001137,0.0,0.0,0.1700000000000017,0.8
2019,brussels,1,0.030000000000001137,0.0,0.0,0.1700000000000017,0.8,0.030000000000001137,0.0,0.0,0.1700000000000017,0.8
2019,brussels,2,0.030000000000001137,0.0,0.0,0.1700000000000017,0.8,0.030000000000001137,0.0,0.0,0.1700000000000017,0.8
2019,brussels,3,0.030000000000001137,0.0,0.0,0.1700000000000017,0.8,0.030000000000001137,0.0,0.0,0.1700000000000017,0.8
2019,brussels,4,0.030000000000001137,0.0,0.0,0.1700000000000017,0.8,0.030000000000001137,0.0,0.0,0.1700000000000017,0.8
2019,flanders,1,0.030000000000001137,0.0,0.0,0.1700000000000017,0.8,0.030000000000001137,0.0,0.0,0.1700000000000017,0.8
2019,flanders,2,0.030000000000001137,0.0,0.0,0.1700000000000017,0.8,0.030000000000001137,0.0,0.0,0.1700000000000017,0.8
2019,flanders,3,0.030000000000001137,0.0,0.0,0.1700000000000017,0.8,0.030000000000001137,0.0,0.0,0.1700000000000017,0.8
2019,flanders,4,0.030000000000001137,0.0,0.0,0.1700000000000017,0.8,0.030000000000001137,0.0,0.0,0.1700000000000017,0.8
2019,wallonia,1,0.030000000000001137,0.0,0.0,0.1700000000000017,0.8,0.030000000000001137,0.0,0.0,0.1700000000000017,0.8
2019,wallonia,2,0.030000000000001137,0.0,0.0,0.1700000000000017,0.8,0.030000000000001137,0.0,0.0,0.1700000000000017,0.8
2019,wallonia,3,0.030000000000001137,0.0,0.0,0.1700000000000017,0.8,0.030000000000001137,0.0,0.0,0.1700000000000017,0.8
2019,wallonia,4,0.030000000000001137,0.0,0.0,0.1700000000000017,0.8,0.030000000000001137,0.0,0.0,0.1700000000000017,0.8
2020,belgium,1,0.02500000000000213,0.0,0.0,0.1750000000000007,0.8,0.02500000000000213,0.0,0.0,0.1750000000000007,0.8
2020,belgium,2,0.02500000000000213,0.0,0.0,0.1750000000000007,0.8,0.02500000000000213,0.0,0.0,0.1750000000000007,0.8
2020,belgium,3,0.02500000000000213,0.0,0.0,0.1750000000000007,0.8,0.02500000000000213,0.0,0.0,0.1750000000000007,0.8
2020,belgium,4,0.02500000000000213,0.0,0.0,0.1750000000000007,0.8,0.02500000000000213,0.0,0.0,0.1750000000000007,0.8
2020,brussels,1,0.02500000000000213,0.0,0.0,0.1750000000000007,0.8,0.02500000000000213,0.0,0.0,0.1750000000000007,0.8
2020,brussels,2,0.02500000000000213,0.0,0.0,0.1750000000000007,0.8,0.02500000000000213,0.0,0.0,0.1750000000000007,0.8
2020,brussels,3,0.02500000000000213,0.0,0.0,0.1750000000000007,0.8,0.02500000000000213,0.0,0.0,0.1750000000000007,0.8
2020,brussels,4,0.02500000000000213,0.0,0.0,0.1750000000000007,0.8,0.02500000000000213,0.0,0.0,0.1750000000000007,0.8
2020,flanders,1,0.02500000000000213,0.0,0.0,0.1750000000000007,0.8,0.02500000000000213,0.0,0.0,0.1750000000000007,0.8
2020,flanders,2,0.02500000000000213,0.0,0.0,0.1750000000000007,0.8,0.02500000000000213,0.0,0.0,0.1750000000000007,0.8
2020,flanders,3,0.02500000000000213,0.0,0.0,0.1750000000000007,0.8,0.02500000000000213,0.0,0.0,0.1750000000000007,0.8
2020,flanders,4,0.02500000000000213,0.0,0.0,0.1750000000000007,0.8,0.02500000000000213,0.0,0.0,0.1750000000000007,0.8
2020,wallonia,1,0.02500000000000213,0.0,0.0,0.1750000000000007,0.8,0.02500000000000213,0.0,0.0,0.1750000000000007,0.8
2020,wallonia,2,0.02500000000000213,0.0,0.0,0.1750000000000007,0.8,0.02500000000000213,0.0,0.0,0.1750000000000007,0.8
2020,wallonia,3,0.02500000000000213,0.0,0.0,0.1750000000000007,0.8,0.02500000000000213,0.0,0.0,0.1750000000000007,0.8
2020,wallonia,4,0.02500000000000213,0.0,0.0,0.1750000000000007,0.8,0.02500000000000213,0.0,0.0,0.1750000000000007,0.8
2021,belgium,1,0.02000000000000135,0.0,0.0,0.1800000000000015,0.8,0.02000000000000135,0.0,0.0,0.1800000000000015,0.8
2021,belgium,2,0.07399999999999807,0.0,0.0,0.1760000000000006,0.7499999999999858,0.07399999999999807,0.0,0.0,0.1760000000000006,0.7499999999999858
2021,belgium,3,0.12800000000001432,0.0,0.0,0.1720000000000006,0.6999999999999886,0.12800000000001432,0.0,0.0,0.1720000000000006,0.6999999999999886
2021,belgium,4,0.17999999999994998,0.0,0.0,0.16999999999999993,0.6500000000000341,0.17999999999994998,0.0,0.0,0.16999999999999993,0.6500000000000341
2021,brussels,1,0.02000000000000135,0.0,0.0,0.1800000000000015,0.8,0.02000000000000135,0.0,0.0,0.1800000000000015,0.8
2021,brussels,2,0.07399999999999807,0.0,0.0,0.1760000000000006,0.7499999999999858,0.07399999999999807,0.0,0.0,0.1760000000000006,0.7499999999999858
2021,brussels,3,0.12800000000001432,0.0,0.0,0.1720000000000006,0.6999999999999886,0.12800000000001432,0.0,0.0,0.1720000000000006,0.6999999999999886
2021,brussels,4,0.17999999999994998,0.0,0.0,0.16999999999999993,0.6500000000000341,0.17999999999994998,0.0,0.0,0.16999999999999993,0.6500000000000341
2021,flanders,1,0.02000000000000135,0.0,0.0,0.1800000000000015,0.8,0.02000000000000135,0.0,0.0,0.1800000000000015,0.8
2021,flanders,2,0.07399999999999807,0.0,0.0,0.1760000000000006,0.7499999999999858,0.07399999999999807,0.0,0.0,0.1760000000000006,0.7499999999999858
2021,flanders,3,0.12800000000001432,0.0,0.0,0.1720000000000006,0.6999999999999886,0.12800000000001432,0.0,0.0,0.1720000000000006,0.6999999999999886
2021,flanders,4,0.17999999999994998,0.0,0.0,0.16999999999999993,0.6500000000000341,0.17999999999994998,0.0,0.0,0.16999999999999993,0.6500000000000341
2021,wallonia,1,0.02000000000000135,0.0,0.0,0.1800000000000015,0.8,0.02000000000000135,0.0,0.0,0.1800000000000015,0.8
2021,wallonia,2,0.07399999999999807,0.0,0.0,0.1760000000000006,0.7499999999999858,0.07399999999999807,0.0,0.0,0.1760000000000006,0.7499999999999858
2021,wallonia,3,0.12800000000001432,0.0,0.0,0.1720000000000006,0.6999999999999886,0.12800000000001432,0.0,0.0,0.1720000000000006,0.6999999999999886
2021,wallonia,4,0.17999999999994998,0.0,0.0,0.16999999999999993,0.6500000000000341,0.17999999999994998,0.0,0.0,0.16999999999999993,0.6500000000000341
2022,belgium,1,0.015000000000002345,0.0,0.0,0.1850000000000005,0.8,0.015000000000002345,0.0,0.0,0.1850000000000005,0.8
2022,belgium,2,0.12300000000000466,0.0,0.0,0.1770000000000005,0.6999999999999886,0.12300000000000466,0.0,0.0,0.1770000000000005,0.6999999999999886
2022,belgium,3,0.23099999999999454,0.0,0.0,0.16900000000000048,0.5999999999999943,0.23099999999999454,0.0,0.0,0.16900000000000048,0.5999999999999943
2022,belgium,4,0.33499999999997954,0.0,0.0,0.16500000000000092,0.5,0.33499999999997954,0.0,0.0,0.16500000000000092,0.5
2022,brussels,1,0.015000000000002345,0.0,0.0,0.1850000000000005,0.8,0.015000000000002345,0.0,0.0,0.1850000000000005,0.8
2022,brussels,2,0.12300000000000466,0.0,0.0,0.1770000000000005,0.6999999999999886,0.12300000000000466,0.0,0.0,0.1770000000000005,0.6999999999999886
2022,brussels,3,0.23099999999999454,0.0,0.0,0.16900000000000048,0.5999999999999943,0.23099999999999454,0.0,0.0,0.16900000000000048,0.5999999999999943
2022,brussels,4,0.33499999999997954,0.0,0.0,0.16500000000000092,0.5,0.33499999999997954,0.0,0.0,0.16500000000000092,0.5
2022,flanders,1,0.015000000000002345,0.0,0.0,0.1850000000000005,0.8,0.015000000000002345,0.0,0.0,0.1850000000000005,0.8
2022,flanders,2,0.12300000000000466,0.0,0.0,0.1770000000000005,0.6999999999999886,0.12300000000000466,0.0,0.0,0.1770000000000005,0.6999999999999886
2022,flanders,3,0.23099999999999454,0.0,0.0,0.16900000000000048,0.5999999999999943,0.23099999999999454,0.0,0.0,0.16900000000000048,0.5999999999999943
2022,flanders,4,0.33499999999997954,0.0,0.0,0.16500000000000092,0.5,0.33499999999997954,0.0,0.0,0.16500000000000092,0.5
2022,wallonia,1,0.015000000000002345,0.0,0.0,0.1850000000000005,0.8,0.015000000000002345,0.0,0.0,0.1850000000000005,0.8
2022,wallonia,2,0.12300000000000466,0.0,0.0,0.1770000000000005,0.6999999999999886,0.12300000000000466,0.0,0.0,0.1770000000000005,0.6999999999999886
2022,wallonia,3,0.23099999999999454,0.0,0.0,0.16900000000000048,0.5999999999999943,0.23099999999999454,0.0,0.0,0.16900000000000048,0.5999999999999943
2022,wallonia,4,0.33499999999997954,0.0,0.0,0.16500000000000092,0.5,0.33499999999997954,0.0,0.0,0.16500000000000092,0.5
2023,belgium,1,0.010000000000001563,0.0,0.0,0.19000000000000128,0.8,0.010000000000001563,0.0,0.0,0.19000000000000128,0.8
2023,belgium,2,0.17199999999999704,0.0,0.0,0.17800000000000038,0.6499999999999915,0.17199999999999704,0.0,0.0,0.17800000000000038,0.6499999999999915
2023,belgium,3,0.3340000000000032,0.0,0.0,0.16600000000000037,0.5,0.3340000000000032,0.0,0.0,0.16600000000000037,0.5
2023,belgium,4,0.48999999999995225,0.0,0.0,0.16000000000000014,0.35000000000002274,0.48999999999995225,0.0,0.0,0.16000000000000014,0.35000000000002274
2023,brussels,1,0.010000000000001563,0.0,0.0,0.19000000000000128,0.8,0.010000000000001563,0.0,0.0,0.19000000000000128,0.8
2023,brussels,2,0.17199999999999704,0.0,0.0,0.17800000000000038,0.6499999999999915,0.17199999999999704,0.0,0.0,0.17800000000000038,0.6499999999999915
2023,brussels,3,0.3340000000000032,0.0,0.0,0.16600000000000037,0.5,0.3340000000000032,0.0,0.0,0.16600000000000037,0.5
2023,brussels,4,0.48999999999995225,0.0,0.0,0.16000000000000014,0.35000000000002274,0.48999999999995225,0.0,0.0,0.16000000000000014,0.35000000000002274
2023,flanders,1,0.010000000000001563,0.0,0.0,0.19000000000000128,0.8,0.010000000000001563,0.0,0.0,0.19000000000000128,0.8
2023,flanders,2,0.17199999999999704,0.0,0.0,0.17800000000000038,0.6499999999999915,0.17199999999999704,0.0,0.0,0.17800000000000038,0.6499999999999915
2023,flanders,3,0.3340000000000032,0.0,0.0,0.16600000000000037,0.5,0.3340000000000032,0.0,0.0,0.16600000000000037,0.5
2023,flanders,4,0.48999999999995225,0.0,0.0,0.16000000000000014,0.35000000000002274,0.48999999999995225,0.0,0.0,0.16000000000000014,0.35000000000002274
2023,wallonia,1,0.010000000000001563,0.0,0.0,0.19000000000000128,0.8,0.010000000000001563,0.0,0.0,0.19000000000000128,0.8
2023,wallonia,2,0.17199999999999704,0.0,0.0,0.17800000000000038,0.6499999999999915,0.17199999999999704,0.0,0.0,0.17800000000000038,0.6499999999999915
2023,wallonia,3,0.3340000000000032,0.0,0.0,0.16600000000000037,0.5,0.3340000000000032,0.0,0.0,0.16600000000000037,0.5
2023,wallonia,4,0.48999999999995225,0.0,0.0,0.16000000000000014,0.35000000000002274,0.48999999999995225,0.0,0.0,0.16000000000000014,0.35000000000002274
2024,belgium,1,0.005000000000000782,0.0,0.0,0.19500000000000206,0.8,0.005000000000000782,0.0,0.0,0.19500000000000206,0.8
2024,belgium,2,0.22100000000000364,0.0,0.0,0.17900000000000027,0.5999999999999943,0.22100000000000364,0.0,0.0,0.17900000000000027,0.5999999999999943
2024,belgium,3,0.4370000000000118,0.0,0.0,0.16300000000000026,0.4000000000000057,0.4370000000000118,0.0,0.0,0.16300000000000026,0.4000000000000057
2024,belgium,4,0.6449999999999818,0.0,0.0,0.15499999999999936,0.20000000000004547,0.6449999999999818,0.0,0.0,0.15499999999999936,0.20000000000004547
2024,brussels,1,0.005000000000000782,0.0,0.0,0.19500000000000206,0.8,0.005000000000000782,0.0,0.0,0.19500000000000206,0.8
2024,brussels,2,0.22100000000000364,0.0,0.0,0.17900000000000027,0.5999999999999943,0.22100000000000364,0.0,0.0,0.17900000000000027,0.5999999999999943
2024,brussels,3,0.4370000000000118,0.0,0.0,0.16300000000000026,0.4000000000000057,0.4370000000000118,0.0,0.0,0.16300000000000026,0.4000000000000057
2024,brussels,4,0.6449999999999818,0.0,0.0,0.15499999999999936,0.20000000000004547,0.6449999999999818,0.0,0.0,0.15499999999999936,0.20000000000004547
2024,flanders,1,0.005000000000000782,0.0,0.0,0.19500000000000206,0.8,0.005000000000000782,0.0,0.0,0.19500000000000206,0.8
2024,flanders,2,0.22100000000000364,0.0,0.0,0.17900000000000027,0.5999999999999943,0.22100000000000364,0.0,0.0,0.17900000000000027,0.5999999999999943
2024,flanders,3,0.4370000000000118,0.0,0.0,0.16300000000000026,0.4000000000000057,0.4370000000000118,0.0,0.0,0.16300000000000026,0.4000000000000057
2024,flanders,4,0.6449999999999818,0.0,0.0,0.15499999999999936,0.20000000000004547,0.6449999999999818,0.0,0.0,0.15499999999999936,0.20000000000004547
2024,wallonia,1,0.005000000000000782,0.0,0.0,0.19500000000000206,0.8,0.005000000000000782,0.0,0.0,0.19500000000000206,0.8
2024,wallonia,2,0.22100000000000364,0.0,0.0,0.17900000000000027,0.5999999999999943,0.22100000000000364,0.0,0.0,0.17900000000000027,0.5999999999999943
2024,wallonia,3,0.4370000000000118,0.0,0.0,0.16300000000000026,0.4000000000000057,0.4370000000000118,0.0,0.0,0.16300000000000026,0.4000000000000057
2024,wallonia,4,0.6449999999999818,0.0,0.0,0.15499999999999936,0.20000000000004547,0.6449999999999818,0.0,0.0,0.15499999999999936,0.20000000000004547
2025,belgium,1,1.7763568394002505e-15,0.0,0.0,0.20000000000000107,0.8,1.7763568394002505e-15,0.0,0.0,0.20000000000000107,0.8
2025,belgium,2,0.269999999999996,0.0,0.0,0.18000000000000016,0.5499999999999972,0.269999999999996,0.0,0.0,0.18000000000000016,0.5499999999999972
2025,belgium,3,0.539999999999992,0.0,0.0,0.16000000000000014,0.30000000000001137,0.539999999999992,0.0,0.0,0.16000000000000014,0.30000000000001137
2025,belgium,4,0.7999999999999545,0.0,0.0,0.15000000000000036,0.05000000000001137,0.7999999999999545,0.0,0.0,0.15000000000000036,0.05000000000001137
2025,brussels,1,1.7763568394002505e-15,0.0,0.0,0.20000000000000107,0.8,1.7763568394002505e-15,0.0,0.0,0.20000000000000107,0.8
2025,brussels,2,0.269999999999996,0.0,0.0,0.18000000000000016,0.5499999999999972,0.269999999999996,0.0,0.0,0.18000000000000016,0.5499999999999972
2025,brussels,3,0.539999999999992,0.0,0.0,0.16000000000000014,0.30000000000001137,0.539999999999992,0.0,0.0,0.16000000000000014,0.30000000000001137
2025,brussels,4,0.7999999999999545,0.0,0.0,0.15000000000000036,0.05000000000001137,0.7999999999999545,0.0,0.0,0.15000000000000036,0.05000000000001137
2025,flanders,1,1.7763568394002505e-15,0.0,0.0,0.20000000000000107,0.8,1.7763568394002505e-15,0.0,0.0,0.20000000000000107,0.8
2025,flanders,2,0.269999999999996,0.0,0.0,0.18000000000000016,0.5499999999999972,0.269999999999996,0.0,0.0,0.18000000000000016,0.5499999999999972
2025,flanders,3,0.539999999999992,0.0,0.0,0.16000000000000014,0.30000000000001137,0.539999999999992,0.0,0.0,0.16000000000000014,0.30000000000001137
2025,flanders,4,0.7999999999999545,0.0,0.0,0.15000000000000036,0.05000000000001137,0.7999999999999545,0.0,0.0,0.15000000000000036,0.05000000000001137
2025,wallonia,1,1.7763568394002505e-15,0.0,0.0,0.20000000000000107,0.8,1.7763568394002505e-15,0.0,0.0,0.20000000000000107,0.8
2025,wallonia,2,0.269999999999996,0.0,0.0,0.18000000000000016,0.5499999999999972,0.269999999999996,0.0,0.0,0.18000000000000016,0.5499999999999972
2025,wallonia,3,0.539999999999992,0.0,0.0,0.16000000000000014,0.30000000000001137,0.539999999999992,0.0,0.0,0.16000000000000014,0.30000000000001137
2025,wallonia,4,0.7999999999999545,0.0,0.0,0.15000000000000036,0.05000000000001137,0.7999999999999545,0.0,0.0,0.15000000000000036,0.05000000000001137
2026,belgium,1,1.7763568394002505e-15,0.0,0.0,0.20000000000000107,0.8,1.7763568394002505e-15,0.0,0.0,0.20000000000000107,0.8
2026,belgium,2,0.269999999999996,0.0,0.0,0.18000000000000016,0.5499999999999972,0.269999999999996,0.0,0.0,0.18000000000000016,0.5499999999999972
2026,belgium,3,0.539999999999992,0.0,0.0,0.16000000000000014,0.30000000000001137,0.539999999999992,0.0,0.0,0.16000000000000014,0.30000000000001137
2026,belgium,4,0.7999999999999545,0.0,0.0,0.15000000000000036,0.05000000000001137,0.7999999999999545,0.0,0.0,0.15000000000000036,0.05000000000001137
2026,brussels,1,1.7763568394002505e-15,0.0,0.0,0.20000000000000107,0.8,1.7763568394002505e-15,0.0,0.0,0.20000000000000107,0.8
2026,brussels,2,0.269999999999996,0.0,0.0,0.18000000000000016,0.5499999999999972,0.269999999999996,0.0,0.0,0.18000000000000016,0.5499999999999972
2026,brussels,3,0.539999999999992,0.0,0.0,0.16000000000000014,0.30000000000001137,0.539999999999992,0.0,0.0,0.16000000000000014,0.30000000000001137
2026,brussels,4,0.7999999999999545,0.0,0.0,0.15000000000000036,0.05000000000001137,0.7999999999999545,0.0,0.0,0.15000000000000036,0.05000000000001137
2026,flanders,1,1.7763568394002505e-15,0.0,0.0,0.20000000000000107,0.8,1.7763568394002505e-15,0.0,0.0,0.20000000000000107,0.8
2026,flanders,2,0.269999999999996,0.0,0.0,0.18000000000000016,0.5499999999999972,0.269999999999996,0.0,0.0,0.18000000000000016,0.5499999999999972
2026,flanders,3,0.539999999999992,0.0,0.0,0.16000000000000014,0.30000000000001137,0.539999999999992,0.0,0.0,0.16000000000000014,0.30000000000001137
2026,flanders,4,0.7999999999999545,0.0,0.0,0.15000000000000036,0.05000000000001137,0.7999999999999545,0.0,0.0,0.15000000000000036,0.05000000000001137
2026,wallonia,1,1.7763568394002505e-15,0.0,0.0,0.20000000000000107,0.8,1.7763568394002505e-15,0.0,0.0,0.20000000000000107,0.8
2026,wallonia,2,0.269999999999996,0.0,0.0,0.18000000000000016,0.5499999999999972,0.269999999999996,0.0,0.0,0.18000000000000016,0.5499999999999972
2026,wallonia,3,0.539999999999992,0.0,0.0,0.16000000000000014,0.30000000000001137,0.539999999999992,0.0,0.0,0.16000000000000014,0.30000000000001137
2026,wallonia,4,0.7999999999999545,0.0,0.0,0.15000000000000036,0.05000000000001137,0.7999999999999545,0.0,0.0,0.15000000000000036,0.05000000000001137
2027,belgium,1,1.7763568394002505e-15,0.0,0.0,0.20000000000000107,0.8,1.7763568394002505e-15,0.0,0.0,0.20000000000000107,0.8
2027,belgium,2,0.269999999999996,0.0,0.0,0.18000000000000016,0.5499999999999972,0.269999999999996,0.0,0.0,0.18000000000000016,0.5499999999999972
2027,belgium,3,0.539999999999992,0.0,0.0,0.16000000000000014,0.30000000000001137,0.539999999999992,0.0,0.0,0.16000000000000014,0.30000000000001137
2027,belgium,4,0.7999999999999545,0.0,0.0,0.15000000000000036,0.05000000000001137,0.7999999999999545,0.0,0.0,0.15000000000000036,0.05000000000001137
2027,brussels,1,1.7763568394002505e-15,0.0,0.0,0.20000000000000107,0.8,1.7763568394002505e-15,0.0,0.0,0.20000000000000107,0.8
2027,brussels,2,0.269999999999996,0.0,0.0,0.18000000000000016,0.5499999999999972,0.269999999999996,0.0,0.0,0.18000000000000016,0.5499999999999972
2027,brussels,3,0.539999999999992,0.0,0.0,0.16000000000000014,0.30000000000001137,0.539999999999992,0.0,0.0,0.16000000000000014,0.30000000000001137
2027,brussels,4,0.7999999999999545,0.0,0.0,0.15000000000000036,0.05000000000001137,0.7999999999999545,0.0,0.0,0.15000000000000036,0.05000000000001137
2027,flanders,1,1.7763568394002505e-15,0.0,0.0,0.20000000000000107,0.8,1.7763568394002505e-15,0.0,0.0,0.20000000000000107,0.8
2027,flanders,2,0.269999999999996,0.0,0.0,0.18000000000000016,0.5499999999999972,0.269999999999996,0.0,0.0,0.18000000000000016,0.5499999999999972
2027,flanders,3,0.539999999999992,0.0,0.0,0.16000000000000014,0.30000000000001137,0.539999999999992,0.0,0.0,0.16000000000000014,0.30000000000001137
2027,flanders,4,0.7999999999999545,0.0,0.0,0.15000000000000036,0.05000000000001137,0.7999999999999545,0.0,0.0,0.15000000000000036,0.05000000000001137
2027,wallonia,1,1.7763568394002505e-15,0.0,0.0,0.20000000000000107,0.8,1.7763568394002505e-15,0.0,0.0,0.20000000000000107,0.8
2027,wallonia,2,0.269999999999996,0.0,0.0,0.18000000000000016,0.5499999999999972,0.269999999999996,0.0,0.0,0.18000000000000016,0.5499999999999972
2027,wallonia,3,0.539999999999992,0.0,0.0,0.16000000000000014,0.30000000000001137,0.539999999999992,0.0,0.0,0.16000000000000014,0.30000000000001137
2027,wallonia,4,0.7999999999999545,0.0,0.0,0.15000000000000036,0.05000000000001137,0.7999999999999545,0.0,0.0,0.15000000000000036,0.05000000000001137
2028,belgium,1,1.7763568394002505e-15,0.0,0.0,0.20000000000000107,0.8,1.7763568394002505e-15,0.0,0.0,0.20000000000000107,0.8
2028,belgium,2,0.269999999999996,0.0,0.0,0.18000000000000016,0.5499999999999972,0.269999999999996,0.0,0.0,0.18000000000000016,0.5499999999999972
2028,belgium,3,0.539999999999992,0.0,0.0,0.16000000000000014,0.30000000000001137,0.539999999999992,0.0,0.0,0.16000000000000014,0.30000000000001137
2028,belgium,4,0.7999999999999545,0.0,0.0,0.15000000000000036,0.05000000000001137,0.7999999999999545,0.0,0.0,0.15000000000000036,0.05000000000001137
2028,brussels,1,1.7763568394002505e-15,0.0,0.0,0.20000000000000107,0.8,1.7763568394002505e-15,0.0,0.0,0.20000000000000107,0.8
2028,brussels,2,0.269999999999996,0.0,0.0,0.18000000000000016,0.5499999999999972,0.269999999999996,0.0,0.0,0.18000000000000016,0.5499999999999972
2028,brussels,3,0.539999999999992,0.0,0.0,0.16000000000000014,0.30000000000001137,0.539999999999992,0.0,0.0,0.16000000000000014,0.30000000000001137
2028,brussels,4,0.7999999999999545,0.0,0.0,0.15000000000000036,0.05000000000001137,0.7999999999999545,0.0,0.0,0.15000000000000036,0.05000000000001137
2028,flanders,1,1.7763568394002505e-15,0.0,0.0,0.20000000000000107,0.8,1.7763568394002505e-15,0.0,0.0,0.20000000000000107,0.8
2028,flanders,2,0.269999999999996,0.0,0.0,0.18000000000000016,0.5499999999999972,0.269999999999996,0.0,0.0,0.18000000000000016,0.5499999999999972
2028,flanders,3,0.539999999999992,0.0,0.0,0.16000000000000014,0.30000000000001137,0.539999999999992,0.0,0.0,0.16000000000000014,0.30000000000001137
2028,flanders,4,0.7999999999999545,0.0,0.0,0.15000000000000036,0.05000000000001137,0.7999999999999545,0.0,0.0,0.15000000000000036,0.05000000000001137
2028,wallonia,1,1.7763568394002505e-15,0.0,0.0,0.20000000000000107,0.8,1.7763568394002505e-15,0.0,0.0,0.20000000000000107,0.8
2028,wallonia,2,0.269999999999996,0.0,0.0,0.18000000000000016,0.5499999999999972,0.269999999999996,0.0,0.0,0.18000000000000016,0.5499999999999972
2028,wallonia,3,0.539999999999992,0.0,0.0,0.16000000000000014,0.30000000000001137,0.539999999999992,0.0,0.0,0.16000000000000014,0.30000000000001137
2028,wallonia,4,0.7999999999999545,0.0,0.0,0.15000000000000036,0.05000000000001137,0.7999999999999545,0.0,0.0,0.15000000000000036,0.05000000000001137
2029,belgium,1,1.7763568394002505e-15,0.0,0.0,0.20000000000000107,0.8,1.7763568394002505e-15,0.0,0.0,0.20000000000000107,0.8
2029,belgium,2,0.269999999999996,0.0,0.0,0.18000000000000016,0.5499999999999972,0.269999999999996,0.0,0.0,0.18000000000000016,0.5499999999999972
2029,belgium,3,0.539999999999992,0.0,0.0,0.16000000000000014,0.30000000000001137,0.539999999999992,0.0,0.0,0.16000000000000014,0.30000000000001137
2029,belgium,4,0.7999999999999545,0.0,0.0,0.15000000000000036,0.05000000000001137,0.7999999999999545,0.0,0.0,0.15000000000000036,0.05000000000001137
2029,brussels,1,1.7763568394002505e-15,0.0,0.0,0.20000000000000107,0.8,1.7763568394002505e-15,0.0,0.0,0.20000000000000107,0.8
2029,brussels,2,0.269999999999996,0.0,0.0,0.18000000000000016,0.5499999999999972,0.269999999999996,0.0,0.0,0.18000000000000016,0.5499999999999972
2029,brussels,3,0.539999999999992,0.0,0.0,0.16000000000000014,0.30000000000001137,0.539999999999992,0.0,0.0,0.16000000000000014,0.30000000000001137
2029,brussels,4,0.7999999999999545,0.0,0.0,0.15000000000000036,0.05000000000001137,0.7999999999999545,0.0,0.0,0.15000000000000036,0.05000000000001137
2029,flanders,1,1.7763568394002505e-15,0.0,0.0,0.20000000000000107,0.8,1.7763568394002505e-15,0.0,0.0,0.20000000000000107,0.8
2029,flanders,2,0.269999999999996,0.0,0.0,0.18000000000000016,0.5499999999999972,0.269999999999996,0.0,0.0,0.18000000000000016,0.5499999999999972
2029,flanders,3,0.539999999999992,0.0,0.0,0.16000000000000014,0.30000000000001137,0.539999999999992,0.0,0.0,0.16000000000000014,0.30000000000001137
2029,flanders,4,0.7999999999999545,0.0,0.0,0.15000000000000036,0.05000000000001137,0.7999999999999545,0.0,0.0,0.15000000000000036,0.05000000000001137
2029,wallonia,1,1.7763568394002505e-15,0.0,0.0,0.20000000000000107,0.8,1.7763568394002505e-15,0.0,0.0,0.20000000000000107,0.8
2029,wallonia,2,0.269999999999996,0.0,0.0,0.18000000000000016,0.5499999999999972,0.269999999999996,0.0,0.0,0.18000000000000016,0.5499999999999972
2029,wallonia,3,0.539999999999992,0.0,0.0,0.16000000000000014,0.30000000000001137,0.539999999999992,0.0,0.0,0.16000000000000014,0.30000000000001137
2029,wallonia,4,0.7999999999999545,0.0,0.0,0.15000000000000036,0.05000000000001137,0.7999999999999545,0.0,0.0,0.15000000000000036,0.05000000000001137
2030,belgium,1,1.7763568394002505e-15,0.0,0.0,0.20000000000000107,0.8,1.7763568394002505e-15,0.0,0.0,0.20000000000000107,0.8
2030,belgium,2,0.269999999999996,0.0,0.0,0.18000000000000016,0.5499999999999972,0.269999999999996,0.0,0.0,0.18000000000000016,0.5499999999999972
2030,belgium,3,0.539999999999992,0.0,0.0,0.16000000000000014,0.30000000000001137,0.539999999999992,0.0,0.0,0.16000000000000014,0.30000000000001137
2030,belgium,4,0.7999999999999545,0.0,0.0,0.15000000000000036,0.05000000000001137,0.7999999999999545,0.0,0.0,0.15000000000000036,0.05000000000001137
2030,brussels,1,1.7763568394002505e-15,0.0,0.0,0.20000000000000107,0.8,1.7763568394002505e-15,0.0,0.0,0.20000000000000107,0.8
2030,brussels,2,0.269999999999996,0.0,0.0,0.18000000000000016,0.5499999999999972,0.269999999999996,0.0,0.0,0.18000000000000016,0.5499999999999972
2030,brussels,3,0.539999999999992,0.0,0.0,0.16000000000000014,0.30000000000001137,0.539999999999992,0.0,0.0,0.16000000000000014,0.30000000000001137
2030,brussels,4,0.7999999999999545,0.0,0.0,0.15000000000000036,0.05000000000001137,0.7999999999999545,0.0,0.0,0.15000000000000036,0.05000000000001137
2030,flanders,1,1.7763568394002505e-15,0.0,0.0,0.20000000000000107,0.8,1.7763568394002505e-15,0.0,0.0,0.20000000000000107,0.8
2030,flanders,2,0.269999999999996,0.0,0.0,0.18000000000000016,0.5499999999999972,0.269999999999996,0.0,0.0,0.18000000000000016,0.5499999999999972
2030,flanders,3,0.539999999999992,0.0,0.0,0.16000000000000014,0.30000000000001137,0.539999999999992,0.0,0.0,0.16000000000000014,0.30000000000001137
2030,flanders,4,0.7999999999999545,0.0,0.0,0.15000000000000036,0.05000000000001137,0.7999999999999545,0.0,0.0,0.15000000000000036,0.05000000000001137
2030,wallonia,1,1.7763568394002505e-15,0.0,0.0,0.20000000000000107,0.8,1.7763568394002505e-15,0.0,0.0,0.20000000000000107,0.8
2030,wallonia,2,0.269999999999996,0.0,0.0,0.18000000000000016,0.5499999999999972,0.269999999999996,0.0,0.0,0.18000000000000016,0.5499999999999972
2030,wallonia,3,0.539999999999992,0.0,0.0,0.16000000000000014,0.30000000000001137,0.539999999999992,0.0,0.0,0.16000000000000014,0.30000000000001137
2030,wallonia,4,0.7999999999999545,0.0,0.0,0.15000000000000036,0.05000000000001137,0.7999999999999545,0.0,0.0,0.15000000000000036,0.05000000000001137
2031,belgium,1,1.7763568394002505e-15,0.0,0.0,0.20000000000000107,0.8,1.7763568394002505e-15,0.0,0.0,0.20000000000000107,0.8
2031,belgium,2,0.269999999999996,0.0,0.0,0.18000000000000016,0.5499999999999972,0.269999999999996,0.0,0.0,0.18000000000000016,0.5499999999999972
2031,belgium,3,0.539999999999992,0.0,0.0,0.16000000000000014,0.30000000000001137,0.539999999999992,0.0,0.0,0.16000000000000014,0.30000000000001137
2031,belgium,4,0.7999999999999545,0.0,0.0,0.15000000000000036,0.05000000000001137,0.7999999999999545,0.0,0.0,0.15000000000000036,0.05000000000001137
2031,brussels,1,1.7763568394002505e-15,0.0,0.0,0.20000000000000107,0.8,1.7763568394002505e-15,0.0,0.0,0.20000000000000107,0.8
2031,brussels,2,0.269999999999996,0.0,0.0,0.18000000000000016,0.5499999999999972,0.269999999999996,0.0,0.0,0.18000000000000016,0.5499999999999972
2031,brussels,3,0.539999999999992,0.0,0.0,0.16000000000000014,0.30000000000001137,0.539999999999992,0.0,0.0,0.16000000000000014,0.30000000000001137
2031,brussels,4,0.7999999999999545,0.0,0.0,0.15000000000000036,0.05000000000001137,0.7999999999999545,0.0,0.0,0.15000000000000036,0.05000000000001137
2031,flanders,1,1.7763568394002505e-15,0.0,0.0,0.20000000000000107,0.8,1.7763568394002505e-15,0.0,0.0,0.20000000000000107,0.8
2031,flanders,2,0.269999999999996,0.0,0.0,0.18000000000000016,0.5499999999999972,0.269999999999996,0.0,0.0,0.18000000000000016,0.5499999999999972
2031,flanders,3,0.539999999999992,0.0,0.0,0.16000000000000014,0.30000000000001137,0.539999999999992,0.0,0.0,0.16000000000000014,0.30000000000001137
2031,flanders,4,0.7999999999999545,0.0,0.0,0.15000000000000036,0.05000000000001137,0.7999999999999545,0.0,0.0,0.15000000000000036,0.05000000000001137
2031,wallonia,1,1.7763568394002505e-15,0.0,0.0,0.20000000000000107,0.8,1.7763568394002505e-15,0.0,0.0,0.20000000000000107,0.8
2031,wallonia,2,0.269999999999996,0.0,0.0,0.18000000000000016,0.5499999999999972,0.269999999999996,0.0,0.0,0.18000000000000016,0.5499999999999972
2031,wallonia,3,0.539999999999992,0.0,0.0,0.16000000000000014,0.30000000000001137,0.539999999999992,0.0,0.0,0.16000000000000014,0.30000000000001137
2031,wallonia,4,0.7999999999999545,0.0,0.0,0.15000000000000036,0.05000000000001137,0.7999999999999545,0.0,0.0,0.15000000000000036,0.05000000000001137
2032,belgium,1,1.7763568394002505e-15,0.0,0.0,0.20000000000000107,0.8,1.7763568394002505e-15,0.0,0.0,0.20000000000000107,0.8
2032,belgium,2,0.269999999999996,0.0,0.0,0.18000000000000016,0.5499999999999972,0.269999999999996,0.0,0.0,0.18000000000000016,0.5499999999999972
2032,belgium,3,0.539999999999992,0.0,0.0,0.16000000000000014,0.30000000000001137,0.539999999999992,0.0,0.0,0.16000000000000014,0.30000000000001137
2032,belgium,4,0.7999999999999545,0.0,0.0,0.15000000000000036,0.05000000000001137,0.7999999999999545,0.0,0.0,0.15000000000000036,0.05000000000001137
2032,brussels,1,1.7763568394002505e-15,0.0,0.0,0.20000000000000107,0.8,1.7763568394002505e-15,0.0,0.0,0.20000000000000107,0.8
2032,brussels,2,0.269999999999996,0.0,0.0,0.18000000000000016,0.5499999999999972,0.269999999999996,0.0,0.0,0.18000000000000016,0.5499999999999972
2032,brussels,3,0.539999999999992,0.0,0.0,0.16000000000000014,0.30000000000001137,0.539999999999992,0.0,0.0,0.16000000000000014,0.30000000000001137
2032,brussels,4,0.7999999999999545,0.0,0.0,0.15000000000000036,0.05000000000001137,0.7999999999999545,0.0,0.0,0.15000000000000036,0.05000000000001137
2032,flanders,1,1.7763568394002505e-15,0.0,0.0,0.20000000000000107,0.8,1.7763568394002505e-15,0.0,0.0,0.20000000000000107,0.8
2032,flanders,2,0.269999999999996,0.0,0.0,0.18000000000000016,0.5499999999999972,0.269999999999996,0.0,0.0,0.18000000000000016,0.5499999999999972
2032,flanders,3,0.539999999999992,0.0,0.0,0.16000000000000014,0.30000000000001137,0.539999999999992,0.0,0.0,0.16000000000000014,0.30000000000001137
2032,flanders,4,0.7999999999999545,0.0,0.0,0.15000000000000036,0.05000000000001137,0.7999999999999545,0.0,0.0,0.15000000000000036,0.05000000000001137
2032,wallonia,1,1.7763568394002505e-15,0.0,0.0,0.20000000000000107,0.8,1.7763568394002505e-15,0.0,0.0,0.20000000000000107,0.8
2032,wallonia,2,0.269999999999996,0.0,0.0,0.18000000000000016,0.5499999999999972,0.269999999999996,0.0,0.0,0.18000000000000016,0.5499999999999972
2032,wallonia,3,0.539999999999992,0.0,0.0,0.16000000000000014,0.30000000000001137,0.539999999999992,0.0,0.0,0.16000000000000014,0.30000000000001137
2032,wallonia,4,0.7999999999999545,0.0,0.0,0.15000000000000036,0.05000000000001137,0.7999999999999545,0.0,0.0,0.15000000000000036,0.05000000000001137
2033,belgium,1,1.7763568394002505e-15,0.0,0.0,0.20000000000000107,0.8,1.7763568394002505e-15,0.0,0.0,0.20000000000000107,0.8
2033,belgium,2,0.269999999999996,0.0,0.0,0.18000000000000016,0.5499999999999972,0.269999999999996,0.0,0.0,0.18000000000000016,0.5499999999999972
2033,belgium,3,0.539999999999992,0.0,0.0,0.16000000000000014,0.30000000000001137,0.539999999999992,0.0,0.0,0.16000000000000014,0.30000000000001137
2033,belgium,4,0.7999999999999545,0.0,0.0,0.15000000000000036,0.05000000000001137,0.7999999999999545,0.0,0.0,0.15000000000000036,0.05000000000001137
2033,brussels,1,1.7763568394002505e-15,0.0,0.0,0.20000000000000107,0.8,1.7763568394002505e-15,0.0,0.0,0.20000000000000107,0.8
2033,brussels,2,0.269999999999996,0.0,0.0,0.18000000000000016,0.5499999999999972,0.269999999999996,0.0,0.0,0.18000000000000016,0.5499999999999972
2033,brussels,3,0.539999999999992,0.0,0.0,0.16000000000000014,0.30000000000001137,0.539999999999992,0.0,0.0,0.16000000000000014,0.30000000000001137
2033,brussels,4,0.7999999999999545,0.0,0.0,0.15000000000000036,0.05000000000001137,0.7999999999999545,0.0,0.0,0.15000000000000036,0.05000000000001137
2033,flanders,1,1.7763568394002505e-15,0.0,0.0,0.20000000000000107,0.8,1.7763568394002505e-15,0.0,0.0,0.20000000000000107,0.8
2033,flanders,2,0.269999999999996,0.0,0.0,0.18000000000000016,0.5499999999999972,0.269999999999996,0.0,0.0,0.18000000000000016,0.5499999999999972
2033,flanders,3,0.539999999999992,0.0,0.0,0.16000000000000014,0.30000000000001137,0.539999999999992,0.0,0.0,0.16000000000000014,0.30000000000001137
2033,flanders,4,0.7999999999999545,0.0,0.0,0.15000000000000036,0.05000000000001137,0.7999999999999545,0.0,0.0,0.15000000000000036,0.05000000000001137
2033,wallonia,1,1.7763568394002505e-15,0.0,0.0,0.20000000000000107,0.8,1.7763568394002505e-15,0.0,0.0,0.20000000000000107,0.8
2033,wallonia,2,0.269999999999996,0.0,0.0,0.18000000000000016,0.5499999999999972,0.269999999999996,0.0,0.0,0.18000000000000016,0.5499999999999972
2033,wallonia,3,0.539999999999992,0.0,0.0,0.16000000000000014,0.30000000000001137,0.539999999999992,0.0,0.0,0.16000000000000014,0.30000000000001137
2033,wallonia,4,0.7999999999999545,0.0,0.0,0.15000000000000036,0.05000000000001137,0.7999999999999545,0.0,0.0,0.15000000000000036,0.05000000000001137
2034,belgium,1,1.7763568394002505e-15,0.0,0.0,0.20000000000000107,0.8,1.7763568394002505e-15,0.0,0.0,0.20000000000000107,0.8
2034,belgium,2,0.269999999999996,0.0,0.0,0.18000000000000016,0.5499999999999972,0.269999999999996,0.0,0.0,0.18000000000000016,0.5499999999999972
2034,belgium,3,0.539999999999992,0.0,0.0,0.16000000000000014,0.30000000000001137,0.539999999999992,0.0,0.0,0.16000000000000014,0.30000000000001137
2034,belgium,4,0.7999999999999545,0.0,0.0,0.15000000000000036,0.05000000000001137,0.7999999999999545,0.0,0.0,0.15000000000000036,0.05000000000001137
2034,brussels,1,1.7763568394002505e-15,0.0,0.0,0.20000000000000107,0.8,1.7763568394002505e-15,0.0,0.0,0.20000000000000107,0.8
2034,brussels,2,0.269999999999996,0.0,0.0,0.18000000000000016,0.5499999999999972,0.269999999999996,0.0,0.0,0.18000000000000016,0.5499999999999972
2034,brussels,3,0.539999999999992,0.0,0.0,0.16000000000000014,0.30000000000001137,0.539999999999992,0.0,0.0,0.16000000000000014,0.30000000000001137
2034,brussels,4,0.7999999999999545,0.0,0.0,0.15000000000000036,0.05000000000001137,0.7999999999999545,0.0,0.0,0.15000000000000036,0.05000000000001137
2034,flanders,1,1.7763568394002505e-15,0.0,0.0,0.20000000000000107,0.8,1.7763568394002505e-15,0.0,0.0,0.20000000000000107,0.8
2034,flanders,2,0.269999999999996,0.0,0.0,0.18000000000000016,0.5499999999999972,0.269999999999996,0.0,0.0,0.18000000000000016,0.5499999999999972
2034,flanders,3,0.539999999999992,0.0,0.0,0.16000000000000014,0.30000000000001137,0.539999999999992,0.0,0.0,0.16000000000000014,0.30000000000001137
2034,flanders,4,0.7999999999999545,0.0,0.0,0.15000000000000036,0.05000000000001137,0.7999999999999545,0.0,0.0,0.15000000000000036,0.05000000000001137
2034,wallonia,1,1.7763568394002505e-15,0.0,0.0,0.20000000000000107,0.8,1.7763568394002505e-15,0.0,0.0,0.20000000000000107,0.8
2034,wallonia,2,0.269999999999996,0.0,0.0,0.18000000000000016,0.5499999999999972,0.269999999999996,0.0,0.0,0.18000000000000016,0.5499999999999972
2034,wallonia,3,0.539999999999992,0.0,0.0,0.16000000000000014,0.30000000000001137,0.539999999999992,0.0,0.0,0.16000000000000014,0.30000000000001137
2034,wallonia,4,0.7999999999999545,0.0,0.0,0.15000000000000036,0.05000000000001137,0.7999999999999545,0.0,0.0,0.15000000000000036,0.05000000000001137
2035,belgium,1,1.7763568394002505e-15,0.0,0.0,0.20000000000000107,0.8,1.7763568394002505e-15,0.0,0.0,0.20000000000000107,0.8
2035,belgium,2,0.269999999999996,0.0,0.0,0.18000000000000016,0.5499999999999972,0.269999999999996,0.0,0.0,0.18000000000000016,0.5499999999999972
2035,belgium,3,0.539999999999992,0.0,0.0,0.16000000000000014,0.30000000000001137,0.539999999999992,0.0,0.0,0.16000000000000014,0.30000000000001137
2035,belgium,4,0.7999999999999545,0.0,0.0,0.15000000000000036,0.05000000000001137,0.7999999999999545,0.0,0.0,0.15000000000000036,0.05000000000001137
2035,brussels,1,1.7763568394002505e-15,0.0,0.0,0.20000000000000107,0.8,1.7763568394002505e-15,0.0,0.0,0.20000000000000107,0.8
2035,brussels,2,0.269999999999996,0.0,0.0,0.18000000000000016,0.5499999999999972,0.269999999999996,0.0,0.0,0.18000000000000016,0.5499999999999972
2035,brussels,3,0.539999999999992,0.0,0.0,0.16000000000000014,0.30000000000001137,0.539999999999992,0.0,0.0,0.16000000000000014,0.30000000000001137
2035,brussels,4,0.7999999999999545,0.0,0.0,0.15000000000000036,0.05000000000001137,0.7999999999999545,0.0,0.0,0.15000000000000036,0.05000000000001137
2035,flanders,1,1.7763568394002505e-15,0.0,0.0,0.20000000000000107,0.8,1.7763568394002505e-15,0.0,0.0,0.20000000000000107,0.8
2035,flanders,2,0.269999999999996,0.0,0.0,0.18000000000000016,0.5499999999999972,0.269999999999996,0.0,0.0,0.18000000000000016,0.5499999999999972
2035,flanders,3,0.539999999999992,0.0,0.0,0.16000000000000014,0.30000000000001137,0.539999999999992,0.0,0.0,0.16000000000000014,0.30000000000001137
2035,flanders,4,0.7999999999999545,0.0,0.0,0.15000000000000036,0.05000000000001137,0.7999999999999545,0.0,0.0,0.15000000000000036,0.05000000000001137
2035,wallonia,1,1.7763568394002505e-15,0.0,0.0,0.20000000000000107,0.8,1.7763568394002505e-15,0.0,0.0,0.20000000000000107,0.8
2035,wallonia,2,0.269999999999996,0.0,0.0,0.18000000000000016,0.5499999999999972,0.269999999999996,0.0,0.0,0.18000000000000016,0.5499999999999972
2035,wallonia,3,0.539999999999992,0.0,0.0,0.16000000000000014,0.30000000000001137,0.539999999999992,0.0,0.0,0.16000000000000014,0.30000000000001137
2035,wallonia,4,0.7999999999999545,0.0,0.0,0.15000000000000036,0.05000000000001137,0.7999999999999545,0.0,0.0,0.15000000000000036,0.05000000000001137
2036,belgium,1,1.7763568394002505e-15,0.0,0.0,0.20000000000000107,0.8,1.7763568394002505e-15,0.0,0.0,0.20000000000000107,0.8
2036,belgium,2,0.269999999999996,0.0,0.0,0.18000000000000016,0.5499999999999972,0.269999999999996,0.0,0.0,0.18000000000000016,0.5499999999999972
2036,belgium,3,0.539999999999992,0.0,0.0,0.16000000000000014,0.30000000000001137,0.539999999999992,0.0,0.0,0.16000000000000014,0.30000000000001137
2036,belgium,4,0.7999999999999545,0.0,0.0,0.15000000000000036,0.05000000000001137,0.7999999999999545,0.0,0.0,0.15000000000000036,0.05000000000001137
2036,brussels,1,1.7763568394002505e-15,0.0,0.0,0.20000000000000107,0.8,1.7763568394002505e-15,0.0,0.0,0.20000000000000107,0.8
2036,brussels,2,0.269999999999996,0.0,0.0,0.18000000000000016,0.5499999999999972,0.269999999999996,0.0,0.0,0.18000000000000016,0.5499999999999972
2036,brussels,3,0.539999999999992,0.0,0.0,0.16000000000000014,0.30000000000001137,0.539999999999992,0.0,0.0,0.16000000000000014,0.30000000000001137
2036,brussels,4,0.7999999999999545,0.0,0.0,0.15000000000000036,0.05000000000001137,0.7999999999999545,0.0,0.0,0.15000000000000036,0.05000000000001137
2036,flanders,1,1.7763568394002505e-15,0.0,0.0,0.20000000000000107,0.8,1.7763568394002505e-15,0.0,0.0,0.20000000000000107,0.8
2036,flanders,2,0.269999999999996,0.0,0.0,0.18000000000000016,0.5499999999999972,0.269999999999996,0.0,0.0,0.18000000000000016,0.5499999999999972
2036,flanders,3,0.539999999999992,0.0,0.0,0.16000000000000014,0.30000000000001137,0.539999999999992,0.0,0.0,0.16000000000000014,0.30000000000001137
2036,flanders,4,0.7999999999999545,0.0,0.0,0.15000000000000036,0.05000000000001137,0.7999999999999545,0.0,0.0,0.15000000000000036,0.05000000000001137
2036,wallonia,1,1.7763568394002505e-15,0.0,0.0,0.20000000000000107,0.8,1.7763568394002505e-15,0.0,0.0,0.20000000000000107,0.8
2036,wallonia,2,0.269999999999996,0.0,0.0,0.18000000000000016,0.5499999999999972,0.269999999999996,0.0,0.0,0.18000000000000016,0.5499999999999972
2036,wallonia,3,0.539999999999992,0.0,0.0,0.16000000000000014,0.30000000000001137,0.539999999999992,0.0,0.0,0.16000000000000014,0.30000000000001137
2036,wallonia,4,0.7999999999999545,0.0,0.0,0.15000000000000036,0.05000000000001137,0.7999999999999545,0.0,0.0,0.15000000000000036,0.05000000000001137
2037,belgium,1,1.7763568394002505e-15,0.0,0.0,0.20000000000000107,0.8,1.7763568394002505e-15,0.0,0.0,0.20000000000000107,0.8
2037,belgium,2,0.269999999999996,0.0,0.0,0.18000000000000016,0.5499999999999972,0.269999999999996,0.0,0.0,0.18000000000000016,0.5499999999999972
2037,belgium,3,0.539999999999992,0.0,0.0,0.16000000000000014,0.30000000000001137,0.539999999999992,0.0,0.0,0.16000000000000014,0.30000000000001137
2037,belgium,4,0.7999999999999545,0.0,0.0,0.15000000000000036,0.05000000000001137,0.7999999999999545,0.0,0.0,0.15000000000000036,0.05000000000001137
2037,brussels,1,1.7763568394002505e-15,0.0,0.0,0.20000000000000107,0.8,1.7763568394002505e-15,0.0,0.0,0.20000000000000107,0.8
2037,brussels,2,0.269999999999996,0.0,0.0,0.18000000000000016,0.5499999999999972,0.269999999999996,0.0,0.0,0.18000000000000016,0.5499999999999972
2037,brussels,3,0.539999999999992,0.0,0.0,0.16000000000000014,0.30000000000001137,0.539999999999992,0.0,0.0,0.16000000000000014,0.30000000000001137
2037,brussels,4,0.7999999999999545,0.0,0.0,0.15000000000000036,0.05000000000001137,0.7999999999999545,0.0,0.0,0.15000000000000036,0.05000000000001137
2037,flanders,1,1.7763568394002505e-15,0.0,0.0,0.20000000000000107,0.8,1.7763568394002505e-15,0.0,0.0,0.20000000000000107,0.8
2037,flanders,2,0.269999999999996,0.0,0.0,0.18000000000000016,0.5499999999999972,0.269999999999996,0.0,0.0,0.18000000000000016,0.5499999999999972
2037,flanders,3,0.539999999999992,0.0,0.0,0.16000000000000014,0.30000000000001137,0.539999999999992,0.0,0.0,0.16000000000000014,0.30000000000001137
2037,flanders,4,0.7999999999999545,0.0,0.0,0.15000000000000036,0.05000000000001137,0.7999999999999545,0.0,0.0,0.15000000000000036,0.05000000000001137
2037,wallonia,1,1.7763568394002505e-15,0.0,0.0,0.20000000000000107,0.8,1.7763568394002505e-15,0.0,0.0,0.20000000000000107,0.8
2037,wallonia,2,0.269999999999996,0.0,0.0,0.18000000000000016,0.5499999999999972,0.269999999999996,0.0,0.0,0.18000000000000016,0.5499999999999972
2037,wallonia,3,0.539999999999992,0.0,0.0,0.16000000000000014,0.30000000000001137,0.539999999999992,0.0,0.0,0.16000000000000014,0.30000000000001137
2037,wallonia,4,0.7999999999999545,0.0,0.0,0.15000000000000036,0.05000000000001137,0.7999999999999545,0.0,0.0,0.15000000000000036,0.05000000000001137
2038,belgium,1,1.7763568394002505e-15,0.0,0.0,0.20000000000000107,0.8,1.7763568394002505e-15,0.0,0.0,0.20000000000000107,0.8
2038,belgium,2,0.269999999999996,0.0,0.0,0.18000000000000016,0.5499999999999972,0.269999999999996,0.0,0.0,0.18000000000000016,0.5499999999999972
2038,belgium,3,0.539999999999992,0.0,0.0,0.16000000000000014,0.30000000000001137,0.539999999999992,0.0,0.0,0.16000000000000014,0.30000000000001137
2038,belgium,4,0.7999999999999545,0.0,0.0,0.15000000000000036,0.05000000000001137,0.7999999999999545,0.0,0.0,0.15000000000000036,0.05000000000001137
2038,brussels,1,1.7763568394002505e-15,0.0,0.0,0.20000000000000107,0.8,1.7763568394002505e-15,0.0,0.0,0.20000000000000107,0.8
2038,brussels,2,0.269999999999996,0.0,0.0,0.18000000000000016,0.5499999999999972,0.269999999999996,0.0,0.0,0.18000000000000016,0.5499999999999972
2038,brussels,3,0.539999999999992,0.0,0.0,0.16000000000000014,0.30000000000001137,0.539999999999992,0.0,0.0,0.16000000000000014,0.30000000000001137
2038,brussels,4,0.7999999999999545,0.0,0.0,0.15000000000000036,0.05000000000001137,0.7999999999999545,0.0,0.0,0.15000000000000036,0.05000000000001137
2038,flanders,1,1.7763568394002505e-15,0.0,0.0,0.20000000000000107,0.8,1.7763568394002505e-15,0.0,0.0,0.20000000000000107,0.8
2038,flanders,2,0.269999999999996,0.0,0.0,0.18000000000000016,0.5499999999999972,0.269999999999996,0.0,0.0,0.18000000000000016,0.5499999999999972
2038,flanders,3,0.539999999999992,0.0,0.0,0.16000000000000014,0.30000000000001137,0.539999999999992,0.0,0.0,0.16000000000000014,0.30000000000001137
2038,flanders,4,0.7999999999999545,0.0,0.0,0.15000000000000036,0.05000000000001137,0.7999999999999545,0.0,0.0,0.15000000000000036,0.05000000000001137
2038,wallonia,1,1.7763568394002505e-15,0.0,0.0,0.20000000000000107,0.8,1.7763568394002505e-15,0.0,0.0,0.20000000000000107,0.8
2038,wallonia,2,0.269999999999996,0.0,0.0,0.18000000000000016,0.5499999999999972,0.269999999999996,0.0,0.0,0.18000000000000016,0.5499999999999972
2038,wallonia,3,0.539999999999992,0.0,0.0,0.16000000000000014,0.30000000000001137,0.539999999999992,0.0,0.0,0.16000000000000014,0.30000000000001137
2038,wallonia,4,0.7999999999999545,0.0,0.0,0.15000000000000036,0.05000000000001137,0.7999999999999545,0.0,0.0,0.15000000000000036,0.05000000000001137
2039,belgium,1,1.7763568394002505e-15,0.0,0.0,0.20000000000000107,0.8,1.7763568394002505e-15,0.0,0.0,0.20000000000000107,0.8
2039,belgium,2,0.269999999999996,0.0,0.0,0.18000000000000016,0.5499999999999972,0.269999999999996,0.0,0.0,0.18000000000000016,0.5499999999999972
2039,belgium,3,0.539999999999992,0.0,0.0,0.16000000000000014,0.30000000000001137,0.539999999999992,0.0,0.0,0.16000000000000014,0.30000000000001137
2039,belgium,4,0.7999999999999545,0.0,0.0,0.15000000000000036,0.05000000000001137,0.7999999999999545,0.0,0.0,0.15000000000000036,0.05000000000001137
2039,brussels,1,1.7763568394002505e-15,0.0,0.0,0.20000000000000107,0.8,1.7763568394002505e-15,0.0,0.0,0.20000000000000107,0.8
2039,brussels,2,0.269999999999996,0.0,0.0,0.18000000000000016,0.5499999999999972,0.269999999999996,0.0,0.0,0.18000000000000016,0.5499999999999972
2039,brussels,3,0.539999999999992,0.0,0.0,0.16000000000000014,0.30000000000001137,0.539999999999992,0.0,0.0,0.16000000000000014,0.30000000000001137
2039,brussels,4,0.7999999999999545,0.0,0.0,0.15000000000000036,0.05000000000001137,0.7999999999999545,0.0,0.0,0.15000000000000036,0.05000000000001137
2039,flanders,1,1.7763568394002505e-15,0.0,0.0,0.20000000000000107,0.8,1.7763568394002505e-15,0.0,0.0,0.20000000000000107,0.8
2039,flanders,2,0.269999999999996,0.0,0.0,0.18000000000000016,0.5499999999999972,0.269999999999996,0.0,0.0,0.18000000000000016,0.5499999999999972
2039,flanders,3,0.539999999999992,0.0,0.0,0.16000000000000014,0.30000000000001137,0.539999999999992,0.0,0.0,0.16000000000000014,0.30000000000001137
2039,flanders,4,0.7999999999999545,0.0,0.0,0.15000000000000036,0.05000000000001137,0.7999999999999545,0.0,0.0,0.15000000000000036,0.05000000000001137
2039,wallonia,1,1.7763568394002505e-15,0.0,0.0,0.20000000000000107,0.8,1.7763568394002505e-15,0.0,0.0,0.20000000000000107,0.8
2039,wallonia,2,0.269999999999996,0.0,0.0,0.18000000000000016,0.5499999999999972,0.269999999999996,0.0,0.0,0.18000000000000016,0.5499999999999972
2039,wallonia,3,0.539999999999992,0.0,0.0,0.16000000000000014,0.30000000000001137,0.539999999999992,0.0,0.0,0.16000000000000014,0.30000000000001137
2039,wallonia,4,0.7999999999999545,0.0,0.0,0.15000000000000036,0.05000000000001137,0.7999999999999545,0.0,0.0,0.15000000000000036,0.05000000000001137
2040,belgium,1,1.7763568394002505e-15,0.0,0.0,0.20000000000000107,0.8,1.7763568394002505e-15,0.0,0.0,0.20000000000000107,0.8
2040,belgium,2,0.269999999999996,0.0,0.0,0.18000000000000016,0.5499999999999972,0.269999999999996,0.0,0.0,0.18000000000000016,0.5499999999999972
2040,belgium,3,0.539999999999992,0.0,0.0,0.16000000000000014,0.30000000000001137,0.539999999999992,0.0,0.0,0.16000000000000014,0.30000000000001137
2040,belgium,4,0.7999999999999545,0.0,0.0,0.15000000000000036,0.05000000000001137,0.7999999999999545,0.0,0.0,0.15000000000000036,0.05000000000001137
2040,brussels,1,1.7763568394002505e-15,0.0,0.0,0.20000000000000107,0.8,1.7763568394002505e-15,0.0,0.0,0.20000000000000107,0.8
2040,brussels,2,0.269999999999996,0.0,0.0,0.18000000000000016,0.5499999999999972,0.269999999999996,0.0,0.0,0.18000000000000016,0.5499999999999972
2040,brussels,3,0.539999999999992,0.0,0.0,0.16000000000000014,0.30000000000001137,0.539999999999992,0.0,0.0,0.16000000000000014,0.30000000000001137
2040,brussels,4,0.7999999999999545,0.0,0.0,0.15000000000000036,0.05000000000001137,0.7999999999999545,0.0,0.0,0.15000000000000036,0.05000000000001137
2040,flanders,1,1.7763568394002505e-15,0.0,0.0,0.20000000000000107,0.8,1.7763568394002505e-15,0.0,0.0,0.20000000000000107,0.8
2040,flanders,2,0.269999999999996,0.0,0.0,0.18000000000000016,0.5499999999999972,0.269999999999996,0.0,0.0,0.18000000000000016,0.5499999999999972
2040,flanders,3,0.539999999999992,0.0,0.0,0.16000000000000014,0.30000000000001137,0.539999999999992,0.0,0.0,0.16000000000000014,0.30000000000001137
2040,flanders,4,0.7999999999999545,0.0,0.0,0.15000000000000036,0.05000000000001137,0.7999999999999545,0.0,0.0,0.15000000000000036,0.05000000000001137
2040,wallonia,1,1.7763568394002505e-15,0.0,0.0,0.20000000000000107,0.8,1.7763568394002505e-15,0.0,0.0,0.20000000000000107,0.8
2040,wallonia,2,0.269999999999996,0.0,0.0,0.18000000000000016,0.5499999999999972,0.269999999999996,0.0,0.0,0.18000000000000016,0.5499999999999972
2040,wallonia,3,0.539999999999992,0.0,0.0,0.16000000000000014,0.30000000000001137,0.539999999999992,0.0,0.0,0.16000000000000014,0.30000000000001137
2040,wallonia,4,0.7999999999999545,0.0,0.0,0.15000000000000036,0.05000000000001137,0.7999999999999545,0.0,0.0,0.15000000000000036,0.05000000000001137
2041,belgium,1,1.7763568394002505e-15,0.0,0.0,0.20000000000000107,0.8,1.7763568394002505e-15,0.0,0.0,0.20000000000000107,0.8
2041,belgium,2,0.269999999999996,0.0,0.0,0.18000000000000016,0.5499999999999972,0.269999999999996,0.0,0.0,0.18000000000000016,0.5499999999999972
2041,belgium,3,0.539999999999992,0.0,0.0,0.16000000000000014,0.30000000000001137,0.539999999999992,0.0,0.0,0.16000000000000014,0.30000000000001137
2041,belgium,4,0.7999999999999545,0.0,0.0,0.15000000000000036,0.05000000000001137,0.7999999999999545,0.0,0.0,0.15000000000000036,0.05000000000001137
2041,brussels,1,1.7763568394002505e-15,0.0,0.0,0.20000000000000107,0.8,1.7763568394002505e-15,0.0,0.0,0.20000000000000107,0.8
2041,brussels,2,0.269999999999996,0.0,0.0,0.18000000000000016,0.5499999999999972,0.269999999999996,0.0,0.0,0.18000000000000016,0.5499999999999972
2041,brussels,3,0.539999999999992,0.0,0.0,0.16000000000000014,0.30000000000001137,0.539999999999992,0.0,0.0,0.16000000000000014,0.30000000000001137
2041,brussels,4,0.7999999999999545,0.0,0.0,0.15000000000000036,0.05000000000001137,0.7999999999999545,0.0,0.0,0.15000000000000036,0.05000000000001137
2041,flanders,1,1.7763568394002505e-15,0.0,0.0,0.20000000000000107,0.8,1.7763568394002505e-15,0.0,0.0,0.20000000000000107,0.8
2041,flanders,2,0.269999999999996,0.0,0.0,0.18000000000000016,0.5499999999999972,0.269999999999996,0.0,0.0,0.18000000000000016,0.5499999999999972
2041,flanders,3,0.539999999999992,0.0,0.0,0.16000000000000014,0.30000000000001137,0.539999999999992,0.0,0.0,0.16000000000000014,0.30000000000001137
2041,flanders,4,0.7999999999999545,0.0,0.0,0.15000000000000036,0.05000000000001137,0.7999999999999545,0.0,0.0,0.15000000000000036,0.05000000000001137
2041,wallonia,1,1.7763568394002505e-15,0.0,0.0,0.20000000000000107,0.8,1.7763568394002505e-15,0.0,0.0,0.20000000000000107,0.8
2041,wallonia,2,0.269999999999996,0.0,0.0,0.18000000000000016,0.5499999999999972,0.269999999999996,0.0,0.0,0.18000000000000016,0.5499999999999972
2041,wallonia,3,0.539999999999992,0.0,0.0,0.16000000000000014,0.30000000000001137,0.539999999999992,0.0,0.0,0.16000000000000014,0.30000000000001137
2041,wallonia,4,0.7999999999999545,0.0,0.0,0.15000000000000036,0.05000000000001137,0.7999999999999545,0.0,0.0,0.15000000000000036,0.05000000000001137
2042,belgium,1,1.7763568394002505e-15,0.0,0.0,0.20000000000000107,0.8,1.7763568394002505e-15,0.0,0.0,0.20000000000000107,0.8
2042,belgium,2,0.269999999999996,0.0,0.0,0.18000000000000016,0.5499999999999972,0.269999999999996,0.0,0.0,0.18000000000000016,0.5499999999999972
2042,belgium,3,0.539999999999992,0.0,0.0,0.16000000000000014,0.30000000000001137,0.539999999999992,0.0,0.0,0.16000000000000014,0.30000000000001137
2042,belgium,4,0.7999999999999545,0.0,0.0,0.15000000000000036,0.05000000000001137,0.7999999999999545,0.0,0.0,0.15000000000000036,0.05000000000001137
2042,brussels,1,1.7763568394002505e-15,0.0,0.0,0.20000000000000107,0.8,1.7763568394002505e-15,0.0,0.0,0.20000000000000107,0.8
2042,brussels,2,0.269999999999996,0.0,0.0,0.18000000000000016,0.5499999999999972,0.269999999999996,0.0,0.0,0.18000000000000016,0.5499999999999972
2042,brussels,3,0.539999999999992,0.0,0.0,0.16000000000000014,0.30000000000001137,0.539999999999992,0.0,0.0,0.16000000000000014,0.30000000000001137
2042,brussels,4,0.7999999999999545,0.0,0.0,0.15000000000000036,0.05000000000001137,0.7999999999999545,0.0,0.0,0.15000000000000036,0.05000000000001137
2042,flanders,1,1.7763568394002505e-15,0.0,0.0,0.20000000000000107,0.8,1.7763568394002505e-15,0.0,0.0,0.20000000000000107,0.8
2042,flanders,2,0.269999999999996,0.0,0.0,0.18000000000000016,0.5499999999999972,0.269999999999996,0.0,0.0,0.18000000000000016,0.5499999999999972
2042,flanders,3,0.539999999999992,0.0,0.0,0.16000000000000014,0.30000000000001137,0.539999999999992,0.0,0.0,0.16000000000000014,0.30000000000001137
2042,flanders,4,0.7999999999999545,0.0,0.0,0.15000000000000036,0.05000000000001137,0.7999999999999545,0.0,0.0,0.15000000000000036,0.05000000000001137
2042,wallonia,1,1.7763568394002505e-15,0.0,0.0,0.20000000000000107,0.8,1.7763568394002505e-15,0.0,0.0,0.20000000000000107,0.8
2042,wallonia,2,0.269999999999996,0.0,0.0,0.18000000000000016,0.5499999999999972,0.269999999999996,0.0,0.0,0.18000000000000016,0.5499999999999972
2042,wallonia,3,0.539999999999992,0.0,0.0,0.16000000000000014,0.30000000000001137,0.539999999999992,0.0,0.0,0.16000000000000014,0.30000000000001137
2042,wallonia,4,0.7999999999999545,0.0,0.0,0.15000000000000036,0.05000000000001137,0.7999999999999545,0.0,0.0,0.15000000000000036,0.05000000000001137
2043,belgium,1,1.7763568394002505e-15,0.0,0.0,0.20000000000000107,0.8,1.7763568394002505e-15,0.0,0.0,0.20000000000000107,0.8
2043,belgium,2,0.269999999999996,0.0,0.0,0.18000000000000016,0.5499999999999972,0.269999999999996,0.0,0.0,0.18000000000000016,0.5499999999999972
2043,belgium,3,0.539999999999992,0.0,0.0,0.16000000000000014,0.30000000000001137,0.539999999999992,0.0,0.0,0.16000000000000014,0.30000000000001137
2043,belgium,4,0.7999999999999545,0.0,0.0,0.15000000000000036,0.05000000000001137,0.7999999999999545,0.0,0.0,0.15000000000000036,0.05000000000001137
2043,brussels,1,1.7763568394002505e-15,0.0,0.0,0.20000000000000107,0.8,1.7763568394002505e-15,0.0,0.0,0.20000000000000107,0.8
2043,brussels,2,0.269999999999996,0.0,0.0,0.18000000000000016,0.5499999999999972,0.269999999999996,0.0,0.0,0.18000000000000016,0.5499999999999972
2043,brussels,3,0.539999999999992,0.0,0.0,0.16000000000000014,0.30000000000001137,0.539999999999992,0.0,0.0,0.16000000000000014,0.30000000000001137
2043,brussels,4,0.7999999999999545,0.0,0.0,0.15000000000000036,0.05000000000001137,0.7999999999999545,0.0,0.0,0.15000000000000036,0.05000000000001137
2043,flanders,1,1.7763568394002505e-15,0.0,0.0,0.20000000000000107,0.8,1.7763568394002505e-15,0.0,0.0,0.20000000000000107,0.8
2043,flanders,2,0.269999999999996,0.0,0.0,0.18000000000000016,0.5499999999999972,0.269999999999996,0.0,0.0,0.18000000000000016,0.5499999999999972
2043,flanders,3,0.539999999999992,0.0,0.0,0.16000000000000014,0.30000000000001137,0.539999999999992,0.0,0.0,0.16000000000000014,0.30000000000001137
2043,flanders,4,0.7999999999999545,0.0,0.0,0.15000000000000036,0.05000000000001137,0.7999999999999545,0.0,0.0,0.15000000000000036,0.05000000000001137
2043,wallonia,1,1.7763568394002505e-15,0.0,0.0,0.20000000000000107,0.8,1.7763568394002505e-15,0.0,0.0,0.20000000000000107,0.8
2043,wallonia,2,0.269999999999996,0.0,0.0,0.18000000000000016,0.5499999999999972,0.269999999999996,0.0,0.0,0.18000000000000016,0.5499999999999972
2043,wallonia,3,0.539999999999992,0.0,0.0,0.16000000000000014,0.30000000000001137,0.539999999999992,0.0,0.0,0.16000000000000014,0.30000000000001137
2043,wallonia,4,0.7999999999999545,0.0,0.0,0.15000000000000036,0.05000000000001137,0.7999999999999545,0.0,0.0,0.15000000000000036,0.05000000000001137
2044,belgium,1,1.7763568394002505e-15,0.0,0.0,0.20000000000000107,0.8,1.7763568394002505e-15,0.0,0.0,0.20000000000000107,0.8
2044,belgium,2,0.269999999999996,0.0,0.0,0.18000000000000016,0.5499999999999972,0.269999999999996,0.0,0.0,0.18000000000000016,0.5499999999999972
2044,belgium,3,0.539999999999992,0.0,0.0,0.16000000000000014,0.30000000000001137,0.539999999999992,0.0,0.0,0.16000000000000014,0.30000000000001137
2044,belgium,4,0.7999999999999545,0.0,0.0,0.15000000000000036,0.05000000000001137,0.7999999999999545,0.0,0.0,0.15000000000000036,0.05000000000001137
2044,brussels,1,1.7763568394002505e-15,0.0,0.0,0.20000000000000107,0.8,1.7763568394002505e-15,0.0,0.0,0.20000000000000107,0.8
2044,brussels,2,0.269999999999996,0.0,0.0,0.18000000000000016,0.5499999999999972,0.269999999999996,0.0,0.0,0.18000000000000016,0.5499999999999972
2044,brussels,3,0.539999999999992,0.0,0.0,0.16000000000000014,0.30000000000001137,0.539999999999992,0.0,0.0,0.16000000000000014,0.30000000000001137
2044,brussels,4,0.7999999999999545,0.0,0.0,0.15000000000000036,0.05000000000001137,0.7999999999999545,0.0,0.0,0.15000000000000036,0.05000000000001137
2044,flanders,1,1.7763568394002505e-15,0.0,0.0,0.20000000000000107,0.8,1.7763568394002505e-15,0.0,0.0,0.20000000000000107,0.8
2044,flanders,2,0.269999999999996,0.0,0.0,0.18000000000000016,0.5499999999999972,0.269999999999996,0.0,0.0,0.18000000000000016,0.5499999999999972
2044,flanders,3,0.539999999999992,0.0,0.0,0.16000000000000014,0.30000000000001137,0.539999999999992,0.0,0.0,0.16000000000000014,0.30000000000001137
2044,flanders,4,0.7999999999999545,0.0,0.0,0.15000000000000036,0.05000000000001137,0.7999999999999545,0.0,0.0,0.15000000000000036,0.05000000000001137
2044,wallonia,1,1.7763568394002505e-15,0.0,0.0,0.20000000000000107,0.8,1.7763568394002505e-15,0.0,0.0,0.20000000000000107,0.8
2044,wallonia,2,0.269999999999996,0.0,0.0,0.18000000000000016,0.5499999999999972,0.269999999999996,0.0,0.0,0.18000000000000016,0.5499999999999972
2044,wallonia,3,0.539999999999992,0.0,0.0,0.16000000000000014,0.30000000000001137,0.539999999999992,0.0,0.0,0.16000000000000014,0.30000000000001137
2044,wallonia,4,0.7999999999999545,0.0,0.0,0.15000000000000036,0.05000000000001137,0.7999999999999545,0.0,0.0,0.15000000000000036,0.05000000000001137
2045,belgium,1,1.7763568394002505e-15,0.0,0.0,0.20000000000000107,0.8,1.7763568394002505e-15,0.0,0.0,0.20000000000000107,0.8
2045,belgium,2,0.269999999999996,0.0,0.0,0.18000000000000016,0.5499999999999972,0.269999999999996,0.0,0.0,0.18000000000000016,0.5499999999999972
2045,belgium,3,0.539999999999992,0.0,0.0,0.16000000000000014,0.30000000000001137,0.539999999999992,0.0,0.0,0.16000000000000014,0.30000000000001137
2045,belgium,4,0.7999999999999545,0.0,0.0,0.15000000000000036,0.05000000000001137,0.7999999999999545,0.0,0.0,0.15000000000000036,0.05000000000001137
2045,brussels,1,1.7763568394002505e-15,0.0,0.0,0.20000000000000107,0.8,1.7763568394002505e-15,0.0,0.0,0.20000000000000107,0.8
2045,brussels,2,0.269999999999996,0.0,0.0,0.18000000000000016,0.5499999999999972,0.269999999999996,0.0,0.0,0.18000000000000016,0.5499999999999972
2045,brussels,3,0.539999999999992,0.0,0.0,0.16000000000000014,0.30000000000001137,0.539999999999992,0.0,0.0,0.16000000000000014,0.30000000000001137
2045,brussels,4,0.7999999999999545,0.0,0.0,0.15000000000000036,0.05000000000001137,0.7999999999999545,0.0,0.0,0.15000000000000036,0.05000000000001137
2045,flanders,1,1.7763568394002505e-15,0.0,0.0,0.20000000000000107,0.8,1.7763568394002505e-15,0.0,0.0,0.20000000000000107,0.8
2045,flanders,2,0.269999999999996,0.0,0.0,0.18000000000000016,0.5499999999999972,0.269999999999996,0.0,0.0,0.18000000000000016,0.5499999999999972
2045,flanders,3,0.539999999999992,0.0,0.0,0.16000000000000014,0.30000000000001137,0.539999999999992,0.0,0.0,0.16000000000000014,0.30000000000001137
2045,flanders,4,0.7999999999999545,0.0,0.0,0.15000000000000036,0.05000000000001137,0.7999999999999545,0.0,0.0,0.15000000000000036,0.05000000000001137
2045,wallonia,1,1.7763568394002505e-15,0.0,0.0,0.20000000000000107,0.8,1.7763568394002505e-15,0.0,0.0,0.20000000000000107,0.8
2045,wallonia,2,0.269999999999996,0.0,0.0,0.18000000000000016,0.5499999999999972,0.269999999999996,0.0,0.0,0.18000000000000016,0.5499999999999972
2045,wallonia,3,0.539999999999992,0.0,0.0,0.16000000000000014,0.30000000000001137,0.539999999999992,0.0,0.0,0.16000000000000014,0.30000000000001137
2045,wallonia,4,0.7999999999999545,0.0,0.0,0.15000000000000036,0.05000000000001137,0.7999999999999545,0.0,0.0,0.15000000000000036,0.05000000000001137
2046,belgium,1,1.7763568394002505e-15,0.0,0.0,0.20000000000000107,0.8,1.7763568394002505e-15,0.0,0.0,0.20000000000000107,0.8
2046,belgium,2,0.269999999999996,0.0,0.0,0.18000000000000016,0.5499999999999972,0.269999999999996,0.0,0.0,0.18000000000000016,0.5499999999999972
2046,belgium,3,0.539999999999992,0.0,0.0,0.16000000000000014,0.30000000000001137,0.539999999999992,0.0,0.0,0.16000000000000014,0.30000000000001137
2046,belgium,4,0.7999999999999545,0.0,0.0,0.15000000000000036,0.05000000000001137,0.7999999999999545,0.0,0.0,0.15000000000000036,0.05000000000001137
2046,brussels,1,1.7763568394002505e-15,0.0,0.0,0.20000000000000107,0.8,1.7763568394002505e-15,0.0,0.0,0.20000000000000107,0.8
2046,brussels,2,0.269999999999996,0.0,0.0,0.18000000000000016,0.5499999999999972,0.269999999999996,0.0,0.0,0.18000000000000016,0.5499999999999972
2046,brussels,3,0.539999999999992,0.0,0.0,0.16000000000000014,0.30000000000001137,0.539999999999992,0.0,0.0,0.16000000000000014,0.30000000000001137
2046,brussels,4,0.7999999999999545,0.0,0.0,0.15000000000000036,0.05000000000001137,0.7999999999999545,0.0,0.0,0.15000000000000036,0.05000000000001137
2046,flanders,1,1.7763568394002505e-15,0.0,0.0,0.20000000000000107,0.8,1.7763568394002505e-15,0.0,0.0,0.20000000000000107,0.8
2046,flanders,2,0.269999999999996,0.0,0.0,0.18000000000000016,0.5499999999999972,0.269999999999996,0.0,0.0,0.18000000000000016,0.5499999999999972
2046,flanders,3,0.539999999999992,0.0,0.0,0.16000000000000014,0.30000000000001137,0.539999999999992,0.0,0.0,0.16000000000000014,0.30000000000001137
2046,flanders,4,0.7999999999999545,0.0,0.0,0.15000000000000036,0.05000000000001137,0.7999999999999545,0.0,0.0,0.15000000000000036,0.05000000000001137
2046,wallonia,1,1.7763568394002505e-15,0.0,0.0,0.20000000000000107,0.8,1.7763568394002505e-15,0.0,0.0,0.20000000000000107,0.8
2046,wallonia,2,0.269999999999996,0.0,0.0,0.18000000000000016,0.5499999999999972,0.269999999999996,0.0,0.0,0.18000000000000016,0.5499999999999972
2046,wallonia,3,0.539999999999992,0.0,0.0,0.16000000000000014,0.30000000000001137,0.539999999999992,0.0,0.0,0.16000000000000014,0.30000000000001137
2046,wallonia,4,0.7999999999999545,0.0,0.0,0.15000000000000036,0.05000000000001137,0.7999999999999545,0.0,0.0,0.15000000000000036,0.05000000000001137
2047,belgium,1,1.7763568394002505e-15,0.0,0.0,0.20000000000000107,0.8,1.7763568394002505e-15,0.0,0.0,0.20000000000000107,0.8
2047,belgium,2,0.269999999999996,0.0,0.0,0.18000000000000016,0.5499999999999972,0.269999999999996,0.0,0.0,0.18000000000000016,0.5499999999999972
2047,belgium,3,0.539999999999992,0.0,0.0,0.16000000000000014,0.30000000000001137,0.539999999999992,0.0,0.0,0.16000000000000014,0.30000000000001137
2047,belgium,4,0.7999999999999545,0.0,0.0,0.15000000000000036,0.05000000000001137,0.7999999999999545,0.0,0.0,0.15000000000000036,0.05000000000001137
2047,brussels,1,1.7763568394002505e-15,0.0,0.0,0.20000000000000107,0.8,1.7763568394002505e-15,0.0,0.0,0.20000000000000107,0.8
2047,brussels,2,0.269999999999996,0.0,0.0,0.18000000000000016,0.5499999999999972,0.269999999999996,0.0,0.0,0.18000000000000016,0.5499999999999972
2047,brussels,3,0.539999999999992,0.0,0.0,0.16000000000000014,0.30000000000001137,0.539999999999992,0.0,0.0,0.16000000000000014,0.30000000000001137
2047,brussels,4,0.7999999999999545,0.0,0.0,0.15000000000000036,0.05000000000001137,0.7999999999999545,0.0,0.0,0.15000000000000036,0.05000000000001137
2047,flanders,1,1.7763568394002505e-15,0.0,0.0,0.20000000000000107,0.8,1.7763568394002505e-15,0.0,0.0,0.20000000000000107,0.8
2047,flanders,2,0.269999999999996,0.0,0.0,0.18000000000000016,0.5499999999999972,0.269999999999996,0.0,0.0,0.18000000000000016,0.5499999999999972
2047,flanders,3,0.539999999999992,0.0,0.0,0.16000000000000014,0.30000000000001137,0.539999999999992,0.0,0.0,0.16000000000000014,0.30000000000001137
2047,flanders,4,0.7999999999999545,0.0,0.0,0.15000000000000036,0.05000000000001137,0.7999999999999545,0.0,0.0,0.15000000000000036,0.05000000000001137
2047,wallonia,1,1.7763568394002505e-15,0.0,0.0,0.20000000000000107,0.8,1.7763568394002505e-15,0.0,0.0,0.20000000000000107,0.8
2047,wallonia,2,0.269999999999996,0.0,0.0,0.18000000000000016,0.5499999999999972,0.269999999999996,0.0,0.0,0.18000000000000016,0.5499999999999972
2047,wallonia,3,0.539999999999992,0.0,0.0,0.16000000000000014,0.30000000000001137,0.539999999999992,0.0,0.0,0.16000000000000014,0.30000000000001137
2047,wallonia,4,0.7999999999999545,0.0,0.0,0.15000000000000036,0.05000000000001137,0.7999999999999545,0.0,0.0,0.15000000000000036,0.05000000000001137
2048,belgium,1,1.7763568394002505e-15,0.0,0.0,0.20000000000000107,0.8,1.7763568394002505e-15,0.0,0.0,0.20000000000000107,0.8
2048,belgium,2,0.269999999999996,0.0,0.0,0.18000000000000016,0.5499999999999972,0.269999999999996,0.0,0.0,0.18000000000000016,0.5499999999999972
2048,belgium,3,0.539999999999992,0.0,0.0,0.16000000000000014,0.30000000000001137,0.539999999999992,0.0,0.0,0.16000000000000014,0.30000000000001137
2048,belgium,4,0.7999999999999545,0.0,0.0,0.15000000000000036,0.05000000000001137,0.7999999999999545,0.0,0.0,0.15000000000000036,0.05000000000001137
2048,brussels,1,1.7763568394002505e-15,0.0,0.0,0.20000000000000107,0.8,1.7763568394002505e-15,0.0,0.0,0.20000000000000107,0.8
2048,brussels,2,0.269999999999996,0.0,0.0,0.18000000000000016,0.5499999999999972,0.269999999999996,0.0,0.0,0.18000000000000016,0.5499999999999972
2048,brussels,3,0.539999999999992,0.0,0.0,0.16000000000000014,0.30000000000001137,0.539999999999992,0.0,0.0,0.16000000000000014,0.30000000000001137
2048,brussels,4,0.7999999999999545,0.0,0.0,0.15000000000000036,0.05000000000001137,0.7999999999999545,0.0,0.0,0.15000000000000036,0.05000000000001137
2048,flanders,1,1.7763568394002505e-15,0.0,0.0,0.20000000000000107,0.8,1.7763568394002505e-15,0.0,0.0,0.20000000000000107,0.8
2048,flanders,2,0.269999999999996,0.0,0.0,0.18000000000000016,0.5499999999999972,0.269999999999996,0.0,0.0,0.18000000000000016,0.5499999999999972
2048,flanders,3,0.539999999999992,0.0,0.0,0.16000000000000014,0.30000000000001137,0.539999999999992,0.0,0.0,0.16000000000000014,0.30000000000001137
2048,flanders,4,0.7999999999999545,0.0,0.0,0.15000000000000036,0.05000000000001137,0.7999999999999545,0.0,0.0,0.15000000000000036,0.05000000000001137
2048,wallonia,1,1.7763568394002505e-15,0.0,0.0,0.20000000000000107,0.8,1.7763568394002505e-15,0.0,0.0,0.20000000000000107,0.8
2048,wallonia,2,0.269999999999996,0.0,0.0,0.18000000000000016,0.5499999999999972,0.269999999999996,0.0,0.0,0.18000000000000016,0.5499999999999972
2048,wallonia,3,0.539999999999992,0.0,0.0,0.16000000000000014,0.30000000000001137,0.539999999999992,0.0,0.0,0.16000000000000014,0.30000000000001137
2048,wallonia,4,0.7999999999999545,0.0,0.0,0.15000000000000036,0.05000000000001137,0.7999999999999545,0.0,0.0,0.15000000000000036,0.05000000000001137
2049,belgium,1,1.7763568394002505e-15,0.0,0.0,0.20000000000000107,0.8,1.7763568394002505e-15,0.0,0.0,0.20000000000000107,0.8
2049,belgium,2,0.269999999999996,0.0,0.0,0.18000000000000016,0.5499999999999972,0.269999999999996,0.0,0.0,0.18000000000000016,0.5499999999999972
2049,belgium,3,0.539999999999992,0.0,0.0,0.16000000000000014,0.30000000000001137,0.539999999999992,0.0,0.0,0.16000000000000014,0.30000000000001137
2049,belgium,4,0.7999999999999545,0.0,0.0,0.15000000000000036,0.05000000000001137,0.7999999999999545,0.0,0.0,0.15000000000000036,0.05000000000001137
2049,brussels,1,1.7763568394002505e-15,0.0,0.0,0.20000000000000107,0.8,1.7763568394002505e-15,0.0,0.0,0.20000000000000107,0.8
2049,brussels,2,0.269999999999996,0.0,0.0,0.18000000000000016,0.5499999999999972,0.269999999999996,0.0,0.0,0.18000000000000016,0.5499999999999972
2049,brussels,3,0.539999999999992,0.0,0.0,0.16000000000000014,0.30000000000001137,0.539999999999992,0.0,0.0,0.16000000000000014,0.30000000000001137
2049,brussels,4,0.7999999999999545,0.0,0.0,0.15000000000000036,0.05000000000001137,0.7999999999999545,0.0,0.0,0.15000000000000036,0.05000000000001137
2049,flanders,1,1.7763568394002505e-15,0.0,0.0,0.20000000000000107,0.8,1.7763568394002505e-15,0.0,0.0,0.20000000000000107,0.8
2049,flanders,2,0.269999999999996,0.0,0.0,0.18000000000000016,0.5499999999999972,0.269999999999996,0.0,0.0,0.18000000000000016,0.5499999999999972
2049,flanders,3,0.539999999999992,0.0,0.0,0.16000000000000014,0.30000000000001137,0.539999999999992,0.0,0.0,0.16000000000000014,0.30000000000001137
2049,flanders,4,0.7999999999999545,0.0,0.0,0.15000000000000036,0.05000000000001137,0.7999999999999545,0.0,0.0,0.15000000000000036,0.05000000000001137
2049,wallonia,1,1.7763568394002505e-15,0.0,0.0,0.20000000000000107,0.8,1.7763568394002505e-15,0.0,0.0,0.20000000000000107,0.8
2049,wallonia,2,0.269999999999996,0.0,0.0,0.18000000000000016,0.5499999999999972,0.269999999999996,0.0,0.0,0.18000000000000016,0.5499999999999972
2049,wallonia,3,0.539999999999992,0.0,0.0,0.16000000000000014,0.30000000000001137,0.539999999999992,0.0,0.0,0.16000000000000014,0.30000000000001137
2049,wallonia,4,0.7999999999999545,0.0,0.0,0.15000000000000036,0.05000000000001137,0.7999999999999545,0.0,0.0,0.15000000000000036,0.05000000000001137
2050,belgium,1,1.7763568394002505e-15,0.0,0.0,0.20000000000000107,0.8,1.7763568394002505e-15,0.0,0.0,0.20000000000000107,0.8
2050,belgium,2,0.269999999999996,0.0,0.0,0.18000000000000016,0.5499999999999972,0.269999999999996,0.0,0.0,0.18000000000000016,0.5499999999999972
2050,belgium,3,0.539999999999992,0.0,0.0,0.16000000000000014,0.30000000000001137,0.539999999999992,0.0,0.0,0.16000000000000014,0.30000000000001137
2050,belgium,4,0.7999999999999545,0.0,0.0,0.15000000000000036,0.05000000000001137,0.7999999999999545,0.0,0.0,0.15000000000000036,0.05000000000001137
2050,brussels,1,1.7763568394002505e-15,0.0,0.0,0.20000000000000107,0.8,1.7763568394002505e-15,0.0,0.0,0.20000000000000107,0.8
2050,brussels,2,0.269999999999996,0.0,0.0,0.18000000000000016,0.5499999999999972,0.269999999999996,0.0,0.0,0.18000000000000016,0.5499999999999972
2050,brussels,3,0.539999999999992,0.0,0.0,0.16000000000000014,0.30000000000001137,0.539999999999992,0.0,0.0,0.16000000000000014,0.30000000000001137
2050,brussels,4,0.7999999999999545,0.0,0.0,0.15000000000000036,0.05000000000001137,0.7999999999999545,0.0,0.0,0.15000000000000036,0.05000000000001137
2050,flanders,1,1.7763568394002505e-15,0.0,0.0,0.20000000000000107,0.8,1.7763568394002505e-15,0.0,0.0,0.20000000000000107,0.8
2050,flanders,2,0.269999999999996,0.0,0.0,0.18000000000000016,0.5499999999999972,0.269999999999996,0.0,0.0,0.18000000000000016,0.5499999999999972
2050,flanders,3,0.539999999999992,0.0,0.0,0.16000000000000014,0.30000000000001137,0.539999999999992,0.0,0.0,0.16000000000000014,0.30000000000001137
2050,flanders,4,0.7999999999999545,0.0,0.0,0.15000000000000036,0.05000000000001137,0.7999999999999545,0.0,0.0,0.15000000000000036,0.05000000000001137
2050,wallonia,1,1.7763568394002505e-15,0.0,0.0,0.20000000000000107,0.8,1.7763568394002505e-15,0.0,0.0,0.20000000000000107,0.8
2050,wallonia,2,0.269999999999996,0.0,0.0,0.18000000000000016,0.5499999999999972,0.269999999999996,0.0,0.0,0.18000000000000016,0.5499999999999972
2050,wallonia,3,0.539999999999992,0.0,0.0,0.16000000000000014,0.30000000000001137,0.539999999999992,0.0,0.0,0.16000000000000014,0.30000000000001137
2050,wallonia,4,0.7999999999999545,0.0,0.0,0.15000000000000036,0.05000000000001137,0.7999999999999545,0.0,0.0,0.15000000000000036,0.05000000000001137
