Years,Country,lever_building-renovation-rate_residential,fts_bld_building-renovation-rate_mfh_1800-2010[%],fts_bld_building-renovation-rate_sfh_1800-2010[%]
2016,belgium,1,0.01,0.01
2016,belgium,2,0.01,0.01
2016,belgium,3,0.01,0.01
2016,belgium,4,0.01,0.01
2016,brussels,1,0.01,0.01
2016,brussels,2,0.01,0.01
2016,brussels,3,0.01,0.01
2016,brussels,4,0.01,0.01
2016,flanders,1,0.01,0.01
2016,flanders,2,0.01,0.01
2016,flanders,3,0.01,0.01
2016,flanders,4,0.01,0.01
2016,wallonia,1,0.01,0.01
2016,wallonia,2,0.01,0.01
2016,wallonia,3,0.01,0.01
2016,wallonia,4,0.01,0.01
2017,belgium,1,0.01,0.01
2017,belgium,2,0.01,0.01
2017,belgium,3,0.01,0.01
2017,belgium,4,0.01,0.01
2017,brussels,1,0.01,0.01
2017,brussels,2,0.01,0.01
2017,brussels,3,0.01,0.01
2017,brussels,4,0.01,0.01
2017,flanders,1,0.01,0.01
2017,flanders,2,0.01,0.01
2017,flanders,3,0.01,0.01
2017,flanders,4,0.01,0.01
2017,wallonia,1,0.01,0.01
2017,wallonia,2,0.01,0.01
2017,wallonia,3,0.01,0.01
2017,wallonia,4,0.01,0.01
2018,belgium,1,0.01,0.01
2018,belgium,2,0.01,0.01
2018,belgium,3,0.01,0.01
2018,belgium,4,0.01,0.01
2018,brussels,1,0.01,0.01
2018,brussels,2,0.01,0.01
2018,brussels,3,0.01,0.01
2018,brussels,4,0.01,0.01
2018,flanders,1,0.01,0.01
2018,flanders,2,0.01,0.01
2018,flanders,3,0.01,0.01
2018,flanders,4,0.01,0.01
2018,wallonia,1,0.01,0.01
2018,wallonia,2,0.01,0.01
2018,wallonia,3,0.01,0.01
2018,wallonia,4,0.01,0.01
2019,belgium,1,0.01,0.01
2019,belgium,2,0.01,0.01
2019,belgium,3,0.01,0.01
2019,belgium,4,0.01,0.01
2019,brussels,1,0.01,0.01
2019,brussels,2,0.01,0.01
2019,brussels,3,0.01,0.01
2019,brussels,4,0.01,0.01
2019,flanders,1,0.01,0.01
2019,flanders,2,0.01,0.01
2019,flanders,3,0.01,0.01
2019,flanders,4,0.01,0.01
2019,wallonia,1,0.01,0.01
2019,wallonia,2,0.01,0.01
2019,wallonia,3,0.01,0.01
2019,wallonia,4,0.01,0.01
2020,belgium,1,0.01,0.01
2020,belgium,2,0.01,0.01
2020,belgium,3,0.01,0.01
2020,belgium,4,0.01,0.01
2020,brussels,1,0.01,0.01
2020,brussels,2,0.01,0.01
2020,brussels,3,0.01,0.01
2020,brussels,4,0.01,0.01
2020,flanders,1,0.01,0.01
2020,flanders,2,0.01,0.01
2020,flanders,3,0.01,0.01
2020,flanders,4,0.01,0.01
2020,wallonia,1,0.01,0.01
2020,wallonia,2,0.01,0.01
2020,wallonia,3,0.01,0.01
2020,wallonia,4,0.01,0.01
2021,belgium,1,0.01,0.01
2021,belgium,2,0.011999999999999567,0.011999999999999567
2021,belgium,3,0.013999999999999346,0.013999999999999346
2021,belgium,4,0.015999999999998238,0.015999999999998238
2021,brussels,1,0.01,0.01
2021,brussels,2,0.011999999999999567,0.011999999999999567
2021,brussels,3,0.013999999999999346,0.013999999999999346
2021,brussels,4,0.015999999999998238,0.015999999999998238
2021,flanders,1,0.01,0.01
2021,flanders,2,0.011999999999999567,0.011999999999999567
2021,flanders,3,0.013999999999999346,0.013999999999999346
2021,flanders,4,0.015999999999998238,0.015999999999998238
2021,wallonia,1,0.01,0.01
2021,wallonia,2,0.011999999999999567,0.011999999999999567
2021,wallonia,3,0.013999999999999346,0.013999999999999346
2021,wallonia,4,0.015999999999998238,0.015999999999998238
2022,belgium,1,0.01,0.01
2022,belgium,2,0.014000000000000234,0.014000000000000234
2022,belgium,3,0.018000000000000682,0.018000000000000682
2022,belgium,4,0.021999999999998465,0.021999999999998465
2022,brussels,1,0.01,0.01
2022,brussels,2,0.014000000000000234,0.014000000000000234
2022,brussels,3,0.018000000000000682,0.018000000000000682
2022,brussels,4,0.021999999999998465,0.021999999999998465
2022,flanders,1,0.01,0.01
2022,flanders,2,0.014000000000000234,0.014000000000000234
2022,flanders,3,0.018000000000000682,0.018000000000000682
2022,flanders,4,0.021999999999998465,0.021999999999998465
2022,wallonia,1,0.01,0.01
2022,wallonia,2,0.014000000000000234,0.014000000000000234
2022,wallonia,3,0.018000000000000682,0.018000000000000682
2022,wallonia,4,0.021999999999998465,0.021999999999998465
2023,belgium,1,0.01,0.01
2023,belgium,2,0.016000000000000014,0.016000000000000014
2023,belgium,3,0.02200000000000024,0.02200000000000024
2023,belgium,4,0.027999999999998693,0.027999999999998693
2023,brussels,1,0.01,0.01
2023,brussels,2,0.016000000000000014,0.016000000000000014
2023,brussels,3,0.02200000000000024,0.02200000000000024
2023,brussels,4,0.027999999999998693,0.027999999999998693
2023,flanders,1,0.01,0.01
2023,flanders,2,0.016000000000000014,0.016000000000000014
2023,flanders,3,0.02200000000000024,0.02200000000000024
2023,flanders,4,0.027999999999998693,0.027999999999998693
2023,wallonia,1,0.01,0.01
2023,wallonia,2,0.016000000000000014,0.016000000000000014
2023,wallonia,3,0.02200000000000024,0.02200000000000024
2023,wallonia,4,0.027999999999998693,0.027999999999998693
2024,belgium,1,0.01,0.01
2024,belgium,2,0.017999999999999794,0.017999999999999794
2024,belgium,3,0.0259999999999998,0.0259999999999998
2024,belgium,4,0.03399999999999892,0.03399999999999892
2024,brussels,1,0.01,0.01
2024,brussels,2,0.017999999999999794,0.017999999999999794
2024,brussels,3,0.0259999999999998,0.0259999999999998
2024,brussels,4,0.03399999999999892,0.03399999999999892
2024,flanders,1,0.01,0.01
2024,flanders,2,0.017999999999999794,0.017999999999999794
2024,flanders,3,0.0259999999999998,0.0259999999999998
2024,flanders,4,0.03399999999999892,0.03399999999999892
2024,wallonia,1,0.01,0.01
2024,wallonia,2,0.017999999999999794,0.017999999999999794
2024,wallonia,3,0.0259999999999998,0.0259999999999998
2024,wallonia,4,0.03399999999999892,0.03399999999999892
2025,belgium,1,0.01,0.01
2025,belgium,2,0.019999999999999574,0.019999999999999574
2025,belgium,3,0.02999999999999936,0.02999999999999936
2025,belgium,4,0.03999999999999915,0.03999999999999915
2025,brussels,1,0.01,0.01
2025,brussels,2,0.019999999999999574,0.019999999999999574
2025,brussels,3,0.02999999999999936,0.02999999999999936
2025,brussels,4,0.03999999999999915,0.03999999999999915
2025,flanders,1,0.01,0.01
2025,flanders,2,0.019999999999999574,0.019999999999999574
2025,flanders,3,0.02999999999999936,0.02999999999999936
2025,flanders,4,0.03999999999999915,0.03999999999999915
2025,wallonia,1,0.01,0.01
2025,wallonia,2,0.019999999999999574,0.019999999999999574
2025,wallonia,3,0.02999999999999936,0.02999999999999936
2025,wallonia,4,0.03999999999999915,0.03999999999999915
2026,belgium,1,0.01,0.01
2026,belgium,2,0.019999999999999574,0.019999999999999574
2026,belgium,3,0.02999999999999936,0.02999999999999936
2026,belgium,4,0.03999999999999915,0.03999999999999915
2026,brussels,1,0.01,0.01
2026,brussels,2,0.019999999999999574,0.019999999999999574
2026,brussels,3,0.02999999999999936,0.02999999999999936
2026,brussels,4,0.03999999999999915,0.03999999999999915
2026,flanders,1,0.01,0.01
2026,flanders,2,0.019999999999999574,0.019999999999999574
2026,flanders,3,0.02999999999999936,0.02999999999999936
2026,flanders,4,0.03999999999999915,0.03999999999999915
2026,wallonia,1,0.01,0.01
2026,wallonia,2,0.019999999999999574,0.019999999999999574
2026,wallonia,3,0.02999999999999936,0.02999999999999936
2026,wallonia,4,0.03999999999999915,0.03999999999999915
2027,belgium,1,0.01,0.01
2027,belgium,2,0.019999999999999574,0.019999999999999574
2027,belgium,3,0.02999999999999936,0.02999999999999936
2027,belgium,4,0.03999999999999915,0.03999999999999915
2027,brussels,1,0.01,0.01
2027,brussels,2,0.019999999999999574,0.019999999999999574
2027,brussels,3,0.02999999999999936,0.02999999999999936
2027,brussels,4,0.03999999999999915,0.03999999999999915
2027,flanders,1,0.01,0.01
2027,flanders,2,0.019999999999999574,0.019999999999999574
2027,flanders,3,0.02999999999999936,0.02999999999999936
2027,flanders,4,0.03999999999999915,0.03999999999999915
2027,wallonia,1,0.01,0.01
2027,wallonia,2,0.019999999999999574,0.019999999999999574
2027,wallonia,3,0.02999999999999936,0.02999999999999936
2027,wallonia,4,0.03999999999999915,0.03999999999999915
2028,belgium,1,0.01,0.01
2028,belgium,2,0.019999999999999574,0.019999999999999574
2028,belgium,3,0.02999999999999936,0.02999999999999936
2028,belgium,4,0.03999999999999915,0.03999999999999915
2028,brussels,1,0.01,0.01
2028,brussels,2,0.019999999999999574,0.019999999999999574
2028,brussels,3,0.02999999999999936,0.02999999999999936
2028,brussels,4,0.03999999999999915,0.03999999999999915
2028,flanders,1,0.01,0.01
2028,flanders,2,0.019999999999999574,0.019999999999999574
2028,flanders,3,0.02999999999999936,0.02999999999999936
2028,flanders,4,0.03999999999999915,0.03999999999999915
2028,wallonia,1,0.01,0.01
2028,wallonia,2,0.019999999999999574,0.019999999999999574
2028,wallonia,3,0.02999999999999936,0.02999999999999936
2028,wallonia,4,0.03999999999999915,0.03999999999999915
2029,belgium,1,0.01,0.01
2029,belgium,2,0.019999999999999574,0.019999999999999574
2029,belgium,3,0.02999999999999936,0.02999999999999936
2029,belgium,4,0.03999999999999915,0.03999999999999915
2029,brussels,1,0.01,0.01
2029,brussels,2,0.019999999999999574,0.019999999999999574
2029,brussels,3,0.02999999999999936,0.02999999999999936
2029,brussels,4,0.03999999999999915,0.03999999999999915
2029,flanders,1,0.01,0.01
2029,flanders,2,0.019999999999999574,0.019999999999999574
2029,flanders,3,0.02999999999999936,0.02999999999999936
2029,flanders,4,0.03999999999999915,0.03999999999999915
2029,wallonia,1,0.01,0.01
2029,wallonia,2,0.019999999999999574,0.019999999999999574
2029,wallonia,3,0.02999999999999936,0.02999999999999936
2029,wallonia,4,0.03999999999999915,0.03999999999999915
2030,belgium,1,0.01,0.01
2030,belgium,2,0.019999999999999574,0.019999999999999574
2030,belgium,3,0.02999999999999936,0.02999999999999936
2030,belgium,4,0.03999999999999915,0.03999999999999915
2030,brussels,1,0.01,0.01
2030,brussels,2,0.019999999999999574,0.019999999999999574
2030,brussels,3,0.02999999999999936,0.02999999999999936
2030,brussels,4,0.03999999999999915,0.03999999999999915
2030,flanders,1,0.01,0.01
2030,flanders,2,0.019999999999999574,0.019999999999999574
2030,flanders,3,0.02999999999999936,0.02999999999999936
2030,flanders,4,0.03999999999999915,0.03999999999999915
2030,wallonia,1,0.01,0.01
2030,wallonia,2,0.019999999999999574,0.019999999999999574
2030,wallonia,3,0.02999999999999936,0.02999999999999936
2030,wallonia,4,0.03999999999999915,0.03999999999999915
2031,belgium,1,0.01,0.01
2031,belgium,2,0.019999999999999574,0.019999999999999574
2031,belgium,3,0.02999999999999936,0.02999999999999936
2031,belgium,4,0.03999999999999915,0.03999999999999915
2031,brussels,1,0.01,0.01
2031,brussels,2,0.019999999999999574,0.019999999999999574
2031,brussels,3,0.02999999999999936,0.02999999999999936
2031,brussels,4,0.03999999999999915,0.03999999999999915
2031,flanders,1,0.01,0.01
2031,flanders,2,0.019999999999999574,0.019999999999999574
2031,flanders,3,0.02999999999999936,0.02999999999999936
2031,flanders,4,0.03999999999999915,0.03999999999999915
2031,wallonia,1,0.01,0.01
2031,wallonia,2,0.019999999999999574,0.019999999999999574
2031,wallonia,3,0.02999999999999936,0.02999999999999936
2031,wallonia,4,0.03999999999999915,0.03999999999999915
2032,belgium,1,0.01,0.01
2032,belgium,2,0.019999999999999574,0.019999999999999574
2032,belgium,3,0.02999999999999936,0.02999999999999936
2032,belgium,4,0.03999999999999915,0.03999999999999915
2032,brussels,1,0.01,0.01
2032,brussels,2,0.019999999999999574,0.019999999999999574
2032,brussels,3,0.02999999999999936,0.02999999999999936
2032,brussels,4,0.03999999999999915,0.03999999999999915
2032,flanders,1,0.01,0.01
2032,flanders,2,0.019999999999999574,0.019999999999999574
2032,flanders,3,0.02999999999999936,0.02999999999999936
2032,flanders,4,0.03999999999999915,0.03999999999999915
2032,wallonia,1,0.01,0.01
2032,wallonia,2,0.019999999999999574,0.019999999999999574
2032,wallonia,3,0.02999999999999936,0.02999999999999936
2032,wallonia,4,0.03999999999999915,0.03999999999999915
2033,belgium,1,0.01,0.01
2033,belgium,2,0.019999999999999574,0.019999999999999574
2033,belgium,3,0.02999999999999936,0.02999999999999936
2033,belgium,4,0.03999999999999915,0.03999999999999915
2033,brussels,1,0.01,0.01
2033,brussels,2,0.019999999999999574,0.019999999999999574
2033,brussels,3,0.02999999999999936,0.02999999999999936
2033,brussels,4,0.03999999999999915,0.03999999999999915
2033,flanders,1,0.01,0.01
2033,flanders,2,0.019999999999999574,0.019999999999999574
2033,flanders,3,0.02999999999999936,0.02999999999999936
2033,flanders,4,0.03999999999999915,0.03999999999999915
2033,wallonia,1,0.01,0.01
2033,wallonia,2,0.019999999999999574,0.019999999999999574
2033,wallonia,3,0.02999999999999936,0.02999999999999936
2033,wallonia,4,0.03999999999999915,0.03999999999999915
2034,belgium,1,0.01,0.01
2034,belgium,2,0.019999999999999574,0.019999999999999574
2034,belgium,3,0.02999999999999936,0.02999999999999936
2034,belgium,4,0.03999999999999915,0.03999999999999915
2034,brussels,1,0.01,0.01
2034,brussels,2,0.019999999999999574,0.019999999999999574
2034,brussels,3,0.02999999999999936,0.02999999999999936
2034,brussels,4,0.03999999999999915,0.03999999999999915
2034,flanders,1,0.01,0.01
2034,flanders,2,0.019999999999999574,0.019999999999999574
2034,flanders,3,0.02999999999999936,0.02999999999999936
2034,flanders,4,0.03999999999999915,0.03999999999999915
2034,wallonia,1,0.01,0.01
2034,wallonia,2,0.019999999999999574,0.019999999999999574
2034,wallonia,3,0.02999999999999936,0.02999999999999936
2034,wallonia,4,0.03999999999999915,0.03999999999999915
2035,belgium,1,0.01,0.01
2035,belgium,2,0.019999999999999574,0.019999999999999574
2035,belgium,3,0.02999999999999936,0.02999999999999936
2035,belgium,4,0.03999999999999915,0.03999999999999915
2035,brussels,1,0.01,0.01
2035,brussels,2,0.019999999999999574,0.019999999999999574
2035,brussels,3,0.02999999999999936,0.02999999999999936
2035,brussels,4,0.03999999999999915,0.03999999999999915
2035,flanders,1,0.01,0.01
2035,flanders,2,0.019999999999999574,0.019999999999999574
2035,flanders,3,0.02999999999999936,0.02999999999999936
2035,flanders,4,0.03999999999999915,0.03999999999999915
2035,wallonia,1,0.01,0.01
2035,wallonia,2,0.019999999999999574,0.019999999999999574
2035,wallonia,3,0.02999999999999936,0.02999999999999936
2035,wallonia,4,0.03999999999999915,0.03999999999999915
2036,belgium,1,0.01,0.01
2036,belgium,2,0.019999999999999574,0.019999999999999574
2036,belgium,3,0.02999999999999936,0.02999999999999936
2036,belgium,4,0.03999999999999915,0.03999999999999915
2036,brussels,1,0.01,0.01
2036,brussels,2,0.019999999999999574,0.019999999999999574
2036,brussels,3,0.02999999999999936,0.02999999999999936
2036,brussels,4,0.03999999999999915,0.03999999999999915
2036,flanders,1,0.01,0.01
2036,flanders,2,0.019999999999999574,0.019999999999999574
2036,flanders,3,0.02999999999999936,0.02999999999999936
2036,flanders,4,0.03999999999999915,0.03999999999999915
2036,wallonia,1,0.01,0.01
2036,wallonia,2,0.019999999999999574,0.019999999999999574
2036,wallonia,3,0.02999999999999936,0.02999999999999936
2036,wallonia,4,0.03999999999999915,0.03999999999999915
2037,belgium,1,0.01,0.01
2037,belgium,2,0.019999999999999574,0.019999999999999574
2037,belgium,3,0.02999999999999936,0.02999999999999936
2037,belgium,4,0.03999999999999915,0.03999999999999915
2037,brussels,1,0.01,0.01
2037,brussels,2,0.019999999999999574,0.019999999999999574
2037,brussels,3,0.02999999999999936,0.02999999999999936
2037,brussels,4,0.03999999999999915,0.03999999999999915
2037,flanders,1,0.01,0.01
2037,flanders,2,0.019999999999999574,0.019999999999999574
2037,flanders,3,0.02999999999999936,0.02999999999999936
2037,flanders,4,0.03999999999999915,0.03999999999999915
2037,wallonia,1,0.01,0.01
2037,wallonia,2,0.019999999999999574,0.019999999999999574
2037,wallonia,3,0.02999999999999936,0.02999999999999936
2037,wallonia,4,0.03999999999999915,0.03999999999999915
2038,belgium,1,0.01,0.01
2038,belgium,2,0.019999999999999574,0.019999999999999574
2038,belgium,3,0.02999999999999936,0.02999999999999936
2038,belgium,4,0.03999999999999915,0.03999999999999915
2038,brussels,1,0.01,0.01
2038,brussels,2,0.019999999999999574,0.019999999999999574
2038,brussels,3,0.02999999999999936,0.02999999999999936
2038,brussels,4,0.03999999999999915,0.03999999999999915
2038,flanders,1,0.01,0.01
2038,flanders,2,0.019999999999999574,0.019999999999999574
2038,flanders,3,0.02999999999999936,0.02999999999999936
2038,flanders,4,0.03999999999999915,0.03999999999999915
2038,wallonia,1,0.01,0.01
2038,wallonia,2,0.019999999999999574,0.019999999999999574
2038,wallonia,3,0.02999999999999936,0.02999999999999936
2038,wallonia,4,0.03999999999999915,0.03999999999999915
2039,belgium,1,0.01,0.01
2039,belgium,2,0.019999999999999574,0.019999999999999574
2039,belgium,3,0.02999999999999936,0.02999999999999936
2039,belgium,4,0.03999999999999915,0.03999999999999915
2039,brussels,1,0.01,0.01
2039,brussels,2,0.019999999999999574,0.019999999999999574
2039,brussels,3,0.02999999999999936,0.02999999999999936
2039,brussels,4,0.03999999999999915,0.03999999999999915
2039,flanders,1,0.01,0.01
2039,flanders,2,0.019999999999999574,0.019999999999999574
2039,flanders,3,0.02999999999999936,0.02999999999999936
2039,flanders,4,0.03999999999999915,0.03999999999999915
2039,wallonia,1,0.01,0.01
2039,wallonia,2,0.019999999999999574,0.019999999999999574
2039,wallonia,3,0.02999999999999936,0.02999999999999936
2039,wallonia,4,0.03999999999999915,0.03999999999999915
2040,belgium,1,0.01,0.01
2040,belgium,2,0.019999999999999574,0.019999999999999574
2040,belgium,3,0.02999999999999936,0.02999999999999936
2040,belgium,4,0.03999999999999915,0.03999999999999915
2040,brussels,1,0.01,0.01
2040,brussels,2,0.019999999999999574,0.019999999999999574
2040,brussels,3,0.02999999999999936,0.02999999999999936
2040,brussels,4,0.03999999999999915,0.03999999999999915
2040,flanders,1,0.01,0.01
2040,flanders,2,0.019999999999999574,0.019999999999999574
2040,flanders,3,0.02999999999999936,0.02999999999999936
2040,flanders,4,0.03999999999999915,0.03999999999999915
2040,wallonia,1,0.01,0.01
2040,wallonia,2,0.019999999999999574,0.019999999999999574
2040,wallonia,3,0.02999999999999936,0.02999999999999936
2040,wallonia,4,0.03999999999999915,0.03999999999999915
2041,belgium,1,0.01,0.01
2041,belgium,2,0.019999999999999574,0.019999999999999574
2041,belgium,3,0.02999999999999936,0.02999999999999936
2041,belgium,4,0.03999999999999915,0.03999999999999915
2041,brussels,1,0.01,0.01
2041,brussels,2,0.019999999999999574,0.019999999999999574
2041,brussels,3,0.02999999999999936,0.02999999999999936
2041,brussels,4,0.03999999999999915,0.03999999999999915
2041,flanders,1,0.01,0.01
2041,flanders,2,0.019999999999999574,0.019999999999999574
2041,flanders,3,0.02999999999999936,0.02999999999999936
2041,flanders,4,0.03999999999999915,0.03999999999999915
2041,wallonia,1,0.01,0.01
2041,wallonia,2,0.019999999999999574,0.019999999999999574
2041,wallonia,3,0.02999999999999936,0.02999999999999936
2041,wallonia,4,0.03999999999999915,0.03999999999999915
2042,belgium,1,0.01,0.01
2042,belgium,2,0.019999999999999574,0.019999999999999574
2042,belgium,3,0.02999999999999936,0.02999999999999936
2042,belgium,4,0.03999999999999915,0.03999999999999915
2042,brussels,1,0.01,0.01
2042,brussels,2,0.019999999999999574,0.019999999999999574
2042,brussels,3,0.02999999999999936,0.02999999999999936
2042,brussels,4,0.03999999999999915,0.03999999999999915
2042,flanders,1,0.01,0.01
2042,flanders,2,0.019999999999999574,0.019999999999999574
2042,flanders,3,0.02999999999999936,0.02999999999999936
2042,flanders,4,0.03999999999999915,0.03999999999999915
2042,wallonia,1,0.01,0.01
2042,wallonia,2,0.019999999999999574,0.019999999999999574
2042,wallonia,3,0.02999999999999936,0.02999999999999936
2042,wallonia,4,0.03999999999999915,0.03999999999999915
2043,belgium,1,0.01,0.01
2043,belgium,2,0.019999999999999574,0.019999999999999574
2043,belgium,3,0.02999999999999936,0.02999999999999936
2043,belgium,4,0.03999999999999915,0.03999999999999915
2043,brussels,1,0.01,0.01
2043,brussels,2,0.019999999999999574,0.019999999999999574
2043,brussels,3,0.02999999999999936,0.02999999999999936
2043,brussels,4,0.03999999999999915,0.03999999999999915
2043,flanders,1,0.01,0.01
2043,flanders,2,0.019999999999999574,0.019999999999999574
2043,flanders,3,0.02999999999999936,0.02999999999999936
2043,flanders,4,0.03999999999999915,0.03999999999999915
2043,wallonia,1,0.01,0.01
2043,wallonia,2,0.019999999999999574,0.019999999999999574
2043,wallonia,3,0.02999999999999936,0.02999999999999936
2043,wallonia,4,0.03999999999999915,0.03999999999999915
2044,belgium,1,0.01,0.01
2044,belgium,2,0.019999999999999574,0.019999999999999574
2044,belgium,3,0.02999999999999936,0.02999999999999936
2044,belgium,4,0.03999999999999915,0.03999999999999915
2044,brussels,1,0.01,0.01
2044,brussels,2,0.019999999999999574,0.019999999999999574
2044,brussels,3,0.02999999999999936,0.02999999999999936
2044,brussels,4,0.03999999999999915,0.03999999999999915
2044,flanders,1,0.01,0.01
2044,flanders,2,0.019999999999999574,0.019999999999999574
2044,flanders,3,0.02999999999999936,0.02999999999999936
2044,flanders,4,0.03999999999999915,0.03999999999999915
2044,wallonia,1,0.01,0.01
2044,wallonia,2,0.019999999999999574,0.019999999999999574
2044,wallonia,3,0.02999999999999936,0.02999999999999936
2044,wallonia,4,0.03999999999999915,0.03999999999999915
2045,belgium,1,0.01,0.01
2045,belgium,2,0.019999999999999574,0.019999999999999574
2045,belgium,3,0.02999999999999936,0.02999999999999936
2045,belgium,4,0.03999999999999915,0.03999999999999915
2045,brussels,1,0.01,0.01
2045,brussels,2,0.019999999999999574,0.019999999999999574
2045,brussels,3,0.02999999999999936,0.02999999999999936
2045,brussels,4,0.03999999999999915,0.03999999999999915
2045,flanders,1,0.01,0.01
2045,flanders,2,0.019999999999999574,0.019999999999999574
2045,flanders,3,0.02999999999999936,0.02999999999999936
2045,flanders,4,0.03999999999999915,0.03999999999999915
2045,wallonia,1,0.01,0.01
2045,wallonia,2,0.019999999999999574,0.019999999999999574
2045,wallonia,3,0.02999999999999936,0.02999999999999936
2045,wallonia,4,0.03999999999999915,0.03999999999999915
2046,belgium,1,0.01,0.01
2046,belgium,2,0.019999999999999574,0.019999999999999574
2046,belgium,3,0.02999999999999936,0.02999999999999936
2046,belgium,4,0.03999999999999915,0.03999999999999915
2046,brussels,1,0.01,0.01
2046,brussels,2,0.019999999999999574,0.019999999999999574
2046,brussels,3,0.02999999999999936,0.02999999999999936
2046,brussels,4,0.03999999999999915,0.03999999999999915
2046,flanders,1,0.01,0.01
2046,flanders,2,0.019999999999999574,0.019999999999999574
2046,flanders,3,0.02999999999999936,0.02999999999999936
2046,flanders,4,0.03999999999999915,0.03999999999999915
2046,wallonia,1,0.01,0.01
2046,wallonia,2,0.019999999999999574,0.019999999999999574
2046,wallonia,3,0.02999999999999936,0.02999999999999936
2046,wallonia,4,0.03999999999999915,0.03999999999999915
2047,belgium,1,0.01,0.01
2047,belgium,2,0.019999999999999574,0.019999999999999574
2047,belgium,3,0.02999999999999936,0.02999999999999936
2047,belgium,4,0.03999999999999915,0.03999999999999915
2047,brussels,1,0.01,0.01
2047,brussels,2,0.019999999999999574,0.019999999999999574
2047,brussels,3,0.02999999999999936,0.02999999999999936
2047,brussels,4,0.03999999999999915,0.03999999999999915
2047,flanders,1,0.01,0.01
2047,flanders,2,0.019999999999999574,0.019999999999999574
2047,flanders,3,0.02999999999999936,0.02999999999999936
2047,flanders,4,0.03999999999999915,0.03999999999999915
2047,wallonia,1,0.01,0.01
2047,wallonia,2,0.019999999999999574,0.019999999999999574
2047,wallonia,3,0.02999999999999936,0.02999999999999936
2047,wallonia,4,0.03999999999999915,0.03999999999999915
2048,belgium,1,0.01,0.01
2048,belgium,2,0.019999999999999574,0.019999999999999574
2048,belgium,3,0.02999999999999936,0.02999999999999936
2048,belgium,4,0.03999999999999915,0.03999999999999915
2048,brussels,1,0.01,0.01
2048,brussels,2,0.019999999999999574,0.019999999999999574
2048,brussels,3,0.02999999999999936,0.02999999999999936
2048,brussels,4,0.03999999999999915,0.03999999999999915
2048,flanders,1,0.01,0.01
2048,flanders,2,0.019999999999999574,0.019999999999999574
2048,flanders,3,0.02999999999999936,0.02999999999999936
2048,flanders,4,0.03999999999999915,0.03999999999999915
2048,wallonia,1,0.01,0.01
2048,wallonia,2,0.019999999999999574,0.019999999999999574
2048,wallonia,3,0.02999999999999936,0.02999999999999936
2048,wallonia,4,0.03999999999999915,0.03999999999999915
2049,belgium,1,0.01,0.01
2049,belgium,2,0.019999999999999574,0.019999999999999574
2049,belgium,3,0.02999999999999936,0.02999999999999936
2049,belgium,4,0.03999999999999915,0.03999999999999915
2049,brussels,1,0.01,0.01
2049,brussels,2,0.019999999999999574,0.019999999999999574
2049,brussels,3,0.02999999999999936,0.02999999999999936
2049,brussels,4,0.03999999999999915,0.03999999999999915
2049,flanders,1,0.01,0.01
2049,flanders,2,0.019999999999999574,0.019999999999999574
2049,flanders,3,0.02999999999999936,0.02999999999999936
2049,flanders,4,0.03999999999999915,0.03999999999999915
2049,wallonia,1,0.01,0.01
2049,wallonia,2,0.019999999999999574,0.019999999999999574
2049,wallonia,3,0.02999999999999936,0.02999999999999936
2049,wallonia,4,0.03999999999999915,0.03999999999999915
2050,belgium,1,0.01,0.01
2050,belgium,2,0.019999999999999574,0.019999999999999574
2050,belgium,3,0.02999999999999936,0.02999999999999936
2050,belgium,4,0.03999999999999915,0.03999999999999915
2050,brussels,1,0.01,0.01
2050,brussels,2,0.019999999999999574,0.019999999999999574
2050,brussels,3,0.02999999999999936,0.02999999999999936
2050,brussels,4,0.03999999999999915,0.03999999999999915
2050,flanders,1,0.01,0.01
2050,flanders,2,0.019999999999999574,0.019999999999999574
2050,flanders,3,0.02999999999999936,0.02999999999999936
2050,flanders,4,0.03999999999999915,0.03999999999999915
2050,wallonia,1,0.01,0.01
2050,wallonia,2,0.019999999999999574,0.019999999999999574
2050,wallonia,3,0.02999999999999936,0.02999999999999936
2050,wallonia,4,0.03999999999999915,0.03999999999999915
