Years,Country,lever_freight_technology-share_new_LEV,fts_tra_freight_technology-share_new_LEV_HDV[%],fts_tra_freight_technology-share_new_LEV_LDV[%]
2016,belgium,1,0.0072400000000012454,0.0072400000000012454
2016,belgium,2,0.0072400000000012454,0.0072400000000012454
2016,belgium,3,0.0072400000000012454,0.0072400000000012454
2016,belgium,4,0.0072400000000012454,0.0072400000000012454
2016,brussels,1,0.0072400000000012454,0.0072400000000012454
2016,brussels,2,0.0072400000000012454,0.0072400000000012454
2016,brussels,3,0.0072400000000012454,0.0072400000000012454
2016,brussels,4,0.0072400000000012454,0.0072400000000012454
2016,flanders,1,0.0072400000000012454,0.0072400000000012454
2016,flanders,2,0.0072400000000012454,0.0072400000000012454
2016,flanders,3,0.0072400000000012454,0.0072400000000012454
2016,flanders,4,0.0072400000000012454,0.0072400000000012454
2016,rest_of_europe,1,0.007142857142858006,0.007142857142858006
2016,rest_of_europe,2,0.007142857142858006,0.007142857142858006
2016,rest_of_europe,3,0.007142857142858006,0.007142857142858006
2016,rest_of_europe,4,0.007142857142858006,0.007142857142858006
2016,wallonia,1,0.0072400000000012454,0.0072400000000012454
2016,wallonia,2,0.0072400000000012454,0.0072400000000012454
2016,wallonia,3,0.0072400000000012454,0.0072400000000012454
2016,wallonia,4,0.0072400000000012454,0.0072400000000012454
2017,belgium,1,0.014380000000000948,0.014380000000000948
2017,belgium,2,0.014380000000000948,0.014380000000000948
2017,belgium,3,0.014380000000000948,0.014380000000000948
2017,belgium,4,0.014380000000000948,0.014380000000000948
2017,brussels,1,0.014380000000000948,0.014380000000000948
2017,brussels,2,0.014380000000000948,0.014380000000000948
2017,brussels,3,0.014380000000000948,0.014380000000000948
2017,brussels,4,0.014380000000000948,0.014380000000000948
2017,flanders,1,0.014380000000000948,0.014380000000000948
2017,flanders,2,0.014380000000000948,0.014380000000000948
2017,flanders,3,0.014380000000000948,0.014380000000000948
2017,flanders,4,0.014380000000000948,0.014380000000000948
2017,rest_of_europe,1,0.014285714285714235,0.014285714285714235
2017,rest_of_europe,2,0.014285714285714235,0.014285714285714235
2017,rest_of_europe,3,0.014285714285714235,0.014285714285714235
2017,rest_of_europe,4,0.014285714285714235,0.014285714285714235
2017,wallonia,1,0.014380000000000948,0.014380000000000948
2017,wallonia,2,0.014380000000000948,0.014380000000000948
2017,wallonia,3,0.014380000000000948,0.014380000000000948
2017,wallonia,4,0.014380000000000948,0.014380000000000948
2018,belgium,1,0.02152000000000065,0.02152000000000065
2018,belgium,2,0.02152000000000065,0.02152000000000065
2018,belgium,3,0.02152000000000065,0.02152000000000065
2018,belgium,4,0.02152000000000065,0.02152000000000065
2018,brussels,1,0.02152000000000065,0.02152000000000065
2018,brussels,2,0.02152000000000065,0.02152000000000065
2018,brussels,3,0.02152000000000065,0.02152000000000065
2018,brussels,4,0.02152000000000065,0.02152000000000065
2018,flanders,1,0.02152000000000065,0.02152000000000065
2018,flanders,2,0.02152000000000065,0.02152000000000065
2018,flanders,3,0.02152000000000065,0.02152000000000065
2018,flanders,4,0.02152000000000065,0.02152000000000065
2018,rest_of_europe,1,0.02142857142857224,0.02142857142857224
2018,rest_of_europe,2,0.02142857142857224,0.02142857142857224
2018,rest_of_europe,3,0.02142857142857224,0.02142857142857224
2018,rest_of_europe,4,0.02142857142857224,0.02142857142857224
2018,wallonia,1,0.02152000000000065,0.02152000000000065
2018,wallonia,2,0.02152000000000065,0.02152000000000065
2018,wallonia,3,0.02152000000000065,0.02152000000000065
2018,wallonia,4,0.02152000000000065,0.02152000000000065
2019,belgium,1,0.028660000000000352,0.028660000000000352
2019,belgium,2,0.028660000000000352,0.028660000000000352
2019,belgium,3,0.028660000000000352,0.028660000000000352
2019,belgium,4,0.028660000000000352,0.028660000000000352
2019,brussels,1,0.028660000000000352,0.028660000000000352
2019,brussels,2,0.028660000000000352,0.028660000000000352
2019,brussels,3,0.028660000000000352,0.028660000000000352
2019,brussels,4,0.028660000000000352,0.028660000000000352
2019,flanders,1,0.028660000000000352,0.028660000000000352
2019,flanders,2,0.028660000000000352,0.028660000000000352
2019,flanders,3,0.028660000000000352,0.028660000000000352
2019,flanders,4,0.028660000000000352,0.028660000000000352
2019,rest_of_europe,1,0.02857142857142847,0.02857142857142847
2019,rest_of_europe,2,0.02857142857142847,0.02857142857142847
2019,rest_of_europe,3,0.02857142857142847,0.02857142857142847
2019,rest_of_europe,4,0.02857142857142847,0.02857142857142847
2019,wallonia,1,0.028660000000000352,0.028660000000000352
2019,wallonia,2,0.028660000000000352,0.028660000000000352
2019,wallonia,3,0.028660000000000352,0.028660000000000352
2019,wallonia,4,0.028660000000000352,0.028660000000000352
2020,belgium,1,0.035800000000000054,0.035800000000000054
2020,belgium,2,0.035800000000000054,0.035800000000000054
2020,belgium,3,0.035800000000000054,0.035800000000000054
2020,belgium,4,0.035800000000000054,0.035800000000000054
2020,brussels,1,0.035800000000000054,0.035800000000000054
2020,brussels,2,0.035800000000000054,0.035800000000000054
2020,brussels,3,0.035800000000000054,0.035800000000000054
2020,brussels,4,0.035800000000000054,0.035800000000000054
2020,flanders,1,0.035800000000000054,0.035800000000000054
2020,flanders,2,0.035800000000000054,0.035800000000000054
2020,flanders,3,0.035800000000000054,0.035800000000000054
2020,flanders,4,0.035800000000000054,0.035800000000000054
2020,rest_of_europe,1,0.035714285714286476,0.035714285714286476
2020,rest_of_europe,2,0.035714285714286476,0.035714285714286476
2020,rest_of_europe,3,0.035714285714286476,0.035714285714286476
2020,rest_of_europe,4,0.035714285714286476,0.035714285714286476
2020,wallonia,1,0.035800000000000054,0.035800000000000054
2020,wallonia,2,0.035800000000000054,0.035800000000000054
2020,wallonia,3,0.035800000000000054,0.035800000000000054
2020,wallonia,4,0.035800000000000054,0.035800000000000054
2021,belgium,1,0.042939999999999756,0.042939999999999756
2021,belgium,2,0.04960666666666924,0.04960666666666924
2021,belgium,3,0.05627333333333695,0.05627333333333695
2021,belgium,4,0.067939999999993,0.067939999999993
2021,brussels,1,0.042939999999999756,0.042939999999999756
2021,brussels,2,0.04960666666666924,0.04960666666666924
2021,brussels,3,0.05627333333333695,0.05627333333333695
2021,brussels,4,0.067939999999993,0.067939999999993
2021,flanders,1,0.042939999999999756,0.042939999999999756
2021,flanders,2,0.04960666666666924,0.04960666666666924
2021,flanders,3,0.05627333333333695,0.05627333333333695
2021,flanders,4,0.067939999999993,0.067939999999993
2021,rest_of_europe,1,0.042857142857142705,0.042857142857142705
2021,rest_of_europe,2,0.04952380952380864,0.04952380952380864
2021,rest_of_europe,3,0.05619047619047279,0.05619047619047279
2021,rest_of_europe,4,0.06785714285715017,0.06785714285715017
2021,wallonia,1,0.042939999999999756,0.042939999999999756
2021,wallonia,2,0.04960666666666924,0.04960666666666924
2021,wallonia,3,0.05627333333333695,0.05627333333333695
2021,wallonia,4,0.067939999999993,0.067939999999993
2022,belgium,1,0.050080000000001235,0.050080000000001235
2022,belgium,2,0.0634133333333331,0.0634133333333331
2022,belgium,3,0.07674666666667207,0.07674666666667207
2022,belgium,4,0.10007999999999129,0.10007999999999129
2022,brussels,1,0.050080000000001235,0.050080000000001235
2022,brussels,2,0.0634133333333331,0.0634133333333331
2022,brussels,3,0.07674666666667207,0.07674666666667207
2022,brussels,4,0.10007999999999129,0.10007999999999129
2022,flanders,1,0.050080000000001235,0.050080000000001235
2022,flanders,2,0.0634133333333331,0.0634133333333331
2022,flanders,3,0.07674666666667207,0.07674666666667207
2022,flanders,4,0.10007999999999129,0.10007999999999129
2022,rest_of_europe,1,0.05000000000000071,0.05000000000000071
2022,rest_of_europe,2,0.06333333333333258,0.06333333333333258
2022,rest_of_europe,3,0.07666666666666089,0.07666666666666089
2022,rest_of_europe,4,0.10000000000000853,0.10000000000000853
2022,wallonia,1,0.050080000000001235,0.050080000000001235
2022,wallonia,2,0.0634133333333331,0.0634133333333331
2022,wallonia,3,0.07674666666667207,0.07674666666667207
2022,wallonia,4,0.10007999999999129,0.10007999999999129
2023,belgium,1,0.05722000000000094,0.05722000000000094
2023,belgium,2,0.07722000000000051,0.07722000000000051
2023,belgium,3,0.09722000000000008,0.09722000000000008
2023,belgium,4,0.13221999999998957,0.13221999999998957
2023,brussels,1,0.05722000000000094,0.05722000000000094
2023,brussels,2,0.07722000000000051,0.07722000000000051
2023,brussels,3,0.09722000000000008,0.09722000000000008
2023,brussels,4,0.13221999999998957,0.13221999999998957
2023,flanders,1,0.05722000000000094,0.05722000000000094
2023,flanders,2,0.07722000000000051,0.07722000000000051
2023,flanders,3,0.09722000000000008,0.09722000000000008
2023,flanders,4,0.13221999999998957,0.13221999999998957
2023,rest_of_europe,1,0.05714285714285694,0.05714285714285694
2023,rest_of_europe,2,0.07714285714285651,0.07714285714285651
2023,rest_of_europe,3,0.09714285714285609,0.09714285714285609
2023,rest_of_europe,4,0.1321428571428669,0.1321428571428669
2023,wallonia,1,0.05722000000000094,0.05722000000000094
2023,wallonia,2,0.07722000000000051,0.07722000000000051
2023,wallonia,3,0.09722000000000008,0.09722000000000008
2023,wallonia,4,0.13221999999998957,0.13221999999998957
2024,belgium,1,0.06436000000000064,0.06436000000000064
2024,belgium,2,0.09102666666666792,0.09102666666666792
2024,belgium,3,0.1176933333333352,0.1176933333333352
2024,belgium,4,0.16435999999998785,0.16435999999998785
2024,brussels,1,0.06436000000000064,0.06436000000000064
2024,brussels,2,0.09102666666666792,0.09102666666666792
2024,brussels,3,0.1176933333333352,0.1176933333333352
2024,brussels,4,0.16435999999998785,0.16435999999998785
2024,flanders,1,0.06436000000000064,0.06436000000000064
2024,flanders,2,0.09102666666666792,0.09102666666666792
2024,flanders,3,0.1176933333333352,0.1176933333333352
2024,flanders,4,0.16435999999998785,0.16435999999998785
2024,rest_of_europe,1,0.06428571428571495,0.06428571428571495
2024,rest_of_europe,2,0.09095238095238045,0.09095238095238045
2024,rest_of_europe,3,0.11761904761904418,0.11761904761904418
2024,rest_of_europe,4,0.16428571428572525,0.16428571428572525
2024,wallonia,1,0.06436000000000064,0.06436000000000064
2024,wallonia,2,0.09102666666666792,0.09102666666666792
2024,wallonia,3,0.1176933333333352,0.1176933333333352
2024,wallonia,4,0.16435999999998785,0.16435999999998785
2025,belgium,1,0.07150000000000034,0.07150000000000034
2025,belgium,2,0.10483333333333533,0.10483333333333533
2025,belgium,3,0.13816666666667032,0.13816666666667032
2025,belgium,4,0.19649999999998613,0.19649999999998613
2025,brussels,1,0.07150000000000034,0.07150000000000034
2025,brussels,2,0.10483333333333533,0.10483333333333533
2025,brussels,3,0.13816666666667032,0.13816666666667032
2025,brussels,4,0.19649999999998613,0.19649999999998613
2025,flanders,1,0.07150000000000034,0.07150000000000034
2025,flanders,2,0.10483333333333533,0.10483333333333533
2025,flanders,3,0.13816666666667032,0.13816666666667032
2025,flanders,4,0.19649999999998613,0.19649999999998613
2025,rest_of_europe,1,0.07142857142857117,0.07142857142857117
2025,rest_of_europe,2,0.10476190476190439,0.10476190476190439
2025,rest_of_europe,3,0.13809523809523228,0.13809523809523228
2025,rest_of_europe,4,0.1964285714285836,0.1964285714285836
2025,wallonia,1,0.07150000000000034,0.07150000000000034
2025,wallonia,2,0.10483333333333533,0.10483333333333533
2025,wallonia,3,0.13816666666667032,0.13816666666667032
2025,wallonia,4,0.19649999999998613,0.19649999999998613
2026,belgium,1,0.07864000000000004,0.07864000000000004
2026,belgium,2,0.11864000000000274,0.11864000000000274
2026,belgium,3,0.15864000000000544,0.15864000000000544
2026,belgium,4,0.2286399999999844,0.2286399999999844
2026,brussels,1,0.07864000000000004,0.07864000000000004
2026,brussels,2,0.11864000000000274,0.11864000000000274
2026,brussels,3,0.15864000000000544,0.15864000000000544
2026,brussels,4,0.2286399999999844,0.2286399999999844
2026,flanders,1,0.07864000000000004,0.07864000000000004
2026,flanders,2,0.11864000000000274,0.11864000000000274
2026,flanders,3,0.15864000000000544,0.15864000000000544
2026,flanders,4,0.2286399999999844,0.2286399999999844
2026,rest_of_europe,1,0.07857142857142918,0.07857142857142918
2026,rest_of_europe,2,0.11857142857142833,0.11857142857142833
2026,rest_of_europe,3,0.15857142857142748,0.15857142857142748
2026,rest_of_europe,4,0.22857142857144197,0.22857142857144197
2026,wallonia,1,0.07864000000000004,0.07864000000000004
2026,wallonia,2,0.11864000000000274,0.11864000000000274
2026,wallonia,3,0.15864000000000544,0.15864000000000544
2026,wallonia,4,0.2286399999999844,0.2286399999999844
2027,belgium,1,0.08577999999999975,0.08577999999999975
2027,belgium,2,0.1324466666666666,0.1324466666666666
2027,belgium,3,0.17911333333333346,0.17911333333333346
2027,belgium,4,0.2607799999999827,0.2607799999999827
2027,brussels,1,0.08577999999999975,0.08577999999999975
2027,brussels,2,0.1324466666666666,0.1324466666666666
2027,brussels,3,0.17911333333333346,0.17911333333333346
2027,brussels,4,0.2607799999999827,0.2607799999999827
2027,flanders,1,0.08577999999999975,0.08577999999999975
2027,flanders,2,0.1324466666666666,0.1324466666666666
2027,flanders,3,0.17911333333333346,0.17911333333333346
2027,flanders,4,0.2607799999999827,0.2607799999999827
2027,rest_of_europe,1,0.08571428571428541,0.08571428571428541
2027,rest_of_europe,2,0.13238095238095227,0.13238095238095227
2027,rest_of_europe,3,0.17904761904761557,0.17904761904761557
2027,rest_of_europe,4,0.26071428571430033,0.26071428571430033
2027,wallonia,1,0.08577999999999975,0.08577999999999975
2027,wallonia,2,0.1324466666666666,0.1324466666666666
2027,wallonia,3,0.17911333333333346,0.17911333333333346
2027,wallonia,4,0.2607799999999827,0.2607799999999827
2028,belgium,1,0.09292000000000122,0.09292000000000122
2028,belgium,2,0.146253333333334,0.146253333333334
2028,belgium,3,0.19958666666666858,0.19958666666666858
2028,belgium,4,0.2929199999999952,0.2929199999999952
2028,brussels,1,0.09292000000000122,0.09292000000000122
2028,brussels,2,0.146253333333334,0.146253333333334
2028,brussels,3,0.19958666666666858,0.19958666666666858
2028,brussels,4,0.2929199999999952,0.2929199999999952
2028,flanders,1,0.09292000000000122,0.09292000000000122
2028,flanders,2,0.146253333333334,0.146253333333334
2028,flanders,3,0.19958666666666858,0.19958666666666858
2028,flanders,4,0.2929199999999952,0.2929199999999952
2028,rest_of_europe,1,0.09285714285714342,0.09285714285714342
2028,rest_of_europe,2,0.1461904761904762,0.1461904761904762
2028,rest_of_europe,3,0.19952380952380366,0.19952380952380366
2028,rest_of_europe,4,0.2928571428571587,0.2928571428571587
2028,wallonia,1,0.09292000000000122,0.09292000000000122
2028,wallonia,2,0.146253333333334,0.146253333333334
2028,wallonia,3,0.19958666666666858,0.19958666666666858
2028,wallonia,4,0.2929199999999952,0.2929199999999952
2029,belgium,1,0.10006000000000093,0.10006000000000093
2029,belgium,2,0.16006000000000142,0.16006000000000142
2029,belgium,3,0.2200600000000037,0.2200600000000037
2029,belgium,4,0.32505999999999347,0.32505999999999347
2029,brussels,1,0.10006000000000093,0.10006000000000093
2029,brussels,2,0.16006000000000142,0.16006000000000142
2029,brussels,3,0.2200600000000037,0.2200600000000037
2029,brussels,4,0.32505999999999347,0.32505999999999347
2029,flanders,1,0.10006000000000093,0.10006000000000093
2029,flanders,2,0.16006000000000142,0.16006000000000142
2029,flanders,3,0.2200600000000037,0.2200600000000037
2029,flanders,4,0.32505999999999347,0.32505999999999347
2029,rest_of_europe,1,0.09999999999999964,0.09999999999999964
2029,rest_of_europe,2,0.16000000000000014,0.16000000000000014
2029,rest_of_europe,3,0.21999999999999886,0.21999999999999886
2029,rest_of_europe,4,0.32500000000001705,0.32500000000001705
2029,wallonia,1,0.10006000000000093,0.10006000000000093
2029,wallonia,2,0.16006000000000142,0.16006000000000142
2029,wallonia,3,0.2200600000000037,0.2200600000000037
2029,wallonia,4,0.32505999999999347,0.32505999999999347
2030,belgium,1,0.10720000000000063,0.10720000000000063
2030,belgium,2,0.17386666666666883,0.17386666666666883
2030,belgium,3,0.24053333333333882,0.24053333333333882
2030,belgium,4,0.35719999999999175,0.35719999999999175
2030,brussels,1,0.10720000000000063,0.10720000000000063
2030,brussels,2,0.17386666666666883,0.17386666666666883
2030,brussels,3,0.24053333333333882,0.24053333333333882
2030,brussels,4,0.35719999999999175,0.35719999999999175
2030,flanders,1,0.10720000000000063,0.10720000000000063
2030,flanders,2,0.17386666666666883,0.17386666666666883
2030,flanders,3,0.24053333333333882,0.24053333333333882
2030,flanders,4,0.35719999999999175,0.35719999999999175
2030,rest_of_europe,1,0.10714285714285765,0.10714285714285765
2030,rest_of_europe,2,0.17380952380952408,0.17380952380952408
2030,rest_of_europe,3,0.24047619047618696,0.24047619047618696
2030,rest_of_europe,4,0.3571428571428754,0.3571428571428754
2030,wallonia,1,0.10720000000000063,0.10720000000000063
2030,wallonia,2,0.17386666666666883,0.17386666666666883
2030,wallonia,3,0.24053333333333882,0.24053333333333882
2030,wallonia,4,0.35719999999999175,0.35719999999999175
2031,belgium,1,0.11434000000000033,0.11434000000000033
2031,belgium,2,0.18767333333333625,0.18767333333333625
2031,belgium,3,0.26100666666666683,0.26100666666666683
2031,belgium,4,0.38933999999999,0.38933999999999
2031,brussels,1,0.11434000000000033,0.11434000000000033
2031,brussels,2,0.18767333333333625,0.18767333333333625
2031,brussels,3,0.26100666666666683,0.26100666666666683
2031,brussels,4,0.38933999999999,0.38933999999999
2031,flanders,1,0.11434000000000033,0.11434000000000033
2031,flanders,2,0.18767333333333625,0.18767333333333625
2031,flanders,3,0.26100666666666683,0.26100666666666683
2031,flanders,4,0.38933999999999,0.38933999999999
2031,rest_of_europe,1,0.11428571428571388,0.11428571428571388
2031,rest_of_europe,2,0.18761904761904802,0.18761904761904802
2031,rest_of_europe,3,0.26095238095237505,0.26095238095237505
2031,rest_of_europe,4,0.38928571428571956,0.38928571428571956
2031,wallonia,1,0.11434000000000033,0.11434000000000033
2031,wallonia,2,0.18767333333333625,0.18767333333333625
2031,wallonia,3,0.26100666666666683,0.26100666666666683
2031,wallonia,4,0.38933999999999,0.38933999999999
2032,belgium,1,0.12148000000000003,0.12148000000000003
2032,belgium,2,0.2014800000000001,0.2014800000000001
2032,belgium,3,0.28148000000000195,0.28148000000000195
2032,belgium,4,0.4214799999999883,0.4214799999999883
2032,brussels,1,0.12148000000000003,0.12148000000000003
2032,brussels,2,0.2014800000000001,0.2014800000000001
2032,brussels,3,0.28148000000000195,0.28148000000000195
2032,brussels,4,0.4214799999999883,0.4214799999999883
2032,flanders,1,0.12148000000000003,0.12148000000000003
2032,flanders,2,0.2014800000000001,0.2014800000000001
2032,flanders,3,0.28148000000000195,0.28148000000000195
2032,flanders,4,0.4214799999999883,0.4214799999999883
2032,rest_of_europe,1,0.12142857142857189,0.12142857142857189
2032,rest_of_europe,2,0.20142857142857196,0.20142857142857196
2032,rest_of_europe,3,0.28142857142857025,0.28142857142857025
2032,rest_of_europe,4,0.4214285714285779,0.4214285714285779
2032,wallonia,1,0.12148000000000003,0.12148000000000003
2032,wallonia,2,0.2014800000000001,0.2014800000000001
2032,wallonia,3,0.28148000000000195,0.28148000000000195
2032,wallonia,4,0.4214799999999883,0.4214799999999883
2033,belgium,1,0.12861999999999973,0.12861999999999973
2033,belgium,2,0.21528666666666751,0.21528666666666751
2033,belgium,3,0.30195333333333707,0.30195333333333707
2033,belgium,4,0.4536199999999866,0.4536199999999866
2033,brussels,1,0.12861999999999973,0.12861999999999973
2033,brussels,2,0.21528666666666751,0.21528666666666751
2033,brussels,3,0.30195333333333707,0.30195333333333707
2033,brussels,4,0.4536199999999866,0.4536199999999866
2033,flanders,1,0.12861999999999973,0.12861999999999973
2033,flanders,2,0.21528666666666751,0.21528666666666751
2033,flanders,3,0.30195333333333707,0.30195333333333707
2033,flanders,4,0.4536199999999866,0.4536199999999866
2033,rest_of_europe,1,0.12857142857142811,0.12857142857142811
2033,rest_of_europe,2,0.2152380952380959,0.2152380952380959
2033,rest_of_europe,3,0.30190476190475835,0.30190476190475835
2033,rest_of_europe,4,0.4535714285714363,0.4535714285714363
2033,wallonia,1,0.12861999999999973,0.12861999999999973
2033,wallonia,2,0.21528666666666751,0.21528666666666751
2033,wallonia,3,0.30195333333333707,0.30195333333333707
2033,wallonia,4,0.4536199999999866,0.4536199999999866
2034,belgium,1,0.1357600000000012,0.1357600000000012
2034,belgium,2,0.22909333333333493,0.22909333333333493
2034,belgium,3,0.3224266666666722,0.3224266666666722
2034,belgium,4,0.48575999999998487,0.48575999999998487
2034,brussels,1,0.1357600000000012,0.1357600000000012
2034,brussels,2,0.22909333333333493,0.22909333333333493
2034,brussels,3,0.3224266666666722,0.3224266666666722
2034,brussels,4,0.48575999999998487,0.48575999999998487
2034,flanders,1,0.1357600000000012,0.1357600000000012
2034,flanders,2,0.22909333333333493,0.22909333333333493
2034,flanders,3,0.3224266666666722,0.3224266666666722
2034,flanders,4,0.48575999999998487,0.48575999999998487
2034,rest_of_europe,1,0.13571428571428612,0.13571428571428612
2034,rest_of_europe,2,0.22904761904761983,0.22904761904761983
2034,rest_of_europe,3,0.32238095238094644,0.32238095238094644
2034,rest_of_europe,4,0.48571428571429465,0.48571428571429465
2034,wallonia,1,0.1357600000000012,0.1357600000000012
2034,wallonia,2,0.22909333333333493,0.22909333333333493
2034,wallonia,3,0.3224266666666722,0.3224266666666722
2034,wallonia,4,0.48575999999998487,0.48575999999998487
2035,belgium,1,0.14290000000000092,0.14290000000000092
2035,belgium,2,0.24290000000000234,0.24290000000000234
2035,belgium,3,0.3429000000000002,0.3429000000000002
2035,belgium,4,0.5178999999999832,0.5178999999999832
2035,brussels,1,0.14290000000000092,0.14290000000000092
2035,brussels,2,0.24290000000000234,0.24290000000000234
2035,brussels,3,0.3429000000000002,0.3429000000000002
2035,brussels,4,0.5178999999999832,0.5178999999999832
2035,flanders,1,0.14290000000000092,0.14290000000000092
2035,flanders,2,0.24290000000000234,0.24290000000000234
2035,flanders,3,0.3429000000000002,0.3429000000000002
2035,flanders,4,0.5178999999999832,0.5178999999999832
2035,rest_of_europe,1,0.14285714285714235,0.14285714285714235
2035,rest_of_europe,2,0.24285714285714377,0.24285714285714377
2035,rest_of_europe,3,0.34285714285714164,0.34285714285714164
2035,rest_of_europe,4,0.517857142857153,0.517857142857153
2035,wallonia,1,0.14290000000000092,0.14290000000000092
2035,wallonia,2,0.24290000000000234,0.24290000000000234
2035,wallonia,3,0.3429000000000002,0.3429000000000002
2035,wallonia,4,0.5178999999999832,0.5178999999999832
2036,belgium,1,0.15004000000000062,0.15004000000000062
2036,belgium,2,0.25670666666666975,0.25670666666666975
2036,belgium,3,0.3633733333333353,0.3633733333333353
2036,belgium,4,0.5500399999999956,0.5500399999999956
2036,brussels,1,0.15004000000000062,0.15004000000000062
2036,brussels,2,0.25670666666666975,0.25670666666666975
2036,brussels,3,0.3633733333333353,0.3633733333333353
2036,brussels,4,0.5500399999999956,0.5500399999999956
2036,flanders,1,0.15004000000000062,0.15004000000000062
2036,flanders,2,0.25670666666666975,0.25670666666666975
2036,flanders,3,0.3633733333333353,0.3633733333333353
2036,flanders,4,0.5500399999999956,0.5500399999999956
2036,rest_of_europe,1,0.15000000000000036,0.15000000000000036
2036,rest_of_europe,2,0.2566666666666677,0.2566666666666677
2036,rest_of_europe,3,0.36333333333332973,0.36333333333332973
2036,rest_of_europe,4,0.5500000000000114,0.5500000000000114
2036,wallonia,1,0.15004000000000062,0.15004000000000062
2036,wallonia,2,0.25670666666666975,0.25670666666666975
2036,wallonia,3,0.3633733333333353,0.3633733333333353
2036,wallonia,4,0.5500399999999956,0.5500399999999956
2037,belgium,1,0.15718000000000032,0.15718000000000032
2037,belgium,2,0.2705133333333336,0.2705133333333336
2037,belgium,3,0.38384666666667044,0.38384666666667044
2037,belgium,4,0.5821799999999939,0.5821799999999939
2037,brussels,1,0.15718000000000032,0.15718000000000032
2037,brussels,2,0.2705133333333336,0.2705133333333336
2037,brussels,3,0.38384666666667044,0.38384666666667044
2037,brussels,4,0.5821799999999939,0.5821799999999939
2037,flanders,1,0.15718000000000032,0.15718000000000032
2037,flanders,2,0.2705133333333336,0.2705133333333336
2037,flanders,3,0.38384666666667044,0.38384666666667044
2037,flanders,4,0.5821799999999939,0.5821799999999939
2037,rest_of_europe,1,0.15714285714285658,0.15714285714285658
2037,rest_of_europe,2,0.2704761904761881,0.2704761904761881
2037,rest_of_europe,3,0.3838095238095178,0.3838095238095178
2037,rest_of_europe,4,0.5821428571428697,0.5821428571428697
2037,wallonia,1,0.15718000000000032,0.15718000000000032
2037,wallonia,2,0.2705133333333336,0.2705133333333336
2037,wallonia,3,0.38384666666667044,0.38384666666667044
2037,wallonia,4,0.5821799999999939,0.5821799999999939
2038,belgium,1,0.16432000000000002,0.16432000000000002
2038,belgium,2,0.284320000000001,0.284320000000001
2038,belgium,3,0.40432000000000556,0.40432000000000556
2038,belgium,4,0.6143199999999922,0.6143199999999922
2038,brussels,1,0.16432000000000002,0.16432000000000002
2038,brussels,2,0.284320000000001,0.284320000000001
2038,brussels,3,0.40432000000000556,0.40432000000000556
2038,brussels,4,0.6143199999999922,0.6143199999999922
2038,flanders,1,0.16432000000000002,0.16432000000000002
2038,flanders,2,0.284320000000001,0.284320000000001
2038,flanders,3,0.40432000000000556,0.40432000000000556
2038,flanders,4,0.6143199999999922,0.6143199999999922
2038,rest_of_europe,1,0.1642857142857146,0.1642857142857146
2038,rest_of_europe,2,0.28428571428571203,0.28428571428571203
2038,rest_of_europe,3,0.404285714285713,0.404285714285713
2038,rest_of_europe,4,0.6142857142857281,0.6142857142857281
2038,wallonia,1,0.16432000000000002,0.16432000000000002
2038,wallonia,2,0.284320000000001,0.284320000000001
2038,wallonia,3,0.40432000000000556,0.40432000000000556
2038,wallonia,4,0.6143199999999922,0.6143199999999922
2039,belgium,1,0.17145999999999972,0.17145999999999972
2039,belgium,2,0.2981266666666684,0.2981266666666684
2039,belgium,3,0.4247933333333336,0.4247933333333336
2039,belgium,4,0.6464599999999905,0.6464599999999905
2039,brussels,1,0.17145999999999972,0.17145999999999972
2039,brussels,2,0.2981266666666684,0.2981266666666684
2039,brussels,3,0.4247933333333336,0.4247933333333336
2039,brussels,4,0.6464599999999905,0.6464599999999905
2039,flanders,1,0.17145999999999972,0.17145999999999972
2039,flanders,2,0.2981266666666684,0.2981266666666684
2039,flanders,3,0.4247933333333336,0.4247933333333336
2039,flanders,4,0.6464599999999905,0.6464599999999905
2039,rest_of_europe,1,0.17142857142857082,0.17142857142857082
2039,rest_of_europe,2,0.29809523809523597,0.29809523809523597
2039,rest_of_europe,3,0.4247619047619011,0.4247619047619011
2039,rest_of_europe,4,0.6464285714285865,0.6464285714285865
2039,wallonia,1,0.17145999999999972,0.17145999999999972
2039,wallonia,2,0.2981266666666684,0.2981266666666684
2039,wallonia,3,0.4247933333333336,0.4247933333333336
2039,wallonia,4,0.6464599999999905,0.6464599999999905
2040,belgium,1,0.1786000000000012,0.1786000000000012
2040,belgium,2,0.31193333333333584,0.31193333333333584
2040,belgium,3,0.4452666666666687,0.4452666666666687
2040,belgium,4,0.6785999999999888,0.6785999999999888
2040,brussels,1,0.1786000000000012,0.1786000000000012
2040,brussels,2,0.31193333333333584,0.31193333333333584
2040,brussels,3,0.4452666666666687,0.4452666666666687
2040,brussels,4,0.6785999999999888,0.6785999999999888
2040,flanders,1,0.1786000000000012,0.1786000000000012
2040,flanders,2,0.31193333333333584,0.31193333333333584
2040,flanders,3,0.4452666666666687,0.4452666666666687
2040,flanders,4,0.6785999999999888,0.6785999999999888
2040,rest_of_europe,1,0.17857142857142883,0.17857142857142883
2040,rest_of_europe,2,0.3119047619047599,0.3119047619047599
2040,rest_of_europe,3,0.4452380952380892,0.4452380952380892
2040,rest_of_europe,4,0.6785714285714448,0.6785714285714448
2040,wallonia,1,0.1786000000000012,0.1786000000000012
2040,wallonia,2,0.31193333333333584,0.31193333333333584
2040,wallonia,3,0.4452666666666687,0.4452666666666687
2040,wallonia,4,0.6785999999999888,0.6785999999999888
2041,belgium,1,0.1857400000000009,0.1857400000000009
2041,belgium,2,0.3257399999999997,0.3257399999999997
2041,belgium,3,0.4657400000000038,0.4657400000000038
2041,belgium,4,0.710739999999987,0.710739999999987
2041,brussels,1,0.1857400000000009,0.1857400000000009
2041,brussels,2,0.3257399999999997,0.3257399999999997
2041,brussels,3,0.4657400000000038,0.4657400000000038
2041,brussels,4,0.710739999999987,0.710739999999987
2041,flanders,1,0.1857400000000009,0.1857400000000009
2041,flanders,2,0.3257399999999997,0.3257399999999997
2041,flanders,3,0.4657400000000038,0.4657400000000038
2041,flanders,4,0.710739999999987,0.710739999999987
2041,rest_of_europe,1,0.18571428571428505,0.18571428571428505
2041,rest_of_europe,2,0.32571428571428385,0.32571428571428385
2041,rest_of_europe,3,0.4657142857142844,0.4657142857142844
2041,rest_of_europe,4,0.7107142857143032,0.7107142857143032
2041,wallonia,1,0.1857400000000009,0.1857400000000009
2041,wallonia,2,0.3257399999999997,0.3257399999999997
2041,wallonia,3,0.4657400000000038,0.4657400000000038
2041,wallonia,4,0.710739999999987,0.710739999999987
2042,belgium,1,0.1928800000000006,0.1928800000000006
2042,belgium,2,0.3395466666666671,0.3395466666666671
2042,belgium,3,0.48621333333333894,0.48621333333333894
2042,belgium,4,0.7428799999999853,0.7428799999999853
2042,brussels,1,0.1928800000000006,0.1928800000000006
2042,brussels,2,0.3395466666666671,0.3395466666666671
2042,brussels,3,0.48621333333333894,0.48621333333333894
2042,brussels,4,0.7428799999999853,0.7428799999999853
2042,flanders,1,0.1928800000000006,0.1928800000000006
2042,flanders,2,0.3395466666666671,0.3395466666666671
2042,flanders,3,0.48621333333333894,0.48621333333333894
2042,flanders,4,0.7428799999999853,0.7428799999999853
2042,rest_of_europe,1,0.19285714285714306,0.19285714285714306
2042,rest_of_europe,2,0.3395238095238078,0.3395238095238078
2042,rest_of_europe,3,0.4861904761904725,0.4861904761904725
2042,rest_of_europe,4,0.7428571428571615,0.7428571428571615
2042,wallonia,1,0.1928800000000006,0.1928800000000006
2042,wallonia,2,0.3395466666666671,0.3395466666666671
2042,wallonia,3,0.48621333333333894,0.48621333333333894
2042,wallonia,4,0.7428799999999853,0.7428799999999853
2043,belgium,1,0.2000200000000003,0.2000200000000003
2043,belgium,2,0.3533533333333345,0.3533533333333345
2043,belgium,3,0.506686666666667,0.506686666666667
2043,belgium,4,0.7750199999999836,0.7750199999999836
2043,brussels,1,0.2000200000000003,0.2000200000000003
2043,brussels,2,0.3533533333333345,0.3533533333333345
2043,brussels,3,0.506686666666667,0.506686666666667
2043,brussels,4,0.7750199999999836,0.7750199999999836
2043,flanders,1,0.2000200000000003,0.2000200000000003
2043,flanders,2,0.3533533333333345,0.3533533333333345
2043,flanders,3,0.506686666666667,0.506686666666667
2043,flanders,4,0.7750199999999836,0.7750199999999836
2043,rest_of_europe,1,0.1999999999999993,0.1999999999999993
2043,rest_of_europe,2,0.3533333333333317,0.3533333333333317
2043,rest_of_europe,3,0.5066666666666606,0.5066666666666606
2043,rest_of_europe,4,0.7750000000000057,0.7750000000000057
2043,wallonia,1,0.2000200000000003,0.2000200000000003
2043,wallonia,2,0.3533533333333345,0.3533533333333345
2043,wallonia,3,0.506686666666667,0.506686666666667
2043,wallonia,4,0.7750199999999836,0.7750199999999836
2044,belgium,1,0.20716,0.20716
2044,belgium,2,0.36716000000000193,0.36716000000000193
2044,belgium,3,0.5271600000000021,0.5271600000000021
2044,belgium,4,0.8071599999999961,0.8071599999999961
2044,brussels,1,0.20716,0.20716
2044,brussels,2,0.36716000000000193,0.36716000000000193
2044,brussels,3,0.5271600000000021,0.5271600000000021
2044,brussels,4,0.8071599999999961,0.8071599999999961
2044,flanders,1,0.20716,0.20716
2044,flanders,2,0.36716000000000193,0.36716000000000193
2044,flanders,3,0.5271600000000021,0.5271600000000021
2044,flanders,4,0.8071599999999961,0.8071599999999961
2044,rest_of_europe,1,0.2071428571428573,0.2071428571428573
2044,rest_of_europe,2,0.36714285714285566,0.36714285714285566
2044,rest_of_europe,3,0.5271428571428558,0.5271428571428558
2044,rest_of_europe,4,0.807142857142864,0.807142857142864
2044,wallonia,1,0.20716,0.20716
2044,wallonia,2,0.36716000000000193,0.36716000000000193
2044,wallonia,3,0.5271600000000021,0.5271600000000021
2044,wallonia,4,0.8071599999999961,0.8071599999999961
2045,belgium,1,0.2142999999999997,0.2142999999999997
2045,belgium,2,0.38096666666666934,0.38096666666666934
2045,belgium,3,0.5476333333333372,0.5476333333333372
2045,belgium,4,0.8392999999999944,0.8392999999999944
2045,brussels,1,0.2142999999999997,0.2142999999999997
2045,brussels,2,0.38096666666666934,0.38096666666666934
2045,brussels,3,0.5476333333333372,0.5476333333333372
2045,brussels,4,0.8392999999999944,0.8392999999999944
2045,flanders,1,0.2142999999999997,0.2142999999999997
2045,flanders,2,0.38096666666666934,0.38096666666666934
2045,flanders,3,0.5476333333333372,0.5476333333333372
2045,flanders,4,0.8392999999999944,0.8392999999999944
2045,rest_of_europe,1,0.21428571428571352,0.21428571428571352
2045,rest_of_europe,2,0.3809523809523796,0.3809523809523796
2045,rest_of_europe,3,0.5476190476190439,0.5476190476190439
2045,rest_of_europe,4,0.8392857142857224,0.8392857142857224
2045,wallonia,1,0.2142999999999997,0.2142999999999997
2045,wallonia,2,0.38096666666666934,0.38096666666666934
2045,wallonia,3,0.5476333333333372,0.5476333333333372
2045,wallonia,4,0.8392999999999944,0.8392999999999944
2046,belgium,1,0.2214400000000012,0.2214400000000012
2046,belgium,2,0.3947733333333332,0.3947733333333332
2046,belgium,3,0.5681066666666723,0.5681066666666723
2046,belgium,4,0.8714399999999927,0.8714399999999927
2046,brussels,1,0.2214400000000012,0.2214400000000012
2046,brussels,2,0.3947733333333332,0.3947733333333332
2046,brussels,3,0.5681066666666723,0.5681066666666723
2046,brussels,4,0.8714399999999927,0.8714399999999927
2046,flanders,1,0.2214400000000012,0.2214400000000012
2046,flanders,2,0.3947733333333332,0.3947733333333332
2046,flanders,3,0.5681066666666723,0.5681066666666723
2046,flanders,4,0.8714399999999927,0.8714399999999927
2046,rest_of_europe,1,0.22142857142857153,0.22142857142857153
2046,rest_of_europe,2,0.39476190476190354,0.39476190476190354
2046,rest_of_europe,3,0.568095238095232,0.568095238095232
2046,rest_of_europe,4,0.8714285714285808,0.8714285714285808
2046,wallonia,1,0.2214400000000012,0.2214400000000012
2046,wallonia,2,0.3947733333333332,0.3947733333333332
2046,wallonia,3,0.5681066666666723,0.5681066666666723
2046,wallonia,4,0.8714399999999927,0.8714399999999927
2047,belgium,1,0.2285800000000009,0.2285800000000009
2047,belgium,2,0.4085800000000006,0.4085800000000006
2047,belgium,3,0.5885800000000003,0.5885800000000003
2047,belgium,4,0.903579999999991,0.903579999999991
2047,brussels,1,0.2285800000000009,0.2285800000000009
2047,brussels,2,0.4085800000000006,0.4085800000000006
2047,brussels,3,0.5885800000000003,0.5885800000000003
2047,brussels,4,0.903579999999991,0.903579999999991
2047,flanders,1,0.2285800000000009,0.2285800000000009
2047,flanders,2,0.4085800000000006,0.4085800000000006
2047,flanders,3,0.5885800000000003,0.5885800000000003
2047,flanders,4,0.903579999999991,0.903579999999991
2047,rest_of_europe,1,0.22857142857142776,0.22857142857142776
2047,rest_of_europe,2,0.4085714285714275,0.4085714285714275
2047,rest_of_europe,3,0.5885714285714272,0.5885714285714272
2047,rest_of_europe,4,0.9035714285714391,0.9035714285714391
2047,wallonia,1,0.2285800000000009,0.2285800000000009
2047,wallonia,2,0.4085800000000006,0.4085800000000006
2047,wallonia,3,0.5885800000000003,0.5885800000000003
2047,wallonia,4,0.903579999999991,0.903579999999991
2048,belgium,1,0.2357200000000006,0.2357200000000006
2048,belgium,2,0.422386666666668,0.422386666666668
2048,belgium,3,0.6090533333333354,0.6090533333333354
2048,belgium,4,0.9357199999999892,0.9357199999999892
2048,brussels,1,0.2357200000000006,0.2357200000000006
2048,brussels,2,0.422386666666668,0.422386666666668
2048,brussels,3,0.6090533333333354,0.6090533333333354
2048,brussels,4,0.9357199999999892,0.9357199999999892
2048,flanders,1,0.2357200000000006,0.2357200000000006
2048,flanders,2,0.422386666666668,0.422386666666668
2048,flanders,3,0.6090533333333354,0.6090533333333354
2048,flanders,4,0.9357199999999892,0.9357199999999892
2048,rest_of_europe,1,0.23571428571428577,0.23571428571428577
2048,rest_of_europe,2,0.4223809523809514,0.4223809523809514
2048,rest_of_europe,3,0.6090476190476153,0.6090476190476153
2048,rest_of_europe,4,0.9357142857142975,0.9357142857142975
2048,wallonia,1,0.2357200000000006,0.2357200000000006
2048,wallonia,2,0.422386666666668,0.422386666666668
2048,wallonia,3,0.6090533333333354,0.6090533333333354
2048,wallonia,4,0.9357199999999892,0.9357199999999892
2049,belgium,1,0.2428600000000003,0.2428600000000003
2049,belgium,2,0.43619333333333543,0.43619333333333543
2049,belgium,3,0.6295266666666706,0.6295266666666706
2049,belgium,4,0.9678599999999875,0.9678599999999875
2049,brussels,1,0.2428600000000003,0.2428600000000003
2049,brussels,2,0.43619333333333543,0.43619333333333543
2049,brussels,3,0.6295266666666706,0.6295266666666706
2049,brussels,4,0.9678599999999875,0.9678599999999875
2049,flanders,1,0.2428600000000003,0.2428600000000003
2049,flanders,2,0.43619333333333543,0.43619333333333543
2049,flanders,3,0.6295266666666706,0.6295266666666706
2049,flanders,4,0.9678599999999875,0.9678599999999875
2049,rest_of_europe,1,0.24285714285714377,0.24285714285714377
2049,rest_of_europe,2,0.43619047619047535,0.43619047619047535
2049,rest_of_europe,3,0.6295238095238034,0.6295238095238034
2049,rest_of_europe,4,0.9678571428571558,0.9678571428571558
2049,wallonia,1,0.2428600000000003,0.2428600000000003
2049,wallonia,2,0.43619333333333543,0.43619333333333543
2049,wallonia,3,0.6295266666666706,0.6295266666666706
2049,wallonia,4,0.9678599999999875,0.9678599999999875
2050,belgium,1,0.25,0.25
2050,belgium,2,0.45000000000000284,0.45000000000000284
2050,belgium,3,0.6499999999999986,0.6499999999999986
2050,belgium,4,0.9999999999999858,0.9999999999999858
2050,brussels,1,0.25,0.25
2050,brussels,2,0.45000000000000284,0.45000000000000284
2050,brussels,3,0.6499999999999986,0.6499999999999986
2050,brussels,4,0.9999999999999858,0.9999999999999858
2050,flanders,1,0.25,0.25
2050,flanders,2,0.45000000000000284,0.45000000000000284
2050,flanders,3,0.6499999999999986,0.6499999999999986
2050,flanders,4,0.9999999999999858,0.9999999999999858
2050,rest_of_europe,1,0.25,0.25
2050,rest_of_europe,2,0.4499999999999993,0.4499999999999993
2050,rest_of_europe,3,0.6499999999999986,0.6499999999999986
2050,rest_of_europe,4,1.0000000000000142,1.0000000000000142
2050,wallonia,1,0.25,0.25
2050,wallonia,2,0.45000000000000284,0.45000000000000284
2050,wallonia,3,0.6499999999999986,0.6499999999999986
2050,wallonia,4,0.9999999999999858,0.9999999999999858
