Years,Country,lever_building-construction-mix_residential,fts_bld_building-construction-mix_mfh_dep_1800-2010[%],fts_bld_building-construction-mix_mfh_exi_1800-2010[%],fts_bld_building-construction-mix_mfh_med-high_1800-2010[%],fts_bld_building-construction-mix_mfh_med-low_1800-2010[%],fts_bld_building-construction-mix_mfh_shl_1800-2010[%],fts_bld_building-construction-mix_sfh_dep_1800-2010[%],fts_bld_building-construction-mix_sfh_exi_1800-2010[%],fts_bld_building-construction-mix_sfh_med-high_1800-2010[%],fts_bld_building-construction-mix_sfh_med-low_1800-2010[%],fts_bld_building-construction-mix_sfh_shl_1800-2010[%]
2016,belgium,1,0.05,0.0,0.0,0.15,0.8,0.05,0.0,0.0,0.15,0.8
2016,belgium,2,0.05,0.0,0.0,0.15,0.8,0.05,0.0,0.0,0.15,0.8
2016,belgium,3,0.05,0.0,0.0,0.15,0.8,0.05,0.0,0.0,0.15,0.8
2016,belgium,4,0.05,0.0,0.0,0.15,0.8,0.05,0.0,0.0,0.15,0.8
2016,brussels,1,0.05,0.0,0.0,0.15,0.8,0.05,0.0,0.0,0.15,0.8
2016,brussels,2,0.05,0.0,0.0,0.15,0.8,0.05,0.0,0.0,0.15,0.8
2016,brussels,3,0.05,0.0,0.0,0.15,0.8,0.05,0.0,0.0,0.15,0.8
2016,brussels,4,0.05,0.0,0.0,0.15,0.8,0.05,0.0,0.0,0.15,0.8
2016,flanders,1,0.05,0.0,0.0,0.15,0.8,0.05,0.0,0.0,0.15,0.8
2016,flanders,2,0.05,0.0,0.0,0.15,0.8,0.05,0.0,0.0,0.15,0.8
2016,flanders,3,0.05,0.0,0.0,0.15,0.8,0.05,0.0,0.0,0.15,0.8
2016,flanders,4,0.05,0.0,0.0,0.15,0.8,0.05,0.0,0.0,0.15,0.8
2016,wallonia,1,0.05,0.0,0.0,0.15,0.8,0.05,0.0,0.0,0.15,0.8
2016,wallonia,2,0.05,0.0,0.0,0.15,0.8,0.05,0.0,0.0,0.15,0.8
2016,wallonia,3,0.05,0.0,0.0,0.15,0.8,0.05,0.0,0.0,0.15,0.8
2016,wallonia,4,0.05,0.0,0.0,0.15,0.8,0.05,0.0,0.0,0.15,0.8
2017,belgium,1,0.05,0.0,0.0,0.15,0.8,0.05,0.0,0.0,0.15,0.8
2017,belgium,2,0.05,0.0,0.0,0.15,0.8,0.05,0.0,0.0,0.15,0.8
2017,belgium,3,0.05,0.0,0.0,0.15,0.8,0.05,0.0,0.0,0.15,0.8
2017,belgium,4,0.05,0.0,0.0,0.15,0.8,0.05,0.0,0.0,0.15,0.8
2017,brussels,1,0.05,0.0,0.0,0.15,0.8,0.05,0.0,0.0,0.15,0.8
2017,brussels,2,0.05,0.0,0.0,0.15,0.8,0.05,0.0,0.0,0.15,0.8
2017,brussels,3,0.05,0.0,0.0,0.15,0.8,0.05,0.0,0.0,0.15,0.8
2017,brussels,4,0.05,0.0,0.0,0.15,0.8,0.05,0.0,0.0,0.15,0.8
2017,flanders,1,0.05,0.0,0.0,0.15,0.8,0.05,0.0,0.0,0.15,0.8
2017,flanders,2,0.05,0.0,0.0,0.15,0.8,0.05,0.0,0.0,0.15,0.8
2017,flanders,3,0.05,0.0,0.0,0.15,0.8,0.05,0.0,0.0,0.15,0.8
2017,flanders,4,0.05,0.0,0.0,0.15,0.8,0.05,0.0,0.0,0.15,0.8
2017,wallonia,1,0.05,0.0,0.0,0.15,0.8,0.05,0.0,0.0,0.15,0.8
2017,wallonia,2,0.05,0.0,0.0,0.15,0.8,0.05,0.0,0.0,0.15,0.8
2017,wallonia,3,0.05,0.0,0.0,0.15,0.8,0.05,0.0,0.0,0.15,0.8
2017,wallonia,4,0.05,0.0,0.0,0.15,0.8,0.05,0.0,0.0,0.15,0.8
2018,belgium,1,0.05,0.0,0.0,0.15,0.8,0.05,0.0,0.0,0.15,0.8
2018,belgium,2,0.05,0.0,0.0,0.15,0.8,0.05,0.0,0.0,0.15,0.8
2018,belgium,3,0.05,0.0,0.0,0.15,0.8,0.05,0.0,0.0,0.15,0.8
2018,belgium,4,0.05,0.0,0.0,0.15,0.8,0.05,0.0,0.0,0.15,0.8
2018,brussels,1,0.05,0.0,0.0,0.15,0.8,0.05,0.0,0.0,0.15,0.8
2018,brussels,2,0.05,0.0,0.0,0.15,0.8,0.05,0.0,0.0,0.15,0.8
2018,brussels,3,0.05,0.0,0.0,0.15,0.8,0.05,0.0,0.0,0.15,0.8
2018,brussels,4,0.05,0.0,0.0,0.15,0.8,0.05,0.0,0.0,0.15,0.8
2018,flanders,1,0.05,0.0,0.0,0.15,0.8,0.05,0.0,0.0,0.15,0.8
2018,flanders,2,0.05,0.0,0.0,0.15,0.8,0.05,0.0,0.0,0.15,0.8
2018,flanders,3,0.05,0.0,0.0,0.15,0.8,0.05,0.0,0.0,0.15,0.8
2018,flanders,4,0.05,0.0,0.0,0.15,0.8,0.05,0.0,0.0,0.15,0.8
2018,wallonia,1,0.05,0.0,0.0,0.15,0.8,0.05,0.0,0.0,0.15,0.8
2018,wallonia,2,0.05,0.0,0.0,0.15,0.8,0.05,0.0,0.0,0.15,0.8
2018,wallonia,3,0.05,0.0,0.0,0.15,0.8,0.05,0.0,0.0,0.15,0.8
2018,wallonia,4,0.05,0.0,0.0,0.15,0.8,0.05,0.0,0.0,0.15,0.8
2019,belgium,1,0.05,0.0,0.0,0.15,0.8,0.05,0.0,0.0,0.15,0.8
2019,belgium,2,0.05,0.0,0.0,0.15,0.8,0.05,0.0,0.0,0.15,0.8
2019,belgium,3,0.05,0.0,0.0,0.15,0.8,0.05,0.0,0.0,0.15,0.8
2019,belgium,4,0.05,0.0,0.0,0.15,0.8,0.05,0.0,0.0,0.15,0.8
2019,brussels,1,0.05,0.0,0.0,0.15,0.8,0.05,0.0,0.0,0.15,0.8
2019,brussels,2,0.05,0.0,0.0,0.15,0.8,0.05,0.0,0.0,0.15,0.8
2019,brussels,3,0.05,0.0,0.0,0.15,0.8,0.05,0.0,0.0,0.15,0.8
2019,brussels,4,0.05,0.0,0.0,0.15,0.8,0.05,0.0,0.0,0.15,0.8
2019,flanders,1,0.05,0.0,0.0,0.15,0.8,0.05,0.0,0.0,0.15,0.8
2019,flanders,2,0.05,0.0,0.0,0.15,0.8,0.05,0.0,0.0,0.15,0.8
2019,flanders,3,0.05,0.0,0.0,0.15,0.8,0.05,0.0,0.0,0.15,0.8
2019,flanders,4,0.05,0.0,0.0,0.15,0.8,0.05,0.0,0.0,0.15,0.8
2019,wallonia,1,0.05,0.0,0.0,0.15,0.8,0.05,0.0,0.0,0.15,0.8
2019,wallonia,2,0.05,0.0,0.0,0.15,0.8,0.05,0.0,0.0,0.15,0.8
2019,wallonia,3,0.05,0.0,0.0,0.15,0.8,0.05,0.0,0.0,0.15,0.8
2019,wallonia,4,0.05,0.0,0.0,0.15,0.8,0.05,0.0,0.0,0.15,0.8
2020,belgium,1,0.05,0.0,0.0,0.15,0.8,0.05,0.0,0.0,0.15,0.8
2020,belgium,2,0.05,0.0,0.0,0.15,0.8,0.05,0.0,0.0,0.15,0.8
2020,belgium,3,0.05,0.0,0.0,0.15,0.8,0.05,0.0,0.0,0.15,0.8
2020,belgium,4,0.05,0.0,0.0,0.15,0.8,0.05,0.0,0.0,0.15,0.8
2020,brussels,1,0.05,0.0,0.0,0.15,0.8,0.05,0.0,0.0,0.15,0.8
2020,brussels,2,0.05,0.0,0.0,0.15,0.8,0.05,0.0,0.0,0.15,0.8
2020,brussels,3,0.05,0.0,0.0,0.15,0.8,0.05,0.0,0.0,0.15,0.8
2020,brussels,4,0.05,0.0,0.0,0.15,0.8,0.05,0.0,0.0,0.15,0.8
2020,flanders,1,0.05,0.0,0.0,0.15,0.8,0.05,0.0,0.0,0.15,0.8
2020,flanders,2,0.05,0.0,0.0,0.15,0.8,0.05,0.0,0.0,0.15,0.8
2020,flanders,3,0.05,0.0,0.0,0.15,0.8,0.05,0.0,0.0,0.15,0.8
2020,flanders,4,0.05,0.0,0.0,0.15,0.8,0.05,0.0,0.0,0.15,0.8
2020,wallonia,1,0.05,0.0,0.0,0.15,0.8,0.05,0.0,0.0,0.15,0.8
2020,wallonia,2,0.05,0.0,0.0,0.15,0.8,0.05,0.0,0.0,0.15,0.8
2020,wallonia,3,0.05,0.0,0.0,0.15,0.8,0.05,0.0,0.0,0.15,0.8
2020,wallonia,4,0.05,0.0,0.0,0.15,0.8,0.05,0.0,0.0,0.15,0.8
2021,belgium,1,0.05,0.0,0.0,0.15,0.8,0.05,0.0,0.0,0.15,0.8
2021,belgium,2,0.057333333333334124,0.0,0.0,0.1509999999999998,0.7916666666666679,0.057333333333334124,0.0,0.0,0.1509999999999998,0.7916666666666679
2021,belgium,3,0.06633333333332558,0.0,0.0,0.15033333333333332,0.7833333333333314,0.06633333333332558,0.0,0.0,0.15033333333333332,0.7833333333333314
2021,belgium,4,0.07500000000000284,0.0,0.0,0.15,0.7749999999999915,0.07500000000000284,0.0,0.0,0.15,0.7749999999999915
2021,brussels,1,0.05,0.0,0.0,0.15,0.8,0.05,0.0,0.0,0.15,0.8
2021,brussels,2,0.057333333333334124,0.0,0.0,0.1509999999999998,0.7916666666666679,0.057333333333334124,0.0,0.0,0.1509999999999998,0.7916666666666679
2021,brussels,3,0.06633333333332558,0.0,0.0,0.15033333333333332,0.7833333333333314,0.06633333333332558,0.0,0.0,0.15033333333333332,0.7833333333333314
2021,brussels,4,0.07500000000000284,0.0,0.0,0.15,0.7749999999999915,0.07500000000000284,0.0,0.0,0.15,0.7749999999999915
2021,flanders,1,0.05,0.0,0.0,0.15,0.8,0.05,0.0,0.0,0.15,0.8
2021,flanders,2,0.057333333333334124,0.0,0.0,0.1509999999999998,0.7916666666666679,0.057333333333334124,0.0,0.0,0.1509999999999998,0.7916666666666679
2021,flanders,3,0.06633333333332558,0.0,0.0,0.15033333333333332,0.7833333333333314,0.06633333333332558,0.0,0.0,0.15033333333333332,0.7833333333333314
2021,flanders,4,0.07500000000000284,0.0,0.0,0.15,0.7749999999999915,0.07500000000000284,0.0,0.0,0.15,0.7749999999999915
2021,wallonia,1,0.05,0.0,0.0,0.15,0.8,0.05,0.0,0.0,0.15,0.8
2021,wallonia,2,0.057333333333334124,0.0,0.0,0.1509999999999998,0.7916666666666679,0.057333333333334124,0.0,0.0,0.1509999999999998,0.7916666666666679
2021,wallonia,3,0.06633333333332558,0.0,0.0,0.15033333333333332,0.7833333333333314,0.06633333333332558,0.0,0.0,0.15033333333333332,0.7833333333333314
2021,wallonia,4,0.07500000000000284,0.0,0.0,0.15,0.7749999999999915,0.07500000000000284,0.0,0.0,0.15,0.7749999999999915
2022,belgium,1,0.05,0.0,0.0,0.15,0.8,0.05,0.0,0.0,0.15,0.8
2022,belgium,2,0.06466666666666754,0.0,0.0,0.15200000000000014,0.7833333333333314,0.06466666666666754,0.0,0.0,0.15200000000000014,0.7833333333333314
2022,belgium,3,0.08266666666666111,0.0,0.0,0.15066666666666662,0.7666666666666586,0.08266666666666111,0.0,0.0,0.15066666666666662,0.7666666666666586
2022,belgium,4,0.10000000000000142,0.0,0.0,0.15,0.7499999999999929,0.10000000000000142,0.0,0.0,0.15,0.7499999999999929
2022,brussels,1,0.05,0.0,0.0,0.15,0.8,0.05,0.0,0.0,0.15,0.8
2022,brussels,2,0.06466666666666754,0.0,0.0,0.15200000000000014,0.7833333333333314,0.06466666666666754,0.0,0.0,0.15200000000000014,0.7833333333333314
2022,brussels,3,0.08266666666666111,0.0,0.0,0.15066666666666662,0.7666666666666586,0.08266666666666111,0.0,0.0,0.15066666666666662,0.7666666666666586
2022,brussels,4,0.10000000000000142,0.0,0.0,0.15,0.7499999999999929,0.10000000000000142,0.0,0.0,0.15,0.7499999999999929
2022,flanders,1,0.05,0.0,0.0,0.15,0.8,0.05,0.0,0.0,0.15,0.8
2022,flanders,2,0.06466666666666754,0.0,0.0,0.15200000000000014,0.7833333333333314,0.06466666666666754,0.0,0.0,0.15200000000000014,0.7833333333333314
2022,flanders,3,0.08266666666666111,0.0,0.0,0.15066666666666662,0.7666666666666586,0.08266666666666111,0.0,0.0,0.15066666666666662,0.7666666666666586
2022,flanders,4,0.10000000000000142,0.0,0.0,0.15,0.7499999999999929,0.10000000000000142,0.0,0.0,0.15,0.7499999999999929
2022,wallonia,1,0.05,0.0,0.0,0.15,0.8,0.05,0.0,0.0,0.15,0.8
2022,wallonia,2,0.06466666666666754,0.0,0.0,0.15200000000000014,0.7833333333333314,0.06466666666666754,0.0,0.0,0.15200000000000014,0.7833333333333314
2022,wallonia,3,0.08266666666666111,0.0,0.0,0.15066666666666662,0.7666666666666586,0.08266666666666111,0.0,0.0,0.15066666666666662,0.7666666666666586
2022,wallonia,4,0.10000000000000142,0.0,0.0,0.15,0.7499999999999929,0.10000000000000142,0.0,0.0,0.15,0.7499999999999929
2023,belgium,1,0.05,0.0,0.0,0.15,0.8,0.05,0.0,0.0,0.15,0.8
2023,belgium,2,0.07200000000000095,0.0,0.0,0.15300000000000002,0.7749999999999986,0.07200000000000095,0.0,0.0,0.15300000000000002,0.7749999999999986
2023,belgium,3,0.09899999999999665,0.0,0.0,0.15100000000000002,0.7499999999999929,0.09899999999999665,0.0,0.0,0.15100000000000002,0.7499999999999929
2023,belgium,4,0.125,0.0,0.0,0.15,0.7249999999999943,0.125,0.0,0.0,0.15,0.7249999999999943
2023,brussels,1,0.05,0.0,0.0,0.15,0.8,0.05,0.0,0.0,0.15,0.8
2023,brussels,2,0.07200000000000095,0.0,0.0,0.15300000000000002,0.7749999999999986,0.07200000000000095,0.0,0.0,0.15300000000000002,0.7749999999999986
2023,brussels,3,0.09899999999999665,0.0,0.0,0.15100000000000002,0.7499999999999929,0.09899999999999665,0.0,0.0,0.15100000000000002,0.7499999999999929
2023,brussels,4,0.125,0.0,0.0,0.15,0.7249999999999943,0.125,0.0,0.0,0.15,0.7249999999999943
2023,flanders,1,0.05,0.0,0.0,0.15,0.8,0.05,0.0,0.0,0.15,0.8
2023,flanders,2,0.07200000000000095,0.0,0.0,0.15300000000000002,0.7749999999999986,0.07200000000000095,0.0,0.0,0.15300000000000002,0.7749999999999986
2023,flanders,3,0.09899999999999665,0.0,0.0,0.15100000000000002,0.7499999999999929,0.09899999999999665,0.0,0.0,0.15100000000000002,0.7499999999999929
2023,flanders,4,0.125,0.0,0.0,0.15,0.7249999999999943,0.125,0.0,0.0,0.15,0.7249999999999943
2023,wallonia,1,0.05,0.0,0.0,0.15,0.8,0.05,0.0,0.0,0.15,0.8
2023,wallonia,2,0.07200000000000095,0.0,0.0,0.15300000000000002,0.7749999999999986,0.07200000000000095,0.0,0.0,0.15300000000000002,0.7749999999999986
2023,wallonia,3,0.09899999999999665,0.0,0.0,0.15100000000000002,0.7499999999999929,0.09899999999999665,0.0,0.0,0.15100000000000002,0.7499999999999929
2023,wallonia,4,0.125,0.0,0.0,0.15,0.7249999999999943,0.125,0.0,0.0,0.15,0.7249999999999943
2024,belgium,1,0.05,0.0,0.0,0.15,0.8,0.05,0.0,0.0,0.15,0.8
2024,belgium,2,0.07933333333333437,0.0,0.0,0.15399999999999991,0.7666666666666657,0.07933333333333437,0.0,0.0,0.15399999999999991,0.7666666666666657
2024,belgium,3,0.11533333333332507,0.0,0.0,0.15133333333333332,0.7333333333333272,0.11533333333332507,0.0,0.0,0.15133333333333332,0.7333333333333272
2024,belgium,4,0.14999999999999858,0.0,0.0,0.15,0.6999999999999957,0.14999999999999858,0.0,0.0,0.15,0.6999999999999957
2024,brussels,1,0.05,0.0,0.0,0.15,0.8,0.05,0.0,0.0,0.15,0.8
2024,brussels,2,0.07933333333333437,0.0,0.0,0.15399999999999991,0.7666666666666657,0.07933333333333437,0.0,0.0,0.15399999999999991,0.7666666666666657
2024,brussels,3,0.11533333333332507,0.0,0.0,0.15133333333333332,0.7333333333333272,0.11533333333332507,0.0,0.0,0.15133333333333332,0.7333333333333272
2024,brussels,4,0.14999999999999858,0.0,0.0,0.15,0.6999999999999957,0.14999999999999858,0.0,0.0,0.15,0.6999999999999957
2024,flanders,1,0.05,0.0,0.0,0.15,0.8,0.05,0.0,0.0,0.15,0.8
2024,flanders,2,0.07933333333333437,0.0,0.0,0.15399999999999991,0.7666666666666657,0.07933333333333437,0.0,0.0,0.15399999999999991,0.7666666666666657
2024,flanders,3,0.11533333333332507,0.0,0.0,0.15133333333333332,0.7333333333333272,0.11533333333332507,0.0,0.0,0.15133333333333332,0.7333333333333272
2024,flanders,4,0.14999999999999858,0.0,0.0,0.15,0.6999999999999957,0.14999999999999858,0.0,0.0,0.15,0.6999999999999957
2024,wallonia,1,0.05,0.0,0.0,0.15,0.8,0.05,0.0,0.0,0.15,0.8
2024,wallonia,2,0.07933333333333437,0.0,0.0,0.15399999999999991,0.7666666666666657,0.07933333333333437,0.0,0.0,0.15399999999999991,0.7666666666666657
2024,wallonia,3,0.11533333333332507,0.0,0.0,0.15133333333333332,0.7333333333333272,0.11533333333332507,0.0,0.0,0.15133333333333332,0.7333333333333272
2024,wallonia,4,0.14999999999999858,0.0,0.0,0.15,0.6999999999999957,0.14999999999999858,0.0,0.0,0.15,0.6999999999999957
2025,belgium,1,0.05,0.0,0.0,0.15,0.8,0.05,0.0,0.0,0.15,0.8
2025,belgium,2,0.08666666666666778,0.0,0.0,0.1549999999999998,0.7583333333333329,0.08666666666666778,0.0,0.0,0.1549999999999998,0.7583333333333329
2025,belgium,3,0.1316666666666606,0.0,0.0,0.15166666666666662,0.7166666666666615,0.1316666666666606,0.0,0.0,0.15166666666666662,0.7166666666666615
2025,belgium,4,0.17499999999999716,0.0,0.0,0.15,0.6749999999999972,0.17499999999999716,0.0,0.0,0.15,0.6749999999999972
2025,brussels,1,0.05,0.0,0.0,0.15,0.8,0.05,0.0,0.0,0.15,0.8
2025,brussels,2,0.08666666666666778,0.0,0.0,0.1549999999999998,0.7583333333333329,0.08666666666666778,0.0,0.0,0.1549999999999998,0.7583333333333329
2025,brussels,3,0.1316666666666606,0.0,0.0,0.15166666666666662,0.7166666666666615,0.1316666666666606,0.0,0.0,0.15166666666666662,0.7166666666666615
2025,brussels,4,0.17499999999999716,0.0,0.0,0.15,0.6749999999999972,0.17499999999999716,0.0,0.0,0.15,0.6749999999999972
2025,flanders,1,0.05,0.0,0.0,0.15,0.8,0.05,0.0,0.0,0.15,0.8
2025,flanders,2,0.08666666666666778,0.0,0.0,0.1549999999999998,0.7583333333333329,0.08666666666666778,0.0,0.0,0.1549999999999998,0.7583333333333329
2025,flanders,3,0.1316666666666606,0.0,0.0,0.15166666666666662,0.7166666666666615,0.1316666666666606,0.0,0.0,0.15166666666666662,0.7166666666666615
2025,flanders,4,0.17499999999999716,0.0,0.0,0.15,0.6749999999999972,0.17499999999999716,0.0,0.0,0.15,0.6749999999999972
2025,wallonia,1,0.05,0.0,0.0,0.15,0.8,0.05,0.0,0.0,0.15,0.8
2025,wallonia,2,0.08666666666666778,0.0,0.0,0.1549999999999998,0.7583333333333329,0.08666666666666778,0.0,0.0,0.1549999999999998,0.7583333333333329
2025,wallonia,3,0.1316666666666606,0.0,0.0,0.15166666666666662,0.7166666666666615,0.1316666666666606,0.0,0.0,0.15166666666666662,0.7166666666666615
2025,wallonia,4,0.17499999999999716,0.0,0.0,0.15,0.6749999999999972,0.17499999999999716,0.0,0.0,0.15,0.6749999999999972
2026,belgium,1,0.05,0.0,0.0,0.15,0.8,0.05,0.0,0.0,0.15,0.8
2026,belgium,2,0.0940000000000012,0.0,0.0,0.15600000000000014,0.75,0.0940000000000012,0.0,0.0,0.15600000000000014,0.75
2026,belgium,3,0.14799999999999613,0.0,0.0,0.15200000000000002,0.6999999999999957,0.14799999999999613,0.0,0.0,0.15200000000000002,0.6999999999999957
2026,belgium,4,0.20000000000000284,0.0,0.0,0.15,0.6499999999999915,0.20000000000000284,0.0,0.0,0.15,0.6499999999999915
2026,brussels,1,0.05,0.0,0.0,0.15,0.8,0.05,0.0,0.0,0.15,0.8
2026,brussels,2,0.0940000000000012,0.0,0.0,0.15600000000000014,0.75,0.0940000000000012,0.0,0.0,0.15600000000000014,0.75
2026,brussels,3,0.14799999999999613,0.0,0.0,0.15200000000000002,0.6999999999999957,0.14799999999999613,0.0,0.0,0.15200000000000002,0.6999999999999957
2026,brussels,4,0.20000000000000284,0.0,0.0,0.15,0.6499999999999915,0.20000000000000284,0.0,0.0,0.15,0.6499999999999915
2026,flanders,1,0.05,0.0,0.0,0.15,0.8,0.05,0.0,0.0,0.15,0.8
2026,flanders,2,0.0940000000000012,0.0,0.0,0.15600000000000014,0.75,0.0940000000000012,0.0,0.0,0.15600000000000014,0.75
2026,flanders,3,0.14799999999999613,0.0,0.0,0.15200000000000002,0.6999999999999957,0.14799999999999613,0.0,0.0,0.15200000000000002,0.6999999999999957
2026,flanders,4,0.20000000000000284,0.0,0.0,0.15,0.6499999999999915,0.20000000000000284,0.0,0.0,0.15,0.6499999999999915
2026,wallonia,1,0.05,0.0,0.0,0.15,0.8,0.05,0.0,0.0,0.15,0.8
2026,wallonia,2,0.0940000000000012,0.0,0.0,0.15600000000000014,0.75,0.0940000000000012,0.0,0.0,0.15600000000000014,0.75
2026,wallonia,3,0.14799999999999613,0.0,0.0,0.15200000000000002,0.6999999999999957,0.14799999999999613,0.0,0.0,0.15200000000000002,0.6999999999999957
2026,wallonia,4,0.20000000000000284,0.0,0.0,0.15,0.6499999999999915,0.20000000000000284,0.0,0.0,0.15,0.6499999999999915
2027,belgium,1,0.05,0.0,0.0,0.15,0.8,0.05,0.0,0.0,0.15,0.8
2027,belgium,2,0.10133333333333461,0.0,0.0,0.15700000000000003,0.7416666666666671,0.10133333333333461,0.0,0.0,0.15700000000000003,0.7416666666666671
2027,belgium,3,0.16433333333332456,0.0,0.0,0.15233333333333332,0.68333333333333,0.16433333333332456,0.0,0.0,0.15233333333333332,0.68333333333333
2027,belgium,4,0.22500000000000142,0.0,0.0,0.15,0.6249999999999929,0.22500000000000142,0.0,0.0,0.15,0.6249999999999929
2027,brussels,1,0.05,0.0,0.0,0.15,0.8,0.05,0.0,0.0,0.15,0.8
2027,brussels,2,0.10133333333333461,0.0,0.0,0.15700000000000003,0.7416666666666671,0.10133333333333461,0.0,0.0,0.15700000000000003,0.7416666666666671
2027,brussels,3,0.16433333333332456,0.0,0.0,0.15233333333333332,0.68333333333333,0.16433333333332456,0.0,0.0,0.15233333333333332,0.68333333333333
2027,brussels,4,0.22500000000000142,0.0,0.0,0.15,0.6249999999999929,0.22500000000000142,0.0,0.0,0.15,0.6249999999999929
2027,flanders,1,0.05,0.0,0.0,0.15,0.8,0.05,0.0,0.0,0.15,0.8
2027,flanders,2,0.10133333333333461,0.0,0.0,0.15700000000000003,0.7416666666666671,0.10133333333333461,0.0,0.0,0.15700000000000003,0.7416666666666671
2027,flanders,3,0.16433333333332456,0.0,0.0,0.15233333333333332,0.68333333333333,0.16433333333332456,0.0,0.0,0.15233333333333332,0.68333333333333
2027,flanders,4,0.22500000000000142,0.0,0.0,0.15,0.6249999999999929,0.22500000000000142,0.0,0.0,0.15,0.6249999999999929
2027,wallonia,1,0.05,0.0,0.0,0.15,0.8,0.05,0.0,0.0,0.15,0.8
2027,wallonia,2,0.10133333333333461,0.0,0.0,0.15700000000000003,0.7416666666666671,0.10133333333333461,0.0,0.0,0.15700000000000003,0.7416666666666671
2027,wallonia,3,0.16433333333332456,0.0,0.0,0.15233333333333332,0.68333333333333,0.16433333333332456,0.0,0.0,0.15233333333333332,0.68333333333333
2027,wallonia,4,0.22500000000000142,0.0,0.0,0.15,0.6249999999999929,0.22500000000000142,0.0,0.0,0.15,0.6249999999999929
2028,belgium,1,0.05,0.0,0.0,0.15,0.8,0.05,0.0,0.0,0.15,0.8
2028,belgium,2,0.10866666666666802,0.0,0.0,0.15799999999999992,0.7333333333333343,0.10866666666666802,0.0,0.0,0.15799999999999992,0.7333333333333343
2028,belgium,3,0.1806666666666601,0.0,0.0,0.15266666666666662,0.6666666666666643,0.1806666666666601,0.0,0.0,0.15266666666666662,0.6666666666666643
2028,belgium,4,0.25,0.0,0.0,0.15,0.5999999999999943,0.25,0.0,0.0,0.15,0.5999999999999943
2028,brussels,1,0.05,0.0,0.0,0.15,0.8,0.05,0.0,0.0,0.15,0.8
2028,brussels,2,0.10866666666666802,0.0,0.0,0.15799999999999992,0.7333333333333343,0.10866666666666802,0.0,0.0,0.15799999999999992,0.7333333333333343
2028,brussels,3,0.1806666666666601,0.0,0.0,0.15266666666666662,0.6666666666666643,0.1806666666666601,0.0,0.0,0.15266666666666662,0.6666666666666643
2028,brussels,4,0.25,0.0,0.0,0.15,0.5999999999999943,0.25,0.0,0.0,0.15,0.5999999999999943
2028,flanders,1,0.05,0.0,0.0,0.15,0.8,0.05,0.0,0.0,0.15,0.8
2028,flanders,2,0.10866666666666802,0.0,0.0,0.15799999999999992,0.7333333333333343,0.10866666666666802,0.0,0.0,0.15799999999999992,0.7333333333333343
2028,flanders,3,0.1806666666666601,0.0,0.0,0.15266666666666662,0.6666666666666643,0.1806666666666601,0.0,0.0,0.15266666666666662,0.6666666666666643
2028,flanders,4,0.25,0.0,0.0,0.15,0.5999999999999943,0.25,0.0,0.0,0.15,0.5999999999999943
2028,wallonia,1,0.05,0.0,0.0,0.15,0.8,0.05,0.0,0.0,0.15,0.8
2028,wallonia,2,0.10866666666666802,0.0,0.0,0.15799999999999992,0.7333333333333343,0.10866666666666802,0.0,0.0,0.15799999999999992,0.7333333333333343
2028,wallonia,3,0.1806666666666601,0.0,0.0,0.15266666666666662,0.6666666666666643,0.1806666666666601,0.0,0.0,0.15266666666666662,0.6666666666666643
2028,wallonia,4,0.25,0.0,0.0,0.15,0.5999999999999943,0.25,0.0,0.0,0.15,0.5999999999999943
2029,belgium,1,0.05,0.0,0.0,0.15,0.8,0.05,0.0,0.0,0.15,0.8
2029,belgium,2,0.11600000000000144,0.0,0.0,0.1589999999999998,0.7250000000000014,0.11600000000000144,0.0,0.0,0.1589999999999998,0.7250000000000014
2029,belgium,3,0.19699999999999562,0.0,0.0,0.15300000000000002,0.6499999999999986,0.19699999999999562,0.0,0.0,0.15300000000000002,0.6499999999999986
2029,belgium,4,0.2749999999999986,0.0,0.0,0.15,0.5749999999999957,0.2749999999999986,0.0,0.0,0.15,0.5749999999999957
2029,brussels,1,0.05,0.0,0.0,0.15,0.8,0.05,0.0,0.0,0.15,0.8
2029,brussels,2,0.11600000000000144,0.0,0.0,0.1589999999999998,0.7250000000000014,0.11600000000000144,0.0,0.0,0.1589999999999998,0.7250000000000014
2029,brussels,3,0.19699999999999562,0.0,0.0,0.15300000000000002,0.6499999999999986,0.19699999999999562,0.0,0.0,0.15300000000000002,0.6499999999999986
2029,brussels,4,0.2749999999999986,0.0,0.0,0.15,0.5749999999999957,0.2749999999999986,0.0,0.0,0.15,0.5749999999999957
2029,flanders,1,0.05,0.0,0.0,0.15,0.8,0.05,0.0,0.0,0.15,0.8
2029,flanders,2,0.11600000000000144,0.0,0.0,0.1589999999999998,0.7250000000000014,0.11600000000000144,0.0,0.0,0.1589999999999998,0.7250000000000014
2029,flanders,3,0.19699999999999562,0.0,0.0,0.15300000000000002,0.6499999999999986,0.19699999999999562,0.0,0.0,0.15300000000000002,0.6499999999999986
2029,flanders,4,0.2749999999999986,0.0,0.0,0.15,0.5749999999999957,0.2749999999999986,0.0,0.0,0.15,0.5749999999999957
2029,wallonia,1,0.05,0.0,0.0,0.15,0.8,0.05,0.0,0.0,0.15,0.8
2029,wallonia,2,0.11600000000000144,0.0,0.0,0.1589999999999998,0.7250000000000014,0.11600000000000144,0.0,0.0,0.1589999999999998,0.7250000000000014
2029,wallonia,3,0.19699999999999562,0.0,0.0,0.15300000000000002,0.6499999999999986,0.19699999999999562,0.0,0.0,0.15300000000000002,0.6499999999999986
2029,wallonia,4,0.2749999999999986,0.0,0.0,0.15,0.5749999999999957,0.2749999999999986,0.0,0.0,0.15,0.5749999999999957
2030,belgium,1,0.05,0.0,0.0,0.15,0.8,0.05,0.0,0.0,0.15,0.8
2030,belgium,2,0.12333333333333485,0.0,0.0,0.16000000000000014,0.716666666666665,0.12333333333333485,0.0,0.0,0.16000000000000014,0.716666666666665
2030,belgium,3,0.21333333333333115,0.0,0.0,0.15333333333333332,0.6333333333333258,0.21333333333333115,0.0,0.0,0.15333333333333332,0.6333333333333258
2030,belgium,4,0.29999999999999716,0.0,0.0,0.15,0.5499999999999972,0.29999999999999716,0.0,0.0,0.15,0.5499999999999972
2030,brussels,1,0.05,0.0,0.0,0.15,0.8,0.05,0.0,0.0,0.15,0.8
2030,brussels,2,0.12333333333333485,0.0,0.0,0.16000000000000014,0.716666666666665,0.12333333333333485,0.0,0.0,0.16000000000000014,0.716666666666665
2030,brussels,3,0.21333333333333115,0.0,0.0,0.15333333333333332,0.6333333333333258,0.21333333333333115,0.0,0.0,0.15333333333333332,0.6333333333333258
2030,brussels,4,0.29999999999999716,0.0,0.0,0.15,0.5499999999999972,0.29999999999999716,0.0,0.0,0.15,0.5499999999999972
2030,flanders,1,0.05,0.0,0.0,0.15,0.8,0.05,0.0,0.0,0.15,0.8
2030,flanders,2,0.12333333333333485,0.0,0.0,0.16000000000000014,0.716666666666665,0.12333333333333485,0.0,0.0,0.16000000000000014,0.716666666666665
2030,flanders,3,0.21333333333333115,0.0,0.0,0.15333333333333332,0.6333333333333258,0.21333333333333115,0.0,0.0,0.15333333333333332,0.6333333333333258
2030,flanders,4,0.29999999999999716,0.0,0.0,0.15,0.5499999999999972,0.29999999999999716,0.0,0.0,0.15,0.5499999999999972
2030,wallonia,1,0.05,0.0,0.0,0.15,0.8,0.05,0.0,0.0,0.15,0.8
2030,wallonia,2,0.12333333333333485,0.0,0.0,0.16000000000000014,0.716666666666665,0.12333333333333485,0.0,0.0,0.16000000000000014,0.716666666666665
2030,wallonia,3,0.21333333333333115,0.0,0.0,0.15333333333333332,0.6333333333333258,0.21333333333333115,0.0,0.0,0.15333333333333332,0.6333333333333258
2030,wallonia,4,0.29999999999999716,0.0,0.0,0.15,0.5499999999999972,0.29999999999999716,0.0,0.0,0.15,0.5499999999999972
2031,belgium,1,0.05,0.0,0.0,0.15,0.8,0.05,0.0,0.0,0.15,0.8
2031,belgium,2,0.13066666666666826,0.0,0.0,0.16100000000000003,0.7083333333333321,0.13066666666666826,0.0,0.0,0.16100000000000003,0.7083333333333321
2031,belgium,3,0.22966666666665958,0.0,0.0,0.15366666666666662,0.61666666666666,0.22966666666665958,0.0,0.0,0.15366666666666662,0.61666666666666
2031,belgium,4,0.32500000000000284,0.0,0.0,0.15,0.5249999999999915,0.32500000000000284,0.0,0.0,0.15,0.5249999999999915
2031,brussels,1,0.05,0.0,0.0,0.15,0.8,0.05,0.0,0.0,0.15,0.8
2031,brussels,2,0.13066666666666826,0.0,0.0,0.16100000000000003,0.7083333333333321,0.13066666666666826,0.0,0.0,0.16100000000000003,0.7083333333333321
2031,brussels,3,0.22966666666665958,0.0,0.0,0.15366666666666662,0.61666666666666,0.22966666666665958,0.0,0.0,0.15366666666666662,0.61666666666666
2031,brussels,4,0.32500000000000284,0.0,0.0,0.15,0.5249999999999915,0.32500000000000284,0.0,0.0,0.15,0.5249999999999915
2031,flanders,1,0.05,0.0,0.0,0.15,0.8,0.05,0.0,0.0,0.15,0.8
2031,flanders,2,0.13066666666666826,0.0,0.0,0.16100000000000003,0.7083333333333321,0.13066666666666826,0.0,0.0,0.16100000000000003,0.7083333333333321
2031,flanders,3,0.22966666666665958,0.0,0.0,0.15366666666666662,0.61666666666666,0.22966666666665958,0.0,0.0,0.15366666666666662,0.61666666666666
2031,flanders,4,0.32500000000000284,0.0,0.0,0.15,0.5249999999999915,0.32500000000000284,0.0,0.0,0.15,0.5249999999999915
2031,wallonia,1,0.05,0.0,0.0,0.15,0.8,0.05,0.0,0.0,0.15,0.8
2031,wallonia,2,0.13066666666666826,0.0,0.0,0.16100000000000003,0.7083333333333321,0.13066666666666826,0.0,0.0,0.16100000000000003,0.7083333333333321
2031,wallonia,3,0.22966666666665958,0.0,0.0,0.15366666666666662,0.61666666666666,0.22966666666665958,0.0,0.0,0.15366666666666662,0.61666666666666
2031,wallonia,4,0.32500000000000284,0.0,0.0,0.15,0.5249999999999915,0.32500000000000284,0.0,0.0,0.15,0.5249999999999915
2032,belgium,1,0.05,0.0,0.0,0.15,0.8,0.05,0.0,0.0,0.15,0.8
2032,belgium,2,0.13800000000000168,0.0,0.0,0.16199999999999992,0.6999999999999993,0.13800000000000168,0.0,0.0,0.16199999999999992,0.6999999999999993
2032,belgium,3,0.2459999999999951,0.0,0.0,0.15400000000000003,0.5999999999999943,0.2459999999999951,0.0,0.0,0.15400000000000003,0.5999999999999943
2032,belgium,4,0.3500000000000014,0.0,0.0,0.15,0.4999999999999929,0.3500000000000014,0.0,0.0,0.15,0.4999999999999929
2032,brussels,1,0.05,0.0,0.0,0.15,0.8,0.05,0.0,0.0,0.15,0.8
2032,brussels,2,0.13800000000000168,0.0,0.0,0.16199999999999992,0.6999999999999993,0.13800000000000168,0.0,0.0,0.16199999999999992,0.6999999999999993
2032,brussels,3,0.2459999999999951,0.0,0.0,0.15400000000000003,0.5999999999999943,0.2459999999999951,0.0,0.0,0.15400000000000003,0.5999999999999943
2032,brussels,4,0.3500000000000014,0.0,0.0,0.15,0.4999999999999929,0.3500000000000014,0.0,0.0,0.15,0.4999999999999929
2032,flanders,1,0.05,0.0,0.0,0.15,0.8,0.05,0.0,0.0,0.15,0.8
2032,flanders,2,0.13800000000000168,0.0,0.0,0.16199999999999992,0.6999999999999993,0.13800000000000168,0.0,0.0,0.16199999999999992,0.6999999999999993
2032,flanders,3,0.2459999999999951,0.0,0.0,0.15400000000000003,0.5999999999999943,0.2459999999999951,0.0,0.0,0.15400000000000003,0.5999999999999943
2032,flanders,4,0.3500000000000014,0.0,0.0,0.15,0.4999999999999929,0.3500000000000014,0.0,0.0,0.15,0.4999999999999929
2032,wallonia,1,0.05,0.0,0.0,0.15,0.8,0.05,0.0,0.0,0.15,0.8
2032,wallonia,2,0.13800000000000168,0.0,0.0,0.16199999999999992,0.6999999999999993,0.13800000000000168,0.0,0.0,0.16199999999999992,0.6999999999999993
2032,wallonia,3,0.2459999999999951,0.0,0.0,0.15400000000000003,0.5999999999999943,0.2459999999999951,0.0,0.0,0.15400000000000003,0.5999999999999943
2032,wallonia,4,0.3500000000000014,0.0,0.0,0.15,0.4999999999999929,0.3500000000000014,0.0,0.0,0.15,0.4999999999999929
2033,belgium,1,0.05,0.0,0.0,0.15,0.8,0.05,0.0,0.0,0.15,0.8
2033,belgium,2,0.1453333333333351,0.0,0.0,0.1629999999999998,0.6916666666666664,0.1453333333333351,0.0,0.0,0.1629999999999998,0.6916666666666664
2033,belgium,3,0.26233333333333064,0.0,0.0,0.15433333333333332,0.5833333333333286,0.26233333333333064,0.0,0.0,0.15433333333333332,0.5833333333333286
2033,belgium,4,0.375,0.0,0.0,0.15,0.4749999999999943,0.375,0.0,0.0,0.15,0.4749999999999943
2033,brussels,1,0.05,0.0,0.0,0.15,0.8,0.05,0.0,0.0,0.15,0.8
2033,brussels,2,0.1453333333333351,0.0,0.0,0.1629999999999998,0.6916666666666664,0.1453333333333351,0.0,0.0,0.1629999999999998,0.6916666666666664
2033,brussels,3,0.26233333333333064,0.0,0.0,0.15433333333333332,0.5833333333333286,0.26233333333333064,0.0,0.0,0.15433333333333332,0.5833333333333286
2033,brussels,4,0.375,0.0,0.0,0.15,0.4749999999999943,0.375,0.0,0.0,0.15,0.4749999999999943
2033,flanders,1,0.05,0.0,0.0,0.15,0.8,0.05,0.0,0.0,0.15,0.8
2033,flanders,2,0.1453333333333351,0.0,0.0,0.1629999999999998,0.6916666666666664,0.1453333333333351,0.0,0.0,0.1629999999999998,0.6916666666666664
2033,flanders,3,0.26233333333333064,0.0,0.0,0.15433333333333332,0.5833333333333286,0.26233333333333064,0.0,0.0,0.15433333333333332,0.5833333333333286
2033,flanders,4,0.375,0.0,0.0,0.15,0.4749999999999943,0.375,0.0,0.0,0.15,0.4749999999999943
2033,wallonia,1,0.05,0.0,0.0,0.15,0.8,0.05,0.0,0.0,0.15,0.8
2033,wallonia,2,0.1453333333333351,0.0,0.0,0.1629999999999998,0.6916666666666664,0.1453333333333351,0.0,0.0,0.1629999999999998,0.6916666666666664
2033,wallonia,3,0.26233333333333064,0.0,0.0,0.15433333333333332,0.5833333333333286,0.26233333333333064,0.0,0.0,0.15433333333333332,0.5833333333333286
2033,wallonia,4,0.375,0.0,0.0,0.15,0.4749999999999943,0.375,0.0,0.0,0.15,0.4749999999999943
2034,belgium,1,0.05,0.0,0.0,0.15,0.8,0.05,0.0,0.0,0.15,0.8
2034,belgium,2,0.1526666666666685,0.0,0.0,0.16400000000000015,0.6833333333333336,0.1526666666666685,0.0,0.0,0.16400000000000015,0.6833333333333336
2034,belgium,3,0.27866666666665907,0.0,0.0,0.15466666666666662,0.5666666666666629,0.27866666666665907,0.0,0.0,0.15466666666666662,0.5666666666666629
2034,belgium,4,0.3999999999999986,0.0,0.0,0.15,0.44999999999999574,0.3999999999999986,0.0,0.0,0.15,0.44999999999999574
2034,brussels,1,0.05,0.0,0.0,0.15,0.8,0.05,0.0,0.0,0.15,0.8
2034,brussels,2,0.1526666666666685,0.0,0.0,0.16400000000000015,0.6833333333333336,0.1526666666666685,0.0,0.0,0.16400000000000015,0.6833333333333336
2034,brussels,3,0.27866666666665907,0.0,0.0,0.15466666666666662,0.5666666666666629,0.27866666666665907,0.0,0.0,0.15466666666666662,0.5666666666666629
2034,brussels,4,0.3999999999999986,0.0,0.0,0.15,0.44999999999999574,0.3999999999999986,0.0,0.0,0.15,0.44999999999999574
2034,flanders,1,0.05,0.0,0.0,0.15,0.8,0.05,0.0,0.0,0.15,0.8
2034,flanders,2,0.1526666666666685,0.0,0.0,0.16400000000000015,0.6833333333333336,0.1526666666666685,0.0,0.0,0.16400000000000015,0.6833333333333336
2034,flanders,3,0.27866666666665907,0.0,0.0,0.15466666666666662,0.5666666666666629,0.27866666666665907,0.0,0.0,0.15466666666666662,0.5666666666666629
2034,flanders,4,0.3999999999999986,0.0,0.0,0.15,0.44999999999999574,0.3999999999999986,0.0,0.0,0.15,0.44999999999999574
2034,wallonia,1,0.05,0.0,0.0,0.15,0.8,0.05,0.0,0.0,0.15,0.8
2034,wallonia,2,0.1526666666666685,0.0,0.0,0.16400000000000015,0.6833333333333336,0.1526666666666685,0.0,0.0,0.16400000000000015,0.6833333333333336
2034,wallonia,3,0.27866666666665907,0.0,0.0,0.15466666666666662,0.5666666666666629,0.27866666666665907,0.0,0.0,0.15466666666666662,0.5666666666666629
2034,wallonia,4,0.3999999999999986,0.0,0.0,0.15,0.44999999999999574,0.3999999999999986,0.0,0.0,0.15,0.44999999999999574
2035,belgium,1,0.05,0.0,0.0,0.15,0.8,0.05,0.0,0.0,0.15,0.8
2035,belgium,2,0.16000000000000192,0.0,0.0,0.16500000000000004,0.6750000000000007,0.16000000000000192,0.0,0.0,0.16500000000000004,0.6750000000000007
2035,belgium,3,0.2949999999999946,0.0,0.0,0.15500000000000003,0.5499999999999972,0.2949999999999946,0.0,0.0,0.15500000000000003,0.5499999999999972
2035,belgium,4,0.42499999999999716,0.0,0.0,0.15,0.42499999999999716,0.42499999999999716,0.0,0.0,0.15,0.42499999999999716
2035,brussels,1,0.05,0.0,0.0,0.15,0.8,0.05,0.0,0.0,0.15,0.8
2035,brussels,2,0.16000000000000192,0.0,0.0,0.16500000000000004,0.6750000000000007,0.16000000000000192,0.0,0.0,0.16500000000000004,0.6750000000000007
2035,brussels,3,0.2949999999999946,0.0,0.0,0.15500000000000003,0.5499999999999972,0.2949999999999946,0.0,0.0,0.15500000000000003,0.5499999999999972
2035,brussels,4,0.42499999999999716,0.0,0.0,0.15,0.42499999999999716,0.42499999999999716,0.0,0.0,0.15,0.42499999999999716
2035,flanders,1,0.05,0.0,0.0,0.15,0.8,0.05,0.0,0.0,0.15,0.8
2035,flanders,2,0.16000000000000192,0.0,0.0,0.16500000000000004,0.6750000000000007,0.16000000000000192,0.0,0.0,0.16500000000000004,0.6750000000000007
2035,flanders,3,0.2949999999999946,0.0,0.0,0.15500000000000003,0.5499999999999972,0.2949999999999946,0.0,0.0,0.15500000000000003,0.5499999999999972
2035,flanders,4,0.42499999999999716,0.0,0.0,0.15,0.42499999999999716,0.42499999999999716,0.0,0.0,0.15,0.42499999999999716
2035,wallonia,1,0.05,0.0,0.0,0.15,0.8,0.05,0.0,0.0,0.15,0.8
2035,wallonia,2,0.16000000000000192,0.0,0.0,0.16500000000000004,0.6750000000000007,0.16000000000000192,0.0,0.0,0.16500000000000004,0.6750000000000007
2035,wallonia,3,0.2949999999999946,0.0,0.0,0.15500000000000003,0.5499999999999972,0.2949999999999946,0.0,0.0,0.15500000000000003,0.5499999999999972
2035,wallonia,4,0.42499999999999716,0.0,0.0,0.15,0.42499999999999716,0.42499999999999716,0.0,0.0,0.15,0.42499999999999716
2036,belgium,1,0.05,0.0,0.0,0.15,0.8,0.05,0.0,0.0,0.15,0.8
2036,belgium,2,0.16733333333333533,0.0,0.0,0.16599999999999993,0.6666666666666679,0.16733333333333533,0.0,0.0,0.16599999999999993,0.6666666666666679
2036,belgium,3,0.31133333333333013,0.0,0.0,0.15533333333333332,0.5333333333333314,0.31133333333333013,0.0,0.0,0.15533333333333332,0.5333333333333314
2036,belgium,4,0.45000000000000284,0.0,0.0,0.15,0.3999999999999915,0.45000000000000284,0.0,0.0,0.15,0.3999999999999915
2036,brussels,1,0.05,0.0,0.0,0.15,0.8,0.05,0.0,0.0,0.15,0.8
2036,brussels,2,0.16733333333333533,0.0,0.0,0.16599999999999993,0.6666666666666679,0.16733333333333533,0.0,0.0,0.16599999999999993,0.6666666666666679
2036,brussels,3,0.31133333333333013,0.0,0.0,0.15533333333333332,0.5333333333333314,0.31133333333333013,0.0,0.0,0.15533333333333332,0.5333333333333314
2036,brussels,4,0.45000000000000284,0.0,0.0,0.15,0.3999999999999915,0.45000000000000284,0.0,0.0,0.15,0.3999999999999915
2036,flanders,1,0.05,0.0,0.0,0.15,0.8,0.05,0.0,0.0,0.15,0.8
2036,flanders,2,0.16733333333333533,0.0,0.0,0.16599999999999993,0.6666666666666679,0.16733333333333533,0.0,0.0,0.16599999999999993,0.6666666666666679
2036,flanders,3,0.31133333333333013,0.0,0.0,0.15533333333333332,0.5333333333333314,0.31133333333333013,0.0,0.0,0.15533333333333332,0.5333333333333314
2036,flanders,4,0.45000000000000284,0.0,0.0,0.15,0.3999999999999915,0.45000000000000284,0.0,0.0,0.15,0.3999999999999915
2036,wallonia,1,0.05,0.0,0.0,0.15,0.8,0.05,0.0,0.0,0.15,0.8
2036,wallonia,2,0.16733333333333533,0.0,0.0,0.16599999999999993,0.6666666666666679,0.16733333333333533,0.0,0.0,0.16599999999999993,0.6666666666666679
2036,wallonia,3,0.31133333333333013,0.0,0.0,0.15533333333333332,0.5333333333333314,0.31133333333333013,0.0,0.0,0.15533333333333332,0.5333333333333314
2036,wallonia,4,0.45000000000000284,0.0,0.0,0.15,0.3999999999999915,0.45000000000000284,0.0,0.0,0.15,0.3999999999999915
2037,belgium,1,0.05,0.0,0.0,0.15,0.8,0.05,0.0,0.0,0.15,0.8
2037,belgium,2,0.17466666666666697,0.0,0.0,0.16699999999999982,0.6583333333333314,0.17466666666666697,0.0,0.0,0.16699999999999982,0.6583333333333314
2037,belgium,3,0.32766666666665856,0.0,0.0,0.15566666666666662,0.5166666666666586,0.32766666666665856,0.0,0.0,0.15566666666666662,0.5166666666666586
2037,belgium,4,0.4750000000000014,0.0,0.0,0.15,0.3749999999999929,0.4750000000000014,0.0,0.0,0.15,0.3749999999999929
2037,brussels,1,0.05,0.0,0.0,0.15,0.8,0.05,0.0,0.0,0.15,0.8
2037,brussels,2,0.17466666666666697,0.0,0.0,0.16699999999999982,0.6583333333333314,0.17466666666666697,0.0,0.0,0.16699999999999982,0.6583333333333314
2037,brussels,3,0.32766666666665856,0.0,0.0,0.15566666666666662,0.5166666666666586,0.32766666666665856,0.0,0.0,0.15566666666666662,0.5166666666666586
2037,brussels,4,0.4750000000000014,0.0,0.0,0.15,0.3749999999999929,0.4750000000000014,0.0,0.0,0.15,0.3749999999999929
2037,flanders,1,0.05,0.0,0.0,0.15,0.8,0.05,0.0,0.0,0.15,0.8
2037,flanders,2,0.17466666666666697,0.0,0.0,0.16699999999999982,0.6583333333333314,0.17466666666666697,0.0,0.0,0.16699999999999982,0.6583333333333314
2037,flanders,3,0.32766666666665856,0.0,0.0,0.15566666666666662,0.5166666666666586,0.32766666666665856,0.0,0.0,0.15566666666666662,0.5166666666666586
2037,flanders,4,0.4750000000000014,0.0,0.0,0.15,0.3749999999999929,0.4750000000000014,0.0,0.0,0.15,0.3749999999999929
2037,wallonia,1,0.05,0.0,0.0,0.15,0.8,0.05,0.0,0.0,0.15,0.8
2037,wallonia,2,0.17466666666666697,0.0,0.0,0.16699999999999982,0.6583333333333314,0.17466666666666697,0.0,0.0,0.16699999999999982,0.6583333333333314
2037,wallonia,3,0.32766666666665856,0.0,0.0,0.15566666666666662,0.5166666666666586,0.32766666666665856,0.0,0.0,0.15566666666666662,0.5166666666666586
2037,wallonia,4,0.4750000000000014,0.0,0.0,0.15,0.3749999999999929,0.4750000000000014,0.0,0.0,0.15,0.3749999999999929
2038,belgium,1,0.05,0.0,0.0,0.15,0.8,0.05,0.0,0.0,0.15,0.8
2038,belgium,2,0.18200000000000038,0.0,0.0,0.16800000000000015,0.6499999999999986,0.18200000000000038,0.0,0.0,0.16800000000000015,0.6499999999999986
2038,belgium,3,0.3439999999999941,0.0,0.0,0.15600000000000003,0.4999999999999929,0.3439999999999941,0.0,0.0,0.15600000000000003,0.4999999999999929
2038,belgium,4,0.5,0.0,0.0,0.15,0.3499999999999943,0.5,0.0,0.0,0.15,0.3499999999999943
2038,brussels,1,0.05,0.0,0.0,0.15,0.8,0.05,0.0,0.0,0.15,0.8
2038,brussels,2,0.18200000000000038,0.0,0.0,0.16800000000000015,0.6499999999999986,0.18200000000000038,0.0,0.0,0.16800000000000015,0.6499999999999986
2038,brussels,3,0.3439999999999941,0.0,0.0,0.15600000000000003,0.4999999999999929,0.3439999999999941,0.0,0.0,0.15600000000000003,0.4999999999999929
2038,brussels,4,0.5,0.0,0.0,0.15,0.3499999999999943,0.5,0.0,0.0,0.15,0.3499999999999943
2038,flanders,1,0.05,0.0,0.0,0.15,0.8,0.05,0.0,0.0,0.15,0.8
2038,flanders,2,0.18200000000000038,0.0,0.0,0.16800000000000015,0.6499999999999986,0.18200000000000038,0.0,0.0,0.16800000000000015,0.6499999999999986
2038,flanders,3,0.3439999999999941,0.0,0.0,0.15600000000000003,0.4999999999999929,0.3439999999999941,0.0,0.0,0.15600000000000003,0.4999999999999929
2038,flanders,4,0.5,0.0,0.0,0.15,0.3499999999999943,0.5,0.0,0.0,0.15,0.3499999999999943
2038,wallonia,1,0.05,0.0,0.0,0.15,0.8,0.05,0.0,0.0,0.15,0.8
2038,wallonia,2,0.18200000000000038,0.0,0.0,0.16800000000000015,0.6499999999999986,0.18200000000000038,0.0,0.0,0.16800000000000015,0.6499999999999986
2038,wallonia,3,0.3439999999999941,0.0,0.0,0.15600000000000003,0.4999999999999929,0.3439999999999941,0.0,0.0,0.15600000000000003,0.4999999999999929
2038,wallonia,4,0.5,0.0,0.0,0.15,0.3499999999999943,0.5,0.0,0.0,0.15,0.3499999999999943
2039,belgium,1,0.05,0.0,0.0,0.15,0.8,0.05,0.0,0.0,0.15,0.8
2039,belgium,2,0.1893333333333338,0.0,0.0,0.16900000000000004,0.6416666666666657,0.1893333333333338,0.0,0.0,0.16900000000000004,0.6416666666666657
2039,belgium,3,0.3603333333333296,0.0,0.0,0.15633333333333332,0.4833333333333272,0.3603333333333296,0.0,0.0,0.15633333333333332,0.4833333333333272
2039,belgium,4,0.5249999999999986,0.0,0.0,0.15,0.32499999999999574,0.5249999999999986,0.0,0.0,0.15,0.32499999999999574
2039,brussels,1,0.05,0.0,0.0,0.15,0.8,0.05,0.0,0.0,0.15,0.8
2039,brussels,2,0.1893333333333338,0.0,0.0,0.16900000000000004,0.6416666666666657,0.1893333333333338,0.0,0.0,0.16900000000000004,0.6416666666666657
2039,brussels,3,0.3603333333333296,0.0,0.0,0.15633333333333332,0.4833333333333272,0.3603333333333296,0.0,0.0,0.15633333333333332,0.4833333333333272
2039,brussels,4,0.5249999999999986,0.0,0.0,0.15,0.32499999999999574,0.5249999999999986,0.0,0.0,0.15,0.32499999999999574
2039,flanders,1,0.05,0.0,0.0,0.15,0.8,0.05,0.0,0.0,0.15,0.8
2039,flanders,2,0.1893333333333338,0.0,0.0,0.16900000000000004,0.6416666666666657,0.1893333333333338,0.0,0.0,0.16900000000000004,0.6416666666666657
2039,flanders,3,0.3603333333333296,0.0,0.0,0.15633333333333332,0.4833333333333272,0.3603333333333296,0.0,0.0,0.15633333333333332,0.4833333333333272
2039,flanders,4,0.5249999999999986,0.0,0.0,0.15,0.32499999999999574,0.5249999999999986,0.0,0.0,0.15,0.32499999999999574
2039,wallonia,1,0.05,0.0,0.0,0.15,0.8,0.05,0.0,0.0,0.15,0.8
2039,wallonia,2,0.1893333333333338,0.0,0.0,0.16900000000000004,0.6416666666666657,0.1893333333333338,0.0,0.0,0.16900000000000004,0.6416666666666657
2039,wallonia,3,0.3603333333333296,0.0,0.0,0.15633333333333332,0.4833333333333272,0.3603333333333296,0.0,0.0,0.15633333333333332,0.4833333333333272
2039,wallonia,4,0.5249999999999986,0.0,0.0,0.15,0.32499999999999574,0.5249999999999986,0.0,0.0,0.15,0.32499999999999574
2040,belgium,1,0.05,0.0,0.0,0.15,0.8,0.05,0.0,0.0,0.15,0.8
2040,belgium,2,0.1966666666666672,0.0,0.0,0.16999999999999993,0.6333333333333329,0.1966666666666672,0.0,0.0,0.16999999999999993,0.6333333333333329
2040,belgium,3,0.37666666666665805,0.0,0.0,0.15666666666666662,0.46666666666666146,0.37666666666665805,0.0,0.0,0.15666666666666662,0.46666666666666146
2040,belgium,4,0.5499999999999972,0.0,0.0,0.15,0.29999999999999716,0.5499999999999972,0.0,0.0,0.15,0.29999999999999716
2040,brussels,1,0.05,0.0,0.0,0.15,0.8,0.05,0.0,0.0,0.15,0.8
2040,brussels,2,0.1966666666666672,0.0,0.0,0.16999999999999993,0.6333333333333329,0.1966666666666672,0.0,0.0,0.16999999999999993,0.6333333333333329
2040,brussels,3,0.37666666666665805,0.0,0.0,0.15666666666666662,0.46666666666666146,0.37666666666665805,0.0,0.0,0.15666666666666662,0.46666666666666146
2040,brussels,4,0.5499999999999972,0.0,0.0,0.15,0.29999999999999716,0.5499999999999972,0.0,0.0,0.15,0.29999999999999716
2040,flanders,1,0.05,0.0,0.0,0.15,0.8,0.05,0.0,0.0,0.15,0.8
2040,flanders,2,0.1966666666666672,0.0,0.0,0.16999999999999993,0.6333333333333329,0.1966666666666672,0.0,0.0,0.16999999999999993,0.6333333333333329
2040,flanders,3,0.37666666666665805,0.0,0.0,0.15666666666666662,0.46666666666666146,0.37666666666665805,0.0,0.0,0.15666666666666662,0.46666666666666146
2040,flanders,4,0.5499999999999972,0.0,0.0,0.15,0.29999999999999716,0.5499999999999972,0.0,0.0,0.15,0.29999999999999716
2040,wallonia,1,0.05,0.0,0.0,0.15,0.8,0.05,0.0,0.0,0.15,0.8
2040,wallonia,2,0.1966666666666672,0.0,0.0,0.16999999999999993,0.6333333333333329,0.1966666666666672,0.0,0.0,0.16999999999999993,0.6333333333333329
2040,wallonia,3,0.37666666666665805,0.0,0.0,0.15666666666666662,0.46666666666666146,0.37666666666665805,0.0,0.0,0.15666666666666662,0.46666666666666146
2040,wallonia,4,0.5499999999999972,0.0,0.0,0.15,0.29999999999999716,0.5499999999999972,0.0,0.0,0.15,0.29999999999999716
2041,belgium,1,0.05,0.0,0.0,0.15,0.8,0.05,0.0,0.0,0.15,0.8
2041,belgium,2,0.20400000000000063,0.0,0.0,0.17099999999999982,0.625,0.20400000000000063,0.0,0.0,0.17099999999999982,0.625
2041,belgium,3,0.3929999999999936,0.0,0.0,0.15700000000000003,0.44999999999999574,0.3929999999999936,0.0,0.0,0.15700000000000003,0.44999999999999574
2041,belgium,4,0.5750000000000028,0.0,0.0,0.15,0.2749999999999915,0.5750000000000028,0.0,0.0,0.15,0.2749999999999915
2041,brussels,1,0.05,0.0,0.0,0.15,0.8,0.05,0.0,0.0,0.15,0.8
2041,brussels,2,0.20400000000000063,0.0,0.0,0.17099999999999982,0.625,0.20400000000000063,0.0,0.0,0.17099999999999982,0.625
2041,brussels,3,0.3929999999999936,0.0,0.0,0.15700000000000003,0.44999999999999574,0.3929999999999936,0.0,0.0,0.15700000000000003,0.44999999999999574
2041,brussels,4,0.5750000000000028,0.0,0.0,0.15,0.2749999999999915,0.5750000000000028,0.0,0.0,0.15,0.2749999999999915
2041,flanders,1,0.05,0.0,0.0,0.15,0.8,0.05,0.0,0.0,0.15,0.8
2041,flanders,2,0.20400000000000063,0.0,0.0,0.17099999999999982,0.625,0.20400000000000063,0.0,0.0,0.17099999999999982,0.625
2041,flanders,3,0.3929999999999936,0.0,0.0,0.15700000000000003,0.44999999999999574,0.3929999999999936,0.0,0.0,0.15700000000000003,0.44999999999999574
2041,flanders,4,0.5750000000000028,0.0,0.0,0.15,0.2749999999999915,0.5750000000000028,0.0,0.0,0.15,0.2749999999999915
2041,wallonia,1,0.05,0.0,0.0,0.15,0.8,0.05,0.0,0.0,0.15,0.8
2041,wallonia,2,0.20400000000000063,0.0,0.0,0.17099999999999982,0.625,0.20400000000000063,0.0,0.0,0.17099999999999982,0.625
2041,wallonia,3,0.3929999999999936,0.0,0.0,0.15700000000000003,0.44999999999999574,0.3929999999999936,0.0,0.0,0.15700000000000003,0.44999999999999574
2041,wallonia,4,0.5750000000000028,0.0,0.0,0.15,0.2749999999999915,0.5750000000000028,0.0,0.0,0.15,0.2749999999999915
2042,belgium,1,0.05,0.0,0.0,0.15,0.8,0.05,0.0,0.0,0.15,0.8
2042,belgium,2,0.21133333333333404,0.0,0.0,0.17200000000000015,0.6166666666666671,0.21133333333333404,0.0,0.0,0.17200000000000015,0.6166666666666671
2042,belgium,3,0.4093333333333291,0.0,0.0,0.15733333333333333,0.43333333333333,0.4093333333333291,0.0,0.0,0.15733333333333333,0.43333333333333
2042,belgium,4,0.6000000000000014,0.0,0.0,0.15,0.2499999999999929,0.6000000000000014,0.0,0.0,0.15,0.2499999999999929
2042,brussels,1,0.05,0.0,0.0,0.15,0.8,0.05,0.0,0.0,0.15,0.8
2042,brussels,2,0.21133333333333404,0.0,0.0,0.17200000000000015,0.6166666666666671,0.21133333333333404,0.0,0.0,0.17200000000000015,0.6166666666666671
2042,brussels,3,0.4093333333333291,0.0,0.0,0.15733333333333333,0.43333333333333,0.4093333333333291,0.0,0.0,0.15733333333333333,0.43333333333333
2042,brussels,4,0.6000000000000014,0.0,0.0,0.15,0.2499999999999929,0.6000000000000014,0.0,0.0,0.15,0.2499999999999929
2042,flanders,1,0.05,0.0,0.0,0.15,0.8,0.05,0.0,0.0,0.15,0.8
2042,flanders,2,0.21133333333333404,0.0,0.0,0.17200000000000015,0.6166666666666671,0.21133333333333404,0.0,0.0,0.17200000000000015,0.6166666666666671
2042,flanders,3,0.4093333333333291,0.0,0.0,0.15733333333333333,0.43333333333333,0.4093333333333291,0.0,0.0,0.15733333333333333,0.43333333333333
2042,flanders,4,0.6000000000000014,0.0,0.0,0.15,0.2499999999999929,0.6000000000000014,0.0,0.0,0.15,0.2499999999999929
2042,wallonia,1,0.05,0.0,0.0,0.15,0.8,0.05,0.0,0.0,0.15,0.8
2042,wallonia,2,0.21133333333333404,0.0,0.0,0.17200000000000015,0.6166666666666671,0.21133333333333404,0.0,0.0,0.17200000000000015,0.6166666666666671
2042,wallonia,3,0.4093333333333291,0.0,0.0,0.15733333333333333,0.43333333333333,0.4093333333333291,0.0,0.0,0.15733333333333333,0.43333333333333
2042,wallonia,4,0.6000000000000014,0.0,0.0,0.15,0.2499999999999929,0.6000000000000014,0.0,0.0,0.15,0.2499999999999929
2043,belgium,1,0.05,0.0,0.0,0.15,0.8,0.05,0.0,0.0,0.15,0.8
2043,belgium,2,0.21866666666666745,0.0,0.0,0.17300000000000004,0.6083333333333343,0.21866666666666745,0.0,0.0,0.17300000000000004,0.6083333333333343
2043,belgium,3,0.42566666666666464,0.0,0.0,0.15766666666666662,0.4166666666666643,0.42566666666666464,0.0,0.0,0.15766666666666662,0.4166666666666643
2043,belgium,4,0.625,0.0,0.0,0.15,0.22499999999999432,0.625,0.0,0.0,0.15,0.22499999999999432
2043,brussels,1,0.05,0.0,0.0,0.15,0.8,0.05,0.0,0.0,0.15,0.8
2043,brussels,2,0.21866666666666745,0.0,0.0,0.17300000000000004,0.6083333333333343,0.21866666666666745,0.0,0.0,0.17300000000000004,0.6083333333333343
2043,brussels,3,0.42566666666666464,0.0,0.0,0.15766666666666662,0.4166666666666643,0.42566666666666464,0.0,0.0,0.15766666666666662,0.4166666666666643
2043,brussels,4,0.625,0.0,0.0,0.15,0.22499999999999432,0.625,0.0,0.0,0.15,0.22499999999999432
2043,flanders,1,0.05,0.0,0.0,0.15,0.8,0.05,0.0,0.0,0.15,0.8
2043,flanders,2,0.21866666666666745,0.0,0.0,0.17300000000000004,0.6083333333333343,0.21866666666666745,0.0,0.0,0.17300000000000004,0.6083333333333343
2043,flanders,3,0.42566666666666464,0.0,0.0,0.15766666666666662,0.4166666666666643,0.42566666666666464,0.0,0.0,0.15766666666666662,0.4166666666666643
2043,flanders,4,0.625,0.0,0.0,0.15,0.22499999999999432,0.625,0.0,0.0,0.15,0.22499999999999432
2043,wallonia,1,0.05,0.0,0.0,0.15,0.8,0.05,0.0,0.0,0.15,0.8
2043,wallonia,2,0.21866666666666745,0.0,0.0,0.17300000000000004,0.6083333333333343,0.21866666666666745,0.0,0.0,0.17300000000000004,0.6083333333333343
2043,wallonia,3,0.42566666666666464,0.0,0.0,0.15766666666666662,0.4166666666666643,0.42566666666666464,0.0,0.0,0.15766666666666662,0.4166666666666643
2043,wallonia,4,0.625,0.0,0.0,0.15,0.22499999999999432,0.625,0.0,0.0,0.15,0.22499999999999432
2044,belgium,1,0.05,0.0,0.0,0.15,0.8,0.05,0.0,0.0,0.15,0.8
2044,belgium,2,0.22600000000000087,0.0,0.0,0.17399999999999993,0.6000000000000014,0.22600000000000087,0.0,0.0,0.17399999999999993,0.6000000000000014
2044,belgium,3,0.44199999999999307,0.0,0.0,0.15800000000000003,0.3999999999999986,0.44199999999999307,0.0,0.0,0.15800000000000003,0.3999999999999986
2044,belgium,4,0.6499999999999986,0.0,0.0,0.15,0.19999999999999574,0.6499999999999986,0.0,0.0,0.15,0.19999999999999574
2044,brussels,1,0.05,0.0,0.0,0.15,0.8,0.05,0.0,0.0,0.15,0.8
2044,brussels,2,0.22600000000000087,0.0,0.0,0.17399999999999993,0.6000000000000014,0.22600000000000087,0.0,0.0,0.17399999999999993,0.6000000000000014
2044,brussels,3,0.44199999999999307,0.0,0.0,0.15800000000000003,0.3999999999999986,0.44199999999999307,0.0,0.0,0.15800000000000003,0.3999999999999986
2044,brussels,4,0.6499999999999986,0.0,0.0,0.15,0.19999999999999574,0.6499999999999986,0.0,0.0,0.15,0.19999999999999574
2044,flanders,1,0.05,0.0,0.0,0.15,0.8,0.05,0.0,0.0,0.15,0.8
2044,flanders,2,0.22600000000000087,0.0,0.0,0.17399999999999993,0.6000000000000014,0.22600000000000087,0.0,0.0,0.17399999999999993,0.6000000000000014
2044,flanders,3,0.44199999999999307,0.0,0.0,0.15800000000000003,0.3999999999999986,0.44199999999999307,0.0,0.0,0.15800000000000003,0.3999999999999986
2044,flanders,4,0.6499999999999986,0.0,0.0,0.15,0.19999999999999574,0.6499999999999986,0.0,0.0,0.15,0.19999999999999574
2044,wallonia,1,0.05,0.0,0.0,0.15,0.8,0.05,0.0,0.0,0.15,0.8
2044,wallonia,2,0.22600000000000087,0.0,0.0,0.17399999999999993,0.6000000000000014,0.22600000000000087,0.0,0.0,0.17399999999999993,0.6000000000000014
2044,wallonia,3,0.44199999999999307,0.0,0.0,0.15800000000000003,0.3999999999999986,0.44199999999999307,0.0,0.0,0.15800000000000003,0.3999999999999986
2044,wallonia,4,0.6499999999999986,0.0,0.0,0.15,0.19999999999999574,0.6499999999999986,0.0,0.0,0.15,0.19999999999999574
2045,belgium,1,0.05,0.0,0.0,0.15,0.8,0.05,0.0,0.0,0.15,0.8
2045,belgium,2,0.23333333333333428,0.0,0.0,0.17499999999999982,0.591666666666665,0.23333333333333428,0.0,0.0,0.17499999999999982,0.591666666666665
2045,belgium,3,0.4583333333333286,0.0,0.0,0.15833333333333333,0.38333333333332575,0.4583333333333286,0.0,0.0,0.15833333333333333,0.38333333333332575
2045,belgium,4,0.6749999999999972,0.0,0.0,0.15,0.17499999999999716,0.6749999999999972,0.0,0.0,0.15,0.17499999999999716
2045,brussels,1,0.05,0.0,0.0,0.15,0.8,0.05,0.0,0.0,0.15,0.8
2045,brussels,2,0.23333333333333428,0.0,0.0,0.17499999999999982,0.591666666666665,0.23333333333333428,0.0,0.0,0.17499999999999982,0.591666666666665
2045,brussels,3,0.4583333333333286,0.0,0.0,0.15833333333333333,0.38333333333332575,0.4583333333333286,0.0,0.0,0.15833333333333333,0.38333333333332575
2045,brussels,4,0.6749999999999972,0.0,0.0,0.15,0.17499999999999716,0.6749999999999972,0.0,0.0,0.15,0.17499999999999716
2045,flanders,1,0.05,0.0,0.0,0.15,0.8,0.05,0.0,0.0,0.15,0.8
2045,flanders,2,0.23333333333333428,0.0,0.0,0.17499999999999982,0.591666666666665,0.23333333333333428,0.0,0.0,0.17499999999999982,0.591666666666665
2045,flanders,3,0.4583333333333286,0.0,0.0,0.15833333333333333,0.38333333333332575,0.4583333333333286,0.0,0.0,0.15833333333333333,0.38333333333332575
2045,flanders,4,0.6749999999999972,0.0,0.0,0.15,0.17499999999999716,0.6749999999999972,0.0,0.0,0.15,0.17499999999999716
2045,wallonia,1,0.05,0.0,0.0,0.15,0.8,0.05,0.0,0.0,0.15,0.8
2045,wallonia,2,0.23333333333333428,0.0,0.0,0.17499999999999982,0.591666666666665,0.23333333333333428,0.0,0.0,0.17499999999999982,0.591666666666665
2045,wallonia,3,0.4583333333333286,0.0,0.0,0.15833333333333333,0.38333333333332575,0.4583333333333286,0.0,0.0,0.15833333333333333,0.38333333333332575
2045,wallonia,4,0.6749999999999972,0.0,0.0,0.15,0.17499999999999716,0.6749999999999972,0.0,0.0,0.15,0.17499999999999716
2046,belgium,1,0.05,0.0,0.0,0.15,0.8,0.05,0.0,0.0,0.15,0.8
2046,belgium,2,0.2406666666666677,0.0,0.0,0.17600000000000016,0.5833333333333321,0.2406666666666677,0.0,0.0,0.17600000000000016,0.5833333333333321
2046,belgium,3,0.4746666666666641,0.0,0.0,0.15866666666666662,0.36666666666666003,0.4746666666666641,0.0,0.0,0.15866666666666662,0.36666666666666003
2046,belgium,4,0.7000000000000028,0.0,0.0,0.15,0.14999999999999147,0.7000000000000028,0.0,0.0,0.15,0.14999999999999147
2046,brussels,1,0.05,0.0,0.0,0.15,0.8,0.05,0.0,0.0,0.15,0.8
2046,brussels,2,0.2406666666666677,0.0,0.0,0.17600000000000016,0.5833333333333321,0.2406666666666677,0.0,0.0,0.17600000000000016,0.5833333333333321
2046,brussels,3,0.4746666666666641,0.0,0.0,0.15866666666666662,0.36666666666666003,0.4746666666666641,0.0,0.0,0.15866666666666662,0.36666666666666003
2046,brussels,4,0.7000000000000028,0.0,0.0,0.15,0.14999999999999147,0.7000000000000028,0.0,0.0,0.15,0.14999999999999147
2046,flanders,1,0.05,0.0,0.0,0.15,0.8,0.05,0.0,0.0,0.15,0.8
2046,flanders,2,0.2406666666666677,0.0,0.0,0.17600000000000016,0.5833333333333321,0.2406666666666677,0.0,0.0,0.17600000000000016,0.5833333333333321
2046,flanders,3,0.4746666666666641,0.0,0.0,0.15866666666666662,0.36666666666666003,0.4746666666666641,0.0,0.0,0.15866666666666662,0.36666666666666003
2046,flanders,4,0.7000000000000028,0.0,0.0,0.15,0.14999999999999147,0.7000000000000028,0.0,0.0,0.15,0.14999999999999147
2046,wallonia,1,0.05,0.0,0.0,0.15,0.8,0.05,0.0,0.0,0.15,0.8
2046,wallonia,2,0.2406666666666677,0.0,0.0,0.17600000000000016,0.5833333333333321,0.2406666666666677,0.0,0.0,0.17600000000000016,0.5833333333333321
2046,wallonia,3,0.4746666666666641,0.0,0.0,0.15866666666666662,0.36666666666666003,0.4746666666666641,0.0,0.0,0.15866666666666662,0.36666666666666003
2046,wallonia,4,0.7000000000000028,0.0,0.0,0.15,0.14999999999999147,0.7000000000000028,0.0,0.0,0.15,0.14999999999999147
2047,belgium,1,0.05,0.0,0.0,0.15,0.8,0.05,0.0,0.0,0.15,0.8
2047,belgium,2,0.2480000000000011,0.0,0.0,0.17700000000000005,0.5749999999999993,0.2480000000000011,0.0,0.0,0.17700000000000005,0.5749999999999993
2047,belgium,3,0.49099999999999255,0.0,0.0,0.15900000000000003,0.3499999999999943,0.49099999999999255,0.0,0.0,0.15900000000000003,0.3499999999999943
2047,belgium,4,0.7250000000000014,0.0,0.0,0.15,0.1249999999999929,0.7250000000000014,0.0,0.0,0.15,0.1249999999999929
2047,brussels,1,0.05,0.0,0.0,0.15,0.8,0.05,0.0,0.0,0.15,0.8
2047,brussels,2,0.2480000000000011,0.0,0.0,0.17700000000000005,0.5749999999999993,0.2480000000000011,0.0,0.0,0.17700000000000005,0.5749999999999993
2047,brussels,3,0.49099999999999255,0.0,0.0,0.15900000000000003,0.3499999999999943,0.49099999999999255,0.0,0.0,0.15900000000000003,0.3499999999999943
2047,brussels,4,0.7250000000000014,0.0,0.0,0.15,0.1249999999999929,0.7250000000000014,0.0,0.0,0.15,0.1249999999999929
2047,flanders,1,0.05,0.0,0.0,0.15,0.8,0.05,0.0,0.0,0.15,0.8
2047,flanders,2,0.2480000000000011,0.0,0.0,0.17700000000000005,0.5749999999999993,0.2480000000000011,0.0,0.0,0.17700000000000005,0.5749999999999993
2047,flanders,3,0.49099999999999255,0.0,0.0,0.15900000000000003,0.3499999999999943,0.49099999999999255,0.0,0.0,0.15900000000000003,0.3499999999999943
2047,flanders,4,0.7250000000000014,0.0,0.0,0.15,0.1249999999999929,0.7250000000000014,0.0,0.0,0.15,0.1249999999999929
2047,wallonia,1,0.05,0.0,0.0,0.15,0.8,0.05,0.0,0.0,0.15,0.8
2047,wallonia,2,0.2480000000000011,0.0,0.0,0.17700000000000005,0.5749999999999993,0.2480000000000011,0.0,0.0,0.17700000000000005,0.5749999999999993
2047,wallonia,3,0.49099999999999255,0.0,0.0,0.15900000000000003,0.3499999999999943,0.49099999999999255,0.0,0.0,0.15900000000000003,0.3499999999999943
2047,wallonia,4,0.7250000000000014,0.0,0.0,0.15,0.1249999999999929,0.7250000000000014,0.0,0.0,0.15,0.1249999999999929
2048,belgium,1,0.05,0.0,0.0,0.15,0.8,0.05,0.0,0.0,0.15,0.8
2048,belgium,2,0.2553333333333345,0.0,0.0,0.17799999999999994,0.5666666666666664,0.2553333333333345,0.0,0.0,0.17799999999999994,0.5666666666666664
2048,belgium,3,0.5073333333333281,0.0,0.0,0.15933333333333333,0.3333333333333286,0.5073333333333281,0.0,0.0,0.15933333333333333,0.3333333333333286
2048,belgium,4,0.75,0.0,0.0,0.15,0.09999999999999432,0.75,0.0,0.0,0.15,0.09999999999999432
2048,brussels,1,0.05,0.0,0.0,0.15,0.8,0.05,0.0,0.0,0.15,0.8
2048,brussels,2,0.2553333333333345,0.0,0.0,0.17799999999999994,0.5666666666666664,0.2553333333333345,0.0,0.0,0.17799999999999994,0.5666666666666664
2048,brussels,3,0.5073333333333281,0.0,0.0,0.15933333333333333,0.3333333333333286,0.5073333333333281,0.0,0.0,0.15933333333333333,0.3333333333333286
2048,brussels,4,0.75,0.0,0.0,0.15,0.09999999999999432,0.75,0.0,0.0,0.15,0.09999999999999432
2048,flanders,1,0.05,0.0,0.0,0.15,0.8,0.05,0.0,0.0,0.15,0.8
2048,flanders,2,0.2553333333333345,0.0,0.0,0.17799999999999994,0.5666666666666664,0.2553333333333345,0.0,0.0,0.17799999999999994,0.5666666666666664
2048,flanders,3,0.5073333333333281,0.0,0.0,0.15933333333333333,0.3333333333333286,0.5073333333333281,0.0,0.0,0.15933333333333333,0.3333333333333286
2048,flanders,4,0.75,0.0,0.0,0.15,0.09999999999999432,0.75,0.0,0.0,0.15,0.09999999999999432
2048,wallonia,1,0.05,0.0,0.0,0.15,0.8,0.05,0.0,0.0,0.15,0.8
2048,wallonia,2,0.2553333333333345,0.0,0.0,0.17799999999999994,0.5666666666666664,0.2553333333333345,0.0,0.0,0.17799999999999994,0.5666666666666664
2048,wallonia,3,0.5073333333333281,0.0,0.0,0.15933333333333333,0.3333333333333286,0.5073333333333281,0.0,0.0,0.15933333333333333,0.3333333333333286
2048,wallonia,4,0.75,0.0,0.0,0.15,0.09999999999999432,0.75,0.0,0.0,0.15,0.09999999999999432
2049,belgium,1,0.05,0.0,0.0,0.15,0.8,0.05,0.0,0.0,0.15,0.8
2049,belgium,2,0.26266666666666794,0.0,0.0,0.17899999999999983,0.5583333333333336,0.26266666666666794,0.0,0.0,0.17899999999999983,0.5583333333333336
2049,belgium,3,0.5236666666666636,0.0,0.0,0.15966666666666662,0.3166666666666629,0.5236666666666636,0.0,0.0,0.15966666666666662,0.3166666666666629
2049,belgium,4,0.7749999999999986,0.0,0.0,0.15,0.07499999999999574,0.7749999999999986,0.0,0.0,0.15,0.07499999999999574
2049,brussels,1,0.05,0.0,0.0,0.15,0.8,0.05,0.0,0.0,0.15,0.8
2049,brussels,2,0.26266666666666794,0.0,0.0,0.17899999999999983,0.5583333333333336,0.26266666666666794,0.0,0.0,0.17899999999999983,0.5583333333333336
2049,brussels,3,0.5236666666666636,0.0,0.0,0.15966666666666662,0.3166666666666629,0.5236666666666636,0.0,0.0,0.15966666666666662,0.3166666666666629
2049,brussels,4,0.7749999999999986,0.0,0.0,0.15,0.07499999999999574,0.7749999999999986,0.0,0.0,0.15,0.07499999999999574
2049,flanders,1,0.05,0.0,0.0,0.15,0.8,0.05,0.0,0.0,0.15,0.8
2049,flanders,2,0.26266666666666794,0.0,0.0,0.17899999999999983,0.5583333333333336,0.26266666666666794,0.0,0.0,0.17899999999999983,0.5583333333333336
2049,flanders,3,0.5236666666666636,0.0,0.0,0.15966666666666662,0.3166666666666629,0.5236666666666636,0.0,0.0,0.15966666666666662,0.3166666666666629
2049,flanders,4,0.7749999999999986,0.0,0.0,0.15,0.07499999999999574,0.7749999999999986,0.0,0.0,0.15,0.07499999999999574
2049,wallonia,1,0.05,0.0,0.0,0.15,0.8,0.05,0.0,0.0,0.15,0.8
2049,wallonia,2,0.26266666666666794,0.0,0.0,0.17899999999999983,0.5583333333333336,0.26266666666666794,0.0,0.0,0.17899999999999983,0.5583333333333336
2049,wallonia,3,0.5236666666666636,0.0,0.0,0.15966666666666662,0.3166666666666629,0.5236666666666636,0.0,0.0,0.15966666666666662,0.3166666666666629
2049,wallonia,4,0.7749999999999986,0.0,0.0,0.15,0.07499999999999574,0.7749999999999986,0.0,0.0,0.15,0.07499999999999574
2050,belgium,1,0.05,0.0,0.0,0.15,0.8,0.05,0.0,0.0,0.15,0.8
2050,belgium,2,0.27000000000000135,0.0,0.0,0.17999999999999972,0.5500000000000007,0.27000000000000135,0.0,0.0,0.17999999999999972,0.5500000000000007
2050,belgium,3,0.539999999999992,0.0,0.0,0.16000000000000003,0.29999999999999716,0.539999999999992,0.0,0.0,0.16000000000000003,0.29999999999999716
2050,belgium,4,0.7999999999999972,0.0,0.0,0.15,0.04999999999999716,0.7999999999999972,0.0,0.0,0.15,0.04999999999999716
2050,brussels,1,0.05,0.0,0.0,0.15,0.8,0.05,0.0,0.0,0.15,0.8
2050,brussels,2,0.27000000000000135,0.0,0.0,0.17999999999999972,0.5500000000000007,0.27000000000000135,0.0,0.0,0.17999999999999972,0.5500000000000007
2050,brussels,3,0.539999999999992,0.0,0.0,0.16000000000000003,0.29999999999999716,0.539999999999992,0.0,0.0,0.16000000000000003,0.29999999999999716
2050,brussels,4,0.7999999999999972,0.0,0.0,0.15,0.04999999999999716,0.7999999999999972,0.0,0.0,0.15,0.04999999999999716
2050,flanders,1,0.05,0.0,0.0,0.15,0.8,0.05,0.0,0.0,0.15,0.8
2050,flanders,2,0.27000000000000135,0.0,0.0,0.17999999999999972,0.5500000000000007,0.27000000000000135,0.0,0.0,0.17999999999999972,0.5500000000000007
2050,flanders,3,0.539999999999992,0.0,0.0,0.16000000000000003,0.29999999999999716,0.539999999999992,0.0,0.0,0.16000000000000003,0.29999999999999716
2050,flanders,4,0.7999999999999972,0.0,0.0,0.15,0.04999999999999716,0.7999999999999972,0.0,0.0,0.15,0.04999999999999716
2050,wallonia,1,0.05,0.0,0.0,0.15,0.8,0.05,0.0,0.0,0.15,0.8
2050,wallonia,2,0.27000000000000135,0.0,0.0,0.17999999999999972,0.5500000000000007,0.27000000000000135,0.0,0.0,0.17999999999999972,0.5500000000000007
2050,wallonia,3,0.539999999999992,0.0,0.0,0.16000000000000003,0.29999999999999716,0.539999999999992,0.0,0.0,0.16000000000000003,0.29999999999999716
2050,wallonia,4,0.7999999999999972,0.0,0.0,0.15,0.04999999999999716,0.7999999999999972,0.0,0.0,0.15,0.04999999999999716
