Country,ots_ind_technology-share_aluminium_tech[%],Years,ots_ind_technology-share_cement_dry-kiln[%],ots_ind_technology-share_cement_geopolym[%],ots_ind_technology-share_cement_wet-kiln[%],ots_ind_technology-share_ceramic_tech[%],ots_ind_technology-share_chemical-ammonia_tech[%],ots_ind_technology-share_chemical-chlorine_tech[%],ots_ind_technology-share_chemical-olefin_tech[%],ots_ind_technology-share_chemical-other_tech[%],ots_ind_technology-share_food_tech[%],ots_ind_technology-share_glass_tech[%],ots_ind_technology-share_lime_tech[%],ots_ind_technology-share_non-ferrous_tech[%],ots_ind_technology-share_other-industries_tech[%],ots_ind_technology-share_paper_recycling[%],ots_ind_technology-share_paper_woodpulp[%],ots_ind_technology-share_steel_BF-BOF[%],ots_ind_technology-share_steel_HIsarna[%],ots_ind_technology-share_steel_hydrogen-DRI[%],ots_ind_technology-share_steel_scrap-EAF[%],ots_ind_technology-share_wood_tech[%]
belgium,1.0,1990,0.91,0.0,0.09,1.0,1.0,1.0,1.0,1.0,1.0,1.0,1.0,1.0,1.0,0.54,0.46,0.68,0.0,0.0,0.32,1.0
brussels,1.0,1990,0.91,0.0,0.09,1.0,1.0,1.0,1.0,1.0,1.0,1.0,1.0,1.0,1.0,0.54,0.46,0.68,0.0,0.0,0.32,1.0
flanders,1.0,1990,0.91,0.0,0.09,1.0,1.0,1.0,1.0,1.0,1.0,1.0,1.0,1.0,1.0,0.54,0.46,0.68,0.0,0.0,0.32,1.0
rest-of-world,1.0,1990,0.91,0.0,0.09,1.0,1.0,1.0,1.0,1.0,1.0,1.0,1.0,1.0,1.0,0.54,0.46,0.68,0.0,0.0,0.32,1.0
wallonia,1.0,1990,0.91,0.0,0.09,1.0,1.0,1.0,1.0,1.0,1.0,1.0,1.0,1.0,1.0,0.54,0.46,0.68,0.0,0.0,0.32,1.0
belgium,1.0,1991,0.91,0.0,0.09,1.0,1.0,1.0,1.0,1.0,1.0,1.0,1.0,1.0,1.0,0.54,0.46,0.68,0.0,0.0,0.32,1.0
brussels,1.0,1991,0.91,0.0,0.09,1.0,1.0,1.0,1.0,1.0,1.0,1.0,1.0,1.0,1.0,0.54,0.46,0.68,0.0,0.0,0.32,1.0
flanders,1.0,1991,0.91,0.0,0.09,1.0,1.0,1.0,1.0,1.0,1.0,1.0,1.0,1.0,1.0,0.54,0.46,0.68,0.0,0.0,0.32,1.0
rest-of-world,1.0,1991,0.91,0.0,0.09,1.0,1.0,1.0,1.0,1.0,1.0,1.0,1.0,1.0,1.0,0.54,0.46,0.68,0.0,0.0,0.32,1.0
wallonia,1.0,1991,0.91,0.0,0.09,1.0,1.0,1.0,1.0,1.0,1.0,1.0,1.0,1.0,1.0,0.54,0.46,0.68,0.0,0.0,0.32,1.0
belgium,1.0,1992,0.91,0.0,0.09,1.0,1.0,1.0,1.0,1.0,1.0,1.0,1.0,1.0,1.0,0.54,0.46,0.68,0.0,0.0,0.32,1.0
brussels,1.0,1992,0.91,0.0,0.09,1.0,1.0,1.0,1.0,1.0,1.0,1.0,1.0,1.0,1.0,0.54,0.46,0.68,0.0,0.0,0.32,1.0
flanders,1.0,1992,0.91,0.0,0.09,1.0,1.0,1.0,1.0,1.0,1.0,1.0,1.0,1.0,1.0,0.54,0.46,0.68,0.0,0.0,0.32,1.0
rest-of-world,1.0,1992,0.91,0.0,0.09,1.0,1.0,1.0,1.0,1.0,1.0,1.0,1.0,1.0,1.0,0.54,0.46,0.68,0.0,0.0,0.32,1.0
wallonia,1.0,1992,0.91,0.0,0.09,1.0,1.0,1.0,1.0,1.0,1.0,1.0,1.0,1.0,1.0,0.54,0.46,0.68,0.0,0.0,0.32,1.0
belgium,1.0,1993,0.91,0.0,0.09,1.0,1.0,1.0,1.0,1.0,1.0,1.0,1.0,1.0,1.0,0.54,0.46,0.68,0.0,0.0,0.32,1.0
brussels,1.0,1993,0.91,0.0,0.09,1.0,1.0,1.0,1.0,1.0,1.0,1.0,1.0,1.0,1.0,0.54,0.46,0.68,0.0,0.0,0.32,1.0
flanders,1.0,1993,0.91,0.0,0.09,1.0,1.0,1.0,1.0,1.0,1.0,1.0,1.0,1.0,1.0,0.54,0.46,0.68,0.0,0.0,0.32,1.0
rest-of-world,1.0,1993,0.91,0.0,0.09,1.0,1.0,1.0,1.0,1.0,1.0,1.0,1.0,1.0,1.0,0.54,0.46,0.68,0.0,0.0,0.32,1.0
wallonia,1.0,1993,0.91,0.0,0.09,1.0,1.0,1.0,1.0,1.0,1.0,1.0,1.0,1.0,1.0,0.54,0.46,0.68,0.0,0.0,0.32,1.0
belgium,1.0,1994,0.91,0.0,0.09,1.0,1.0,1.0,1.0,1.0,1.0,1.0,1.0,1.0,1.0,0.54,0.46,0.68,0.0,0.0,0.32,1.0
brussels,1.0,1994,0.91,0.0,0.09,1.0,1.0,1.0,1.0,1.0,1.0,1.0,1.0,1.0,1.0,0.54,0.46,0.68,0.0,0.0,0.32,1.0
flanders,1.0,1994,0.91,0.0,0.09,1.0,1.0,1.0,1.0,1.0,1.0,1.0,1.0,1.0,1.0,0.54,0.46,0.68,0.0,0.0,0.32,1.0
rest-of-world,1.0,1994,0.91,0.0,0.09,1.0,1.0,1.0,1.0,1.0,1.0,1.0,1.0,1.0,1.0,0.54,0.46,0.68,0.0,0.0,0.32,1.0
wallonia,1.0,1994,0.91,0.0,0.09,1.0,1.0,1.0,1.0,1.0,1.0,1.0,1.0,1.0,1.0,0.54,0.46,0.68,0.0,0.0,0.32,1.0
belgium,1.0,1995,0.91,0.0,0.09,1.0,1.0,1.0,1.0,1.0,1.0,1.0,1.0,1.0,1.0,0.54,0.46,0.68,0.0,0.0,0.32,1.0
brussels,1.0,1995,0.91,0.0,0.09,1.0,1.0,1.0,1.0,1.0,1.0,1.0,1.0,1.0,1.0,0.54,0.46,0.68,0.0,0.0,0.32,1.0
flanders,1.0,1995,0.91,0.0,0.09,1.0,1.0,1.0,1.0,1.0,1.0,1.0,1.0,1.0,1.0,0.54,0.46,0.68,0.0,0.0,0.32,1.0
rest-of-world,1.0,1995,0.91,0.0,0.09,1.0,1.0,1.0,1.0,1.0,1.0,1.0,1.0,1.0,1.0,0.54,0.46,0.68,0.0,0.0,0.32,1.0
wallonia,1.0,1995,0.91,0.0,0.09,1.0,1.0,1.0,1.0,1.0,1.0,1.0,1.0,1.0,1.0,0.54,0.46,0.68,0.0,0.0,0.32,1.0
belgium,1.0,1996,0.91,0.0,0.09,1.0,1.0,1.0,1.0,1.0,1.0,1.0,1.0,1.0,1.0,0.54,0.46,0.68,0.0,0.0,0.32,1.0
brussels,1.0,1996,0.91,0.0,0.09,1.0,1.0,1.0,1.0,1.0,1.0,1.0,1.0,1.0,1.0,0.54,0.46,0.68,0.0,0.0,0.32,1.0
flanders,1.0,1996,0.91,0.0,0.09,1.0,1.0,1.0,1.0,1.0,1.0,1.0,1.0,1.0,1.0,0.54,0.46,0.68,0.0,0.0,0.32,1.0
rest-of-world,1.0,1996,0.91,0.0,0.09,1.0,1.0,1.0,1.0,1.0,1.0,1.0,1.0,1.0,1.0,0.54,0.46,0.68,0.0,0.0,0.32,1.0
wallonia,1.0,1996,0.91,0.0,0.09,1.0,1.0,1.0,1.0,1.0,1.0,1.0,1.0,1.0,1.0,0.54,0.46,0.68,0.0,0.0,0.32,1.0
belgium,1.0,1997,0.91,0.0,0.09,1.0,1.0,1.0,1.0,1.0,1.0,1.0,1.0,1.0,1.0,0.54,0.46,0.68,0.0,0.0,0.32,1.0
brussels,1.0,1997,0.91,0.0,0.09,1.0,1.0,1.0,1.0,1.0,1.0,1.0,1.0,1.0,1.0,0.54,0.46,0.68,0.0,0.0,0.32,1.0
flanders,1.0,1997,0.91,0.0,0.09,1.0,1.0,1.0,1.0,1.0,1.0,1.0,1.0,1.0,1.0,0.54,0.46,0.68,0.0,0.0,0.32,1.0
rest-of-world,1.0,1997,0.91,0.0,0.09,1.0,1.0,1.0,1.0,1.0,1.0,1.0,1.0,1.0,1.0,0.54,0.46,0.68,0.0,0.0,0.32,1.0
wallonia,1.0,1997,0.91,0.0,0.09,1.0,1.0,1.0,1.0,1.0,1.0,1.0,1.0,1.0,1.0,0.54,0.46,0.68,0.0,0.0,0.32,1.0
belgium,1.0,1998,0.91,0.0,0.09,1.0,1.0,1.0,1.0,1.0,1.0,1.0,1.0,1.0,1.0,0.54,0.46,0.68,0.0,0.0,0.32,1.0
brussels,1.0,1998,0.91,0.0,0.09,1.0,1.0,1.0,1.0,1.0,1.0,1.0,1.0,1.0,1.0,0.54,0.46,0.68,0.0,0.0,0.32,1.0
flanders,1.0,1998,0.91,0.0,0.09,1.0,1.0,1.0,1.0,1.0,1.0,1.0,1.0,1.0,1.0,0.54,0.46,0.68,0.0,0.0,0.32,1.0
rest-of-world,1.0,1998,0.91,0.0,0.09,1.0,1.0,1.0,1.0,1.0,1.0,1.0,1.0,1.0,1.0,0.54,0.46,0.68,0.0,0.0,0.32,1.0
wallonia,1.0,1998,0.91,0.0,0.09,1.0,1.0,1.0,1.0,1.0,1.0,1.0,1.0,1.0,1.0,0.54,0.46,0.68,0.0,0.0,0.32,1.0
belgium,1.0,1999,0.91,0.0,0.09,1.0,1.0,1.0,1.0,1.0,1.0,1.0,1.0,1.0,1.0,0.54,0.46,0.68,0.0,0.0,0.32,1.0
brussels,1.0,1999,0.91,0.0,0.09,1.0,1.0,1.0,1.0,1.0,1.0,1.0,1.0,1.0,1.0,0.54,0.46,0.68,0.0,0.0,0.32,1.0
flanders,1.0,1999,0.91,0.0,0.09,1.0,1.0,1.0,1.0,1.0,1.0,1.0,1.0,1.0,1.0,0.54,0.46,0.68,0.0,0.0,0.32,1.0
rest-of-world,1.0,1999,0.91,0.0,0.09,1.0,1.0,1.0,1.0,1.0,1.0,1.0,1.0,1.0,1.0,0.54,0.46,0.68,0.0,0.0,0.32,1.0
wallonia,1.0,1999,0.91,0.0,0.09,1.0,1.0,1.0,1.0,1.0,1.0,1.0,1.0,1.0,1.0,0.54,0.46,0.68,0.0,0.0,0.32,1.0
belgium,1.0,2000,0.91,0.0,0.09,1.0,1.0,1.0,1.0,1.0,1.0,1.0,1.0,1.0,1.0,0.54,0.46,0.68,0.0,0.0,0.32,1.0
brussels,1.0,2000,0.91,0.0,0.09,1.0,1.0,1.0,1.0,1.0,1.0,1.0,1.0,1.0,1.0,0.54,0.46,0.68,0.0,0.0,0.32,1.0
flanders,1.0,2000,0.91,0.0,0.09,1.0,1.0,1.0,1.0,1.0,1.0,1.0,1.0,1.0,1.0,0.54,0.46,0.68,0.0,0.0,0.32,1.0
rest-of-world,1.0,2000,0.91,0.0,0.09,1.0,1.0,1.0,1.0,1.0,1.0,1.0,1.0,1.0,1.0,0.54,0.46,0.68,0.0,0.0,0.32,1.0
wallonia,1.0,2000,0.91,0.0,0.09,1.0,1.0,1.0,1.0,1.0,1.0,1.0,1.0,1.0,1.0,0.54,0.46,0.68,0.0,0.0,0.32,1.0
belgium,1.0,2001,0.91,0.0,0.09,1.0,1.0,1.0,1.0,1.0,1.0,1.0,1.0,1.0,1.0,0.54,0.46,0.68,0.0,0.0,0.32,1.0
brussels,1.0,2001,0.91,0.0,0.09,1.0,1.0,1.0,1.0,1.0,1.0,1.0,1.0,1.0,1.0,0.54,0.46,0.68,0.0,0.0,0.32,1.0
flanders,1.0,2001,0.91,0.0,0.09,1.0,1.0,1.0,1.0,1.0,1.0,1.0,1.0,1.0,1.0,0.54,0.46,0.68,0.0,0.0,0.32,1.0
rest-of-world,1.0,2001,0.91,0.0,0.09,1.0,1.0,1.0,1.0,1.0,1.0,1.0,1.0,1.0,1.0,0.54,0.46,0.68,0.0,0.0,0.32,1.0
wallonia,1.0,2001,0.91,0.0,0.09,1.0,1.0,1.0,1.0,1.0,1.0,1.0,1.0,1.0,1.0,0.54,0.46,0.68,0.0,0.0,0.32,1.0
belgium,1.0,2002,0.91,0.0,0.09,1.0,1.0,1.0,1.0,1.0,1.0,1.0,1.0,1.0,1.0,0.54,0.46,0.68,0.0,0.0,0.32,1.0
brussels,1.0,2002,0.91,0.0,0.09,1.0,1.0,1.0,1.0,1.0,1.0,1.0,1.0,1.0,1.0,0.54,0.46,0.68,0.0,0.0,0.32,1.0
flanders,1.0,2002,0.91,0.0,0.09,1.0,1.0,1.0,1.0,1.0,1.0,1.0,1.0,1.0,1.0,0.54,0.46,0.68,0.0,0.0,0.32,1.0
rest-of-world,1.0,2002,0.91,0.0,0.09,1.0,1.0,1.0,1.0,1.0,1.0,1.0,1.0,1.0,1.0,0.54,0.46,0.68,0.0,0.0,0.32,1.0
wallonia,1.0,2002,0.91,0.0,0.09,1.0,1.0,1.0,1.0,1.0,1.0,1.0,1.0,1.0,1.0,0.54,0.46,0.68,0.0,0.0,0.32,1.0
belgium,1.0,2003,0.91,0.0,0.09,1.0,1.0,1.0,1.0,1.0,1.0,1.0,1.0,1.0,1.0,0.54,0.46,0.68,0.0,0.0,0.32,1.0
brussels,1.0,2003,0.91,0.0,0.09,1.0,1.0,1.0,1.0,1.0,1.0,1.0,1.0,1.0,1.0,0.54,0.46,0.68,0.0,0.0,0.32,1.0
flanders,1.0,2003,0.91,0.0,0.09,1.0,1.0,1.0,1.0,1.0,1.0,1.0,1.0,1.0,1.0,0.54,0.46,0.68,0.0,0.0,0.32,1.0
rest-of-world,1.0,2003,0.91,0.0,0.09,1.0,1.0,1.0,1.0,1.0,1.0,1.0,1.0,1.0,1.0,0.54,0.46,0.68,0.0,0.0,0.32,1.0
wallonia,1.0,2003,0.91,0.0,0.09,1.0,1.0,1.0,1.0,1.0,1.0,1.0,1.0,1.0,1.0,0.54,0.46,0.68,0.0,0.0,0.32,1.0
belgium,1.0,2004,0.91,0.0,0.09,1.0,1.0,1.0,1.0,1.0,1.0,1.0,1.0,1.0,1.0,0.54,0.46,0.68,0.0,0.0,0.32,1.0
brussels,1.0,2004,0.91,0.0,0.09,1.0,1.0,1.0,1.0,1.0,1.0,1.0,1.0,1.0,1.0,0.54,0.46,0.68,0.0,0.0,0.32,1.0
flanders,1.0,2004,0.91,0.0,0.09,1.0,1.0,1.0,1.0,1.0,1.0,1.0,1.0,1.0,1.0,0.54,0.46,0.68,0.0,0.0,0.32,1.0
rest-of-world,1.0,2004,0.91,0.0,0.09,1.0,1.0,1.0,1.0,1.0,1.0,1.0,1.0,1.0,1.0,0.54,0.46,0.68,0.0,0.0,0.32,1.0
wallonia,1.0,2004,0.91,0.0,0.09,1.0,1.0,1.0,1.0,1.0,1.0,1.0,1.0,1.0,1.0,0.54,0.46,0.68,0.0,0.0,0.32,1.0
belgium,1.0,2005,0.91,0.0,0.09,1.0,1.0,1.0,1.0,1.0,1.0,1.0,1.0,1.0,1.0,0.54,0.46,0.68,0.0,0.0,0.32,1.0
brussels,1.0,2005,0.91,0.0,0.09,1.0,1.0,1.0,1.0,1.0,1.0,1.0,1.0,1.0,1.0,0.54,0.46,0.68,0.0,0.0,0.32,1.0
flanders,1.0,2005,0.91,0.0,0.09,1.0,1.0,1.0,1.0,1.0,1.0,1.0,1.0,1.0,1.0,0.54,0.46,0.68,0.0,0.0,0.32,1.0
rest-of-world,1.0,2005,0.91,0.0,0.09,1.0,1.0,1.0,1.0,1.0,1.0,1.0,1.0,1.0,1.0,0.54,0.46,0.68,0.0,0.0,0.32,1.0
wallonia,1.0,2005,0.91,0.0,0.09,1.0,1.0,1.0,1.0,1.0,1.0,1.0,1.0,1.0,1.0,0.54,0.46,0.68,0.0,0.0,0.32,1.0
belgium,1.0,2006,0.91,0.0,0.09,1.0,1.0,1.0,1.0,1.0,1.0,1.0,1.0,1.0,1.0,0.54,0.46,0.68,0.0,0.0,0.32,1.0
brussels,1.0,2006,0.91,0.0,0.09,1.0,1.0,1.0,1.0,1.0,1.0,1.0,1.0,1.0,1.0,0.54,0.46,0.68,0.0,0.0,0.32,1.0
flanders,1.0,2006,0.91,0.0,0.09,1.0,1.0,1.0,1.0,1.0,1.0,1.0,1.0,1.0,1.0,0.54,0.46,0.68,0.0,0.0,0.32,1.0
rest-of-world,1.0,2006,0.91,0.0,0.09,1.0,1.0,1.0,1.0,1.0,1.0,1.0,1.0,1.0,1.0,0.54,0.46,0.68,0.0,0.0,0.32,1.0
wallonia,1.0,2006,0.91,0.0,0.09,1.0,1.0,1.0,1.0,1.0,1.0,1.0,1.0,1.0,1.0,0.54,0.46,0.68,0.0,0.0,0.32,1.0
belgium,1.0,2007,0.91,0.0,0.09,1.0,1.0,1.0,1.0,1.0,1.0,1.0,1.0,1.0,1.0,0.54,0.46,0.68,0.0,0.0,0.32,1.0
brussels,1.0,2007,0.91,0.0,0.09,1.0,1.0,1.0,1.0,1.0,1.0,1.0,1.0,1.0,1.0,0.54,0.46,0.68,0.0,0.0,0.32,1.0
flanders,1.0,2007,0.91,0.0,0.09,1.0,1.0,1.0,1.0,1.0,1.0,1.0,1.0,1.0,1.0,0.54,0.46,0.68,0.0,0.0,0.32,1.0
rest-of-world,1.0,2007,0.91,0.0,0.09,1.0,1.0,1.0,1.0,1.0,1.0,1.0,1.0,1.0,1.0,0.54,0.46,0.68,0.0,0.0,0.32,1.0
wallonia,1.0,2007,0.91,0.0,0.09,1.0,1.0,1.0,1.0,1.0,1.0,1.0,1.0,1.0,1.0,0.54,0.46,0.68,0.0,0.0,0.32,1.0
belgium,1.0,2008,0.91,0.0,0.09,1.0,1.0,1.0,1.0,1.0,1.0,1.0,1.0,1.0,1.0,0.54,0.46,0.68,0.0,0.0,0.32,1.0
brussels,1.0,2008,0.91,0.0,0.09,1.0,1.0,1.0,1.0,1.0,1.0,1.0,1.0,1.0,1.0,0.54,0.46,0.68,0.0,0.0,0.32,1.0
flanders,1.0,2008,0.91,0.0,0.09,1.0,1.0,1.0,1.0,1.0,1.0,1.0,1.0,1.0,1.0,0.54,0.46,0.68,0.0,0.0,0.32,1.0
rest-of-world,1.0,2008,0.91,0.0,0.09,1.0,1.0,1.0,1.0,1.0,1.0,1.0,1.0,1.0,1.0,0.54,0.46,0.68,0.0,0.0,0.32,1.0
wallonia,1.0,2008,0.91,0.0,0.09,1.0,1.0,1.0,1.0,1.0,1.0,1.0,1.0,1.0,1.0,0.54,0.46,0.68,0.0,0.0,0.32,1.0
belgium,1.0,2009,0.91,0.0,0.09,1.0,1.0,1.0,1.0,1.0,1.0,1.0,1.0,1.0,1.0,0.54,0.46,0.68,0.0,0.0,0.32,1.0
brussels,1.0,2009,0.91,0.0,0.09,1.0,1.0,1.0,1.0,1.0,1.0,1.0,1.0,1.0,1.0,0.54,0.46,0.68,0.0,0.0,0.32,1.0
flanders,1.0,2009,0.91,0.0,0.09,1.0,1.0,1.0,1.0,1.0,1.0,1.0,1.0,1.0,1.0,0.54,0.46,0.68,0.0,0.0,0.32,1.0
rest-of-world,1.0,2009,0.91,0.0,0.09,1.0,1.0,1.0,1.0,1.0,1.0,1.0,1.0,1.0,1.0,0.54,0.46,0.68,0.0,0.0,0.32,1.0
wallonia,1.0,2009,0.91,0.0,0.09,1.0,1.0,1.0,1.0,1.0,1.0,1.0,1.0,1.0,1.0,0.54,0.46,0.68,0.0,0.0,0.32,1.0
belgium,1.0,2010,0.91,0.0,0.09,1.0,1.0,1.0,1.0,1.0,1.0,1.0,1.0,1.0,1.0,0.54,0.46,0.68,0.0,0.0,0.32,1.0
brussels,1.0,2010,0.91,0.0,0.09,1.0,1.0,1.0,1.0,1.0,1.0,1.0,1.0,1.0,1.0,0.54,0.46,0.68,0.0,0.0,0.32,1.0
flanders,1.0,2010,0.91,0.0,0.09,1.0,1.0,1.0,1.0,1.0,1.0,1.0,1.0,1.0,1.0,0.54,0.46,0.68,0.0,0.0,0.32,1.0
rest-of-world,1.0,2010,0.91,0.0,0.09,1.0,1.0,1.0,1.0,1.0,1.0,1.0,1.0,1.0,1.0,0.54,0.46,0.68,0.0,0.0,0.32,1.0
wallonia,1.0,2010,0.91,0.0,0.09,1.0,1.0,1.0,1.0,1.0,1.0,1.0,1.0,1.0,1.0,0.54,0.46,0.68,0.0,0.0,0.32,1.0
belgium,1.0,2011,0.91,0.0,0.09,1.0,1.0,1.0,1.0,1.0,1.0,1.0,1.0,1.0,1.0,0.54,0.46,0.68,0.0,0.0,0.32,1.0
brussels,1.0,2011,0.91,0.0,0.09,1.0,1.0,1.0,1.0,1.0,1.0,1.0,1.0,1.0,1.0,0.54,0.46,0.68,0.0,0.0,0.32,1.0
flanders,1.0,2011,0.91,0.0,0.09,1.0,1.0,1.0,1.0,1.0,1.0,1.0,1.0,1.0,1.0,0.54,0.46,0.68,0.0,0.0,0.32,1.0
rest-of-world,1.0,2011,0.91,0.0,0.09,1.0,1.0,1.0,1.0,1.0,1.0,1.0,1.0,1.0,1.0,0.54,0.46,0.68,0.0,0.0,0.32,1.0
wallonia,1.0,2011,0.91,0.0,0.09,1.0,1.0,1.0,1.0,1.0,1.0,1.0,1.0,1.0,1.0,0.54,0.46,0.68,0.0,0.0,0.32,1.0
belgium,1.0,2012,0.91,0.0,0.09,1.0,1.0,1.0,1.0,1.0,1.0,1.0,1.0,1.0,1.0,0.54,0.46,0.68,0.0,0.0,0.32,1.0
brussels,1.0,2012,0.91,0.0,0.09,1.0,1.0,1.0,1.0,1.0,1.0,1.0,1.0,1.0,1.0,0.54,0.46,0.68,0.0,0.0,0.32,1.0
flanders,1.0,2012,0.91,0.0,0.09,1.0,1.0,1.0,1.0,1.0,1.0,1.0,1.0,1.0,1.0,0.54,0.46,0.68,0.0,0.0,0.32,1.0
rest-of-world,1.0,2012,0.91,0.0,0.09,1.0,1.0,1.0,1.0,1.0,1.0,1.0,1.0,1.0,1.0,0.54,0.46,0.68,0.0,0.0,0.32,1.0
wallonia,1.0,2012,0.91,0.0,0.09,1.0,1.0,1.0,1.0,1.0,1.0,1.0,1.0,1.0,1.0,0.54,0.46,0.68,0.0,0.0,0.32,1.0
belgium,1.0,2013,0.91,0.0,0.09,1.0,1.0,1.0,1.0,1.0,1.0,1.0,1.0,1.0,1.0,0.54,0.46,0.68,0.0,0.0,0.32,1.0
brussels,1.0,2013,0.91,0.0,0.09,1.0,1.0,1.0,1.0,1.0,1.0,1.0,1.0,1.0,1.0,0.54,0.46,0.68,0.0,0.0,0.32,1.0
flanders,1.0,2013,0.91,0.0,0.09,1.0,1.0,1.0,1.0,1.0,1.0,1.0,1.0,1.0,1.0,0.54,0.46,0.68,0.0,0.0,0.32,1.0
rest-of-world,1.0,2013,0.91,0.0,0.09,1.0,1.0,1.0,1.0,1.0,1.0,1.0,1.0,1.0,1.0,0.54,0.46,0.68,0.0,0.0,0.32,1.0
wallonia,1.0,2013,0.91,0.0,0.09,1.0,1.0,1.0,1.0,1.0,1.0,1.0,1.0,1.0,1.0,0.54,0.46,0.68,0.0,0.0,0.32,1.0
belgium,1.0,2014,0.91,0.0,0.09,1.0,1.0,1.0,1.0,1.0,1.0,1.0,1.0,1.0,1.0,0.54,0.46,0.68,0.0,0.0,0.32,1.0
brussels,1.0,2014,0.91,0.0,0.09,1.0,1.0,1.0,1.0,1.0,1.0,1.0,1.0,1.0,1.0,0.54,0.46,0.68,0.0,0.0,0.32,1.0
flanders,1.0,2014,0.91,0.0,0.09,1.0,1.0,1.0,1.0,1.0,1.0,1.0,1.0,1.0,1.0,0.54,0.46,0.68,0.0,0.0,0.32,1.0
rest-of-world,1.0,2014,0.91,0.0,0.09,1.0,1.0,1.0,1.0,1.0,1.0,1.0,1.0,1.0,1.0,0.54,0.46,0.68,0.0,0.0,0.32,1.0
wallonia,1.0,2014,0.91,0.0,0.09,1.0,1.0,1.0,1.0,1.0,1.0,1.0,1.0,1.0,1.0,0.54,0.46,0.68,0.0,0.0,0.32,1.0
belgium,1.0,2015,0.91,0.0,0.09,1.0,1.0,1.0,1.0,1.0,1.0,1.0,1.0,1.0,1.0,0.54,0.46,0.68,0.0,0.0,0.32,1.0
brussels,1.0,2015,0.91,0.0,0.09,1.0,1.0,1.0,1.0,1.0,1.0,1.0,1.0,1.0,1.0,0.54,0.46,0.68,0.0,0.0,0.32,1.0
flanders,1.0,2015,0.91,0.0,0.09,1.0,1.0,1.0,1.0,1.0,1.0,1.0,1.0,1.0,1.0,0.54,0.46,0.68,0.0,0.0,0.32,1.0
rest-of-world,1.0,2015,0.91,0.0,0.09,1.0,1.0,1.0,1.0,1.0,1.0,1.0,1.0,1.0,1.0,0.54,0.46,0.68,0.0,0.0,0.32,1.0
wallonia,1.0,2015,0.91,0.0,0.09,1.0,1.0,1.0,1.0,1.0,1.0,1.0,1.0,1.0,1.0,0.54,0.46,0.68,0.0,0.0,0.32,1.0
