Country,ots_ind_material-production_aluminium[kt],Years,ots_ind_material-production_cement[kt],ots_ind_material-production_ceramic[kt],ots_ind_material-production_chemical-ammonia[kt],ots_ind_material-production_chemical-chlorine[kt],ots_ind_material-production_chemical-olefin[kt],ots_ind_material-production_chemical-other[kt],ots_ind_material-production_food[kt],ots_ind_material-production_glass[kt],ots_ind_material-production_lime[kt],ots_ind_material-production_non-ferrous[kt],ots_ind_material-production_other-industries[kt],ots_ind_material-production_paper[kt],ots_ind_material-production_steel[kt],ots_ind_material-production_wood[kt]
belgium,200.0,1990,7150.0,3747.9,1047.0,737.6,1916.0,1500.0,7016.412,1341.93,2079.0,1355.6928,5000.0,2123.0,11636.0,500.0
brussels,0.001,1990,7150.0,3747.9,1047.0,737.6,1916.0,1500.0,7016.412,0.0,0.0,1355.6928,5000.0,2123.0,11636.0,500.0
flanders,100.0,1990,7150.0,3747.9,1047.0,737.6,1916.0,1500.0,7016.412,450.64,0.0,1355.6928,5000.0,2123.0,11636.0,500.0
wallonia,100.0,1990,7150.0,3747.9,1047.0,737.6,1916.0,1500.0,7016.412,1730.45,2777.84,1355.6928,5000.0,2123.0,11636.0,500.0
belgium,200.0,1991,7150.0,3747.9,1047.0,737.6,1916.0,1500.0,7016.412,1341.93,2079.0,1355.6928,5000.0,2123.0,11636.0,500.0
brussels,0.001,1991,7150.0,3747.9,1047.0,737.6,1916.0,1500.0,7016.412,0.0,0.0,1355.6928,5000.0,2123.0,11636.0,500.0
flanders,100.0,1991,7150.0,3747.9,1047.0,737.6,1916.0,1500.0,7016.412,450.64,0.0,1355.6928,5000.0,2123.0,11636.0,500.0
wallonia,100.0,1991,7150.0,3747.9,1047.0,737.6,1916.0,1500.0,7016.412,1730.45,2777.84,1355.6928,5000.0,2123.0,11636.0,500.0
belgium,200.0,1992,7150.0,3747.9,1047.0,737.6,1916.0,1500.0,7016.412,1341.93,2079.0,1355.6928,5000.0,2123.0,11636.0,500.0
brussels,0.001,1992,7150.0,3747.9,1047.0,737.6,1916.0,1500.0,7016.412,0.0,0.0,1355.6928,5000.0,2123.0,11636.0,500.0
flanders,100.0,1992,7150.0,3747.9,1047.0,737.6,1916.0,1500.0,7016.412,450.64,0.0,1355.6928,5000.0,2123.0,11636.0,500.0
wallonia,100.0,1992,7150.0,3747.9,1047.0,737.6,1916.0,1500.0,7016.412,1730.45,2777.84,1355.6928,5000.0,2123.0,11636.0,500.0
belgium,200.0,1993,7150.0,3747.9,1047.0,737.6,1916.0,1500.0,7016.412,1341.93,2079.0,1355.6928,5000.0,2123.0,11636.0,500.0
brussels,0.001,1993,7150.0,3747.9,1047.0,737.6,1916.0,1500.0,7016.412,0.0,0.0,1355.6928,5000.0,2123.0,11636.0,500.0
flanders,100.0,1993,7150.0,3747.9,1047.0,737.6,1916.0,1500.0,7016.412,450.64,0.0,1355.6928,5000.0,2123.0,11636.0,500.0
wallonia,100.0,1993,7150.0,3747.9,1047.0,737.6,1916.0,1500.0,7016.412,1730.45,2777.84,1355.6928,5000.0,2123.0,11636.0,500.0
belgium,200.0,1994,7150.0,3747.9,1047.0,737.6,1916.0,1500.0,7016.412,1341.93,2079.0,1355.6928,5000.0,2123.0,11636.0,500.0
brussels,0.001,1994,7150.0,3747.9,1047.0,737.6,1916.0,1500.0,7016.412,0.0,0.0,1355.6928,5000.0,2123.0,11636.0,500.0
flanders,100.0,1994,7150.0,3747.9,1047.0,737.6,1916.0,1500.0,7016.412,450.64,0.0,1355.6928,5000.0,2123.0,11636.0,500.0
wallonia,100.0,1994,7150.0,3747.9,1047.0,737.6,1916.0,1500.0,7016.412,1730.45,2777.84,1355.6928,5000.0,2123.0,11636.0,500.0
belgium,200.0,1995,7150.0,3747.9,1047.0,737.6,1916.0,1500.0,7016.412,1341.93,2079.0,1355.6928,5000.0,2123.0,11636.0,500.0
brussels,0.001,1995,7150.0,3747.9,1047.0,737.6,1916.0,1500.0,7016.412,0.0,0.0,1355.6928,5000.0,2123.0,11636.0,500.0
flanders,100.0,1995,7150.0,3747.9,1047.0,737.6,1916.0,1500.0,7016.412,450.64,0.0,1355.6928,5000.0,2123.0,11636.0,500.0
wallonia,100.0,1995,7150.0,3747.9,1047.0,737.6,1916.0,1500.0,7016.412,1730.45,2777.84,1355.6928,5000.0,2123.0,11636.0,500.0
belgium,200.0,1996,7150.0,3747.9,1047.0,737.6,1916.0,1500.0,7016.412,1341.93,2079.0,1355.6928,5000.0,2123.0,11636.0,500.0
brussels,0.001,1996,7150.0,3747.9,1047.0,737.6,1916.0,1500.0,7016.412,0.0,0.0,1355.6928,5000.0,2123.0,11636.0,500.0
flanders,100.0,1996,7150.0,3747.9,1047.0,737.6,1916.0,1500.0,7016.412,450.64,0.0,1355.6928,5000.0,2123.0,11636.0,500.0
wallonia,100.0,1996,7150.0,3747.9,1047.0,737.6,1916.0,1500.0,7016.412,1730.45,2777.84,1355.6928,5000.0,2123.0,11636.0,500.0
belgium,200.0,1997,7150.0,3747.9,1047.0,737.6,1916.0,1500.0,7016.412,1341.93,2079.0,1355.6928,5000.0,2123.0,11636.0,500.0
brussels,0.001,1997,7150.0,3747.9,1047.0,737.6,1916.0,1500.0,7016.412,0.0,0.0,1355.6928,5000.0,2123.0,11636.0,500.0
flanders,100.0,1997,7150.0,3747.9,1047.0,737.6,1916.0,1500.0,7016.412,450.64,0.0,1355.6928,5000.0,2123.0,11636.0,500.0
wallonia,100.0,1997,7150.0,3747.9,1047.0,737.6,1916.0,1500.0,7016.412,1730.45,2777.84,1355.6928,5000.0,2123.0,11636.0,500.0
belgium,200.0,1998,7150.0,3747.9,1047.0,737.6,1916.0,1500.0,7016.412,1341.93,2079.0,1355.6928,5000.0,2123.0,11636.0,500.0
brussels,0.001,1998,7150.0,3747.9,1047.0,737.6,1916.0,1500.0,7016.412,0.0,0.0,1355.6928,5000.0,2123.0,11636.0,500.0
flanders,100.0,1998,7150.0,3747.9,1047.0,737.6,1916.0,1500.0,7016.412,450.64,0.0,1355.6928,5000.0,2123.0,11636.0,500.0
wallonia,100.0,1998,7150.0,3747.9,1047.0,737.6,1916.0,1500.0,7016.412,1730.45,2777.84,1355.6928,5000.0,2123.0,11636.0,500.0
belgium,200.0,1999,7150.0,3747.9,1047.0,737.6,1916.0,1500.0,7016.412,1341.93,2079.0,1355.6928,5000.0,2123.0,11636.0,500.0
brussels,0.001,1999,7150.0,3747.9,1047.0,737.6,1916.0,1500.0,7016.412,0.0,0.0,1355.6928,5000.0,2123.0,11636.0,500.0
flanders,100.0,1999,7150.0,3747.9,1047.0,737.6,1916.0,1500.0,7016.412,450.64,0.0,1355.6928,5000.0,2123.0,11636.0,500.0
wallonia,100.0,1999,7150.0,3747.9,1047.0,737.6,1916.0,1500.0,7016.412,1730.45,2777.84,1355.6928,5000.0,2123.0,11636.0,500.0
belgium,200.0,2000,7150.0,3747.9,1047.0,737.6,1916.0,1500.0,7016.412,1341.93,2079.0,1355.6928,5000.0,2123.0,11636.0,500.0
brussels,0.001,2000,7150.0,3747.9,1047.0,737.6,1916.0,1500.0,7016.412,0.0,0.0,1355.6928,5000.0,2123.0,11636.0,500.0
flanders,100.0,2000,7150.0,3747.9,1047.0,737.6,1916.0,1500.0,7016.412,450.64,0.0,1355.6928,5000.0,2123.0,11636.0,500.0
wallonia,100.0,2000,7150.0,3747.9,1047.0,737.6,1916.0,1500.0,7016.412,1730.45,2777.84,1355.6928,5000.0,2123.0,11636.0,500.0
belgium,200.0,2001,7157.0,3747.9,1047.0,737.6,1916.0,1500.0,7016.412,1341.93,2079.0,1355.6928,5000.0,2123.0,10762.0,500.0
brussels,0.001,2001,0.0,3747.9,1047.0,737.6,1916.0,1500.0,7016.412,0.0,0.0,1355.6928,5000.0,2123.0,0.0,500.0
flanders,100.0,2001,0.0,3747.9,1047.0,737.6,1916.0,1500.0,7016.412,450.64,0.0,1355.6928,5000.0,2123.0,4226.0,500.0
wallonia,100.0,2001,7157.0,3747.9,1047.0,737.6,1916.0,1500.0,7016.412,1730.45,2777.84,1355.6928,5000.0,2123.0,7343.37,500.0
belgium,200.0,2002,6980.0,3747.9,1047.0,737.6,1916.0,1500.0,7016.412,1341.93,2079.0,1355.6928,5000.0,2123.0,11343.0,500.0
brussels,0.001,2002,0.0,3747.9,1047.0,737.6,1916.0,1500.0,7016.412,0.0,0.0,1355.6928,5000.0,2123.0,0.0,500.0
flanders,100.0,2002,0.0,3747.9,1047.0,737.6,1916.0,1500.0,7016.412,450.64,0.0,1355.6928,5000.0,2123.0,4370.0,500.0
wallonia,100.0,2002,5386.5,3747.9,1047.0,737.6,1916.0,1500.0,7016.412,1730.45,2777.84,1355.6928,5000.0,2123.0,7178.5,500.0
belgium,200.0,2003,6550.0,3747.9,1047.0,737.6,1916.0,1500.0,7016.412,1341.93,2079.0,1355.6928,5000.0,2123.0,11114.0,500.0
brussels,0.001,2003,0.0,3747.9,1047.0,737.6,1916.0,1500.0,7016.412,0.0,0.0,1355.6928,5000.0,2123.0,0.0,500.0
flanders,100.0,2003,0.0,3747.9,1047.0,737.6,1916.0,1500.0,7016.412,450.64,0.0,1355.6928,5000.0,2123.0,3654.0,500.0
wallonia,100.0,2003,5741.69,3747.9,1047.0,737.6,1916.0,1500.0,7016.412,1730.45,2777.84,1355.6928,5000.0,2123.0,6786.74,500.0
belgium,200.0,2004,6715.0,3747.9,1047.0,737.6,1916.0,1500.0,7016.412,1341.93,2079.0,1355.6928,5000.0,2123.0,11698.0,500.0
brussels,0.001,2004,0.0,3747.9,1047.0,737.6,1916.0,1500.0,7016.412,0.0,0.0,1355.6928,5000.0,2123.0,0.0,500.0
flanders,100.0,2004,0.0,3747.9,1047.0,737.6,1916.0,1500.0,7016.412,450.64,0.0,1355.6928,5000.0,2123.0,4026.0,500.0
wallonia,100.0,2004,5732.0,3747.9,1047.0,737.6,1916.0,1500.0,7016.412,1730.45,2777.84,1355.6928,5000.0,2123.0,6289.46,500.0
belgium,200.0,2005,7594.0,3747.9,1047.0,737.6,1916.0,1500.0,7016.412,1341.93,2079.0,1355.6928,5000.0,2123.0,10420.0,500.0
brussels,0.001,2005,0.0,3747.9,1047.0,737.6,1916.0,1500.0,7016.412,0.0,0.0,1355.6928,5000.0,2123.0,0.0,500.0
flanders,100.0,2005,0.0,3747.9,1047.0,737.6,1916.0,1500.0,7016.412,450.64,0.0,1355.6928,5000.0,2123.0,4375.0,500.0
wallonia,100.0,2005,5913.39,3747.9,1047.0,737.6,1916.0,1500.0,7016.412,1730.45,2777.84,1355.6928,5000.0,2123.0,7146.23,500.0
belgium,200.0,2006,8192.0,3747.9,1047.0,737.6,1916.0,1500.0,7016.412,1341.93,2079.0,1355.6928,5000.0,2123.0,11631.0,500.0
brussels,0.001,2006,0.0,3747.9,1047.0,737.6,1916.0,1500.0,7016.412,0.0,0.0,1355.6928,5000.0,2123.0,0.0,500.0
flanders,100.0,2006,0.0,3747.9,1047.0,737.6,1916.0,1500.0,7016.412,450.64,0.0,1355.6928,5000.0,2123.0,4417.0,500.0
wallonia,100.0,2006,6055.16,3747.9,1047.0,737.6,1916.0,1500.0,7016.412,1730.45,2777.84,1355.6928,5000.0,2123.0,7275.39,500.0
belgium,200.0,2007,6930.0,3747.9,1047.0,737.6,1916.0,1500.0,7016.412,1341.93,2079.0,1355.6928,5000.0,2123.0,10692.0,500.0
brussels,0.001,2007,0.0,3747.9,1047.0,737.6,1916.0,1500.0,7016.412,0.0,0.0,1355.6928,5000.0,2123.0,0.0,500.0
flanders,100.0,2007,0.0,3747.9,1047.0,737.6,1916.0,1500.0,7016.412,450.64,0.0,1355.6928,5000.0,2123.0,4513.0,500.0
wallonia,100.0,2007,5606.99,3747.9,1047.0,737.6,1916.0,1500.0,7016.412,1730.45,2777.84,1355.6928,5000.0,2123.0,6341.48,500.0
belgium,200.0,2008,6710.0,3747.9,1047.0,737.6,1916.0,1500.0,7016.412,1341.93,2079.0,1355.6928,5000.0,2123.0,10673.0,500.0
brussels,0.001,2008,0.0,3747.9,1047.0,737.6,1916.0,1500.0,7016.412,0.0,0.0,1355.6928,5000.0,2123.0,0.0,500.0
flanders,100.0,2008,0.0,3747.9,1047.0,737.6,1916.0,1500.0,7016.412,450.64,0.0,1355.6928,5000.0,2123.0,4680.0,500.0
wallonia,100.0,2008,5885.24,3747.9,1047.0,737.6,1916.0,1500.0,7016.412,1730.45,2777.84,1355.6928,5000.0,2123.0,6247.22,500.0
belgium,200.0,2009,5990.0,3747.9,1047.0,737.6,1916.0,1500.0,7016.412,1341.93,2079.0,1355.6928,5000.0,2123.0,5635.0,500.0
brussels,0.001,2009,0.0,3747.9,1047.0,737.6,1916.0,1500.0,7016.412,0.0,0.0,1355.6928,5000.0,2123.0,0.0,500.0
flanders,100.0,2009,0.0,3747.9,1047.0,737.6,1916.0,1500.0,7016.412,450.64,0.0,1355.6928,5000.0,2123.0,4702.0,500.0
wallonia,100.0,2009,5906.37,3747.9,1047.0,737.6,1916.0,1500.0,7016.412,1730.45,2777.84,1355.6928,5000.0,2123.0,6832.98,500.0
belgium,200.0,2010,6095.0,3747.9,1047.0,737.6,1916.0,1500.0,7016.412,1341.93,2079.0,1355.6928,5000.0,2123.0,7973.0,500.0
brussels,0.001,2010,0.0,3747.9,1047.0,737.6,1916.0,1500.0,7016.412,0.0,0.0,1355.6928,5000.0,2123.0,0.0,500.0
flanders,100.0,2010,0.0,3747.9,1047.0,737.6,1916.0,1500.0,7016.412,450.64,0.0,1355.6928,5000.0,2123.0,4793.0,500.0
wallonia,100.0,2010,5799.15,3747.9,1047.0,737.6,1916.0,1500.0,7016.412,1730.45,2777.84,1355.6928,5000.0,2123.0,6680.9,500.0
belgium,200.0,2011,6954.0,3747.9,1047.0,737.6,1916.0,1500.0,7016.412,1341.93,2079.0,1355.6928,5000.0,2123.0,8026.0,500.0
brussels,0.001,2011,0.0,3747.9,1047.0,737.6,1916.0,1500.0,7016.412,0.0,0.0,1355.6928,5000.0,2123.0,0.0,500.0
flanders,100.0,2011,0.0,3747.9,1047.0,737.6,1916.0,1500.0,7016.412,450.64,0.0,1355.6928,5000.0,2123.0,4686.0,500.0
wallonia,100.0,2011,6088.63,3747.9,1047.0,737.6,1916.0,1500.0,7016.412,1730.45,2777.84,1355.6928,5000.0,2123.0,7155.17,500.0
belgium,200.0,2012,6280.0,3747.9,1047.0,737.6,1916.0,1500.0,7016.412,1341.93,2079.0,1355.6928,5000.0,2123.0,7301.0,500.0
brussels,0.001,2012,0.0,3747.9,1047.0,737.6,1916.0,1500.0,7016.412,0.0,0.0,1355.6928,5000.0,2123.0,0.0,500.0
flanders,100.0,2012,0.0,3747.9,1047.0,737.6,1916.0,1500.0,7016.412,450.64,0.0,1355.6928,5000.0,2123.0,3658.0,500.0
wallonia,100.0,2012,5538.84,3747.9,1047.0,737.6,1916.0,1500.0,7016.412,1730.45,2777.84,1355.6928,5000.0,2123.0,7206.57,500.0
belgium,200.0,2013,6119.0,3747.9,1047.0,737.6,1916.0,1500.0,7016.412,1341.93,2079.0,1355.6928,5000.0,2123.0,7093.0,500.0
brussels,0.001,2013,0.0,3747.9,1047.0,737.6,1916.0,1500.0,7016.412,0.0,0.0,1355.6928,5000.0,2123.0,0.0,500.0
flanders,100.0,2013,0.0,3747.9,1047.0,737.6,1916.0,1500.0,7016.412,450.64,0.0,1355.6928,5000.0,2123.0,4620.0,500.0
wallonia,100.0,2013,5582.76,3747.9,1047.0,737.6,1916.0,1500.0,7016.412,1730.45,2777.84,1355.6928,5000.0,2123.0,6934.38,500.0
belgium,200.0,2014,6100.0,3747.9,1047.0,737.6,1916.0,1500.0,7016.412,1341.93,2079.0,1355.6928,5000.0,2123.0,7331.0,500.0
brussels,0.001,2014,0.0,3747.9,1047.0,737.6,1916.0,1500.0,7016.412,0.0,0.0,1355.6928,5000.0,2123.0,0.0,500.0
flanders,100.0,2014,0.0,3747.9,1047.0,737.6,1916.0,1500.0,7016.412,450.64,0.0,1355.6928,5000.0,2123.0,4676.0,500.0
wallonia,100.0,2014,5268.67,3747.9,1047.0,737.6,1916.0,1500.0,7016.412,1730.45,2777.84,1355.6928,5000.0,2123.0,6730.81,500.0
belgium,200.0,2015,4396.0,3747.9,1047.0,737.6,1916.0,1500.0,7016.412,1341.93,2079.0,1355.6928,5000.0,2123.0,7336.0,500.0
brussels,0.001,2015,0.0,3747.9,1047.0,737.6,1916.0,1500.0,7016.412,0.0,0.0,1355.6928,5000.0,2123.0,0.0,500.0
flanders,100.0,2015,0.0,3747.9,1047.0,737.6,1916.0,1500.0,7016.412,450.64,0.0,1355.6928,5000.0,2123.0,5836.0,500.0
wallonia,100.0,2015,4396.0,3747.9,1047.0,737.6,1916.0,1500.0,7016.412,1730.45,2777.84,1355.6928,5000.0,2123.0,6160.22,500.0
