Country,Years,ots_bld_temp-out_Jan[°C],ots_bld_temp-out_Feb[°C],ots_bld_temp-out_Mar[°C],ots_bld_temp-out_Apr[°C],ots_bld_temp-out_May[°C],ots_bld_temp-out_Jun[°C],ots_bld_temp-out_Jul[°C],ots_bld_temp-out_Aug[°C],ots_bld_temp-out_Sep[°C],ots_bld_temp-out_Oct[°C],ots_bld_temp-out_Nov[°C],ots_bld_temp-out_Dec[°C],ots_bld_windspeed_Jan[bf],ots_bld_windspeed_Feb[bf],ots_bld_windspeed_Mar[bf],ots_bld_windspeed_Apr[bf],ots_bld_windspeed_May[bf],ots_bld_windspeed_Jun[bf],ots_bld_windspeed_Jul[bf],ots_bld_windspeed_Aug[bf],ots_bld_windspeed_Sep[bf],ots_bld_windspeed_Oct[bf],ots_bld_windspeed_Nov[bf],ots_bld_windspeed_Dec[bf],ots_bld_solradiation_Jan[W/m2],ots_bld_solradiation_Feb[W/m2],ots_bld_solradiation_Mar[W/m2],ots_bld_solradiation_Apr[W/m2],ots_bld_solradiation_May[W/m2],ots_bld_solradiation_Jun[W/m2],ots_bld_solradiation_Jul[W/m2],ots_bld_solradiation_Aug[W/m2],ots_bld_solradiation_Sep[W/m2],ots_bld_solradiation_Oct[W/m2],ots_bld_solradiation_Nov[W/m2],ots_bld_solradiation_Dec[W/m2]
belgium,1990,4.420593806054967,7.497056989909993,8.255881403247997,8.350028782264985,14.70880389855995,15.19113919127199,17.67942409913496,19.60295532921498,13.15586715398996,12.238266680317,6.155891388537952,3.155858101020954,5.32794937236938,6.88077969460928,4.84359239400903,4.32213039608563,3.26078118748638,3.66622991281397,4.07167494048204,3.24568575699823,3.97525360116772,4.69037584267712,4.09466913587907,4.78760709504701,288.171070308794,286.821239856111,288.069986014031,295.025357654048,313.352712786854,350.073419967352,341.172687508802,355.964056489137,329.655969357958,321.245902016222,298.861665882784,282.807219474546
belgium,1991,2.950018947535966,-0.3970672735650282,8.808803574273952,8.391192626953,10.367653973053,13.24408497529896,19.14410321635597,19.12058313937996,16.04410980822996,10.29115491718699,5.432344503963975,3.261767010624965,4.98883764250681,3.79444076709387,4.25250242783403,4.31557211829167,3.75890024291949,4.53737717095543,3.65962679879263,3.16563446630337,3.50556752471363,3.77638111960503,4.86092910486109,4.1336450310993,272.121878289181,261.824252825825,299.209137078707,293.201482825186,315.792042278022,339.354707366345,364.643004676196,354.037835137441,340.886254942651,319.013563702636,295.060823687385,278.999099210272
belgium,1992,2.391139884238953,4.414707553700964,6.708813279674985,8.73821584664097,15.17355088409499,16.72060792212397,18.214707862811,18.526481579196,14.31470672008999,7.879398550072949,7.544098438935976,3.773529828702976,3.84143553897597,4.11256539096213,4.87730405995696,4.5168562802614,3.89022169981781,3.39621014361288,3.3632000613484,4.19669308811709,4.0848172229879,4.62274459394603,5.26447030913596,4.14513418434693,273.801866506037,279.861359013989,297.916648879223,303.711828134574,328.422253487458,350.297428864124,359.459736311911,363.432040538462,336.685484822591,307.632075532338,304.144590729358,280.582072075223
belgium,1993,4.985302363762969,1.602935355049965,6.067664674472951,11.22060516955798,14.40290768241499,16.520580456304,16.82058469131698,16.08531246293899,13.33820579379199,9.126431801377976,2.685283227059983,4.897055430113994,5.85978904055463,3.3548992378872,3.97582488810993,4.04455468023525,4.0636641060831,3.75283776124319,4.18109585324999,3.569448891808,4.21164164309408,4.61916397667474,3.76366628688925,6.22803262718715,286.557386105156,274.659779428434,276.585992975977,313.55123386757,329.433204317907,345.235784612917,355.312901129533,340.265440620553,340.252429378734,314.934872477059,274.844858805339,293.068565875348
belgium,1994,4.444119905474963,2.302920506580961,7.420553791545956,8.549997187595977,12.54409989242998,16.17941750919096,21.53236290137301,18.073536268086,13.48528352625198,9.81468895001899,10.03234653846897,5.426475186139953,5.63457918234975,3.70415441629265,5.7237684093345,4.60041585295808,3.59920261118851,4.12039127139484,2.75588923296847,3.56742738976198,4.30073896342633,4.33250842578497,3.76699650311003,5.39166839796859,285.531787966415,275.068817459235,296.786772841973,304.965839939491,324.171808753113,340.825488999311,368.737657232122,354.7572817721,341.304366048177,308.287159726108,317.10853433048,286.533654866228
belgium,1995,3.526452914677975,6.332360480812952,5.22058038295296,8.914687332452957,13.20292205520997,14.90296475279598,20.808809828351,20.16767378921099,13.70292190850995,13.36174207539,6.620567291857981,0.7029602166599602,6.19047464274817,5.86352236932065,5.58408877926488,3.96809974651711,3.36145261207161,3.86245038672989,3.08806982121839,3.67134502219068,4.32466981457729,3.59665893535686,4.08878088137683,3.69905099628999,280.269322983454,295.977822696461,278.655470904182,308.939527264763,322.650173874915,341.877801753025,369.009584256775,357.636011344432,338.117054180071,326.229725383491,291.770711023667,272.792993708399
belgium,1996,1.244099938755994,0.8441072104189971,3.544111358236989,9.926480581245983,10.82057374668295,16.232328945983,17.07352966655998,17.44997679042598,12.62061402563995,10.70880685187399,5.361768236346961,0.6323498373009784,4.22905152006891,4.8884252931235,3.69192518975296,3.54286361512016,4.28047332410794,3.30242771775115,3.91142163285721,3.62117241207065,4.00477423925026,4.09341751884464,5.00008030159801,3.76392711973281,270.378804621253,276.009810472841,274.970463327484,300.770756111893,325.289649167142,341.208168418735,346.214227839258,352.532073163896,326.176581648284,318.494433176812,299.538443741144,269.511435781982
belgium,1997,-0.7147090325550494,5.873536579548954,8.22645985206998,8.161756328507977,13.026437105762,15.93237328622899,17.52648372179596,21.08531964354495,14.90882209329095,10.04999713933898,6.902918437882988,4.767659219527957,3.28511844301133,6.03383479599191,3.90007945391892,3.93145866510915,4.13037219626628,3.96887050352844,3.35647505193779,3.02618959099337,3.11802384339127,4.3000550046139,4.41431658805585,5.18784872811478,268.97469412353,290.864815559708,299.809450645375,291.310026969162,321.075160335997,350.612905165728,356.048473553594,372.363617001267,324.567198031556,310.265776603453,301.085673672545,290.628516209872
belgium,1998,4.126446973304951,5.626432864405956,7.279417057507999,8.808818742340975,15.10880619172099,16.197049787933,16.53235247791099,17.57352179105595,14.92059667250697,9.685280347096977,3.502933816348957,4.185278841485967,5.67518311275251,3.8145406206115,4.83382574159235,4.39585993243199,3.6904765937541,4.2503583816921,4.40794916646078,3.35689990841687,4.60322650413887,5.42389299498563,4.01888783527356,5.05655062379602,276.143424973316,279.204144005014,299.898134322049,316.516471802955,332.105949792735,350.913139971565,355.722615598501,347.045230872717,347.727776979933,325.470863530486,285.365081428079,285.281365295063
belgium,1999,4.861744565438983,2.785280256511953,7.344126599653976,9.65585111730195,14.60884163148899,15.397047573912,19.54411216895096,18.12646880466497,17.46765250411698,10.45002931308898,5.83821818033897,4.073557230824974,5.42254677511031,5.0345042953972,4.32233045720963,4.25905676402298,3.80793086310718,3.91309206158507,3.67369650505073,3.53818280013734,4.07747469205482,4.73463607626124,4.46880382790285,5.93955202392202,285.465687934542,278.170060999253,299.54396992345,311.777697574391,332.634868296093,338.047494028129,362.630240742577,358.971836792224,349.204373168945,313.040282855676,293.362032961378,285.155963007368
belgium,2000,3.567639484441997,5.532338332356005,6.791177675076995,10.008830829695,14.80879703065699,16.80294428806695,15.54997084905295,18.42058616218299,15.90293597053096,11.21469269088396,7.626473280962955,5.48528441224596,4.36110717499279,5.19992773141145,4.51297412425336,4.19729353960823,3.81839891595225,3.70611211084852,3.69442127913633,2.91874737101669,3.79682286136291,5.18210452150348,5.85644891449049,5.18050324532294,282.0356523778,285.99773235205,297.931870346504,312.935283436495,340.181537143193,342.040877099131,355.543039745352,355.506674142219,351.112339274089,326.319808988915,300.038078756893,287.592359886676
belgium,2001,3.055886452835978,4.485289770815996,6.102927764949982,7.96762204637696,14.77352316926999,15.62058763690999,18.89703823140297,19.22650971095999,12.92059577493097,14.02059759324595,6.12645006366796,2.355863185353996,4.75484724831988,4.67137200742209,4.37991141978885,4.69663538044574,4.11888456095781,3.59043707076241,3.74888287798503,3.63111285410072,4.40334040230396,4.79718300083783,3.8067282223234,4.51003039652301,277.398733294666,285.224329683961,301.933747496053,309.691808064779,327.644806950549,340.697141101314,365.188814340552,360.742457236013,342.143290022308,331.506106642663,296.634423409256,274.885191944564
belgium,2002,3.761767126441953,6.779403507007999,7.44410438609998,9.532329723881958,13.27941248276699,17.138230566885,17.77352455906396,18.63820556408996,14.58528591978796,10.34998423740996,8.29706073835797,4.097020442028963,5.04825975659676,6.91022712342879,4.13727266376792,4.40683561166127,4.18634746264688,3.73949910939908,3.91579352339033,2.84439494872229,3.53818558033775,4.69535463290604,4.20561444969738,4.44620735889594,282.182944368366,292.458831370378,288.339774549799,296.61342680688,330.65142411118,350.519703285367,359.438269135622,365.814498640781,331.018966914158,320.311230190791,305.442784836713,289.000632269785
belgium,2003,1.955869346778002,2.108810052951981,8.202906072569988,10.197040273629,13.77352096876098,19.02650224274299,19.53823408962899,20.33235642724497,15.35586847043498,7.920612684101002,7.885292801201956,4.202939775093967,5.00364239776836,4.06989994645119,3.75459197599024,4.33915358127332,3.97016276557712,3.20206464155048,3.38632077781706,2.91937605479637,3.13005907745922,4.36943817704181,4.34258852706236,4.60880925917761,273.380419302258,258.973022236544,281.839595034634,298.668727620443,333.395429347,352.713554113052,361.240890531884,353.528215614623,323.839511228075,301.334872714482,299.575815567316,280.072675006439
belgium,2004,3.002909442821988,4.608809254861001,6.097056113429971,10.47940548167497,12.57351750585599,16.22644844803199,17.444102243499,18.97939260869998,15.70294949400699,11.43237330167096,6.179393813188994,2.685298009072994,5.24400638357738,4.79958911418431,4.35405391760071,4.11052061576469,3.27086861739801,3.88766407756245,3.65544320713637,3.99378090135513,4.57667493165708,4.92889956505068,3.64844202364192,3.61012483005053,282.346863401004,281.275436091858,283.193250565647,312.587158502317,318.252956846407,344.254180130304,350.03765272687,365.408479925803,340.188661163928,317.624931031432,298.096277782964,279.794451603175
belgium,2005,4.261779113421994,1.879405571432983,6.497038544106999,10.27353366028996,13.06177217602999,17.94999443502996,18.37938106182196,16.79703786079097,16.379399497836,13.650011234175,6.144137333888978,3.273501337908954,5.27277156456146,4.44622862614504,4.04491330527716,3.7120940358031,4.04150509675947,3.43655303833531,3.73116661452704,3.49374138245773,3.35044975841747,4.44592750570127,4.29689817031225,4.5151922999116,279.016268619776,273.380255915538,293.508441295298,314.377203428979,322.322402403974,346.084874231675,362.479605282054,349.706910743207,341.527809412339,323.72866300116,292.461012268066,282.7345643885
belgium,2006,1.197059147814969,2.03823699951198,4.114687803438983,8.967635569852973,13.86765026693297,17.23820543476199,22.12058360264496,16.40881639513196,18.114733288335,13.85586857080898,8.861756747377001,5.673545267007,3.92189572590352,4.42713345023764,5.01324738768518,4.0895234540397,4.63535186642714,3.03170690443002,3.0879811824386,4.08225785147759,3.63341687263227,4.8713648355437,5.07932586436178,5.16494852836037,265.142605225999,283.804368059174,280.955866920428,303.245438639323,338.736662776013,342.705824190028,364.165657579107,357.844692512527,352.263469441732,334.582391206861,302.203351667816,286.878407458427
belgium,2007,6.655880453554971,6.261759923084981,7.69116884988,12.132371191885,14.44998611363297,17.37350631414699,17.19707646234195,17.314728327539,13.973560348212,10.26763599837295,6.45584148332199,3.661772951997989,6.12467209211563,4.7350761680042,4.70464105533694,3.20517806399102,4.64104549323811,4.01882875409781,4.73166209357513,3.70000090182845,3.83359786412295,3.17723508442149,4.38667432163276,4.92258875917438,293.285966500385,290.865762341924,288.365180781037,295.961094097063,337.569819007019,360.796285651712,356.347011153567,355.930027594376,340.02503937366,318.08446003228,300.326502900965,275.572010858235
belgium,2008,5.808832702057998,5.485274531922983,5.950011245756968,8.826454731061972,15.96764814749599,16.33820094688298,18.07941087292096,17.66175783797996,13.673484832165,10.226480641085,6.620577225030956,2.497059506845005,5.79070693559846,4.42864984455263,5.71940414050499,3.82509769622017,3.5548967464599,3.54602444125157,3.85605183068444,4.3411354532278,4.19850862026215,4.08401566415855,4.62815116760778,3.79655056320965,288.544924249233,277.393979983688,296.417410892146,305.688669182273,335.595777536932,348.276575185738,358.406144375593,359.447010539741,329.455937164905,317.963512789819,304.697140652526,276.661573174782
belgium,2009,0.2205715230109604,2.973536400033993,6.291185087315966,12.05588217342597,14.29707289520195,16.261738556507,18.58529983896898,19.444137046278,15.638229549632,10.87353558476997,9.220576028262997,2.661733053304999,4.23786690293951,3.97989582840134,4.57366154089825,3.42980495013443,3.94363398389074,3.62246078837152,4.10432708353879,3.18809182186959,3.89872193242989,4.10451301677856,6.11891022897234,4.68883037431416,264.402952885492,287.007444910643,286.16267797481,315.198242486692,331.562716055188,342.086147173713,359.513568451101,353.804779631816,337.989833038928,321.841987855973,305.543788775276,279.053684444536
belgium,2010,-0.3617650185860271,1.991160237288,6.085285130307,9.90292627671198,11.00293185326399,17.17941457710998,19.12060537609699,17.17353785476797,13.95585757984799,10.297037223801,5.926452038334958,-0.8206207796559966,3.61643047011555,4.84638971140405,4.85071249591784,3.90865438989565,3.73297414291063,3.3471717135579,3.11557713111393,4.09607884146457,3.62683032844581,4.41365117004293,4.24642325335858,4.3010540705252,272.79034444096,280.172616974646,285.713388982262,293.402533766803,318.462459093705,346.108730061849,355.155310440787,359.444969046953,338.09544803395,316.546835448755,304.256372399424,272.418626644127
belgium,2011,3.332330310683972,4.661771258185979,7.191156573358967,13.008825743432,14.70882422430896,16.71471928615199,16.391149033722,17.56174252707297,16.30883208630098,11.738238363248,8.026463467466954,5.861725803208969,4.50452290653504,4.26359791264815,3.97008665440431,3.40957146649267,3.88420139069349,4.1962720749425,3.65563780781892,3.65922741238487,4.10533130916895,4.35415604772785,3.69110491731588,5.94055432341357,283.111532135299,290.805513654436,282.064647059287,311.702621220607,319.500915295711,350.667844944374,352.498825449645,360.048720994982,346.002572931028,317.964699703557,295.056525705375,290.640759665328
belgium,2012,4.667675642270979,0.1852916910969498,8.526463106505958,7.99118125765898,14.15587773187298,15.43822625852096,17.34410378385496,19.22647450282398,14.43235599293399,10.720576908466,6.832354317458964,4.773524269523989,5.03963705665473,4.07512292151035,3.39187943279404,4.50353397832197,3.84178934807569,4.19871858335009,3.91359488787642,3.64378624057408,3.71527291840198,4.37931513831557,4.34190542697907,5.43281231568932,283.371837377096,265.252544906028,290.523576566345,303.106965278177,332.707836867736,349.441698021982,355.212807179402,357.083100870845,328.277104456284,321.303730162995,299.549415199429,288.71907414069
belgium,2013,1.791161692436958,1.067636005817974,2.708819649567999,8.46765591490498,10.97349785184099,15.59705900304499,20.085293816525,18.70883198399696,14.68526754940297,12.42056861602396,6.202931123620999,5.538221465658978,4.26512065083071,4.36915849161749,4.25274250109236,4.35717660726286,3.92885029248087,4.20105522310033,3.43710993826955,3.14900806189941,3.5613659566524,4.87663735259869,4.42720935835558,5.24431088006926,280.379455884901,273.996632968678,278.518679826943,300.946272936054,328.771629550651,346.180946559532,363.507258029771,356.163923520517,339.841135840323,327.094497709618,301.653168472589,280.825688023721
belgium,2014,5.585291268567971,6.073491662289996,8.755897501704965,12.01470761766598,13.385290758976,16.750004188687,19.33822101397595,16.36762640878896,16.28530004164799,13.302933833721,8.40883406096799,4.708825324562952,5.28191255844522,6.09971398616038,3.63725968940887,3.40744297971912,4.09173392729243,3.26419024186976,3.33161847528063,3.93977470891073,2.97498007288166,4.15508773883335,3.88918446746527,4.88040746004803,285.349759009577,284.006650459867,282.829981505305,314.686097687366,326.639050188734,342.998096660539,369.085783927671,352.34102154321,347.996021166035,330.600243758431,299.274210701737,289.455760137858
belgium,2015,3.597043315734993,3.161748498227951,6.549959730694979,9.744116270775976,12.90292957168396,16.40878924201496,19.39705085537196,19.579425118318,13.71469523112,10.15588051146295,9.579408593270955,8.832373683863977,5.07821531709729,4.37339098739023,4.49971653410787,3.73660890869066,4.1710299144886,3.99344198142781,4.22545070236503,3.41506496948354,4.31759513663311,3.34707233937461,5.61661675981447,5.50567587322257,280.262809217768,275.527937432297,285.242420203772,295.194145741182,324.578530588458,339.276682595646,361.626208658236,364.848619262,331.694157858456,321.167677356351,312.172973094267,292.902772617521
flanders,1990,4.420593806054967,7.497056989909993,8.255881403247997,8.350028782264985,14.70880389855995,15.19113919127199,17.67942409913496,19.60295532921498,13.15586715398996,12.238266680317,6.155891388537952,3.155858101020954,5.32794937236938,6.88077969460928,4.84359239400903,4.32213039608563,3.26078118748638,3.66622991281397,4.07167494048204,3.24568575699823,3.97525360116772,4.69037584267712,4.09466913587907,4.78760709504701,288.171070308794,286.821239856111,288.069986014031,295.025357654048,313.352712786854,350.073419967352,341.172687508802,355.964056489137,329.655969357958,321.245902016222,298.861665882784,282.807219474546
flanders,1991,2.950018947535966,-0.3970672735650282,8.808803574273952,8.391192626953,10.367653973053,13.24408497529896,19.14410321635597,19.12058313937996,16.04410980822996,10.29115491718699,5.432344503963975,3.261767010624965,4.98883764250681,3.79444076709387,4.25250242783403,4.31557211829167,3.75890024291949,4.53737717095543,3.65962679879263,3.16563446630337,3.50556752471363,3.77638111960503,4.86092910486109,4.1336450310993,272.121878289181,261.824252825825,299.209137078707,293.201482825186,315.792042278022,339.354707366345,364.643004676196,354.037835137441,340.886254942651,319.013563702636,295.060823687385,278.999099210272
flanders,1992,2.391139884238953,4.414707553700964,6.708813279674985,8.73821584664097,15.17355088409499,16.72060792212397,18.214707862811,18.526481579196,14.31470672008999,7.879398550072949,7.544098438935976,3.773529828702976,3.84143553897597,4.11256539096213,4.87730405995696,4.5168562802614,3.89022169981781,3.39621014361288,3.3632000613484,4.19669308811709,4.0848172229879,4.62274459394603,5.26447030913596,4.14513418434693,273.801866506037,279.861359013989,297.916648879223,303.711828134574,328.422253487458,350.297428864124,359.459736311911,363.432040538462,336.685484822591,307.632075532338,304.144590729358,280.582072075223
flanders,1993,4.985302363762969,1.602935355049965,6.067664674472951,11.22060516955798,14.40290768241499,16.520580456304,16.82058469131698,16.08531246293899,13.33820579379199,9.126431801377976,2.685283227059983,4.897055430113994,5.85978904055463,3.3548992378872,3.97582488810993,4.04455468023525,4.0636641060831,3.75283776124319,4.18109585324999,3.569448891808,4.21164164309408,4.61916397667474,3.76366628688925,6.22803262718715,286.557386105156,274.659779428434,276.585992975977,313.55123386757,329.433204317907,345.235784612917,355.312901129533,340.265440620553,340.252429378734,314.934872477059,274.844858805339,293.068565875348
flanders,1994,4.444119905474963,2.302920506580961,7.420553791545956,8.549997187595977,12.54409989242998,16.17941750919096,21.53236290137301,18.073536268086,13.48528352625198,9.81468895001899,10.03234653846897,5.426475186139953,5.63457918234975,3.70415441629265,5.7237684093345,4.60041585295808,3.59920261118851,4.12039127139484,2.75588923296847,3.56742738976198,4.30073896342633,4.33250842578497,3.76699650311003,5.39166839796859,285.531787966415,275.068817459235,296.786772841973,304.965839939491,324.171808753113,340.825488999311,368.737657232122,354.7572817721,341.304366048177,308.287159726108,317.10853433048,286.533654866228
flanders,1995,3.526452914677975,6.332360480812952,5.22058038295296,8.914687332452957,13.20292205520997,14.90296475279598,20.808809828351,20.16767378921099,13.70292190850995,13.36174207539,6.620567291857981,0.7029602166599602,6.19047464274817,5.86352236932065,5.58408877926488,3.96809974651711,3.36145261207161,3.86245038672989,3.08806982121839,3.67134502219068,4.32466981457729,3.59665893535686,4.08878088137683,3.69905099628999,280.269322983454,295.977822696461,278.655470904182,308.939527264763,322.650173874915,341.877801753025,369.009584256775,357.636011344432,338.117054180071,326.229725383491,291.770711023667,272.792993708399
flanders,1996,1.244099938755994,0.8441072104189971,3.544111358236989,9.926480581245983,10.82057374668295,16.232328945983,17.07352966655998,17.44997679042598,12.62061402563995,10.70880685187399,5.361768236346961,0.6323498373009784,4.22905152006891,4.8884252931235,3.69192518975296,3.54286361512016,4.28047332410794,3.30242771775115,3.91142163285721,3.62117241207065,4.00477423925026,4.09341751884464,5.00008030159801,3.76392711973281,270.378804621253,276.009810472841,274.970463327484,300.770756111893,325.289649167142,341.208168418735,346.214227839258,352.532073163896,326.176581648284,318.494433176812,299.538443741144,269.511435781982
flanders,1997,-0.7147090325550494,5.873536579548954,8.22645985206998,8.161756328507977,13.026437105762,15.93237328622899,17.52648372179596,21.08531964354495,14.90882209329095,10.04999713933898,6.902918437882988,4.767659219527957,3.28511844301133,6.03383479599191,3.90007945391892,3.93145866510915,4.13037219626628,3.96887050352844,3.35647505193779,3.02618959099337,3.11802384339127,4.3000550046139,4.41431658805585,5.18784872811478,268.97469412353,290.864815559708,299.809450645375,291.310026969162,321.075160335997,350.612905165728,356.048473553594,372.363617001267,324.567198031556,310.265776603453,301.085673672545,290.628516209872
flanders,1998,4.126446973304951,5.626432864405956,7.279417057507999,8.808818742340975,15.10880619172099,16.197049787933,16.53235247791099,17.57352179105595,14.92059667250697,9.685280347096977,3.502933816348957,4.185278841485967,5.67518311275251,3.8145406206115,4.83382574159235,4.39585993243199,3.6904765937541,4.2503583816921,4.40794916646078,3.35689990841687,4.60322650413887,5.42389299498563,4.01888783527356,5.05655062379602,276.143424973316,279.204144005014,299.898134322049,316.516471802955,332.105949792735,350.913139971565,355.722615598501,347.045230872717,347.727776979933,325.470863530486,285.365081428079,285.281365295063
flanders,1999,4.861744565438983,2.785280256511953,7.344126599653976,9.65585111730195,14.60884163148899,15.397047573912,19.54411216895096,18.12646880466497,17.46765250411698,10.45002931308898,5.83821818033897,4.073557230824974,5.42254677511031,5.0345042953972,4.32233045720963,4.25905676402298,3.80793086310718,3.91309206158507,3.67369650505073,3.53818280013734,4.07747469205482,4.73463607626124,4.46880382790285,5.93955202392202,285.465687934542,278.170060999253,299.54396992345,311.777697574391,332.634868296093,338.047494028129,362.630240742577,358.971836792224,349.204373168945,313.040282855676,293.362032961378,285.155963007368
flanders,2000,3.567639484441997,5.532338332356005,6.791177675076995,10.008830829695,14.80879703065699,16.80294428806695,15.54997084905295,18.42058616218299,15.90293597053096,11.21469269088396,7.626473280962955,5.48528441224596,4.36110717499279,5.19992773141145,4.51297412425336,4.19729353960823,3.81839891595225,3.70611211084852,3.69442127913633,2.91874737101669,3.79682286136291,5.18210452150348,5.85644891449049,5.18050324532294,282.0356523778,285.99773235205,297.931870346504,312.935283436495,340.181537143193,342.040877099131,355.543039745352,355.506674142219,351.112339274089,326.319808988915,300.038078756893,287.592359886676
flanders,2001,3.055886452835978,4.485289770815996,6.102927764949982,7.96762204637696,14.77352316926999,15.62058763690999,18.89703823140297,19.22650971095999,12.92059577493097,14.02059759324595,6.12645006366796,2.355863185353996,4.75484724831988,4.67137200742209,4.37991141978885,4.69663538044574,4.11888456095781,3.59043707076241,3.74888287798503,3.63111285410072,4.40334040230396,4.79718300083783,3.8067282223234,4.51003039652301,277.398733294666,285.224329683961,301.933747496053,309.691808064779,327.644806950549,340.697141101314,365.188814340552,360.742457236013,342.143290022308,331.506106642663,296.634423409256,274.885191944564
flanders,2002,3.761767126441953,6.779403507007999,7.44410438609998,9.532329723881958,13.27941248276699,17.138230566885,17.77352455906396,18.63820556408996,14.58528591978796,10.34998423740996,8.29706073835797,4.097020442028963,5.04825975659676,6.91022712342879,4.13727266376792,4.40683561166127,4.18634746264688,3.73949910939908,3.91579352339033,2.84439494872229,3.53818558033775,4.69535463290604,4.20561444969738,4.44620735889594,282.182944368366,292.458831370378,288.339774549799,296.61342680688,330.65142411118,350.519703285367,359.438269135622,365.814498640781,331.018966914158,320.311230190791,305.442784836713,289.000632269785
flanders,2003,1.955869346778002,2.108810052951981,8.202906072569988,10.197040273629,13.77352096876098,19.02650224274299,19.53823408962899,20.33235642724497,15.35586847043498,7.920612684101002,7.885292801201956,4.202939775093967,5.00364239776836,4.06989994645119,3.75459197599024,4.33915358127332,3.97016276557712,3.20206464155048,3.38632077781706,2.91937605479637,3.13005907745922,4.36943817704181,4.34258852706236,4.60880925917761,273.380419302258,258.973022236544,281.839595034634,298.668727620443,333.395429347,352.713554113052,361.240890531884,353.528215614623,323.839511228075,301.334872714482,299.575815567316,280.072675006439
flanders,2004,3.002909442821988,4.608809254861001,6.097056113429971,10.47940548167497,12.57351750585599,16.22644844803199,17.444102243499,18.97939260869998,15.70294949400699,11.43237330167096,6.179393813188994,2.685298009072994,5.24400638357738,4.79958911418431,4.35405391760071,4.11052061576469,3.27086861739801,3.88766407756245,3.65544320713637,3.99378090135513,4.57667493165708,4.92889956505068,3.64844202364192,3.61012483005053,282.346863401004,281.275436091858,283.193250565647,312.587158502317,318.252956846407,344.254180130304,350.03765272687,365.408479925803,340.188661163928,317.624931031432,298.096277782964,279.794451603175
flanders,2005,4.261779113421994,1.879405571432983,6.497038544106999,10.27353366028996,13.06177217602999,17.94999443502996,18.37938106182196,16.79703786079097,16.379399497836,13.650011234175,6.144137333888978,3.273501337908954,5.27277156456146,4.44622862614504,4.04491330527716,3.7120940358031,4.04150509675947,3.43655303833531,3.73116661452704,3.49374138245773,3.35044975841747,4.44592750570127,4.29689817031225,4.5151922999116,279.016268619776,273.380255915538,293.508441295298,314.377203428979,322.322402403974,346.084874231675,362.479605282054,349.706910743207,341.527809412339,323.72866300116,292.461012268066,282.7345643885
flanders,2006,1.197059147814969,2.03823699951198,4.114687803438983,8.967635569852973,13.86765026693297,17.23820543476199,22.12058360264496,16.40881639513196,18.114733288335,13.85586857080898,8.861756747377001,5.673545267007,3.92189572590352,4.42713345023764,5.01324738768518,4.0895234540397,4.63535186642714,3.03170690443002,3.0879811824386,4.08225785147759,3.63341687263227,4.8713648355437,5.07932586436178,5.16494852836037,265.142605225999,283.804368059174,280.955866920428,303.245438639323,338.736662776013,342.705824190028,364.165657579107,357.844692512527,352.263469441732,334.582391206861,302.203351667816,286.878407458427
flanders,2007,6.655880453554971,6.261759923084981,7.69116884988,12.132371191885,14.44998611363297,17.37350631414699,17.19707646234195,17.314728327539,13.973560348212,10.26763599837295,6.45584148332199,3.661772951997989,6.12467209211563,4.7350761680042,4.70464105533694,3.20517806399102,4.64104549323811,4.01882875409781,4.73166209357513,3.70000090182845,3.83359786412295,3.17723508442149,4.38667432163276,4.92258875917438,293.285966500385,290.865762341924,288.365180781037,295.961094097063,337.569819007019,360.796285651712,356.347011153567,355.930027594376,340.02503937366,318.08446003228,300.326502900965,275.572010858235
flanders,2008,5.808832702057998,5.485274531922983,5.950011245756968,8.826454731061972,15.96764814749599,16.33820094688298,18.07941087292096,17.66175783797996,13.673484832165,10.226480641085,6.620577225030956,2.497059506845005,5.79070693559846,4.42864984455263,5.71940414050499,3.82509769622017,3.5548967464599,3.54602444125157,3.85605183068444,4.3411354532278,4.19850862026215,4.08401566415855,4.62815116760778,3.79655056320965,288.544924249233,277.393979983688,296.417410892146,305.688669182273,335.595777536932,348.276575185738,358.406144375593,359.447010539741,329.455937164905,317.963512789819,304.697140652526,276.661573174782
flanders,2009,0.2205715230109604,2.973536400033993,6.291185087315966,12.05588217342597,14.29707289520195,16.261738556507,18.58529983896898,19.444137046278,15.638229549632,10.87353558476997,9.220576028262997,2.661733053304999,4.23786690293951,3.97989582840134,4.57366154089825,3.42980495013443,3.94363398389074,3.62246078837152,4.10432708353879,3.18809182186959,3.89872193242989,4.10451301677856,6.11891022897234,4.68883037431416,264.402952885492,287.007444910643,286.16267797481,315.198242486692,331.562716055188,342.086147173713,359.513568451101,353.804779631816,337.989833038928,321.841987855973,305.543788775276,279.053684444536
flanders,2010,-0.3617650185860271,1.991160237288,6.085285130307,9.90292627671198,11.00293185326399,17.17941457710998,19.12060537609699,17.17353785476797,13.95585757984799,10.297037223801,5.926452038334958,-0.8206207796559966,3.61643047011555,4.84638971140405,4.85071249591784,3.90865438989565,3.73297414291063,3.3471717135579,3.11557713111393,4.09607884146457,3.62683032844581,4.41365117004293,4.24642325335858,4.3010540705252,272.79034444096,280.172616974646,285.713388982262,293.402533766803,318.462459093705,346.108730061849,355.155310440787,359.444969046953,338.09544803395,316.546835448755,304.256372399424,272.418626644127
flanders,2011,3.332330310683972,4.661771258185979,7.191156573358967,13.008825743432,14.70882422430896,16.71471928615199,16.391149033722,17.56174252707297,16.30883208630098,11.738238363248,8.026463467466954,5.861725803208969,4.50452290653504,4.26359791264815,3.97008665440431,3.40957146649267,3.88420139069349,4.1962720749425,3.65563780781892,3.65922741238487,4.10533130916895,4.35415604772785,3.69110491731588,5.94055432341357,283.111532135299,290.805513654436,282.064647059287,311.702621220607,319.500915295711,350.667844944374,352.498825449645,360.048720994982,346.002572931028,317.964699703557,295.056525705375,290.640759665328
flanders,2012,4.667675642270979,0.1852916910969498,8.526463106505958,7.99118125765898,14.15587773187298,15.43822625852096,17.34410378385496,19.22647450282398,14.43235599293399,10.720576908466,6.832354317458964,4.773524269523989,5.03963705665473,4.07512292151035,3.39187943279404,4.50353397832197,3.84178934807569,4.19871858335009,3.91359488787642,3.64378624057408,3.71527291840198,4.37931513831557,4.34190542697907,5.43281231568932,283.371837377096,265.252544906028,290.523576566345,303.106965278177,332.707836867736,349.441698021982,355.212807179402,357.083100870845,328.277104456284,321.303730162995,299.549415199429,288.71907414069
flanders,2013,1.791161692436958,1.067636005817974,2.708819649567999,8.46765591490498,10.97349785184099,15.59705900304499,20.085293816525,18.70883198399696,14.68526754940297,12.42056861602396,6.202931123620999,5.538221465658978,4.26512065083071,4.36915849161749,4.25274250109236,4.35717660726286,3.92885029248087,4.20105522310033,3.43710993826955,3.14900806189941,3.5613659566524,4.87663735259869,4.42720935835558,5.24431088006926,280.379455884901,273.996632968678,278.518679826943,300.946272936054,328.771629550651,346.180946559532,363.507258029771,356.163923520517,339.841135840323,327.094497709618,301.653168472589,280.825688023721
flanders,2014,5.585291268567971,6.073491662289996,8.755897501704965,12.01470761766598,13.385290758976,16.750004188687,19.33822101397595,16.36762640878896,16.28530004164799,13.302933833721,8.40883406096799,4.708825324562952,5.28191255844522,6.09971398616038,3.63725968940887,3.40744297971912,4.09173392729243,3.26419024186976,3.33161847528063,3.93977470891073,2.97498007288166,4.15508773883335,3.88918446746527,4.88040746004803,285.349759009577,284.006650459867,282.829981505305,314.686097687366,326.639050188734,342.998096660539,369.085783927671,352.34102154321,347.996021166035,330.600243758431,299.274210701737,289.455760137858
flanders,2015,3.597043315734993,3.161748498227951,6.549959730694979,9.744116270775976,12.90292957168396,16.40878924201496,19.39705085537196,19.579425118318,13.71469523112,10.15588051146295,9.579408593270955,8.832373683863977,5.07821531709729,4.37339098739023,4.49971653410787,3.73660890869066,4.1710299144886,3.99344198142781,4.22545070236503,3.41506496948354,4.31759513663311,3.34707233937461,5.61661675981447,5.50567587322257,280.262809217768,275.527937432297,285.242420203772,295.194145741182,324.578530588458,339.276682595646,361.626208658236,364.848619262,331.694157858456,321.167677356351,312.172973094267,292.902772617521
wallonia,1990,4.420593806054967,7.497056989909993,8.255881403247997,8.350028782264985,14.70880389855995,15.19113919127199,17.67942409913496,19.60295532921498,13.15586715398996,12.238266680317,6.155891388537952,3.155858101020954,5.32794937236938,6.88077969460928,4.84359239400903,4.32213039608563,3.26078118748638,3.66622991281397,4.07167494048204,3.24568575699823,3.97525360116772,4.69037584267712,4.09466913587907,4.78760709504701,288.171070308794,286.821239856111,288.069986014031,295.025357654048,313.352712786854,350.073419967352,341.172687508802,355.964056489137,329.655969357958,321.245902016222,298.861665882784,282.807219474546
wallonia,1991,2.950018947535966,-0.3970672735650282,8.808803574273952,8.391192626953,10.367653973053,13.24408497529896,19.14410321635597,19.12058313937996,16.04410980822996,10.29115491718699,5.432344503963975,3.261767010624965,4.98883764250681,3.79444076709387,4.25250242783403,4.31557211829167,3.75890024291949,4.53737717095543,3.65962679879263,3.16563446630337,3.50556752471363,3.77638111960503,4.86092910486109,4.1336450310993,272.121878289181,261.824252825825,299.209137078707,293.201482825186,315.792042278022,339.354707366345,364.643004676196,354.037835137441,340.886254942651,319.013563702636,295.060823687385,278.999099210272
wallonia,1992,2.391139884238953,4.414707553700964,6.708813279674985,8.73821584664097,15.17355088409499,16.72060792212397,18.214707862811,18.526481579196,14.31470672008999,7.879398550072949,7.544098438935976,3.773529828702976,3.84143553897597,4.11256539096213,4.87730405995696,4.5168562802614,3.89022169981781,3.39621014361288,3.3632000613484,4.19669308811709,4.0848172229879,4.62274459394603,5.26447030913596,4.14513418434693,273.801866506037,279.861359013989,297.916648879223,303.711828134574,328.422253487458,350.297428864124,359.459736311911,363.432040538462,336.685484822591,307.632075532338,304.144590729358,280.582072075223
wallonia,1993,4.985302363762969,1.602935355049965,6.067664674472951,11.22060516955798,14.40290768241499,16.520580456304,16.82058469131698,16.08531246293899,13.33820579379199,9.126431801377976,2.685283227059983,4.897055430113994,5.85978904055463,3.3548992378872,3.97582488810993,4.04455468023525,4.0636641060831,3.75283776124319,4.18109585324999,3.569448891808,4.21164164309408,4.61916397667474,3.76366628688925,6.22803262718715,286.557386105156,274.659779428434,276.585992975977,313.55123386757,329.433204317907,345.235784612917,355.312901129533,340.265440620553,340.252429378734,314.934872477059,274.844858805339,293.068565875348
wallonia,1994,4.444119905474963,2.302920506580961,7.420553791545956,8.549997187595977,12.54409989242998,16.17941750919096,21.53236290137301,18.073536268086,13.48528352625198,9.81468895001899,10.03234653846897,5.426475186139953,5.63457918234975,3.70415441629265,5.7237684093345,4.60041585295808,3.59920261118851,4.12039127139484,2.75588923296847,3.56742738976198,4.30073896342633,4.33250842578497,3.76699650311003,5.39166839796859,285.531787966415,275.068817459235,296.786772841973,304.965839939491,324.171808753113,340.825488999311,368.737657232122,354.7572817721,341.304366048177,308.287159726108,317.10853433048,286.533654866228
wallonia,1995,3.526452914677975,6.332360480812952,5.22058038295296,8.914687332452957,13.20292205520997,14.90296475279598,20.808809828351,20.16767378921099,13.70292190850995,13.36174207539,6.620567291857981,0.7029602166599602,6.19047464274817,5.86352236932065,5.58408877926488,3.96809974651711,3.36145261207161,3.86245038672989,3.08806982121839,3.67134502219068,4.32466981457729,3.59665893535686,4.08878088137683,3.69905099628999,280.269322983454,295.977822696461,278.655470904182,308.939527264763,322.650173874915,341.877801753025,369.009584256775,357.636011344432,338.117054180071,326.229725383491,291.770711023667,272.792993708399
wallonia,1996,1.244099938755994,0.8441072104189971,3.544111358236989,9.926480581245983,10.82057374668295,16.232328945983,17.07352966655998,17.44997679042598,12.62061402563995,10.70880685187399,5.361768236346961,0.6323498373009784,4.22905152006891,4.8884252931235,3.69192518975296,3.54286361512016,4.28047332410794,3.30242771775115,3.91142163285721,3.62117241207065,4.00477423925026,4.09341751884464,5.00008030159801,3.76392711973281,270.378804621253,276.009810472841,274.970463327484,300.770756111893,325.289649167142,341.208168418735,346.214227839258,352.532073163896,326.176581648284,318.494433176812,299.538443741144,269.511435781982
wallonia,1997,-0.7147090325550494,5.873536579548954,8.22645985206998,8.161756328507977,13.026437105762,15.93237328622899,17.52648372179596,21.08531964354495,14.90882209329095,10.04999713933898,6.902918437882988,4.767659219527957,3.28511844301133,6.03383479599191,3.90007945391892,3.93145866510915,4.13037219626628,3.96887050352844,3.35647505193779,3.02618959099337,3.11802384339127,4.3000550046139,4.41431658805585,5.18784872811478,268.97469412353,290.864815559708,299.809450645375,291.310026969162,321.075160335997,350.612905165728,356.048473553594,372.363617001267,324.567198031556,310.265776603453,301.085673672545,290.628516209872
wallonia,1998,4.126446973304951,5.626432864405956,7.279417057507999,8.808818742340975,15.10880619172099,16.197049787933,16.53235247791099,17.57352179105595,14.92059667250697,9.685280347096977,3.502933816348957,4.185278841485967,5.67518311275251,3.8145406206115,4.83382574159235,4.39585993243199,3.6904765937541,4.2503583816921,4.40794916646078,3.35689990841687,4.60322650413887,5.42389299498563,4.01888783527356,5.05655062379602,276.143424973316,279.204144005014,299.898134322049,316.516471802955,332.105949792735,350.913139971565,355.722615598501,347.045230872717,347.727776979933,325.470863530486,285.365081428079,285.281365295063
wallonia,1999,4.861744565438983,2.785280256511953,7.344126599653976,9.65585111730195,14.60884163148899,15.397047573912,19.54411216895096,18.12646880466497,17.46765250411698,10.45002931308898,5.83821818033897,4.073557230824974,5.42254677511031,5.0345042953972,4.32233045720963,4.25905676402298,3.80793086310718,3.91309206158507,3.67369650505073,3.53818280013734,4.07747469205482,4.73463607626124,4.46880382790285,5.93955202392202,285.465687934542,278.170060999253,299.54396992345,311.777697574391,332.634868296093,338.047494028129,362.630240742577,358.971836792224,349.204373168945,313.040282855676,293.362032961378,285.155963007368
wallonia,2000,3.567639484441997,5.532338332356005,6.791177675076995,10.008830829695,14.80879703065699,16.80294428806695,15.54997084905295,18.42058616218299,15.90293597053096,11.21469269088396,7.626473280962955,5.48528441224596,4.36110717499279,5.19992773141145,4.51297412425336,4.19729353960823,3.81839891595225,3.70611211084852,3.69442127913633,2.91874737101669,3.79682286136291,5.18210452150348,5.85644891449049,5.18050324532294,282.0356523778,285.99773235205,297.931870346504,312.935283436495,340.181537143193,342.040877099131,355.543039745352,355.506674142219,351.112339274089,326.319808988915,300.038078756893,287.592359886676
wallonia,2001,3.055886452835978,4.485289770815996,6.102927764949982,7.96762204637696,14.77352316926999,15.62058763690999,18.89703823140297,19.22650971095999,12.92059577493097,14.02059759324595,6.12645006366796,2.355863185353996,4.75484724831988,4.67137200742209,4.37991141978885,4.69663538044574,4.11888456095781,3.59043707076241,3.74888287798503,3.63111285410072,4.40334040230396,4.79718300083783,3.8067282223234,4.51003039652301,277.398733294666,285.224329683961,301.933747496053,309.691808064779,327.644806950549,340.697141101314,365.188814340552,360.742457236013,342.143290022308,331.506106642663,296.634423409256,274.885191944564
wallonia,2002,3.761767126441953,6.779403507007999,7.44410438609998,9.532329723881958,13.27941248276699,17.138230566885,17.77352455906396,18.63820556408996,14.58528591978796,10.34998423740996,8.29706073835797,4.097020442028963,5.04825975659676,6.91022712342879,4.13727266376792,4.40683561166127,4.18634746264688,3.73949910939908,3.91579352339033,2.84439494872229,3.53818558033775,4.69535463290604,4.20561444969738,4.44620735889594,282.182944368366,292.458831370378,288.339774549799,296.61342680688,330.65142411118,350.519703285367,359.438269135622,365.814498640781,331.018966914158,320.311230190791,305.442784836713,289.000632269785
wallonia,2003,1.955869346778002,2.108810052951981,8.202906072569988,10.197040273629,13.77352096876098,19.02650224274299,19.53823408962899,20.33235642724497,15.35586847043498,7.920612684101002,7.885292801201956,4.202939775093967,5.00364239776836,4.06989994645119,3.75459197599024,4.33915358127332,3.97016276557712,3.20206464155048,3.38632077781706,2.91937605479637,3.13005907745922,4.36943817704181,4.34258852706236,4.60880925917761,273.380419302258,258.973022236544,281.839595034634,298.668727620443,333.395429347,352.713554113052,361.240890531884,353.528215614623,323.839511228075,301.334872714482,299.575815567316,280.072675006439
wallonia,2004,3.002909442821988,4.608809254861001,6.097056113429971,10.47940548167497,12.57351750585599,16.22644844803199,17.444102243499,18.97939260869998,15.70294949400699,11.43237330167096,6.179393813188994,2.685298009072994,5.24400638357738,4.79958911418431,4.35405391760071,4.11052061576469,3.27086861739801,3.88766407756245,3.65544320713637,3.99378090135513,4.57667493165708,4.92889956505068,3.64844202364192,3.61012483005053,282.346863401004,281.275436091858,283.193250565647,312.587158502317,318.252956846407,344.254180130304,350.03765272687,365.408479925803,340.188661163928,317.624931031432,298.096277782964,279.794451603175
wallonia,2005,4.261779113421994,1.879405571432983,6.497038544106999,10.27353366028996,13.06177217602999,17.94999443502996,18.37938106182196,16.79703786079097,16.379399497836,13.650011234175,6.144137333888978,3.273501337908954,5.27277156456146,4.44622862614504,4.04491330527716,3.7120940358031,4.04150509675947,3.43655303833531,3.73116661452704,3.49374138245773,3.35044975841747,4.44592750570127,4.29689817031225,4.5151922999116,279.016268619776,273.380255915538,293.508441295298,314.377203428979,322.322402403974,346.084874231675,362.479605282054,349.706910743207,341.527809412339,323.72866300116,292.461012268066,282.7345643885
wallonia,2006,1.197059147814969,2.03823699951198,4.114687803438983,8.967635569852973,13.86765026693297,17.23820543476199,22.12058360264496,16.40881639513196,18.114733288335,13.85586857080898,8.861756747377001,5.673545267007,3.92189572590352,4.42713345023764,5.01324738768518,4.0895234540397,4.63535186642714,3.03170690443002,3.0879811824386,4.08225785147759,3.63341687263227,4.8713648355437,5.07932586436178,5.16494852836037,265.142605225999,283.804368059174,280.955866920428,303.245438639323,338.736662776013,342.705824190028,364.165657579107,357.844692512527,352.263469441732,334.582391206861,302.203351667816,286.878407458427
wallonia,2007,6.655880453554971,6.261759923084981,7.69116884988,12.132371191885,14.44998611363297,17.37350631414699,17.19707646234195,17.314728327539,13.973560348212,10.26763599837295,6.45584148332199,3.661772951997989,6.12467209211563,4.7350761680042,4.70464105533694,3.20517806399102,4.64104549323811,4.01882875409781,4.73166209357513,3.70000090182845,3.83359786412295,3.17723508442149,4.38667432163276,4.92258875917438,293.285966500385,290.865762341924,288.365180781037,295.961094097063,337.569819007019,360.796285651712,356.347011153567,355.930027594376,340.02503937366,318.08446003228,300.326502900965,275.572010858235
wallonia,2008,5.808832702057998,5.485274531922983,5.950011245756968,8.826454731061972,15.96764814749599,16.33820094688298,18.07941087292096,17.66175783797996,13.673484832165,10.226480641085,6.620577225030956,2.497059506845005,5.79070693559846,4.42864984455263,5.71940414050499,3.82509769622017,3.5548967464599,3.54602444125157,3.85605183068444,4.3411354532278,4.19850862026215,4.08401566415855,4.62815116760778,3.79655056320965,288.544924249233,277.393979983688,296.417410892146,305.688669182273,335.595777536932,348.276575185738,358.406144375593,359.447010539741,329.455937164905,317.963512789819,304.697140652526,276.661573174782
wallonia,2009,0.2205715230109604,2.973536400033993,6.291185087315966,12.05588217342597,14.29707289520195,16.261738556507,18.58529983896898,19.444137046278,15.638229549632,10.87353558476997,9.220576028262997,2.661733053304999,4.23786690293951,3.97989582840134,4.57366154089825,3.42980495013443,3.94363398389074,3.62246078837152,4.10432708353879,3.18809182186959,3.89872193242989,4.10451301677856,6.11891022897234,4.68883037431416,264.402952885492,287.007444910643,286.16267797481,315.198242486692,331.562716055188,342.086147173713,359.513568451101,353.804779631816,337.989833038928,321.841987855973,305.543788775276,279.053684444536
wallonia,2010,-0.3617650185860271,1.991160237288,6.085285130307,9.90292627671198,11.00293185326399,17.17941457710998,19.12060537609699,17.17353785476797,13.95585757984799,10.297037223801,5.926452038334958,-0.8206207796559966,3.61643047011555,4.84638971140405,4.85071249591784,3.90865438989565,3.73297414291063,3.3471717135579,3.11557713111393,4.09607884146457,3.62683032844581,4.41365117004293,4.24642325335858,4.3010540705252,272.79034444096,280.172616974646,285.713388982262,293.402533766803,318.462459093705,346.108730061849,355.155310440787,359.444969046953,338.09544803395,316.546835448755,304.256372399424,272.418626644127
wallonia,2011,3.332330310683972,4.661771258185979,7.191156573358967,13.008825743432,14.70882422430896,16.71471928615199,16.391149033722,17.56174252707297,16.30883208630098,11.738238363248,8.026463467466954,5.861725803208969,4.50452290653504,4.26359791264815,3.97008665440431,3.40957146649267,3.88420139069349,4.1962720749425,3.65563780781892,3.65922741238487,4.10533130916895,4.35415604772785,3.69110491731588,5.94055432341357,283.111532135299,290.805513654436,282.064647059287,311.702621220607,319.500915295711,350.667844944374,352.498825449645,360.048720994982,346.002572931028,317.964699703557,295.056525705375,290.640759665328
wallonia,2012,4.667675642270979,0.1852916910969498,8.526463106505958,7.99118125765898,14.15587773187298,15.43822625852096,17.34410378385496,19.22647450282398,14.43235599293399,10.720576908466,6.832354317458964,4.773524269523989,5.03963705665473,4.07512292151035,3.39187943279404,4.50353397832197,3.84178934807569,4.19871858335009,3.91359488787642,3.64378624057408,3.71527291840198,4.37931513831557,4.34190542697907,5.43281231568932,283.371837377096,265.252544906028,290.523576566345,303.106965278177,332.707836867736,349.441698021982,355.212807179402,357.083100870845,328.277104456284,321.303730162995,299.549415199429,288.71907414069
wallonia,2013,1.791161692436958,1.067636005817974,2.708819649567999,8.46765591490498,10.97349785184099,15.59705900304499,20.085293816525,18.70883198399696,14.68526754940297,12.42056861602396,6.202931123620999,5.538221465658978,4.26512065083071,4.36915849161749,4.25274250109236,4.35717660726286,3.92885029248087,4.20105522310033,3.43710993826955,3.14900806189941,3.5613659566524,4.87663735259869,4.42720935835558,5.24431088006926,280.379455884901,273.996632968678,278.518679826943,300.946272936054,328.771629550651,346.180946559532,363.507258029771,356.163923520517,339.841135840323,327.094497709618,301.653168472589,280.825688023721
wallonia,2014,5.585291268567971,6.073491662289996,8.755897501704965,12.01470761766598,13.385290758976,16.750004188687,19.33822101397595,16.36762640878896,16.28530004164799,13.302933833721,8.40883406096799,4.708825324562952,5.28191255844522,6.09971398616038,3.63725968940887,3.40744297971912,4.09173392729243,3.26419024186976,3.33161847528063,3.93977470891073,2.97498007288166,4.15508773883335,3.88918446746527,4.88040746004803,285.349759009577,284.006650459867,282.829981505305,314.686097687366,326.639050188734,342.998096660539,369.085783927671,352.34102154321,347.996021166035,330.600243758431,299.274210701737,289.455760137858
wallonia,2015,3.597043315734993,3.161748498227951,6.549959730694979,9.744116270775976,12.90292957168396,16.40878924201496,19.39705085537196,19.579425118318,13.71469523112,10.15588051146295,9.579408593270955,8.832373683863977,5.07821531709729,4.37339098739023,4.49971653410787,3.73660890869066,4.1710299144886,3.99344198142781,4.22545070236503,3.41506496948354,4.31759513663311,3.34707233937461,5.61661675981447,5.50567587322257,280.262809217768,275.527937432297,285.242420203772,295.194145741182,324.578530588458,339.276682595646,361.626208658236,364.848619262,331.694157858456,321.167677356351,312.172973094267,292.902772617521
brussels,1990,4.420593806054967,7.497056989909993,8.255881403247997,8.350028782264985,14.70880389855995,15.19113919127199,17.67942409913496,19.60295532921498,13.15586715398996,12.238266680317,6.155891388537952,3.155858101020954,5.32794937236938,6.88077969460928,4.84359239400903,4.32213039608563,3.26078118748638,3.66622991281397,4.07167494048204,3.24568575699823,3.97525360116772,4.69037584267712,4.09466913587907,4.78760709504701,288.171070308794,286.821239856111,288.069986014031,295.025357654048,313.352712786854,350.073419967352,341.172687508802,355.964056489137,329.655969357958,321.245902016222,298.861665882784,282.807219474546
brussels,1991,2.950018947535966,-0.3970672735650282,8.808803574273952,8.391192626953,10.367653973053,13.24408497529896,19.14410321635597,19.12058313937996,16.04410980822996,10.29115491718699,5.432344503963975,3.261767010624965,4.98883764250681,3.79444076709387,4.25250242783403,4.31557211829167,3.75890024291949,4.53737717095543,3.65962679879263,3.16563446630337,3.50556752471363,3.77638111960503,4.86092910486109,4.1336450310993,272.121878289181,261.824252825825,299.209137078707,293.201482825186,315.792042278022,339.354707366345,364.643004676196,354.037835137441,340.886254942651,319.013563702636,295.060823687385,278.999099210272
brussels,1992,2.391139884238953,4.414707553700964,6.708813279674985,8.73821584664097,15.17355088409499,16.72060792212397,18.214707862811,18.526481579196,14.31470672008999,7.879398550072949,7.544098438935976,3.773529828702976,3.84143553897597,4.11256539096213,4.87730405995696,4.5168562802614,3.89022169981781,3.39621014361288,3.3632000613484,4.19669308811709,4.0848172229879,4.62274459394603,5.26447030913596,4.14513418434693,273.801866506037,279.861359013989,297.916648879223,303.711828134574,328.422253487458,350.297428864124,359.459736311911,363.432040538462,336.685484822591,307.632075532338,304.144590729358,280.582072075223
brussels,1993,4.985302363762969,1.602935355049965,6.067664674472951,11.22060516955798,14.40290768241499,16.520580456304,16.82058469131698,16.08531246293899,13.33820579379199,9.126431801377976,2.685283227059983,4.897055430113994,5.85978904055463,3.3548992378872,3.97582488810993,4.04455468023525,4.0636641060831,3.75283776124319,4.18109585324999,3.569448891808,4.21164164309408,4.61916397667474,3.76366628688925,6.22803262718715,286.557386105156,274.659779428434,276.585992975977,313.55123386757,329.433204317907,345.235784612917,355.312901129533,340.265440620553,340.252429378734,314.934872477059,274.844858805339,293.068565875348
brussels,1994,4.444119905474963,2.302920506580961,7.420553791545956,8.549997187595977,12.54409989242998,16.17941750919096,21.53236290137301,18.073536268086,13.48528352625198,9.81468895001899,10.03234653846897,5.426475186139953,5.63457918234975,3.70415441629265,5.7237684093345,4.60041585295808,3.59920261118851,4.12039127139484,2.75588923296847,3.56742738976198,4.30073896342633,4.33250842578497,3.76699650311003,5.39166839796859,285.531787966415,275.068817459235,296.786772841973,304.965839939491,324.171808753113,340.825488999311,368.737657232122,354.7572817721,341.304366048177,308.287159726108,317.10853433048,286.533654866228
brussels,1995,3.526452914677975,6.332360480812952,5.22058038295296,8.914687332452957,13.20292205520997,14.90296475279598,20.808809828351,20.16767378921099,13.70292190850995,13.36174207539,6.620567291857981,0.7029602166599602,6.19047464274817,5.86352236932065,5.58408877926488,3.96809974651711,3.36145261207161,3.86245038672989,3.08806982121839,3.67134502219068,4.32466981457729,3.59665893535686,4.08878088137683,3.69905099628999,280.269322983454,295.977822696461,278.655470904182,308.939527264763,322.650173874915,341.877801753025,369.009584256775,357.636011344432,338.117054180071,326.229725383491,291.770711023667,272.792993708399
brussels,1996,1.244099938755994,0.8441072104189971,3.544111358236989,9.926480581245983,10.82057374668295,16.232328945983,17.07352966655998,17.44997679042598,12.62061402563995,10.70880685187399,5.361768236346961,0.6323498373009784,4.22905152006891,4.8884252931235,3.69192518975296,3.54286361512016,4.28047332410794,3.30242771775115,3.91142163285721,3.62117241207065,4.00477423925026,4.09341751884464,5.00008030159801,3.76392711973281,270.378804621253,276.009810472841,274.970463327484,300.770756111893,325.289649167142,341.208168418735,346.214227839258,352.532073163896,326.176581648284,318.494433176812,299.538443741144,269.511435781982
brussels,1997,-0.7147090325550494,5.873536579548954,8.22645985206998,8.161756328507977,13.026437105762,15.93237328622899,17.52648372179596,21.08531964354495,14.90882209329095,10.04999713933898,6.902918437882988,4.767659219527957,3.28511844301133,6.03383479599191,3.90007945391892,3.93145866510915,4.13037219626628,3.96887050352844,3.35647505193779,3.02618959099337,3.11802384339127,4.3000550046139,4.41431658805585,5.18784872811478,268.97469412353,290.864815559708,299.809450645375,291.310026969162,321.075160335997,350.612905165728,356.048473553594,372.363617001267,324.567198031556,310.265776603453,301.085673672545,290.628516209872
brussels,1998,4.126446973304951,5.626432864405956,7.279417057507999,8.808818742340975,15.10880619172099,16.197049787933,16.53235247791099,17.57352179105595,14.92059667250697,9.685280347096977,3.502933816348957,4.185278841485967,5.67518311275251,3.8145406206115,4.83382574159235,4.39585993243199,3.6904765937541,4.2503583816921,4.40794916646078,3.35689990841687,4.60322650413887,5.42389299498563,4.01888783527356,5.05655062379602,276.143424973316,279.204144005014,299.898134322049,316.516471802955,332.105949792735,350.913139971565,355.722615598501,347.045230872717,347.727776979933,325.470863530486,285.365081428079,285.281365295063
brussels,1999,4.861744565438983,2.785280256511953,7.344126599653976,9.65585111730195,14.60884163148899,15.397047573912,19.54411216895096,18.12646880466497,17.46765250411698,10.45002931308898,5.83821818033897,4.073557230824974,5.42254677511031,5.0345042953972,4.32233045720963,4.25905676402298,3.80793086310718,3.91309206158507,3.67369650505073,3.53818280013734,4.07747469205482,4.73463607626124,4.46880382790285,5.93955202392202,285.465687934542,278.170060999253,299.54396992345,311.777697574391,332.634868296093,338.047494028129,362.630240742577,358.971836792224,349.204373168945,313.040282855676,293.362032961378,285.155963007368
brussels,2000,3.567639484441997,5.532338332356005,6.791177675076995,10.008830829695,14.80879703065699,16.80294428806695,15.54997084905295,18.42058616218299,15.90293597053096,11.21469269088396,7.626473280962955,5.48528441224596,4.36110717499279,5.19992773141145,4.51297412425336,4.19729353960823,3.81839891595225,3.70611211084852,3.69442127913633,2.91874737101669,3.79682286136291,5.18210452150348,5.85644891449049,5.18050324532294,282.0356523778,285.99773235205,297.931870346504,312.935283436495,340.181537143193,342.040877099131,355.543039745352,355.506674142219,351.112339274089,326.319808988915,300.038078756893,287.592359886676
brussels,2001,3.055886452835978,4.485289770815996,6.102927764949982,7.96762204637696,14.77352316926999,15.62058763690999,18.89703823140297,19.22650971095999,12.92059577493097,14.02059759324595,6.12645006366796,2.355863185353996,4.75484724831988,4.67137200742209,4.37991141978885,4.69663538044574,4.11888456095781,3.59043707076241,3.74888287798503,3.63111285410072,4.40334040230396,4.79718300083783,3.8067282223234,4.51003039652301,277.398733294666,285.224329683961,301.933747496053,309.691808064779,327.644806950549,340.697141101314,365.188814340552,360.742457236013,342.143290022308,331.506106642663,296.634423409256,274.885191944564
brussels,2002,3.761767126441953,6.779403507007999,7.44410438609998,9.532329723881958,13.27941248276699,17.138230566885,17.77352455906396,18.63820556408996,14.58528591978796,10.34998423740996,8.29706073835797,4.097020442028963,5.04825975659676,6.91022712342879,4.13727266376792,4.40683561166127,4.18634746264688,3.73949910939908,3.91579352339033,2.84439494872229,3.53818558033775,4.69535463290604,4.20561444969738,4.44620735889594,282.182944368366,292.458831370378,288.339774549799,296.61342680688,330.65142411118,350.519703285367,359.438269135622,365.814498640781,331.018966914158,320.311230190791,305.442784836713,289.000632269785
brussels,2003,1.955869346778002,2.108810052951981,8.202906072569988,10.197040273629,13.77352096876098,19.02650224274299,19.53823408962899,20.33235642724497,15.35586847043498,7.920612684101002,7.885292801201956,4.202939775093967,5.00364239776836,4.06989994645119,3.75459197599024,4.33915358127332,3.97016276557712,3.20206464155048,3.38632077781706,2.91937605479637,3.13005907745922,4.36943817704181,4.34258852706236,4.60880925917761,273.380419302258,258.973022236544,281.839595034634,298.668727620443,333.395429347,352.713554113052,361.240890531884,353.528215614623,323.839511228075,301.334872714482,299.575815567316,280.072675006439
brussels,2004,3.002909442821988,4.608809254861001,6.097056113429971,10.47940548167497,12.57351750585599,16.22644844803199,17.444102243499,18.97939260869998,15.70294949400699,11.43237330167096,6.179393813188994,2.685298009072994,5.24400638357738,4.79958911418431,4.35405391760071,4.11052061576469,3.27086861739801,3.88766407756245,3.65544320713637,3.99378090135513,4.57667493165708,4.92889956505068,3.64844202364192,3.61012483005053,282.346863401004,281.275436091858,283.193250565647,312.587158502317,318.252956846407,344.254180130304,350.03765272687,365.408479925803,340.188661163928,317.624931031432,298.096277782964,279.794451603175
brussels,2005,4.261779113421994,1.879405571432983,6.497038544106999,10.27353366028996,13.06177217602999,17.94999443502996,18.37938106182196,16.79703786079097,16.379399497836,13.650011234175,6.144137333888978,3.273501337908954,5.27277156456146,4.44622862614504,4.04491330527716,3.7120940358031,4.04150509675947,3.43655303833531,3.73116661452704,3.49374138245773,3.35044975841747,4.44592750570127,4.29689817031225,4.5151922999116,279.016268619776,273.380255915538,293.508441295298,314.377203428979,322.322402403974,346.084874231675,362.479605282054,349.706910743207,341.527809412339,323.72866300116,292.461012268066,282.7345643885
brussels,2006,1.197059147814969,2.03823699951198,4.114687803438983,8.967635569852973,13.86765026693297,17.23820543476199,22.12058360264496,16.40881639513196,18.114733288335,13.85586857080898,8.861756747377001,5.673545267007,3.92189572590352,4.42713345023764,5.01324738768518,4.0895234540397,4.63535186642714,3.03170690443002,3.0879811824386,4.08225785147759,3.63341687263227,4.8713648355437,5.07932586436178,5.16494852836037,265.142605225999,283.804368059174,280.955866920428,303.245438639323,338.736662776013,342.705824190028,364.165657579107,357.844692512527,352.263469441732,334.582391206861,302.203351667816,286.878407458427
brussels,2007,6.655880453554971,6.261759923084981,7.69116884988,12.132371191885,14.44998611363297,17.37350631414699,17.19707646234195,17.314728327539,13.973560348212,10.26763599837295,6.45584148332199,3.661772951997989,6.12467209211563,4.7350761680042,4.70464105533694,3.20517806399102,4.64104549323811,4.01882875409781,4.73166209357513,3.70000090182845,3.83359786412295,3.17723508442149,4.38667432163276,4.92258875917438,293.285966500385,290.865762341924,288.365180781037,295.961094097063,337.569819007019,360.796285651712,356.347011153567,355.930027594376,340.02503937366,318.08446003228,300.326502900965,275.572010858235
brussels,2008,5.808832702057998,5.485274531922983,5.950011245756968,8.826454731061972,15.96764814749599,16.33820094688298,18.07941087292096,17.66175783797996,13.673484832165,10.226480641085,6.620577225030956,2.497059506845005,5.79070693559846,4.42864984455263,5.71940414050499,3.82509769622017,3.5548967464599,3.54602444125157,3.85605183068444,4.3411354532278,4.19850862026215,4.08401566415855,4.62815116760778,3.79655056320965,288.544924249233,277.393979983688,296.417410892146,305.688669182273,335.595777536932,348.276575185738,358.406144375593,359.447010539741,329.455937164905,317.963512789819,304.697140652526,276.661573174782
brussels,2009,0.2205715230109604,2.973536400033993,6.291185087315966,12.05588217342597,14.29707289520195,16.261738556507,18.58529983896898,19.444137046278,15.638229549632,10.87353558476997,9.220576028262997,2.661733053304999,4.23786690293951,3.97989582840134,4.57366154089825,3.42980495013443,3.94363398389074,3.62246078837152,4.10432708353879,3.18809182186959,3.89872193242989,4.10451301677856,6.11891022897234,4.68883037431416,264.402952885492,287.007444910643,286.16267797481,315.198242486692,331.562716055188,342.086147173713,359.513568451101,353.804779631816,337.989833038928,321.841987855973,305.543788775276,279.053684444536
brussels,2010,-0.3617650185860271,1.991160237288,6.085285130307,9.90292627671198,11.00293185326399,17.17941457710998,19.12060537609699,17.17353785476797,13.95585757984799,10.297037223801,5.926452038334958,-0.8206207796559966,3.61643047011555,4.84638971140405,4.85071249591784,3.90865438989565,3.73297414291063,3.3471717135579,3.11557713111393,4.09607884146457,3.62683032844581,4.41365117004293,4.24642325335858,4.3010540705252,272.79034444096,280.172616974646,285.713388982262,293.402533766803,318.462459093705,346.108730061849,355.155310440787,359.444969046953,338.09544803395,316.546835448755,304.256372399424,272.418626644127
brussels,2011,3.332330310683972,4.661771258185979,7.191156573358967,13.008825743432,14.70882422430896,16.71471928615199,16.391149033722,17.56174252707297,16.30883208630098,11.738238363248,8.026463467466954,5.861725803208969,4.50452290653504,4.26359791264815,3.97008665440431,3.40957146649267,3.88420139069349,4.1962720749425,3.65563780781892,3.65922741238487,4.10533130916895,4.35415604772785,3.69110491731588,5.94055432341357,283.111532135299,290.805513654436,282.064647059287,311.702621220607,319.500915295711,350.667844944374,352.498825449645,360.048720994982,346.002572931028,317.964699703557,295.056525705375,290.640759665328
brussels,2012,4.667675642270979,0.1852916910969498,8.526463106505958,7.99118125765898,14.15587773187298,15.43822625852096,17.34410378385496,19.22647450282398,14.43235599293399,10.720576908466,6.832354317458964,4.773524269523989,5.03963705665473,4.07512292151035,3.39187943279404,4.50353397832197,3.84178934807569,4.19871858335009,3.91359488787642,3.64378624057408,3.71527291840198,4.37931513831557,4.34190542697907,5.43281231568932,283.371837377096,265.252544906028,290.523576566345,303.106965278177,332.707836867736,349.441698021982,355.212807179402,357.083100870845,328.277104456284,321.303730162995,299.549415199429,288.71907414069
brussels,2013,1.791161692436958,1.067636005817974,2.708819649567999,8.46765591490498,10.97349785184099,15.59705900304499,20.085293816525,18.70883198399696,14.68526754940297,12.42056861602396,6.202931123620999,5.538221465658978,4.26512065083071,4.36915849161749,4.25274250109236,4.35717660726286,3.92885029248087,4.20105522310033,3.43710993826955,3.14900806189941,3.5613659566524,4.87663735259869,4.42720935835558,5.24431088006926,280.379455884901,273.996632968678,278.518679826943,300.946272936054,328.771629550651,346.180946559532,363.507258029771,356.163923520517,339.841135840323,327.094497709618,301.653168472589,280.825688023721
brussels,2014,5.585291268567971,6.073491662289996,8.755897501704965,12.01470761766598,13.385290758976,16.750004188687,19.33822101397595,16.36762640878896,16.28530004164799,13.302933833721,8.40883406096799,4.708825324562952,5.28191255844522,6.09971398616038,3.63725968940887,3.40744297971912,4.09173392729243,3.26419024186976,3.33161847528063,3.93977470891073,2.97498007288166,4.15508773883335,3.88918446746527,4.88040746004803,285.349759009577,284.006650459867,282.829981505305,314.686097687366,326.639050188734,342.998096660539,369.085783927671,352.34102154321,347.996021166035,330.600243758431,299.274210701737,289.455760137858
brussels,2015,3.597043315734993,3.161748498227951,6.549959730694979,9.744116270775976,12.90292957168396,16.40878924201496,19.39705085537196,19.579425118318,13.71469523112,10.15588051146295,9.579408593270955,8.832373683863977,5.07821531709729,4.37339098739023,4.49971653410787,3.73660890869066,4.1710299144886,3.99344198142781,4.22545070236503,3.41506496948354,4.31759513663311,3.34707233937461,5.61661675981447,5.50567587322257,280.262809217768,275.527937432297,285.242420203772,295.194145741182,324.578530588458,339.276682595646,361.626208658236,364.848619262,331.694157858456,321.167677356351,312.172973094267,292.902772617521
rest_of_europe,1990,4.420593806054967,7.497056989909993,8.255881403247997,8.350028782264985,14.70880389855995,15.19113919127199,17.67942409913496,19.60295532921498,13.15586715398996,12.238266680317,6.155891388537952,3.155858101020954,5.32794937236938,6.88077969460928,4.84359239400903,4.32213039608563,3.26078118748638,3.66622991281397,4.07167494048204,3.24568575699823,3.97525360116772,4.69037584267712,4.09466913587907,4.78760709504701,288.171070308794,286.821239856111,288.069986014031,295.025357654048,313.352712786854,350.073419967352,341.172687508802,355.964056489137,329.655969357958,321.245902016222,298.861665882784,282.807219474546
rest_of_europe,1991,2.950018947535966,-0.3970672735650282,8.808803574273952,8.391192626953,10.367653973053,13.24408497529896,19.14410321635597,19.12058313937996,16.04410980822996,10.29115491718699,5.432344503963975,3.261767010624965,4.98883764250681,3.79444076709387,4.25250242783403,4.31557211829167,3.75890024291949,4.53737717095543,3.65962679879263,3.16563446630337,3.50556752471363,3.77638111960503,4.86092910486109,4.1336450310993,272.121878289181,261.824252825825,299.209137078707,293.201482825186,315.792042278022,339.354707366345,364.643004676196,354.037835137441,340.886254942651,319.013563702636,295.060823687385,278.999099210272
rest_of_europe,1992,2.391139884238953,4.414707553700964,6.708813279674985,8.73821584664097,15.17355088409499,16.72060792212397,18.214707862811,18.526481579196,14.31470672008999,7.879398550072949,7.544098438935976,3.773529828702976,3.84143553897597,4.11256539096213,4.87730405995696,4.5168562802614,3.89022169981781,3.39621014361288,3.3632000613484,4.19669308811709,4.0848172229879,4.62274459394603,5.26447030913596,4.14513418434693,273.801866506037,279.861359013989,297.916648879223,303.711828134574,328.422253487458,350.297428864124,359.459736311911,363.432040538462,336.685484822591,307.632075532338,304.144590729358,280.582072075223
rest_of_europe,1993,4.985302363762969,1.602935355049965,6.067664674472951,11.22060516955798,14.40290768241499,16.520580456304,16.82058469131698,16.08531246293899,13.33820579379199,9.126431801377976,2.685283227059983,4.897055430113994,5.85978904055463,3.3548992378872,3.97582488810993,4.04455468023525,4.0636641060831,3.75283776124319,4.18109585324999,3.569448891808,4.21164164309408,4.61916397667474,3.76366628688925,6.22803262718715,286.557386105156,274.659779428434,276.585992975977,313.55123386757,329.433204317907,345.235784612917,355.312901129533,340.265440620553,340.252429378734,314.934872477059,274.844858805339,293.068565875348
rest_of_europe,1994,4.444119905474963,2.302920506580961,7.420553791545956,8.549997187595977,12.54409989242998,16.17941750919096,21.53236290137301,18.073536268086,13.48528352625198,9.81468895001899,10.03234653846897,5.426475186139953,5.63457918234975,3.70415441629265,5.7237684093345,4.60041585295808,3.59920261118851,4.12039127139484,2.75588923296847,3.56742738976198,4.30073896342633,4.33250842578497,3.76699650311003,5.39166839796859,285.531787966415,275.068817459235,296.786772841973,304.965839939491,324.171808753113,340.825488999311,368.737657232122,354.7572817721,341.304366048177,308.287159726108,317.10853433048,286.533654866228
rest_of_europe,1995,3.526452914677975,6.332360480812952,5.22058038295296,8.914687332452957,13.20292205520997,14.90296475279598,20.808809828351,20.16767378921099,13.70292190850995,13.36174207539,6.620567291857981,0.7029602166599602,6.19047464274817,5.86352236932065,5.58408877926488,3.96809974651711,3.36145261207161,3.86245038672989,3.08806982121839,3.67134502219068,4.32466981457729,3.59665893535686,4.08878088137683,3.69905099628999,280.269322983454,295.977822696461,278.655470904182,308.939527264763,322.650173874915,341.877801753025,369.009584256775,357.636011344432,338.117054180071,326.229725383491,291.770711023667,272.792993708399
rest_of_europe,1996,1.244099938755994,0.8441072104189971,3.544111358236989,9.926480581245983,10.82057374668295,16.232328945983,17.07352966655998,17.44997679042598,12.62061402563995,10.70880685187399,5.361768236346961,0.6323498373009784,4.22905152006891,4.8884252931235,3.69192518975296,3.54286361512016,4.28047332410794,3.30242771775115,3.91142163285721,3.62117241207065,4.00477423925026,4.09341751884464,5.00008030159801,3.76392711973281,270.378804621253,276.009810472841,274.970463327484,300.770756111893,325.289649167142,341.208168418735,346.214227839258,352.532073163896,326.176581648284,318.494433176812,299.538443741144,269.511435781982
rest_of_europe,1997,-0.7147090325550494,5.873536579548954,8.22645985206998,8.161756328507977,13.026437105762,15.93237328622899,17.52648372179596,21.08531964354495,14.90882209329095,10.04999713933898,6.902918437882988,4.767659219527957,3.28511844301133,6.03383479599191,3.90007945391892,3.93145866510915,4.13037219626628,3.96887050352844,3.35647505193779,3.02618959099337,3.11802384339127,4.3000550046139,4.41431658805585,5.18784872811478,268.97469412353,290.864815559708,299.809450645375,291.310026969162,321.075160335997,350.612905165728,356.048473553594,372.363617001267,324.567198031556,310.265776603453,301.085673672545,290.628516209872
rest_of_europe,1998,4.126446973304951,5.626432864405956,7.279417057507999,8.808818742340975,15.10880619172099,16.197049787933,16.53235247791099,17.57352179105595,14.92059667250697,9.685280347096977,3.502933816348957,4.185278841485967,5.67518311275251,3.8145406206115,4.83382574159235,4.39585993243199,3.6904765937541,4.2503583816921,4.40794916646078,3.35689990841687,4.60322650413887,5.42389299498563,4.01888783527356,5.05655062379602,276.143424973316,279.204144005014,299.898134322049,316.516471802955,332.105949792735,350.913139971565,355.722615598501,347.045230872717,347.727776979933,325.470863530486,285.365081428079,285.281365295063
rest_of_europe,1999,4.861744565438983,2.785280256511953,7.344126599653976,9.65585111730195,14.60884163148899,15.397047573912,19.54411216895096,18.12646880466497,17.46765250411698,10.45002931308898,5.83821818033897,4.073557230824974,5.42254677511031,5.0345042953972,4.32233045720963,4.25905676402298,3.80793086310718,3.91309206158507,3.67369650505073,3.53818280013734,4.07747469205482,4.73463607626124,4.46880382790285,5.93955202392202,285.465687934542,278.170060999253,299.54396992345,311.777697574391,332.634868296093,338.047494028129,362.630240742577,358.971836792224,349.204373168945,313.040282855676,293.362032961378,285.155963007368
rest_of_europe,2000,3.567639484441997,5.532338332356005,6.791177675076995,10.008830829695,14.80879703065699,16.80294428806695,15.54997084905295,18.42058616218299,15.90293597053096,11.21469269088396,7.626473280962955,5.48528441224596,4.36110717499279,5.19992773141145,4.51297412425336,4.19729353960823,3.81839891595225,3.70611211084852,3.69442127913633,2.91874737101669,3.79682286136291,5.18210452150348,5.85644891449049,5.18050324532294,282.0356523778,285.99773235205,297.931870346504,312.935283436495,340.181537143193,342.040877099131,355.543039745352,355.506674142219,351.112339274089,326.319808988915,300.038078756893,287.592359886676
rest_of_europe,2001,3.055886452835978,4.485289770815996,6.102927764949982,7.96762204637696,14.77352316926999,15.62058763690999,18.89703823140297,19.22650971095999,12.92059577493097,14.02059759324595,6.12645006366796,2.355863185353996,4.75484724831988,4.67137200742209,4.37991141978885,4.69663538044574,4.11888456095781,3.59043707076241,3.74888287798503,3.63111285410072,4.40334040230396,4.79718300083783,3.8067282223234,4.51003039652301,277.398733294666,285.224329683961,301.933747496053,309.691808064779,327.644806950549,340.697141101314,365.188814340552,360.742457236013,342.143290022308,331.506106642663,296.634423409256,274.885191944564
rest_of_europe,2002,3.761767126441953,6.779403507007999,7.44410438609998,9.532329723881958,13.27941248276699,17.138230566885,17.77352455906396,18.63820556408996,14.58528591978796,10.34998423740996,8.29706073835797,4.097020442028963,5.04825975659676,6.91022712342879,4.13727266376792,4.40683561166127,4.18634746264688,3.73949910939908,3.91579352339033,2.84439494872229,3.53818558033775,4.69535463290604,4.20561444969738,4.44620735889594,282.182944368366,292.458831370378,288.339774549799,296.61342680688,330.65142411118,350.519703285367,359.438269135622,365.814498640781,331.018966914158,320.311230190791,305.442784836713,289.000632269785
rest_of_europe,2003,1.955869346778002,2.108810052951981,8.202906072569988,10.197040273629,13.77352096876098,19.02650224274299,19.53823408962899,20.33235642724497,15.35586847043498,7.920612684101002,7.885292801201956,4.202939775093967,5.00364239776836,4.06989994645119,3.75459197599024,4.33915358127332,3.97016276557712,3.20206464155048,3.38632077781706,2.91937605479637,3.13005907745922,4.36943817704181,4.34258852706236,4.60880925917761,273.380419302258,258.973022236544,281.839595034634,298.668727620443,333.395429347,352.713554113052,361.240890531884,353.528215614623,323.839511228075,301.334872714482,299.575815567316,280.072675006439
rest_of_europe,2004,3.002909442821988,4.608809254861001,6.097056113429971,10.47940548167497,12.57351750585599,16.22644844803199,17.444102243499,18.97939260869998,15.70294949400699,11.43237330167096,6.179393813188994,2.685298009072994,5.24400638357738,4.79958911418431,4.35405391760071,4.11052061576469,3.27086861739801,3.88766407756245,3.65544320713637,3.99378090135513,4.57667493165708,4.92889956505068,3.64844202364192,3.61012483005053,282.346863401004,281.275436091858,283.193250565647,312.587158502317,318.252956846407,344.254180130304,350.03765272687,365.408479925803,340.188661163928,317.624931031432,298.096277782964,279.794451603175
rest_of_europe,2005,4.261779113421994,1.879405571432983,6.497038544106999,10.27353366028996,13.06177217602999,17.94999443502996,18.37938106182196,16.79703786079097,16.379399497836,13.650011234175,6.144137333888978,3.273501337908954,5.27277156456146,4.44622862614504,4.04491330527716,3.7120940358031,4.04150509675947,3.43655303833531,3.73116661452704,3.49374138245773,3.35044975841747,4.44592750570127,4.29689817031225,4.5151922999116,279.016268619776,273.380255915538,293.508441295298,314.377203428979,322.322402403974,346.084874231675,362.479605282054,349.706910743207,341.527809412339,323.72866300116,292.461012268066,282.7345643885
rest_of_europe,2006,1.197059147814969,2.03823699951198,4.114687803438983,8.967635569852973,13.86765026693297,17.23820543476199,22.12058360264496,16.40881639513196,18.114733288335,13.85586857080898,8.861756747377001,5.673545267007,3.92189572590352,4.42713345023764,5.01324738768518,4.0895234540397,4.63535186642714,3.03170690443002,3.0879811824386,4.08225785147759,3.63341687263227,4.8713648355437,5.07932586436178,5.16494852836037,265.142605225999,283.804368059174,280.955866920428,303.245438639323,338.736662776013,342.705824190028,364.165657579107,357.844692512527,352.263469441732,334.582391206861,302.203351667816,286.878407458427
rest_of_europe,2007,6.655880453554971,6.261759923084981,7.69116884988,12.132371191885,14.44998611363297,17.37350631414699,17.19707646234195,17.314728327539,13.973560348212,10.26763599837295,6.45584148332199,3.661772951997989,6.12467209211563,4.7350761680042,4.70464105533694,3.20517806399102,4.64104549323811,4.01882875409781,4.73166209357513,3.70000090182845,3.83359786412295,3.17723508442149,4.38667432163276,4.92258875917438,293.285966500385,290.865762341924,288.365180781037,295.961094097063,337.569819007019,360.796285651712,356.347011153567,355.930027594376,340.02503937366,318.08446003228,300.326502900965,275.572010858235
rest_of_europe,2008,5.808832702057998,5.485274531922983,5.950011245756968,8.826454731061972,15.96764814749599,16.33820094688298,18.07941087292096,17.66175783797996,13.673484832165,10.226480641085,6.620577225030956,2.497059506845005,5.79070693559846,4.42864984455263,5.71940414050499,3.82509769622017,3.5548967464599,3.54602444125157,3.85605183068444,4.3411354532278,4.19850862026215,4.08401566415855,4.62815116760778,3.79655056320965,288.544924249233,277.393979983688,296.417410892146,305.688669182273,335.595777536932,348.276575185738,358.406144375593,359.447010539741,329.455937164905,317.963512789819,304.697140652526,276.661573174782
rest_of_europe,2009,0.2205715230109604,2.973536400033993,6.291185087315966,12.05588217342597,14.29707289520195,16.261738556507,18.58529983896898,19.444137046278,15.638229549632,10.87353558476997,9.220576028262997,2.661733053304999,4.23786690293951,3.97989582840134,4.57366154089825,3.42980495013443,3.94363398389074,3.62246078837152,4.10432708353879,3.18809182186959,3.89872193242989,4.10451301677856,6.11891022897234,4.68883037431416,264.402952885492,287.007444910643,286.16267797481,315.198242486692,331.562716055188,342.086147173713,359.513568451101,353.804779631816,337.989833038928,321.841987855973,305.543788775276,279.053684444536
rest_of_europe,2010,-0.3617650185860271,1.991160237288,6.085285130307,9.90292627671198,11.00293185326399,17.17941457710998,19.12060537609699,17.17353785476797,13.95585757984799,10.297037223801,5.926452038334958,-0.8206207796559966,3.61643047011555,4.84638971140405,4.85071249591784,3.90865438989565,3.73297414291063,3.3471717135579,3.11557713111393,4.09607884146457,3.62683032844581,4.41365117004293,4.24642325335858,4.3010540705252,272.79034444096,280.172616974646,285.713388982262,293.402533766803,318.462459093705,346.108730061849,355.155310440787,359.444969046953,338.09544803395,316.546835448755,304.256372399424,272.418626644127
rest_of_europe,2011,3.332330310683972,4.661771258185979,7.191156573358967,13.008825743432,14.70882422430896,16.71471928615199,16.391149033722,17.56174252707297,16.30883208630098,11.738238363248,8.026463467466954,5.861725803208969,4.50452290653504,4.26359791264815,3.97008665440431,3.40957146649267,3.88420139069349,4.1962720749425,3.65563780781892,3.65922741238487,4.10533130916895,4.35415604772785,3.69110491731588,5.94055432341357,283.111532135299,290.805513654436,282.064647059287,311.702621220607,319.500915295711,350.667844944374,352.498825449645,360.048720994982,346.002572931028,317.964699703557,295.056525705375,290.640759665328
rest_of_europe,2012,4.667675642270979,0.1852916910969498,8.526463106505958,7.99118125765898,14.15587773187298,15.43822625852096,17.34410378385496,19.22647450282398,14.43235599293399,10.720576908466,6.832354317458964,4.773524269523989,5.03963705665473,4.07512292151035,3.39187943279404,4.50353397832197,3.84178934807569,4.19871858335009,3.91359488787642,3.64378624057408,3.71527291840198,4.37931513831557,4.34190542697907,5.43281231568932,283.371837377096,265.252544906028,290.523576566345,303.106965278177,332.707836867736,349.441698021982,355.212807179402,357.083100870845,328.277104456284,321.303730162995,299.549415199429,288.71907414069
rest_of_europe,2013,1.791161692436958,1.067636005817974,2.708819649567999,8.46765591490498,10.97349785184099,15.59705900304499,20.085293816525,18.70883198399696,14.68526754940297,12.42056861602396,6.202931123620999,5.538221465658978,4.26512065083071,4.36915849161749,4.25274250109236,4.35717660726286,3.92885029248087,4.20105522310033,3.43710993826955,3.14900806189941,3.5613659566524,4.87663735259869,4.42720935835558,5.24431088006926,280.379455884901,273.996632968678,278.518679826943,300.946272936054,328.771629550651,346.180946559532,363.507258029771,356.163923520517,339.841135840323,327.094497709618,301.653168472589,280.825688023721
rest_of_europe,2014,5.585291268567971,6.073491662289996,8.755897501704965,12.01470761766598,13.385290758976,16.750004188687,19.33822101397595,16.36762640878896,16.28530004164799,13.302933833721,8.40883406096799,4.708825324562952,5.28191255844522,6.09971398616038,3.63725968940887,3.40744297971912,4.09173392729243,3.26419024186976,3.33161847528063,3.93977470891073,2.97498007288166,4.15508773883335,3.88918446746527,4.88040746004803,285.349759009577,284.006650459867,282.829981505305,314.686097687366,326.639050188734,342.998096660539,369.085783927671,352.34102154321,347.996021166035,330.600243758431,299.274210701737,289.455760137858
rest_of_europe,2015,3.597043315734993,3.161748498227951,6.549959730694979,9.744116270775976,12.90292957168396,16.40878924201496,19.39705085537196,19.579425118318,13.71469523112,10.15588051146295,9.579408593270955,8.832373683863977,5.07821531709729,4.37339098739023,4.49971653410787,3.73660890869066,4.1710299144886,3.99344198142781,4.22545070236503,3.41506496948354,4.31759513663311,3.34707233937461,5.61661675981447,5.50567587322257,280.262809217768,275.527937432297,285.242420203772,295.194145741182,324.578530588458,339.276682595646,361.626208658236,364.848619262,331.694157858456,321.167677356351,312.172973094267,292.902772617521
