[{
"lever_pkm":3,
"lever_passenger_modal-share":3,
"lever_passenger_occupancy":3,
"lever_passenger_utilization-rate":3,
"lever_floor-intensity":3,
"lever_heatcool-behaviour_degrees":3,
"lever_appliance-use":3,
"lever_lighting_res":3,
"lever_kcal-req":3,
"lever_diet":3,
"lever_paperpack":3,
"lever_product-substitution-rate":3,
"lever_fwaste":3,
"lever_appliance-own":3,
"lever_freight_demand":3,
"lever_freight_veh-efficiency_new":3,
"lever_freight_technology-share_new_ZEV":3,
"lever_freight_technology-share_new_LEV":3,
"lever_freight_technology-share_new_ZEV-mix":3,
"lever_freight_technology-share_new_LEV-mix":3,
"lever_freight_modal-share":3,
"lever_freight_load-factor":3,
"lever_freight_utilization-rate":3,
"lever_passenger_veh-efficiency_new":3,
"lever_passenger_technology-share_new_ZEV":3,
"lever_passenger_technology-share_new_LEV":3,
"lever_passenger_technology-share_new_ZEV-mix":3,
"lever_passenger_technology-share_new_LEV-mix":3,
"lever_passenger_automation":3,
"lever_electrification":3,
"lever_fuel-mix_biofuel-road":3,
"lever_fuel-mix_biofuel-marine":3,
"lever_fuel-mix_biofuel-aviation":3,
"lever_fuel-mix_efuel-road":3,
"lever_fuel-mix_efuel-marine":3,
"lever_fuel-mix_efuel-IWW":3,
"lever_fuel-mix_efuel-aviation":3,
"lever_building-renovation-rate_residential":3,
"lever_building-renovation-mix_residential":3,
"lever_building-demolition-rate_residential":3,
"lever_building-construction-mix_residential":3,
"lever_energy-need_ECS_residential":3,
"lever_energy-need_lighting_residential":3,
"lever_technology-mix_heating_residential":3,
"lever_technology-mix_cooking_residential":3,
"lever_nonres-floorarea":3,
"lever_building-renovation-rate_non-residential":3,
"lever_building-renovation-mix_non-residential":3,
"lever_building-demolition-rate_non-residential":3,
"lever_building-construction-mix_non-residential":3,
"lever_energy-need_hotwater_non-residential":3,
"lever_energy-need_lighting_non-residential":3,
"lever_technology-mix_heating_non-residential":3,
"lever_technology-mix_cooking_non-residential":3,
"lever_district-heating-share":3,
"lever_fuel-switch_e-gas":3,
"lever_fuel-switch_hydrogen":3,
"lever_fuel-switch_biogas":3,
"lever_energy-efficiency":3,
"lever_energy-efficiency_appliances-all":3,
"lever_link-material-to-activity_steel":3,
"lever_link-material-to-activity_aluminium":3,
"lever_link-material-to-activity_non-ferrous":3,
"lever_link-material-to-activity_cement":3,
"lever_link-material-to-activity_lime":3,
"lever_link-material-to-activity_glass":3,
"lever_link-material-to-activity_ceramic":3,
"lever_link-material-to-activity_chemical-ammonia":3,
"lever_link-material-to-activity_chemical-chlorine":3,
"lever_link-material-to-activity_chemical-olefin":3,
"lever_link-material-to-activity_chemical-other":3,
"lever_link-material-to-activity_paper":3,
"lever_link-material-to-activity_food":3,
"lever_link-material-to-activity_wood":3,
"lever_link-material-to-activity_other-industries":3,
"lever_material-production_steel":3,
"lever_material-production_aluminium":3,
"lever_material-production_non-ferrous":3,
"lever_material-production_cement":3,
"lever_material-production_lime":3,
"lever_material-production_glass":3,
"lever_material-production_ceramic":3,
"lever_material-production_chemical-ammonia":3,
"lever_material-production_chemical-chlorine":3,
"lever_material-production_chemical-olefin":3,
"lever_material-production_chemical-other":3,
"lever_material-production_paper":3,
"lever_material-production_food":3,
"lever_material-production_wood":3,
"lever_material-production_other-industries":3,
"lever_material-efficiency":3,
"lever_material-switch":3,
"lever_technology-share":3,
"lever_technology-development":3,
"lever_energy-carrier-switch_others":3,
"lever_energy-carrier-switch_efuels":3,
"lever_energy-carrier-switch_hydrogen":3,
"lever_CC_steel":3,
"lever_CC_aluminium":3,
"lever_CC_non-ferrous":3,
"lever_CC_cement":3,
"lever_CC_lime":3,
"lever_CC_glass":3,
"lever_CC_ceramic":3,
"lever_CC_chemical-ammonia":3,
"lever_CC_chemical-chlorine":3,
"lever_CC_chemical-olefin":3,
"lever_CC_chemical-other":3,
"lever_CC_paper":3,
"lever_CC_food":3,
"lever_CC_wood":3,
"lever_CC_other-industries":3,
"lever_capacity_fossil":3,
"lever_ccs":3,
"lever_capacity_nuclear":3,
"lever_capacity_RES_wind-onshore":3,
"lever_capacity_RES_wind-offshore":3,
"lever_capacity_RES_biomass":3,
"lever_capacity_RES_waste":3,
"lever_capacity_RES_solar-pv":3,
"lever_capacity_RES_other":3,
"lever_efficiency-imp":3,
"lever_gas-switch-to-zero-emissions-gas":3,
"lever_direct-air-capture":3,
"lever_technology-share_heat":3,
"lever_fuel-production":3,
"lever_energy-carrier-switch_refineries":3,
"lever_refinery-CCS-ratio":3,
"lever_link-refineries-to-activity":3,
"lever_climate-smart-crop":3,
"lever_climate-smart-fisheries":3,
"lever_climate-smart-forestry":3,
"lever_alt-protein":3,
"lever_biomass-hierarchy":3,
"lever_land-man":3,
"lever_climate-smart-livestock":3,
"lever_land-prioritisation":2,
"lever_bioenergy-import-emissions_gas":3,
"lever_bioenergy-import-emissions_liquid":3,
"lever_bioenergy-import-emissions_solid":3,
"lever_energy-efficiency_agr":3,
"lever_water-man":3,
"lever_pop":3,
"lever_urbpop":3,
"lever_household-size":3,
"lever_temp":3,
"lever_food-net-import":3,
"lever_product-net-import":3,
"lever_material-net-import":3,
"lever_energy-net-import_electricity":3,
"lever_energy-net-import_fossil":3,
"lever_energy-net-import_heat":3,
"lever_energy-net-import_hydrogen":3,
"lever_energy-net-import_efuels":3
} ]

















